3628867031;"instrumentos_musicales/Categorías"
4965350031;"instrumentos_musicales/Categorías/Accesorios para músicos y producción musical"
4965363031;"instrumentos_musicales/Categorías/Accesorios para músicos y producción musical/Afinadores"
4965365031;"instrumentos_musicales/Categorías/Accesorios para músicos y producción musical/Atriles"
4965366031;"instrumentos_musicales/Categorías/Accesorios para músicos y producción musical/Atriles de lira"
4965367031;"instrumentos_musicales/Categorías/Accesorios para músicos y producción musical/Batutas de director"
4965368031;"instrumentos_musicales/Categorías/Accesorios para músicos y producción musical/Cables y conectores"
4965537031;"instrumentos_musicales/Categorías/Accesorios para músicos y producción musical/Cables y conectores/Cables de alimentación"
4965538031;"instrumentos_musicales/Categorías/Accesorios para músicos y producción musical/Cables y conectores/Cables de interfaz digital"
4965536031;"instrumentos_musicales/Categorías/Accesorios para músicos y producción musical/Cables y conectores/Cables MIDI"
4965539031;"instrumentos_musicales/Categorías/Accesorios para músicos y producción musical/Cables y conectores/Cables multicore"
934071031;"instrumentos_musicales/Categorías/Accesorios para músicos y producción musical/Cables y conectores/Cables para altavoces"
4965541031;"instrumentos_musicales/Categorías/Accesorios para músicos y producción musical/Cables y conectores/Cables para instrumentos"
4965542031;"instrumentos_musicales/Categorías/Accesorios para músicos y producción musical/Cables y conectores/Cables para micrófono"
4965543031;"instrumentos_musicales/Categorías/Accesorios para músicos y producción musical/Cables y conectores/Cables patch"
4965370031;"instrumentos_musicales/Categorías/Accesorios para músicos y producción musical/Carpetas para partituras"
4965371031;"instrumentos_musicales/Categorías/Accesorios para músicos y producción musical/Lámparas para atril"
4965372031;"instrumentos_musicales/Categorías/Accesorios para músicos y producción musical/Metrónomos"
4965374031;"instrumentos_musicales/Categorías/Accesorios para músicos y producción musical/Papel pautado"
4965351031;"instrumentos_musicales/Categorías/Bajos y accesorios"
4965378031;"instrumentos_musicales/Categorías/Bajos y accesorios/Accesorios"
4965363031;"instrumentos_musicales/Categorías/Bajos y accesorios/Accesorios/Afinadores"
4965541031;"instrumentos_musicales/Categorías/Bajos y accesorios/Accesorios/Cables para instrumentos"
4965545031;"instrumentos_musicales/Categorías/Bajos y accesorios/Accesorios/Correas"
4965546031;"instrumentos_musicales/Categorías/Bajos y accesorios/Accesorios/Cuerdas"
4965547031;"instrumentos_musicales/Categorías/Bajos y accesorios/Accesorios/Estuches"
4965575031;"instrumentos_musicales/Categorías/Bajos y accesorios/Accesorios/Estuches para pedales y efectos"
4965548031;"instrumentos_musicales/Categorías/Bajos y accesorios/Accesorios/Fundas"
4965579031;"instrumentos_musicales/Categorías/Bajos y accesorios/Accesorios/Limpieza y cuidado"
4965549031;"instrumentos_musicales/Categorías/Bajos y accesorios/Accesorios/Piezas y repuestos"
4965582031;"instrumentos_musicales/Categorías/Bajos y accesorios/Accesorios/Púas y portapúas"
4965781031;"instrumentos_musicales/Categorías/Bajos y accesorios/Accesorios/Púas y portapúas/Portapúas"
4965782031;"instrumentos_musicales/Categorías/Bajos y accesorios/Accesorios/Púas y portapúas/Púas"
4965585031;"instrumentos_musicales/Categorías/Bajos y accesorios/Accesorios/Soportes"
4965379031;"instrumentos_musicales/Categorías/Bajos y accesorios/Amplificadores"
4965550031;"instrumentos_musicales/Categorías/Bajos y accesorios/Amplificadores/Bafles"
4965551031;"instrumentos_musicales/Categorías/Bajos y accesorios/Amplificadores/Cabezales"
4965552031;"instrumentos_musicales/Categorías/Bajos y accesorios/Amplificadores/Combos"
4965553031;"instrumentos_musicales/Categorías/Bajos y accesorios/Amplificadores/Etapas de potencia"
4965554031;"instrumentos_musicales/Categorías/Bajos y accesorios/Amplificadores/Previos"
4965555031;"instrumentos_musicales/Categorías/Bajos y accesorios/Amplificadores/Stacks"
4965380031;"instrumentos_musicales/Categorías/Bajos y accesorios/Bajos acústicos"
4965381031;"instrumentos_musicales/Categorías/Bajos y accesorios/Bajos eléctricos"
4965383031;"instrumentos_musicales/Categorías/Bajos y accesorios/Efectos"
4965557031;"instrumentos_musicales/Categorías/Bajos y accesorios/Efectos/Distorsión y overdrive"
4965596031;"instrumentos_musicales/Categorías/Bajos y accesorios/Efectos/Eco, delay y reverb"
4965599031;"instrumentos_musicales/Categorías/Bajos y accesorios/Efectos/Loopers y samplers"
4965559031;"instrumentos_musicales/Categorías/Bajos y accesorios/Efectos/Modulación"
4965560031;"instrumentos_musicales/Categorías/Bajos y accesorios/Efectos/Multiefectos"
4965603031;"instrumentos_musicales/Categorías/Bajos y accesorios/Efectos/Puertas de ruido"
4965562031;"instrumentos_musicales/Categorías/Bajos y accesorios/Efectos/WahWah y filtros"
4965384031;"instrumentos_musicales/Categorías/Bajos y accesorios/Kits"
4965352031;"instrumentos_musicales/Categorías/Equipo de DJ y VJ"
4965385031;"instrumentos_musicales/Categorías/Equipo de DJ y VJ/Auriculares"
4965368031;"instrumentos_musicales/Categorías/Equipo de DJ y VJ/Cables y conectores"
4965537031;"instrumentos_musicales/Categorías/Equipo de DJ y VJ/Cables y conectores/Cables de alimentación"
4965538031;"instrumentos_musicales/Categorías/Equipo de DJ y VJ/Cables y conectores/Cables de interfaz digital"
4965536031;"instrumentos_musicales/Categorías/Equipo de DJ y VJ/Cables y conectores/Cables MIDI"
4965539031;"instrumentos_musicales/Categorías/Equipo de DJ y VJ/Cables y conectores/Cables multicore"
934071031;"instrumentos_musicales/Categorías/Equipo de DJ y VJ/Cables y conectores/Cables para altavoces"
4965541031;"instrumentos_musicales/Categorías/Equipo de DJ y VJ/Cables y conectores/Cables para instrumentos"
4965542031;"instrumentos_musicales/Categorías/Equipo de DJ y VJ/Cables y conectores/Cables para micrófono"
4965543031;"instrumentos_musicales/Categorías/Equipo de DJ y VJ/Cables y conectores/Cables patch"
934075031;"instrumentos_musicales/Categorías/Equipo de DJ y VJ/Cartuchos fonocaptores y agujas para tocadiscos"
934076031;"instrumentos_musicales/Categorías/Equipo de DJ y VJ/Cartuchos fonocaptores y agujas para tocadiscos/Agujas"
934077031;"instrumentos_musicales/Categorías/Equipo de DJ y VJ/Cartuchos fonocaptores y agujas para tocadiscos/Cartuchos fonocaptores"
4965386031;"instrumentos_musicales/Categorías/Equipo de DJ y VJ/Controladores de DJ"
4965387031;"instrumentos_musicales/Categorías/Equipo de DJ y VJ/Correas para tocadiscos"
4965390031;"instrumentos_musicales/Categorías/Equipo de DJ y VJ/Fundas, estuches y racks"
4965391031;"instrumentos_musicales/Categorías/Equipo de DJ y VJ/Mesas de mezclas"
4965358031;"instrumentos_musicales/Categorías/Equipo de DJ y VJ/Micrófonos"
4965496031;"instrumentos_musicales/Categorías/Equipo de DJ y VJ/Micrófonos/Accesorios"
4965542031;"instrumentos_musicales/Categorías/Equipo de DJ y VJ/Micrófonos/Accesorios/Cables para micrófono"
4965659031;"instrumentos_musicales/Categorías/Equipo de DJ y VJ/Micrófonos/Accesorios/Fundas y estuches"
4965660031;"instrumentos_musicales/Categorías/Equipo de DJ y VJ/Micrófonos/Accesorios/Pantallas antiviento y filtros anti-pop"
4965661031;"instrumentos_musicales/Categorías/Equipo de DJ y VJ/Micrófonos/Accesorios/Pinzas y soportes"
4965664031;"instrumentos_musicales/Categorías/Equipo de DJ y VJ/Micrófonos/Accesorios/Soportes y pies"
4965497031;"instrumentos_musicales/Categorías/Equipo de DJ y VJ/Micrófonos/Micrófonos de cinta"
4965498031;"instrumentos_musicales/Categorías/Equipo de DJ y VJ/Micrófonos/Micrófonos de condensador"
4965499031;"instrumentos_musicales/Categorías/Equipo de DJ y VJ/Micrófonos/Micrófonos dinámicos"
4965500031;"instrumentos_musicales/Categorías/Equipo de DJ y VJ/Micrófonos/Micrófonos inalámbricos"
4965392031;"instrumentos_musicales/Categorías/Equipo de DJ y VJ/Platos"
4965394031;"instrumentos_musicales/Categorías/Equipo de DJ y VJ/Reproductores de CD"
4965397031;"instrumentos_musicales/Categorías/Equipo de DJ y VJ/Slipmats"
4965353031;"instrumentos_musicales/Categorías/Equipos de karaoke"
4965354031;"instrumentos_musicales/Categorías/Grabación y procesado informático"
4965403031;"instrumentos_musicales/Categorías/Grabación y procesado informático/Accesorios de estudio"
4965565031;"instrumentos_musicales/Categorías/Grabación y procesado informático/Accesorios de estudio/Soportes para altavoces de estudio"
4965566031;"instrumentos_musicales/Categorías/Grabación y procesado informático/Accesorios de estudio/Soportes para monitores de estudio"
4965368031;"instrumentos_musicales/Categorías/Grabación y procesado informático/Cables y conectores"
4965537031;"instrumentos_musicales/Categorías/Grabación y procesado informático/Cables y conectores/Cables de alimentación"
4965538031;"instrumentos_musicales/Categorías/Grabación y procesado informático/Cables y conectores/Cables de interfaz digital"
4965536031;"instrumentos_musicales/Categorías/Grabación y procesado informático/Cables y conectores/Cables MIDI"
4965539031;"instrumentos_musicales/Categorías/Grabación y procesado informático/Cables y conectores/Cables multicore"
934071031;"instrumentos_musicales/Categorías/Grabación y procesado informático/Cables y conectores/Cables para altavoces"
4965541031;"instrumentos_musicales/Categorías/Grabación y procesado informático/Cables y conectores/Cables para instrumentos"
4965542031;"instrumentos_musicales/Categorías/Grabación y procesado informático/Cables y conectores/Cables para micrófono"
4965543031;"instrumentos_musicales/Categorías/Grabación y procesado informático/Cables y conectores/Cables patch"
4965405031;"instrumentos_musicales/Categorías/Grabación y procesado informático/Controladores MIDI"
4965407031;"instrumentos_musicales/Categorías/Grabación y procesado informático/Dispositivos de grabación portátiles"
4965411031;"instrumentos_musicales/Categorías/Grabación y procesado informático/Interfaces de audio"
4965410031;"instrumentos_musicales/Categorías/Grabación y procesado informático/Interfaces MIDI"
4965412031;"instrumentos_musicales/Categorías/Grabación y procesado informático/Mesas de mezcla"
4965358031;"instrumentos_musicales/Categorías/Grabación y procesado informático/Micrófonos"
4965496031;"instrumentos_musicales/Categorías/Grabación y procesado informático/Micrófonos/Accesorios"
4965542031;"instrumentos_musicales/Categorías/Grabación y procesado informático/Micrófonos/Accesorios/Cables para micrófono"
4965659031;"instrumentos_musicales/Categorías/Grabación y procesado informático/Micrófonos/Accesorios/Fundas y estuches"
4965660031;"instrumentos_musicales/Categorías/Grabación y procesado informático/Micrófonos/Accesorios/Pantallas antiviento y filtros anti-pop"
4965661031;"instrumentos_musicales/Categorías/Grabación y procesado informático/Micrófonos/Accesorios/Pinzas y soportes"
4965664031;"instrumentos_musicales/Categorías/Grabación y procesado informático/Micrófonos/Accesorios/Soportes y pies"
4965497031;"instrumentos_musicales/Categorías/Grabación y procesado informático/Micrófonos/Micrófonos de cinta"
4965498031;"instrumentos_musicales/Categorías/Grabación y procesado informático/Micrófonos/Micrófonos de condensador"
4965499031;"instrumentos_musicales/Categorías/Grabación y procesado informático/Micrófonos/Micrófonos dinámicos"
4965500031;"instrumentos_musicales/Categorías/Grabación y procesado informático/Micrófonos/Micrófonos inalámbricos"
4965413031;"instrumentos_musicales/Categorías/Grabación y procesado informático/Monitores de estudio"
4965415031;"instrumentos_musicales/Categorías/Grabación y procesado informático/Procesadores de señal y de efectos"
4965355031;"instrumentos_musicales/Categorías/Guitarras y accesorios"
4965418031;"instrumentos_musicales/Categorías/Guitarras y accesorios/Accesorios"
4965567031;"instrumentos_musicales/Categorías/Guitarras y accesorios/Accesorios/Accesorios para amplificadores de guitarra"
4965363031;"instrumentos_musicales/Categorías/Guitarras y accesorios/Accesorios/Afinadores"
4965541031;"instrumentos_musicales/Categorías/Guitarras y accesorios/Accesorios/Cables para instrumentos"
4965568031;"instrumentos_musicales/Categorías/Guitarras y accesorios/Accesorios/Cejillas"
4965569031;"instrumentos_musicales/Categorías/Guitarras y accesorios/Accesorios/Correas y enganches para guitarra"
4965779031;"instrumentos_musicales/Categorías/Guitarras y accesorios/Accesorios/Correas y enganches para guitarra/Correas"
4965780031;"instrumentos_musicales/Categorías/Guitarras y accesorios/Accesorios/Correas y enganches para guitarra/Enganches de correa"
4965570031;"instrumentos_musicales/Categorías/Guitarras y accesorios/Accesorios/Cuerdas"
4965571031;"instrumentos_musicales/Categorías/Guitarras y accesorios/Accesorios/Enrolladores de cuerdas"
4965572031;"instrumentos_musicales/Categorías/Guitarras y accesorios/Accesorios/Estuches para guitarras acústicas"
4965573031;"instrumentos_musicales/Categorías/Guitarras y accesorios/Accesorios/Estuches para guitarras clásicas"
4965574031;"instrumentos_musicales/Categorías/Guitarras y accesorios/Accesorios/Estuches para guitarras eléctricas"
4965575031;"instrumentos_musicales/Categorías/Guitarras y accesorios/Accesorios/Estuches para pedales y efectos"
4965576031;"instrumentos_musicales/Categorías/Guitarras y accesorios/Accesorios/Fundas para guitarras acústicas"
4965577031;"instrumentos_musicales/Categorías/Guitarras y accesorios/Accesorios/Fundas para guitarras clásicas"
4965578031;"instrumentos_musicales/Categorías/Guitarras y accesorios/Accesorios/Fundas para guitarras eléctricas"
4965579031;"instrumentos_musicales/Categorías/Guitarras y accesorios/Accesorios/Limpieza y cuidado"
4965580031;"instrumentos_musicales/Categorías/Guitarras y accesorios/Accesorios/Piezas y repuestos para guitarras acústicas y clásicas"
4965581031;"instrumentos_musicales/Categorías/Guitarras y accesorios/Accesorios/Piezas y repuestos para guitarras eléctricas"
4965582031;"instrumentos_musicales/Categorías/Guitarras y accesorios/Accesorios/Púas y portapúas"
4965781031;"instrumentos_musicales/Categorías/Guitarras y accesorios/Accesorios/Púas y portapúas/Portapúas"
4965782031;"instrumentos_musicales/Categorías/Guitarras y accesorios/Accesorios/Púas y portapúas/Púas"
4965583031;"instrumentos_musicales/Categorías/Guitarras y accesorios/Accesorios/Reposapiés"
4965584031;"instrumentos_musicales/Categorías/Guitarras y accesorios/Accesorios/Slides"
4965585031;"instrumentos_musicales/Categorías/Guitarras y accesorios/Accesorios/Soportes para guitarras y bajos"
4965419031;"instrumentos_musicales/Categorías/Guitarras y accesorios/Amplificadores"
4965420031;"instrumentos_musicales/Categorías/Guitarras y accesorios/Efectos"
4965594031;"instrumentos_musicales/Categorías/Guitarras y accesorios/Efectos/Compresión"
4965595031;"instrumentos_musicales/Categorías/Guitarras y accesorios/Efectos/Distorsión y overdrive"
4965596031;"instrumentos_musicales/Categorías/Guitarras y accesorios/Efectos/Eco, delay y reverb"
4965597031;"instrumentos_musicales/Categorías/Guitarras y accesorios/Efectos/Ecualización"
4965598031;"instrumentos_musicales/Categorías/Guitarras y accesorios/Efectos/Efectos para guitarra acústica"
4965599031;"instrumentos_musicales/Categorías/Guitarras y accesorios/Efectos/Loopers y samplers"
4965600031;"instrumentos_musicales/Categorías/Guitarras y accesorios/Efectos/Modulación"
4965784031;"instrumentos_musicales/Categorías/Guitarras y accesorios/Efectos/Modulación/Chorus"
4965785031;"instrumentos_musicales/Categorías/Guitarras y accesorios/Efectos/Modulación/Flanger"
4965786031;"instrumentos_musicales/Categorías/Guitarras y accesorios/Efectos/Modulación/Phaser"
4965602031;"instrumentos_musicales/Categorías/Guitarras y accesorios/Efectos/Pitch y octavadores"
4965603031;"instrumentos_musicales/Categorías/Guitarras y accesorios/Efectos/Puertas de ruido"
4965605031;"instrumentos_musicales/Categorías/Guitarras y accesorios/Efectos/WahWah y filtros"
4965421031;"instrumentos_musicales/Categorías/Guitarras y accesorios/Guitarras acústicas con cuerdas metálicas"
4965422031;"instrumentos_musicales/Categorías/Guitarras y accesorios/Guitarras clásicas"
5027061031;"instrumentos_musicales/Categorías/Guitarras y accesorios/Guitarras con resonador"
4965424031;"instrumentos_musicales/Categorías/Guitarras y accesorios/Guitarras eléctricas"
4965423031;"instrumentos_musicales/Categorías/Guitarras y accesorios/Guitarras electroacústicas"
4965425031;"instrumentos_musicales/Categorías/Guitarras y accesorios/Kits de guitarra acústica"
4965426031;"instrumentos_musicales/Categorías/Guitarras y accesorios/Kits de guitarra eléctrica"
4965356031;"instrumentos_musicales/Categorías/Instrumentos de cuerda"
4965427031;"instrumentos_musicales/Categorías/Instrumentos de cuerda/Accesorios"
4965606031;"instrumentos_musicales/Categorías/Instrumentos de cuerda/Accesorios/Anclas y soportes para violoncelo y contrabajo"
4965607031;"instrumentos_musicales/Categorías/Instrumentos de cuerda/Accesorios/Arcos"
4965609031;"instrumentos_musicales/Categorías/Instrumentos de cuerda/Accesorios/Colofonia"
4965610031;"instrumentos_musicales/Categorías/Instrumentos de cuerda/Accesorios/Cuerdas"
4965789031;"instrumentos_musicales/Categorías/Instrumentos de cuerda/Accesorios/Cuerdas/Cuerdas para contrabajo"
4965790031;"instrumentos_musicales/Categorías/Instrumentos de cuerda/Accesorios/Cuerdas/Cuerdas para mandolina"
4965791031;"instrumentos_musicales/Categorías/Instrumentos de cuerda/Accesorios/Cuerdas/Cuerdas para ukelele"
4965792031;"instrumentos_musicales/Categorías/Instrumentos de cuerda/Accesorios/Cuerdas/Cuerdas para viola"
4965793031;"instrumentos_musicales/Categorías/Instrumentos de cuerda/Accesorios/Cuerdas/Cuerdas para violonchelo"
4965794031;"instrumentos_musicales/Categorías/Instrumentos de cuerda/Accesorios/Cuerdas/Cuerdas para violín"
4965611031;"instrumentos_musicales/Categorías/Instrumentos de cuerda/Accesorios/Estuches y fundas"
4965613031;"instrumentos_musicales/Categorías/Instrumentos de cuerda/Accesorios/Pastillas fonocaptoras"
4965614031;"instrumentos_musicales/Categorías/Instrumentos de cuerda/Accesorios/Piezas y repuestos"
4965615031;"instrumentos_musicales/Categorías/Instrumentos de cuerda/Accesorios/Soportes de hombro y mentoneras"
4965616031;"instrumentos_musicales/Categorías/Instrumentos de cuerda/Accesorios/Soportes y soportes de pared"
4965431031;"instrumentos_musicales/Categorías/Instrumentos de cuerda/Banjos"
4965437031;"instrumentos_musicales/Categorías/Instrumentos de cuerda/Dulcémeles"
4965422031;"instrumentos_musicales/Categorías/Instrumentos de cuerda/Guitarras clásicas"
4965448031;"instrumentos_musicales/Categorías/Instrumentos de cuerda/Mandolinas"
4965469031;"instrumentos_musicales/Categorías/Instrumentos de cuerda/Ukeleles"
4965471031;"instrumentos_musicales/Categorías/Instrumentos de cuerda/Violas"
4965472031;"instrumentos_musicales/Categorías/Instrumentos de cuerda/Violines"
4965473031;"instrumentos_musicales/Categorías/Instrumentos de cuerda/Violonchelos"
4965357031;"instrumentos_musicales/Categorías/Instrumentos de viento"
4965477031;"instrumentos_musicales/Categorías/Instrumentos de viento/Accesorios"
4965620031;"instrumentos_musicales/Categorías/Instrumentos de viento/Accesorios/Accesorios para instrumentos de viento madera"
4965795031;"instrumentos_musicales/Categorías/Instrumentos de viento/Accesorios/Accesorios para instrumentos de viento madera/Abrazaderas para boquillas"
4965796031;"instrumentos_musicales/Categorías/Instrumentos de viento/Accesorios/Accesorios para instrumentos de viento madera/Accesorios para armónicas"
4965797031;"instrumentos_musicales/Categorías/Instrumentos de viento/Accesorios/Accesorios para instrumentos de viento madera/Boquillas"
4965799031;"instrumentos_musicales/Categorías/Instrumentos de viento/Accesorios/Accesorios para instrumentos de viento madera/Estuches y fundas"
4965800031;"instrumentos_musicales/Categorías/Instrumentos de viento/Accesorios/Accesorios para instrumentos de viento madera/Lengüetas y cañas"
4965801031;"instrumentos_musicales/Categorías/Instrumentos de viento/Accesorios/Accesorios para instrumentos de viento madera/Limpieza y cuidado"
4965803031;"instrumentos_musicales/Categorías/Instrumentos de viento/Accesorios/Accesorios para instrumentos de viento madera/Sordinas"
4965621031;"instrumentos_musicales/Categorías/Instrumentos de viento/Accesorios/Accesorios para instrumentos de viento metal"
4965804031;"instrumentos_musicales/Categorías/Instrumentos de viento/Accesorios/Accesorios para instrumentos de viento metal/Boquillas"
4965805031;"instrumentos_musicales/Categorías/Instrumentos de viento/Accesorios/Accesorios para instrumentos de viento metal/Estuches y fundas"
4965806031;"instrumentos_musicales/Categorías/Instrumentos de viento/Accesorios/Accesorios para instrumentos de viento metal/Limpieza y cuidado"
4965808031;"instrumentos_musicales/Categorías/Instrumentos de viento/Accesorios/Accesorios para instrumentos de viento metal/Sordinas"
4965622031;"instrumentos_musicales/Categorías/Instrumentos de viento/Accesorios/Correas"
4965623031;"instrumentos_musicales/Categorías/Instrumentos de viento/Accesorios/Soportes"
4965478031;"instrumentos_musicales/Categorías/Instrumentos de viento/Armónicas"
4965483031;"instrumentos_musicales/Categorías/Instrumentos de viento/Didgeridoos"
4965484031;"instrumentos_musicales/Categorías/Instrumentos de viento/Instrumentos de viento madera"
4965625031;"instrumentos_musicales/Categorías/Instrumentos de viento/Instrumentos de viento madera/Clarinetes"
4965632031;"instrumentos_musicales/Categorías/Instrumentos de viento/Instrumentos de viento madera/Flautas dulces"
4965809031;"instrumentos_musicales/Categorías/Instrumentos de viento/Instrumentos de viento madera/Flautas dulces/Flautas dulces alto"
4965810031;"instrumentos_musicales/Categorías/Instrumentos de viento/Instrumentos de viento madera/Flautas dulces/Flautas dulces soprano"
4965811031;"instrumentos_musicales/Categorías/Instrumentos de viento/Instrumentos de viento madera/Flautas dulces/Flautas dulces tenor"
4965633031;"instrumentos_musicales/Categorías/Instrumentos de viento/Instrumentos de viento madera/Flautas traveseras"
4965637031;"instrumentos_musicales/Categorías/Instrumentos de viento/Instrumentos de viento madera/Ocarinas"
4965638031;"instrumentos_musicales/Categorías/Instrumentos de viento/Instrumentos de viento madera/Pífanos"
4965639031;"instrumentos_musicales/Categorías/Instrumentos de viento/Instrumentos de viento madera/Saxofones"
4965646031;"instrumentos_musicales/Categorías/Instrumentos de viento/Instrumentos de viento madera/Zampoñas"
4965485031;"instrumentos_musicales/Categorías/Instrumentos de viento/Instrumentos de viento metal"
4965649031;"instrumentos_musicales/Categorías/Instrumentos de viento/Instrumentos de viento metal/Cornetas"
4965653031;"instrumentos_musicales/Categorías/Instrumentos de viento/Instrumentos de viento metal/Trombones"
4965654031;"instrumentos_musicales/Categorías/Instrumentos de viento/Instrumentos de viento metal/Trompas"
4965656031;"instrumentos_musicales/Categorías/Instrumentos de viento/Instrumentos de viento metal/Trompetas"
4965486031;"instrumentos_musicales/Categorías/Instrumentos de viento/Kazoos"
4965488031;"instrumentos_musicales/Categorías/Instrumentos de viento/Melódicas"
4965493031;"instrumentos_musicales/Categorías/Instrumentos de viento/Silbatos"
4965358031;"instrumentos_musicales/Categorías/Micrófonos"
4965496031;"instrumentos_musicales/Categorías/Micrófonos/Accesorios"
4965542031;"instrumentos_musicales/Categorías/Micrófonos/Accesorios/Cables para micrófono"
4965659031;"instrumentos_musicales/Categorías/Micrófonos/Accesorios/Fundas y estuches"
4965660031;"instrumentos_musicales/Categorías/Micrófonos/Accesorios/Pantallas antiviento y filtros anti-pop"
4965661031;"instrumentos_musicales/Categorías/Micrófonos/Accesorios/Pinzas y soportes"
4965664031;"instrumentos_musicales/Categorías/Micrófonos/Accesorios/Soportes y pies"
4965497031;"instrumentos_musicales/Categorías/Micrófonos/Micrófonos de cinta"
4965498031;"instrumentos_musicales/Categorías/Micrófonos/Micrófonos de condensador"
4965499031;"instrumentos_musicales/Categorías/Micrófonos/Micrófonos dinámicos"
4965500031;"instrumentos_musicales/Categorías/Micrófonos/Micrófonos inalámbricos"
4965359031;"instrumentos_musicales/Categorías/Percusión"
4965501031;"instrumentos_musicales/Categorías/Percusión/Accesorios"
4965665031;"instrumentos_musicales/Categorías/Percusión/Accesorios/Accesorios para baterías electrónicas"
4965668031;"instrumentos_musicales/Categorías/Percusión/Accesorios/Accesorios para platillos y gongs"
4965673031;"instrumentos_musicales/Categorías/Percusión/Accesorios/Baquetas para cajas y baterías"
4965674031;"instrumentos_musicales/Categorías/Percusión/Accesorios/Baquetas y mazas"
4965675031;"instrumentos_musicales/Categorías/Percusión/Accesorios/Bolsas, fundas y estuches"
4965676031;"instrumentos_musicales/Categorías/Percusión/Accesorios/Escobillas"
5027045031;"instrumentos_musicales/Categorías/Percusión/Accesorios/Guantes"
4965678031;"instrumentos_musicales/Categorías/Percusión/Accesorios/Llaves de afinación"
4965680031;"instrumentos_musicales/Categorías/Percusión/Accesorios/Parches"
5155830031;"instrumentos_musicales/Categorías/Percusión/Accesorios/Piezas y repuestos para baterías y tambores"
5027049031;"instrumentos_musicales/Categorías/Percusión/Accesorios/Protección auditiva"
4965682031;"instrumentos_musicales/Categorías/Percusión/Accesorios/Taburetes"
4965502031;"instrumentos_musicales/Categorías/Percusión/Almohadillas de práctica"
4965503031;"instrumentos_musicales/Categorías/Percusión/Baterías y sets de tambores"
4965683031;"instrumentos_musicales/Categorías/Percusión/Baterías y sets de tambores/Sets de batería"
4965684031;"instrumentos_musicales/Categorías/Percusión/Baterías y sets de tambores/Tambores"
4965504031;"instrumentos_musicales/Categorías/Percusión/Baterías electrónicas"
4965505031;"instrumentos_musicales/Categorías/Percusión/Gongs"
4965506031;"instrumentos_musicales/Categorías/Percusión/Percusión de mano"
4965685031;"instrumentos_musicales/Categorías/Percusión/Percusión de mano/Agogôs"
4965687031;"instrumentos_musicales/Categorías/Percusión/Percusión de mano/Cabasas"
4965688031;"instrumentos_musicales/Categorías/Percusión/Percusión de mano/Campanas de mano"
4965689031;"instrumentos_musicales/Categorías/Percusión/Percusión de mano/Castañuelas"
4965690031;"instrumentos_musicales/Categorías/Percusión/Percusión de mano/Claves y cajas chinas"
4965691031;"instrumentos_musicales/Categorías/Percusión/Percusión de mano/Crótalos"
4965693031;"instrumentos_musicales/Categorías/Percusión/Percusión de mano/Güiros"
4965694031;"instrumentos_musicales/Categorías/Percusión/Percusión de mano/Maracas, shakers y sonajeros"
4965695031;"instrumentos_musicales/Categorías/Percusión/Percusión de mano/Palos de lluvia y tambores oceánicos"
4965696031;"instrumentos_musicales/Categorías/Percusión/Percusión de mano/Panderetas"
4965698031;"instrumentos_musicales/Categorías/Percusión/Percusión de mano/Tablas de lavar"
4965699031;"instrumentos_musicales/Categorías/Percusión/Percusión de mano/Tambores de hendidura"
4965507031;"instrumentos_musicales/Categorías/Percusión/Percusión melódica y de orquesta"
4965700031;"instrumentos_musicales/Categorías/Percusión/Percusión melódica y de orquesta/Campanas"
4965701031;"instrumentos_musicales/Categorías/Percusión/Percusión melódica y de orquesta/Campanas tubulares"
4965704031;"instrumentos_musicales/Categorías/Percusión/Percusión melódica y de orquesta/Metalófonos"
4965706031;"instrumentos_musicales/Categorías/Percusión/Percusión melódica y de orquesta/Triángulos"
4965708031;"instrumentos_musicales/Categorías/Percusión/Percusión melódica y de orquesta/Xilófonos"
4965508031;"instrumentos_musicales/Categorías/Percusión/Platillos"
4965709031;"instrumentos_musicales/Categorías/Percusión/Platillos/Crash"
4965710031;"instrumentos_musicales/Categorías/Percusión/Platillos/Crash-Ride"
4965711031;"instrumentos_musicales/Categorías/Percusión/Platillos/Hi-Hat"
4965712031;"instrumentos_musicales/Categorías/Percusión/Platillos/Juegos de platillos"
4965713031;"instrumentos_musicales/Categorías/Percusión/Platillos/Platillos chinos y de efectos"
4965714031;"instrumentos_musicales/Categorías/Percusión/Platillos/Platillos splash"
4965715031;"instrumentos_musicales/Categorías/Percusión/Platillos/Ride"
4965509031;"instrumentos_musicales/Categorías/Percusión/Soportes y herrajes"
4965510031;"instrumentos_musicales/Categorías/Percusión/Tambores de mano"
4965726031;"instrumentos_musicales/Categorías/Percusión/Tambores de mano/Bodhráns y tambores de marco"
4965727031;"instrumentos_musicales/Categorías/Percusión/Tambores de mano/Bongos"
4965728031;"instrumentos_musicales/Categorías/Percusión/Tambores de mano/Cajones"
4965729031;"instrumentos_musicales/Categorías/Percusión/Tambores de mano/Congas"
4965730031;"instrumentos_musicales/Categorías/Percusión/Tambores de mano/Derbakes y darbukas"
4965733031;"instrumentos_musicales/Categorías/Percusión/Tambores de mano/Djembés"
4965741031;"instrumentos_musicales/Categorías/Percusión/Tambores de mano/Tambores metálicos de Trinidad y Tobago"
4965742031;"instrumentos_musicales/Categorías/Percusión/Tambores de mano/Tambores parlantes"
4965360031;"instrumentos_musicales/Categorías/Pianos y teclados"
4965511031;"instrumentos_musicales/Categorías/Pianos y teclados/Accesorios"
4965744031;"instrumentos_musicales/Categorías/Pianos y teclados/Accesorios/Accesorios para acordeones"
4965817031;"instrumentos_musicales/Categorías/Pianos y teclados/Accesorios/Accesorios para acordeones/Correas de hombro"
4965818031;"instrumentos_musicales/Categorías/Pianos y teclados/Accesorios/Accesorios para acordeones/Estuches"
4965819031;"instrumentos_musicales/Categorías/Pianos y teclados/Accesorios/Accesorios para acordeones/Fundas"
4965745031;"instrumentos_musicales/Categorías/Pianos y teclados/Accesorios/Accesorios para teclados electrónicos"
4965748031;"instrumentos_musicales/Categorías/Pianos y teclados/Accesorios/Bancos y taburetes"
4965749031;"instrumentos_musicales/Categorías/Pianos y teclados/Accesorios/Bolsas, fundas y estuches"
4965536031;"instrumentos_musicales/Categorías/Pianos y teclados/Accesorios/Cables MIDI"
4965751031;"instrumentos_musicales/Categorías/Pianos y teclados/Accesorios/Soportes y pies"
4965512031;"instrumentos_musicales/Categorías/Pianos y teclados/Acordeones"
4965753031;"instrumentos_musicales/Categorías/Pianos y teclados/Acordeones/Acordeones de botones"
4965754031;"instrumentos_musicales/Categorías/Pianos y teclados/Acordeones/Acordeones de teclas"
4965517031;"instrumentos_musicales/Categorías/Pianos y teclados/Pianos digitales"
4965518031;"instrumentos_musicales/Categorías/Pianos y teclados/Teclados electrónicos"
4965361031;"instrumentos_musicales/Categorías/Sintetizadores, samplers e instrumentos digitales"
4965520031;"instrumentos_musicales/Categorías/Sintetizadores, samplers e instrumentos digitales/Accesorios"
4965749031;"instrumentos_musicales/Categorías/Sintetizadores, samplers e instrumentos digitales/Accesorios/Bolsos, fundas y estuches"
4965536031;"instrumentos_musicales/Categorías/Sintetizadores, samplers e instrumentos digitales/Accesorios/Cables MIDI"
4965517031;"instrumentos_musicales/Categorías/Sintetizadores, samplers e instrumentos digitales/Pianos digitales"
4965526031;"instrumentos_musicales/Categorías/Sintetizadores, samplers e instrumentos digitales/Sintetizadores"
4965518031;"instrumentos_musicales/Categorías/Sintetizadores, samplers e instrumentos digitales/Teclados electrónicos"
4965362031;"instrumentos_musicales/Categorías/Sistemas de escenario y megafonía"
4965527031;"instrumentos_musicales/Categorías/Sistemas de escenario y megafonía/Altavoces"
4965758031;"instrumentos_musicales/Categorías/Sistemas de escenario y megafonía/Altavoces/Accesorios para altavoces"
4965759031;"instrumentos_musicales/Categorías/Sistemas de escenario y megafonía/Altavoces/Altavoces de gama completa"
4965760031;"instrumentos_musicales/Categorías/Sistemas de escenario y megafonía/Altavoces/Monitores"
4965761031;"instrumentos_musicales/Categorías/Sistemas de escenario y megafonía/Altavoces/Satélites"
4965762031;"instrumentos_musicales/Categorías/Sistemas de escenario y megafonía/Altavoces/Subwoofers"
4965528031;"instrumentos_musicales/Categorías/Sistemas de escenario y megafonía/Amplificadores"
4965529031;"instrumentos_musicales/Categorías/Sistemas de escenario y megafonía/Andamiaje y soporte"
4965368031;"instrumentos_musicales/Categorías/Sistemas de escenario y megafonía/Cables y conectores"
4965537031;"instrumentos_musicales/Categorías/Sistemas de escenario y megafonía/Cables y conectores/Cables de alimentación"
4965538031;"instrumentos_musicales/Categorías/Sistemas de escenario y megafonía/Cables y conectores/Cables de interfaz digital"
4965536031;"instrumentos_musicales/Categorías/Sistemas de escenario y megafonía/Cables y conectores/Cables MIDI"
4965539031;"instrumentos_musicales/Categorías/Sistemas de escenario y megafonía/Cables y conectores/Cables multicore"
934071031;"instrumentos_musicales/Categorías/Sistemas de escenario y megafonía/Cables y conectores/Cables para altavoces"
4965541031;"instrumentos_musicales/Categorías/Sistemas de escenario y megafonía/Cables y conectores/Cables para instrumentos"
4965542031;"instrumentos_musicales/Categorías/Sistemas de escenario y megafonía/Cables y conectores/Cables para micrófono"
4965543031;"instrumentos_musicales/Categorías/Sistemas de escenario y megafonía/Cables y conectores/Cables patch"
4965530031;"instrumentos_musicales/Categorías/Sistemas de escenario y megafonía/Cajas DI"
4965531031;"instrumentos_musicales/Categorías/Sistemas de escenario y megafonía/Fundas, estuches y soportes"
4965532031;"instrumentos_musicales/Categorías/Sistemas de escenario y megafonía/Iluminación"
4965765031;"instrumentos_musicales/Categorías/Sistemas de escenario y megafonía/Iluminación/Bolas de espejos"
4965766031;"instrumentos_musicales/Categorías/Sistemas de escenario y megafonía/Iluminación/Escáneres"
4965767031;"instrumentos_musicales/Categorías/Sistemas de escenario y megafonía/Iluminación/Estroboscopios"
4965768031;"instrumentos_musicales/Categorías/Sistemas de escenario y megafonía/Iluminación/Filtros de color"
4965769031;"instrumentos_musicales/Categorías/Sistemas de escenario y megafonía/Iluminación/Focos móviles"
4965770031;"instrumentos_musicales/Categorías/Sistemas de escenario y megafonía/Iluminación/Lámparas de iluminación de escenarios"
4965771031;"instrumentos_musicales/Categorías/Sistemas de escenario y megafonía/Iluminación/Láseres"
4965773031;"instrumentos_musicales/Categorías/Sistemas de escenario y megafonía/Iluminación/Máquinas de efectos"
4965772031;"instrumentos_musicales/Categorías/Sistemas de escenario y megafonía/Iluminación/Mezcladores de iluminación"
4965774031;"instrumentos_musicales/Categorías/Sistemas de escenario y megafonía/Iluminación/Soportes de focos"
4204409031;"instrumentos_musicales/Categorías/Sistemas de escenario y megafonía/Iluminación/Tiras de LED"
4965533031;"instrumentos_musicales/Categorías/Sistemas de escenario y megafonía/Mesas de mezclas"
4965358031;"instrumentos_musicales/Categorías/Sistemas de escenario y megafonía/Micrófonos"
4965496031;"instrumentos_musicales/Categorías/Sistemas de escenario y megafonía/Micrófonos/Accesorios"
4965542031;"instrumentos_musicales/Categorías/Sistemas de escenario y megafonía/Micrófonos/Accesorios/Cables para micrófono"
4965659031;"instrumentos_musicales/Categorías/Sistemas de escenario y megafonía/Micrófonos/Accesorios/Fundas y estuches"
4965660031;"instrumentos_musicales/Categorías/Sistemas de escenario y megafonía/Micrófonos/Accesorios/Pantallas antiviento y filtros anti-pop"
4965661031;"instrumentos_musicales/Categorías/Sistemas de escenario y megafonía/Micrófonos/Accesorios/Pinzas y soportes"
4965664031;"instrumentos_musicales/Categorías/Sistemas de escenario y megafonía/Micrófonos/Accesorios/Soportes y pies"
4965497031;"instrumentos_musicales/Categorías/Sistemas de escenario y megafonía/Micrófonos/Micrófonos de cinta"
4965498031;"instrumentos_musicales/Categorías/Sistemas de escenario y megafonía/Micrófonos/Micrófonos de condensador"
4965499031;"instrumentos_musicales/Categorías/Sistemas de escenario y megafonía/Micrófonos/Micrófonos dinámicos"
4965500031;"instrumentos_musicales/Categorías/Sistemas de escenario y megafonía/Micrófonos/Micrófonos inalámbricos"
4965415031;"instrumentos_musicales/Categorías/Sistemas de escenario y megafonía/Procesadores de señal y de efectos"
4965534031;"instrumentos_musicales/Categorías/Sistemas de escenario y megafonía/Sistemas de megafonía y anuncio"
3628868031;"instrumentos_musicales/Featured Categories"
4965350031;"instrumentos_musicales/Featured Categories/Accesorios para músicos y producción musical"
4965363031;"instrumentos_musicales/Featured Categories/Accesorios para músicos y producción musical/Afinadores"
4965365031;"instrumentos_musicales/Featured Categories/Accesorios para músicos y producción musical/Atriles"
4965366031;"instrumentos_musicales/Featured Categories/Accesorios para músicos y producción musical/Atriles de lira"
4965367031;"instrumentos_musicales/Featured Categories/Accesorios para músicos y producción musical/Batutas de director"
4965368031;"instrumentos_musicales/Featured Categories/Accesorios para músicos y producción musical/Cables y conectores"
4965537031;"instrumentos_musicales/Featured Categories/Accesorios para músicos y producción musical/Cables y conectores/Cables de alimentación"
4965538031;"instrumentos_musicales/Featured Categories/Accesorios para músicos y producción musical/Cables y conectores/Cables de interfaz digital"
4965536031;"instrumentos_musicales/Featured Categories/Accesorios para músicos y producción musical/Cables y conectores/Cables MIDI"
4965539031;"instrumentos_musicales/Featured Categories/Accesorios para músicos y producción musical/Cables y conectores/Cables multicore"
934071031;"instrumentos_musicales/Featured Categories/Accesorios para músicos y producción musical/Cables y conectores/Cables para altavoces"
4965541031;"instrumentos_musicales/Featured Categories/Accesorios para músicos y producción musical/Cables y conectores/Cables para instrumentos"
4965542031;"instrumentos_musicales/Featured Categories/Accesorios para músicos y producción musical/Cables y conectores/Cables para micrófono"
4965543031;"instrumentos_musicales/Featured Categories/Accesorios para músicos y producción musical/Cables y conectores/Cables patch"
4965370031;"instrumentos_musicales/Featured Categories/Accesorios para músicos y producción musical/Carpetas para partituras"
4965371031;"instrumentos_musicales/Featured Categories/Accesorios para músicos y producción musical/Lámparas para atril"
4965372031;"instrumentos_musicales/Featured Categories/Accesorios para músicos y producción musical/Metrónomos"
4965374031;"instrumentos_musicales/Featured Categories/Accesorios para músicos y producción musical/Papel pautado"
4965351031;"instrumentos_musicales/Featured Categories/Bajos y accesorios"
4965378031;"instrumentos_musicales/Featured Categories/Bajos y accesorios/Accesorios"
4965363031;"instrumentos_musicales/Featured Categories/Bajos y accesorios/Accesorios/Afinadores"
4965541031;"instrumentos_musicales/Featured Categories/Bajos y accesorios/Accesorios/Cables para instrumentos"
4965545031;"instrumentos_musicales/Featured Categories/Bajos y accesorios/Accesorios/Correas"
4965546031;"instrumentos_musicales/Featured Categories/Bajos y accesorios/Accesorios/Cuerdas"
4965547031;"instrumentos_musicales/Featured Categories/Bajos y accesorios/Accesorios/Estuches"
4965575031;"instrumentos_musicales/Featured Categories/Bajos y accesorios/Accesorios/Estuches para pedales y efectos"
4965548031;"instrumentos_musicales/Featured Categories/Bajos y accesorios/Accesorios/Fundas"
4965579031;"instrumentos_musicales/Featured Categories/Bajos y accesorios/Accesorios/Limpieza y cuidado"
4965549031;"instrumentos_musicales/Featured Categories/Bajos y accesorios/Accesorios/Piezas y repuestos"
4965582031;"instrumentos_musicales/Featured Categories/Bajos y accesorios/Accesorios/Púas y portapúas"
4965781031;"instrumentos_musicales/Featured Categories/Bajos y accesorios/Accesorios/Púas y portapúas/Portapúas"
4965782031;"instrumentos_musicales/Featured Categories/Bajos y accesorios/Accesorios/Púas y portapúas/Púas"
4965585031;"instrumentos_musicales/Featured Categories/Bajos y accesorios/Accesorios/Soportes"
4965379031;"instrumentos_musicales/Featured Categories/Bajos y accesorios/Amplificadores"
4965550031;"instrumentos_musicales/Featured Categories/Bajos y accesorios/Amplificadores/Bafles"
4965551031;"instrumentos_musicales/Featured Categories/Bajos y accesorios/Amplificadores/Cabezales"
4965552031;"instrumentos_musicales/Featured Categories/Bajos y accesorios/Amplificadores/Combos"
4965553031;"instrumentos_musicales/Featured Categories/Bajos y accesorios/Amplificadores/Etapas de potencia"
4965554031;"instrumentos_musicales/Featured Categories/Bajos y accesorios/Amplificadores/Previos"
4965555031;"instrumentos_musicales/Featured Categories/Bajos y accesorios/Amplificadores/Stacks"
4965380031;"instrumentos_musicales/Featured Categories/Bajos y accesorios/Bajos acústicos"
4965381031;"instrumentos_musicales/Featured Categories/Bajos y accesorios/Bajos eléctricos"
4965383031;"instrumentos_musicales/Featured Categories/Bajos y accesorios/Efectos"
4965557031;"instrumentos_musicales/Featured Categories/Bajos y accesorios/Efectos/Distorsión y overdrive"
4965596031;"instrumentos_musicales/Featured Categories/Bajos y accesorios/Efectos/Eco, delay y reverb"
4965599031;"instrumentos_musicales/Featured Categories/Bajos y accesorios/Efectos/Loopers y samplers"
4965559031;"instrumentos_musicales/Featured Categories/Bajos y accesorios/Efectos/Modulación"
4965560031;"instrumentos_musicales/Featured Categories/Bajos y accesorios/Efectos/Multiefectos"
4965603031;"instrumentos_musicales/Featured Categories/Bajos y accesorios/Efectos/Puertas de ruido"
4965562031;"instrumentos_musicales/Featured Categories/Bajos y accesorios/Efectos/WahWah y filtros"
4965384031;"instrumentos_musicales/Featured Categories/Bajos y accesorios/Kits"
4965352031;"instrumentos_musicales/Featured Categories/Equipo de DJ y VJ"
4965385031;"instrumentos_musicales/Featured Categories/Equipo de DJ y VJ/Auriculares"
4965368031;"instrumentos_musicales/Featured Categories/Equipo de DJ y VJ/Cables y conectores"
4965537031;"instrumentos_musicales/Featured Categories/Equipo de DJ y VJ/Cables y conectores/Cables de alimentación"
4965538031;"instrumentos_musicales/Featured Categories/Equipo de DJ y VJ/Cables y conectores/Cables de interfaz digital"
4965536031;"instrumentos_musicales/Featured Categories/Equipo de DJ y VJ/Cables y conectores/Cables MIDI"
4965539031;"instrumentos_musicales/Featured Categories/Equipo de DJ y VJ/Cables y conectores/Cables multicore"
934071031;"instrumentos_musicales/Featured Categories/Equipo de DJ y VJ/Cables y conectores/Cables para altavoces"
4965541031;"instrumentos_musicales/Featured Categories/Equipo de DJ y VJ/Cables y conectores/Cables para instrumentos"
4965542031;"instrumentos_musicales/Featured Categories/Equipo de DJ y VJ/Cables y conectores/Cables para micrófono"
4965543031;"instrumentos_musicales/Featured Categories/Equipo de DJ y VJ/Cables y conectores/Cables patch"
934075031;"instrumentos_musicales/Featured Categories/Equipo de DJ y VJ/Cartuchos fonocaptores y agujas para tocadiscos"
934076031;"instrumentos_musicales/Featured Categories/Equipo de DJ y VJ/Cartuchos fonocaptores y agujas para tocadiscos/Agujas"
934077031;"instrumentos_musicales/Featured Categories/Equipo de DJ y VJ/Cartuchos fonocaptores y agujas para tocadiscos/Cartuchos fonocaptores"
4965386031;"instrumentos_musicales/Featured Categories/Equipo de DJ y VJ/Controladores de DJ"
4965387031;"instrumentos_musicales/Featured Categories/Equipo de DJ y VJ/Correas para tocadiscos"
4965390031;"instrumentos_musicales/Featured Categories/Equipo de DJ y VJ/Fundas, estuches y racks"
4965391031;"instrumentos_musicales/Featured Categories/Equipo de DJ y VJ/Mesas de mezclas"
4965358031;"instrumentos_musicales/Featured Categories/Equipo de DJ y VJ/Micrófonos"
4965496031;"instrumentos_musicales/Featured Categories/Equipo de DJ y VJ/Micrófonos/Accesorios"
4965542031;"instrumentos_musicales/Featured Categories/Equipo de DJ y VJ/Micrófonos/Accesorios/Cables para micrófono"
4965659031;"instrumentos_musicales/Featured Categories/Equipo de DJ y VJ/Micrófonos/Accesorios/Fundas y estuches"
4965660031;"instrumentos_musicales/Featured Categories/Equipo de DJ y VJ/Micrófonos/Accesorios/Pantallas antiviento y filtros anti-pop"
4965661031;"instrumentos_musicales/Featured Categories/Equipo de DJ y VJ/Micrófonos/Accesorios/Pinzas y soportes"
4965664031;"instrumentos_musicales/Featured Categories/Equipo de DJ y VJ/Micrófonos/Accesorios/Soportes y pies"
4965497031;"instrumentos_musicales/Featured Categories/Equipo de DJ y VJ/Micrófonos/Micrófonos de cinta"
4965498031;"instrumentos_musicales/Featured Categories/Equipo de DJ y VJ/Micrófonos/Micrófonos de condensador"
4965499031;"instrumentos_musicales/Featured Categories/Equipo de DJ y VJ/Micrófonos/Micrófonos dinámicos"
4965500031;"instrumentos_musicales/Featured Categories/Equipo de DJ y VJ/Micrófonos/Micrófonos inalámbricos"
4965392031;"instrumentos_musicales/Featured Categories/Equipo de DJ y VJ/Platos"
4965394031;"instrumentos_musicales/Featured Categories/Equipo de DJ y VJ/Reproductores de CD"
4965397031;"instrumentos_musicales/Featured Categories/Equipo de DJ y VJ/Slipmats"
4965353031;"instrumentos_musicales/Featured Categories/Equipos de karaoke"
4965354031;"instrumentos_musicales/Featured Categories/Grabación y procesado informático"
4965403031;"instrumentos_musicales/Featured Categories/Grabación y procesado informático/Accesorios de estudio"
4965565031;"instrumentos_musicales/Featured Categories/Grabación y procesado informático/Accesorios de estudio/Soportes para altavoces de estudio"
4965566031;"instrumentos_musicales/Featured Categories/Grabación y procesado informático/Accesorios de estudio/Soportes para monitores de estudio"
4965368031;"instrumentos_musicales/Featured Categories/Grabación y procesado informático/Cables y conectores"
4965537031;"instrumentos_musicales/Featured Categories/Grabación y procesado informático/Cables y conectores/Cables de alimentación"
4965538031;"instrumentos_musicales/Featured Categories/Grabación y procesado informático/Cables y conectores/Cables de interfaz digital"
4965536031;"instrumentos_musicales/Featured Categories/Grabación y procesado informático/Cables y conectores/Cables MIDI"
4965539031;"instrumentos_musicales/Featured Categories/Grabación y procesado informático/Cables y conectores/Cables multicore"
934071031;"instrumentos_musicales/Featured Categories/Grabación y procesado informático/Cables y conectores/Cables para altavoces"
4965541031;"instrumentos_musicales/Featured Categories/Grabación y procesado informático/Cables y conectores/Cables para instrumentos"
4965542031;"instrumentos_musicales/Featured Categories/Grabación y procesado informático/Cables y conectores/Cables para micrófono"
4965543031;"instrumentos_musicales/Featured Categories/Grabación y procesado informático/Cables y conectores/Cables patch"
4965405031;"instrumentos_musicales/Featured Categories/Grabación y procesado informático/Controladores MIDI"
4965407031;"instrumentos_musicales/Featured Categories/Grabación y procesado informático/Dispositivos de grabación portátiles"
4965411031;"instrumentos_musicales/Featured Categories/Grabación y procesado informático/Interfaces de audio"
4965410031;"instrumentos_musicales/Featured Categories/Grabación y procesado informático/Interfaces MIDI"
4965412031;"instrumentos_musicales/Featured Categories/Grabación y procesado informático/Mesas de mezcla"
4965358031;"instrumentos_musicales/Featured Categories/Grabación y procesado informático/Micrófonos"
4965496031;"instrumentos_musicales/Featured Categories/Grabación y procesado informático/Micrófonos/Accesorios"
4965542031;"instrumentos_musicales/Featured Categories/Grabación y procesado informático/Micrófonos/Accesorios/Cables para micrófono"
4965659031;"instrumentos_musicales/Featured Categories/Grabación y procesado informático/Micrófonos/Accesorios/Fundas y estuches"
4965660031;"instrumentos_musicales/Featured Categories/Grabación y procesado informático/Micrófonos/Accesorios/Pantallas antiviento y filtros anti-pop"
4965661031;"instrumentos_musicales/Featured Categories/Grabación y procesado informático/Micrófonos/Accesorios/Pinzas y soportes"
4965664031;"instrumentos_musicales/Featured Categories/Grabación y procesado informático/Micrófonos/Accesorios/Soportes y pies"
4965497031;"instrumentos_musicales/Featured Categories/Grabación y procesado informático/Micrófonos/Micrófonos de cinta"
4965498031;"instrumentos_musicales/Featured Categories/Grabación y procesado informático/Micrófonos/Micrófonos de condensador"
4965499031;"instrumentos_musicales/Featured Categories/Grabación y procesado informático/Micrófonos/Micrófonos dinámicos"
4965500031;"instrumentos_musicales/Featured Categories/Grabación y procesado informático/Micrófonos/Micrófonos inalámbricos"
4965413031;"instrumentos_musicales/Featured Categories/Grabación y procesado informático/Monitores de estudio"
4965415031;"instrumentos_musicales/Featured Categories/Grabación y procesado informático/Procesadores de señal y de efectos"
4965355031;"instrumentos_musicales/Featured Categories/Guitarras y accesorios"
4965418031;"instrumentos_musicales/Featured Categories/Guitarras y accesorios/Accesorios"
4965567031;"instrumentos_musicales/Featured Categories/Guitarras y accesorios/Accesorios/Accesorios para amplificadores de guitarra"
4965363031;"instrumentos_musicales/Featured Categories/Guitarras y accesorios/Accesorios/Afinadores"
4965541031;"instrumentos_musicales/Featured Categories/Guitarras y accesorios/Accesorios/Cables para instrumentos"
4965568031;"instrumentos_musicales/Featured Categories/Guitarras y accesorios/Accesorios/Cejillas"
4965569031;"instrumentos_musicales/Featured Categories/Guitarras y accesorios/Accesorios/Correas y enganches para guitarra"
4965779031;"instrumentos_musicales/Featured Categories/Guitarras y accesorios/Accesorios/Correas y enganches para guitarra/Correas"
4965780031;"instrumentos_musicales/Featured Categories/Guitarras y accesorios/Accesorios/Correas y enganches para guitarra/Enganches de correa"
4965570031;"instrumentos_musicales/Featured Categories/Guitarras y accesorios/Accesorios/Cuerdas"
4965571031;"instrumentos_musicales/Featured Categories/Guitarras y accesorios/Accesorios/Enrolladores de cuerdas"
4965572031;"instrumentos_musicales/Featured Categories/Guitarras y accesorios/Accesorios/Estuches para guitarras acústicas"
4965573031;"instrumentos_musicales/Featured Categories/Guitarras y accesorios/Accesorios/Estuches para guitarras clásicas"
4965574031;"instrumentos_musicales/Featured Categories/Guitarras y accesorios/Accesorios/Estuches para guitarras eléctricas"
4965575031;"instrumentos_musicales/Featured Categories/Guitarras y accesorios/Accesorios/Estuches para pedales y efectos"
4965576031;"instrumentos_musicales/Featured Categories/Guitarras y accesorios/Accesorios/Fundas para guitarras acústicas"
4965577031;"instrumentos_musicales/Featured Categories/Guitarras y accesorios/Accesorios/Fundas para guitarras clásicas"
4965578031;"instrumentos_musicales/Featured Categories/Guitarras y accesorios/Accesorios/Fundas para guitarras eléctricas"
4965579031;"instrumentos_musicales/Featured Categories/Guitarras y accesorios/Accesorios/Limpieza y cuidado"
4965580031;"instrumentos_musicales/Featured Categories/Guitarras y accesorios/Accesorios/Piezas y repuestos para guitarras acústicas y clásicas"
4965581031;"instrumentos_musicales/Featured Categories/Guitarras y accesorios/Accesorios/Piezas y repuestos para guitarras eléctricas"
4965582031;"instrumentos_musicales/Featured Categories/Guitarras y accesorios/Accesorios/Púas y portapúas"
4965781031;"instrumentos_musicales/Featured Categories/Guitarras y accesorios/Accesorios/Púas y portapúas/Portapúas"
4965782031;"instrumentos_musicales/Featured Categories/Guitarras y accesorios/Accesorios/Púas y portapúas/Púas"
4965583031;"instrumentos_musicales/Featured Categories/Guitarras y accesorios/Accesorios/Reposapiés"
4965584031;"instrumentos_musicales/Featured Categories/Guitarras y accesorios/Accesorios/Slides"
4965585031;"instrumentos_musicales/Featured Categories/Guitarras y accesorios/Accesorios/Soportes para guitarras y bajos"
4965419031;"instrumentos_musicales/Featured Categories/Guitarras y accesorios/Amplificadores"
4965420031;"instrumentos_musicales/Featured Categories/Guitarras y accesorios/Efectos"
4965594031;"instrumentos_musicales/Featured Categories/Guitarras y accesorios/Efectos/Compresión"
4965595031;"instrumentos_musicales/Featured Categories/Guitarras y accesorios/Efectos/Distorsión y overdrive"
4965596031;"instrumentos_musicales/Featured Categories/Guitarras y accesorios/Efectos/Eco, delay y reverb"
4965597031;"instrumentos_musicales/Featured Categories/Guitarras y accesorios/Efectos/Ecualización"
4965598031;"instrumentos_musicales/Featured Categories/Guitarras y accesorios/Efectos/Efectos para guitarra acústica"
4965599031;"instrumentos_musicales/Featured Categories/Guitarras y accesorios/Efectos/Loopers y samplers"
4965600031;"instrumentos_musicales/Featured Categories/Guitarras y accesorios/Efectos/Modulación"
4965784031;"instrumentos_musicales/Featured Categories/Guitarras y accesorios/Efectos/Modulación/Chorus"
4965785031;"instrumentos_musicales/Featured Categories/Guitarras y accesorios/Efectos/Modulación/Flanger"
4965786031;"instrumentos_musicales/Featured Categories/Guitarras y accesorios/Efectos/Modulación/Phaser"
4965602031;"instrumentos_musicales/Featured Categories/Guitarras y accesorios/Efectos/Pitch y octavadores"
4965603031;"instrumentos_musicales/Featured Categories/Guitarras y accesorios/Efectos/Puertas de ruido"
4965605031;"instrumentos_musicales/Featured Categories/Guitarras y accesorios/Efectos/WahWah y filtros"
4965421031;"instrumentos_musicales/Featured Categories/Guitarras y accesorios/Guitarras acústicas con cuerdas metálicas"
4965422031;"instrumentos_musicales/Featured Categories/Guitarras y accesorios/Guitarras clásicas"
5027061031;"instrumentos_musicales/Featured Categories/Guitarras y accesorios/Guitarras con resonador"
4965424031;"instrumentos_musicales/Featured Categories/Guitarras y accesorios/Guitarras eléctricas"
4965423031;"instrumentos_musicales/Featured Categories/Guitarras y accesorios/Guitarras electroacústicas"
4965425031;"instrumentos_musicales/Featured Categories/Guitarras y accesorios/Kits de guitarra acústica"
4965426031;"instrumentos_musicales/Featured Categories/Guitarras y accesorios/Kits de guitarra eléctrica"
4965356031;"instrumentos_musicales/Featured Categories/Instrumentos de cuerda"
4965427031;"instrumentos_musicales/Featured Categories/Instrumentos de cuerda/Accesorios"
4965606031;"instrumentos_musicales/Featured Categories/Instrumentos de cuerda/Accesorios/Anclas y soportes para violoncelo y contrabajo"
4965607031;"instrumentos_musicales/Featured Categories/Instrumentos de cuerda/Accesorios/Arcos"
4965609031;"instrumentos_musicales/Featured Categories/Instrumentos de cuerda/Accesorios/Colofonia"
4965610031;"instrumentos_musicales/Featured Categories/Instrumentos de cuerda/Accesorios/Cuerdas"
4965789031;"instrumentos_musicales/Featured Categories/Instrumentos de cuerda/Accesorios/Cuerdas/Cuerdas para contrabajo"
4965790031;"instrumentos_musicales/Featured Categories/Instrumentos de cuerda/Accesorios/Cuerdas/Cuerdas para mandolina"
4965791031;"instrumentos_musicales/Featured Categories/Instrumentos de cuerda/Accesorios/Cuerdas/Cuerdas para ukelele"
4965792031;"instrumentos_musicales/Featured Categories/Instrumentos de cuerda/Accesorios/Cuerdas/Cuerdas para viola"
4965793031;"instrumentos_musicales/Featured Categories/Instrumentos de cuerda/Accesorios/Cuerdas/Cuerdas para violonchelo"
4965794031;"instrumentos_musicales/Featured Categories/Instrumentos de cuerda/Accesorios/Cuerdas/Cuerdas para violín"
4965611031;"instrumentos_musicales/Featured Categories/Instrumentos de cuerda/Accesorios/Estuches y fundas"
4965613031;"instrumentos_musicales/Featured Categories/Instrumentos de cuerda/Accesorios/Pastillas fonocaptoras"
4965614031;"instrumentos_musicales/Featured Categories/Instrumentos de cuerda/Accesorios/Piezas y repuestos"
4965615031;"instrumentos_musicales/Featured Categories/Instrumentos de cuerda/Accesorios/Soportes de hombro y mentoneras"
4965616031;"instrumentos_musicales/Featured Categories/Instrumentos de cuerda/Accesorios/Soportes y soportes de pared"
4965431031;"instrumentos_musicales/Featured Categories/Instrumentos de cuerda/Banjos"
4965437031;"instrumentos_musicales/Featured Categories/Instrumentos de cuerda/Dulcémeles"
4965422031;"instrumentos_musicales/Featured Categories/Instrumentos de cuerda/Guitarras clásicas"
4965448031;"instrumentos_musicales/Featured Categories/Instrumentos de cuerda/Mandolinas"
4965469031;"instrumentos_musicales/Featured Categories/Instrumentos de cuerda/Ukeleles"
4965471031;"instrumentos_musicales/Featured Categories/Instrumentos de cuerda/Violas"
4965472031;"instrumentos_musicales/Featured Categories/Instrumentos de cuerda/Violines"
4965473031;"instrumentos_musicales/Featured Categories/Instrumentos de cuerda/Violonchelos"
4965357031;"instrumentos_musicales/Featured Categories/Instrumentos de viento"
4965477031;"instrumentos_musicales/Featured Categories/Instrumentos de viento/Accesorios"
4965620031;"instrumentos_musicales/Featured Categories/Instrumentos de viento/Accesorios/Accesorios para instrumentos de viento madera"
4965795031;"instrumentos_musicales/Featured Categories/Instrumentos de viento/Accesorios/Accesorios para instrumentos de viento madera/Abrazaderas para boquillas"
4965796031;"instrumentos_musicales/Featured Categories/Instrumentos de viento/Accesorios/Accesorios para instrumentos de viento madera/Accesorios para armónicas"
4965797031;"instrumentos_musicales/Featured Categories/Instrumentos de viento/Accesorios/Accesorios para instrumentos de viento madera/Boquillas"
4965799031;"instrumentos_musicales/Featured Categories/Instrumentos de viento/Accesorios/Accesorios para instrumentos de viento madera/Estuches y fundas"
4965800031;"instrumentos_musicales/Featured Categories/Instrumentos de viento/Accesorios/Accesorios para instrumentos de viento madera/Lengüetas y cañas"
4965801031;"instrumentos_musicales/Featured Categories/Instrumentos de viento/Accesorios/Accesorios para instrumentos de viento madera/Limpieza y cuidado"
4965803031;"instrumentos_musicales/Featured Categories/Instrumentos de viento/Accesorios/Accesorios para instrumentos de viento madera/Sordinas"
4965621031;"instrumentos_musicales/Featured Categories/Instrumentos de viento/Accesorios/Accesorios para instrumentos de viento metal"
4965804031;"instrumentos_musicales/Featured Categories/Instrumentos de viento/Accesorios/Accesorios para instrumentos de viento metal/Boquillas"
4965805031;"instrumentos_musicales/Featured Categories/Instrumentos de viento/Accesorios/Accesorios para instrumentos de viento metal/Estuches y fundas"
4965806031;"instrumentos_musicales/Featured Categories/Instrumentos de viento/Accesorios/Accesorios para instrumentos de viento metal/Limpieza y cuidado"
4965808031;"instrumentos_musicales/Featured Categories/Instrumentos de viento/Accesorios/Accesorios para instrumentos de viento metal/Sordinas"
4965622031;"instrumentos_musicales/Featured Categories/Instrumentos de viento/Accesorios/Correas"
4965623031;"instrumentos_musicales/Featured Categories/Instrumentos de viento/Accesorios/Soportes"
4965478031;"instrumentos_musicales/Featured Categories/Instrumentos de viento/Armónicas"
4965483031;"instrumentos_musicales/Featured Categories/Instrumentos de viento/Didgeridoos"
4965484031;"instrumentos_musicales/Featured Categories/Instrumentos de viento/Instrumentos de viento madera"
4965625031;"instrumentos_musicales/Featured Categories/Instrumentos de viento/Instrumentos de viento madera/Clarinetes"
4965632031;"instrumentos_musicales/Featured Categories/Instrumentos de viento/Instrumentos de viento madera/Flautas dulces"
4965809031;"instrumentos_musicales/Featured Categories/Instrumentos de viento/Instrumentos de viento madera/Flautas dulces/Flautas dulces alto"
4965810031;"instrumentos_musicales/Featured Categories/Instrumentos de viento/Instrumentos de viento madera/Flautas dulces/Flautas dulces soprano"
4965811031;"instrumentos_musicales/Featured Categories/Instrumentos de viento/Instrumentos de viento madera/Flautas dulces/Flautas dulces tenor"
4965633031;"instrumentos_musicales/Featured Categories/Instrumentos de viento/Instrumentos de viento madera/Flautas traveseras"
4965637031;"instrumentos_musicales/Featured Categories/Instrumentos de viento/Instrumentos de viento madera/Ocarinas"
4965638031;"instrumentos_musicales/Featured Categories/Instrumentos de viento/Instrumentos de viento madera/Pífanos"
4965639031;"instrumentos_musicales/Featured Categories/Instrumentos de viento/Instrumentos de viento madera/Saxofones"
4965646031;"instrumentos_musicales/Featured Categories/Instrumentos de viento/Instrumentos de viento madera/Zampoñas"
4965485031;"instrumentos_musicales/Featured Categories/Instrumentos de viento/Instrumentos de viento metal"
4965649031;"instrumentos_musicales/Featured Categories/Instrumentos de viento/Instrumentos de viento metal/Cornetas"
4965653031;"instrumentos_musicales/Featured Categories/Instrumentos de viento/Instrumentos de viento metal/Trombones"
4965654031;"instrumentos_musicales/Featured Categories/Instrumentos de viento/Instrumentos de viento metal/Trompas"
4965656031;"instrumentos_musicales/Featured Categories/Instrumentos de viento/Instrumentos de viento metal/Trompetas"
4965486031;"instrumentos_musicales/Featured Categories/Instrumentos de viento/Kazoos"
4965488031;"instrumentos_musicales/Featured Categories/Instrumentos de viento/Melódicas"
4965493031;"instrumentos_musicales/Featured Categories/Instrumentos de viento/Silbatos"
4965358031;"instrumentos_musicales/Featured Categories/Micrófonos"
4965496031;"instrumentos_musicales/Featured Categories/Micrófonos/Accesorios"
4965542031;"instrumentos_musicales/Featured Categories/Micrófonos/Accesorios/Cables para micrófono"
4965659031;"instrumentos_musicales/Featured Categories/Micrófonos/Accesorios/Fundas y estuches"
4965660031;"instrumentos_musicales/Featured Categories/Micrófonos/Accesorios/Pantallas antiviento y filtros anti-pop"
4965661031;"instrumentos_musicales/Featured Categories/Micrófonos/Accesorios/Pinzas y soportes"
4965664031;"instrumentos_musicales/Featured Categories/Micrófonos/Accesorios/Soportes y pies"
4965497031;"instrumentos_musicales/Featured Categories/Micrófonos/Micrófonos de cinta"
4965498031;"instrumentos_musicales/Featured Categories/Micrófonos/Micrófonos de condensador"
4965499031;"instrumentos_musicales/Featured Categories/Micrófonos/Micrófonos dinámicos"
4965500031;"instrumentos_musicales/Featured Categories/Micrófonos/Micrófonos inalámbricos"
4965359031;"instrumentos_musicales/Featured Categories/Percusión"
4965501031;"instrumentos_musicales/Featured Categories/Percusión/Accesorios"
4965665031;"instrumentos_musicales/Featured Categories/Percusión/Accesorios/Accesorios para baterías electrónicas"
4965668031;"instrumentos_musicales/Featured Categories/Percusión/Accesorios/Accesorios para platillos y gongs"
4965673031;"instrumentos_musicales/Featured Categories/Percusión/Accesorios/Baquetas para cajas y baterías"
4965674031;"instrumentos_musicales/Featured Categories/Percusión/Accesorios/Baquetas y mazas"
4965675031;"instrumentos_musicales/Featured Categories/Percusión/Accesorios/Bolsas, fundas y estuches"
4965676031;"instrumentos_musicales/Featured Categories/Percusión/Accesorios/Escobillas"
5027045031;"instrumentos_musicales/Featured Categories/Percusión/Accesorios/Guantes"
4965678031;"instrumentos_musicales/Featured Categories/Percusión/Accesorios/Llaves de afinación"
4965680031;"instrumentos_musicales/Featured Categories/Percusión/Accesorios/Parches"
5155830031;"instrumentos_musicales/Featured Categories/Percusión/Accesorios/Piezas y repuestos para baterías y tambores"
5027049031;"instrumentos_musicales/Featured Categories/Percusión/Accesorios/Protección auditiva"
4965682031;"instrumentos_musicales/Featured Categories/Percusión/Accesorios/Taburetes"
4965502031;"instrumentos_musicales/Featured Categories/Percusión/Almohadillas de práctica"
4965503031;"instrumentos_musicales/Featured Categories/Percusión/Baterías y sets de tambores"
4965683031;"instrumentos_musicales/Featured Categories/Percusión/Baterías y sets de tambores/Sets de batería"
4965684031;"instrumentos_musicales/Featured Categories/Percusión/Baterías y sets de tambores/Tambores"
4965504031;"instrumentos_musicales/Featured Categories/Percusión/Baterías electrónicas"
4965505031;"instrumentos_musicales/Featured Categories/Percusión/Gongs"
4965506031;"instrumentos_musicales/Featured Categories/Percusión/Percusión de mano"
4965685031;"instrumentos_musicales/Featured Categories/Percusión/Percusión de mano/Agogôs"
4965687031;"instrumentos_musicales/Featured Categories/Percusión/Percusión de mano/Cabasas"
4965688031;"instrumentos_musicales/Featured Categories/Percusión/Percusión de mano/Campanas de mano"
4965689031;"instrumentos_musicales/Featured Categories/Percusión/Percusión de mano/Castañuelas"
4965690031;"instrumentos_musicales/Featured Categories/Percusión/Percusión de mano/Claves y cajas chinas"
4965691031;"instrumentos_musicales/Featured Categories/Percusión/Percusión de mano/Crótalos"
4965693031;"instrumentos_musicales/Featured Categories/Percusión/Percusión de mano/Güiros"
4965694031;"instrumentos_musicales/Featured Categories/Percusión/Percusión de mano/Maracas, shakers y sonajeros"
4965695031;"instrumentos_musicales/Featured Categories/Percusión/Percusión de mano/Palos de lluvia y tambores oceánicos"
4965696031;"instrumentos_musicales/Featured Categories/Percusión/Percusión de mano/Panderetas"
4965698031;"instrumentos_musicales/Featured Categories/Percusión/Percusión de mano/Tablas de lavar"
4965699031;"instrumentos_musicales/Featured Categories/Percusión/Percusión de mano/Tambores de hendidura"
4965507031;"instrumentos_musicales/Featured Categories/Percusión/Percusión melódica y de orquesta"
4965700031;"instrumentos_musicales/Featured Categories/Percusión/Percusión melódica y de orquesta/Campanas"
4965701031;"instrumentos_musicales/Featured Categories/Percusión/Percusión melódica y de orquesta/Campanas tubulares"
4965704031;"instrumentos_musicales/Featured Categories/Percusión/Percusión melódica y de orquesta/Metalófonos"
4965706031;"instrumentos_musicales/Featured Categories/Percusión/Percusión melódica y de orquesta/Triángulos"
4965708031;"instrumentos_musicales/Featured Categories/Percusión/Percusión melódica y de orquesta/Xilófonos"
4965508031;"instrumentos_musicales/Featured Categories/Percusión/Platillos"
4965709031;"instrumentos_musicales/Featured Categories/Percusión/Platillos/Crash"
4965710031;"instrumentos_musicales/Featured Categories/Percusión/Platillos/Crash-Ride"
4965711031;"instrumentos_musicales/Featured Categories/Percusión/Platillos/Hi-Hat"
4965712031;"instrumentos_musicales/Featured Categories/Percusión/Platillos/Juegos de platillos"
4965713031;"instrumentos_musicales/Featured Categories/Percusión/Platillos/Platillos chinos y de efectos"
4965714031;"instrumentos_musicales/Featured Categories/Percusión/Platillos/Platillos splash"
4965715031;"instrumentos_musicales/Featured Categories/Percusión/Platillos/Ride"
4965509031;"instrumentos_musicales/Featured Categories/Percusión/Soportes y herrajes"
4965510031;"instrumentos_musicales/Featured Categories/Percusión/Tambores de mano"
4965726031;"instrumentos_musicales/Featured Categories/Percusión/Tambores de mano/Bodhráns y tambores de marco"
4965727031;"instrumentos_musicales/Featured Categories/Percusión/Tambores de mano/Bongos"
4965728031;"instrumentos_musicales/Featured Categories/Percusión/Tambores de mano/Cajones"
4965729031;"instrumentos_musicales/Featured Categories/Percusión/Tambores de mano/Congas"
4965730031;"instrumentos_musicales/Featured Categories/Percusión/Tambores de mano/Derbakes y darbukas"
4965733031;"instrumentos_musicales/Featured Categories/Percusión/Tambores de mano/Djembés"
4965741031;"instrumentos_musicales/Featured Categories/Percusión/Tambores de mano/Tambores metálicos de Trinidad y Tobago"
4965742031;"instrumentos_musicales/Featured Categories/Percusión/Tambores de mano/Tambores parlantes"
4965360031;"instrumentos_musicales/Featured Categories/Pianos y teclados"
4965511031;"instrumentos_musicales/Featured Categories/Pianos y teclados/Accesorios"
4965744031;"instrumentos_musicales/Featured Categories/Pianos y teclados/Accesorios/Accesorios para acordeones"
4965817031;"instrumentos_musicales/Featured Categories/Pianos y teclados/Accesorios/Accesorios para acordeones/Correas de hombro"
4965818031;"instrumentos_musicales/Featured Categories/Pianos y teclados/Accesorios/Accesorios para acordeones/Estuches"
4965819031;"instrumentos_musicales/Featured Categories/Pianos y teclados/Accesorios/Accesorios para acordeones/Fundas"
4965745031;"instrumentos_musicales/Featured Categories/Pianos y teclados/Accesorios/Accesorios para teclados electrónicos"
4965748031;"instrumentos_musicales/Featured Categories/Pianos y teclados/Accesorios/Bancos y taburetes"
4965749031;"instrumentos_musicales/Featured Categories/Pianos y teclados/Accesorios/Bolsas, fundas y estuches"
4965536031;"instrumentos_musicales/Featured Categories/Pianos y teclados/Accesorios/Cables MIDI"
4965751031;"instrumentos_musicales/Featured Categories/Pianos y teclados/Accesorios/Soportes y pies"
4965512031;"instrumentos_musicales/Featured Categories/Pianos y teclados/Acordeones"
4965753031;"instrumentos_musicales/Featured Categories/Pianos y teclados/Acordeones/Acordeones de botones"
4965754031;"instrumentos_musicales/Featured Categories/Pianos y teclados/Acordeones/Acordeones de teclas"
4965517031;"instrumentos_musicales/Featured Categories/Pianos y teclados/Pianos digitales"
4965518031;"instrumentos_musicales/Featured Categories/Pianos y teclados/Teclados electrónicos"
4965361031;"instrumentos_musicales/Featured Categories/Sintetizadores, samplers e instrumentos digitales"
4965520031;"instrumentos_musicales/Featured Categories/Sintetizadores, samplers e instrumentos digitales/Accesorios"
4965749031;"instrumentos_musicales/Featured Categories/Sintetizadores, samplers e instrumentos digitales/Accesorios/Bolsos, fundas y estuches"
4965536031;"instrumentos_musicales/Featured Categories/Sintetizadores, samplers e instrumentos digitales/Accesorios/Cables MIDI"
4965517031;"instrumentos_musicales/Featured Categories/Sintetizadores, samplers e instrumentos digitales/Pianos digitales"
4965526031;"instrumentos_musicales/Featured Categories/Sintetizadores, samplers e instrumentos digitales/Sintetizadores"
4965518031;"instrumentos_musicales/Featured Categories/Sintetizadores, samplers e instrumentos digitales/Teclados electrónicos"
4965362031;"instrumentos_musicales/Featured Categories/Sistemas de escenario y megafonía"
4965527031;"instrumentos_musicales/Featured Categories/Sistemas de escenario y megafonía/Altavoces"
4965758031;"instrumentos_musicales/Featured Categories/Sistemas de escenario y megafonía/Altavoces/Accesorios para altavoces"
4965759031;"instrumentos_musicales/Featured Categories/Sistemas de escenario y megafonía/Altavoces/Altavoces de gama completa"
4965760031;"instrumentos_musicales/Featured Categories/Sistemas de escenario y megafonía/Altavoces/Monitores"
4965761031;"instrumentos_musicales/Featured Categories/Sistemas de escenario y megafonía/Altavoces/Satélites"
4965762031;"instrumentos_musicales/Featured Categories/Sistemas de escenario y megafonía/Altavoces/Subwoofers"
4965528031;"instrumentos_musicales/Featured Categories/Sistemas de escenario y megafonía/Amplificadores"
4965529031;"instrumentos_musicales/Featured Categories/Sistemas de escenario y megafonía/Andamiaje y soporte"
4965368031;"instrumentos_musicales/Featured Categories/Sistemas de escenario y megafonía/Cables y conectores"
4965537031;"instrumentos_musicales/Featured Categories/Sistemas de escenario y megafonía/Cables y conectores/Cables de alimentación"
4965538031;"instrumentos_musicales/Featured Categories/Sistemas de escenario y megafonía/Cables y conectores/Cables de interfaz digital"
4965536031;"instrumentos_musicales/Featured Categories/Sistemas de escenario y megafonía/Cables y conectores/Cables MIDI"
4965539031;"instrumentos_musicales/Featured Categories/Sistemas de escenario y megafonía/Cables y conectores/Cables multicore"
934071031;"instrumentos_musicales/Featured Categories/Sistemas de escenario y megafonía/Cables y conectores/Cables para altavoces"
4965541031;"instrumentos_musicales/Featured Categories/Sistemas de escenario y megafonía/Cables y conectores/Cables para instrumentos"
4965542031;"instrumentos_musicales/Featured Categories/Sistemas de escenario y megafonía/Cables y conectores/Cables para micrófono"
4965543031;"instrumentos_musicales/Featured Categories/Sistemas de escenario y megafonía/Cables y conectores/Cables patch"
4965530031;"instrumentos_musicales/Featured Categories/Sistemas de escenario y megafonía/Cajas DI"
4965531031;"instrumentos_musicales/Featured Categories/Sistemas de escenario y megafonía/Fundas, estuches y soportes"
4965532031;"instrumentos_musicales/Featured Categories/Sistemas de escenario y megafonía/Iluminación"
4965765031;"instrumentos_musicales/Featured Categories/Sistemas de escenario y megafonía/Iluminación/Bolas de espejos"
4965766031;"instrumentos_musicales/Featured Categories/Sistemas de escenario y megafonía/Iluminación/Escáneres"
4965767031;"instrumentos_musicales/Featured Categories/Sistemas de escenario y megafonía/Iluminación/Estroboscopios"
4965768031;"instrumentos_musicales/Featured Categories/Sistemas de escenario y megafonía/Iluminación/Filtros de color"
4965769031;"instrumentos_musicales/Featured Categories/Sistemas de escenario y megafonía/Iluminación/Focos móviles"
4965770031;"instrumentos_musicales/Featured Categories/Sistemas de escenario y megafonía/Iluminación/Lámparas de iluminación de escenarios"
4965771031;"instrumentos_musicales/Featured Categories/Sistemas de escenario y megafonía/Iluminación/Láseres"
4965773031;"instrumentos_musicales/Featured Categories/Sistemas de escenario y megafonía/Iluminación/Máquinas de efectos"
4965772031;"instrumentos_musicales/Featured Categories/Sistemas de escenario y megafonía/Iluminación/Mezcladores de iluminación"
4965774031;"instrumentos_musicales/Featured Categories/Sistemas de escenario y megafonía/Iluminación/Soportes de focos"
4204409031;"instrumentos_musicales/Featured Categories/Sistemas de escenario y megafonía/Iluminación/Tiras de LED"
4965533031;"instrumentos_musicales/Featured Categories/Sistemas de escenario y megafonía/Mesas de mezclas"
4965358031;"instrumentos_musicales/Featured Categories/Sistemas de escenario y megafonía/Micrófonos"
4965496031;"instrumentos_musicales/Featured Categories/Sistemas de escenario y megafonía/Micrófonos/Accesorios"
4965542031;"instrumentos_musicales/Featured Categories/Sistemas de escenario y megafonía/Micrófonos/Accesorios/Cables para micrófono"
4965659031;"instrumentos_musicales/Featured Categories/Sistemas de escenario y megafonía/Micrófonos/Accesorios/Fundas y estuches"
4965660031;"instrumentos_musicales/Featured Categories/Sistemas de escenario y megafonía/Micrófonos/Accesorios/Pantallas antiviento y filtros anti-pop"
4965661031;"instrumentos_musicales/Featured Categories/Sistemas de escenario y megafonía/Micrófonos/Accesorios/Pinzas y soportes"
4965664031;"instrumentos_musicales/Featured Categories/Sistemas de escenario y megafonía/Micrófonos/Accesorios/Soportes y pies"
4965497031;"instrumentos_musicales/Featured Categories/Sistemas de escenario y megafonía/Micrófonos/Micrófonos de cinta"
4965498031;"instrumentos_musicales/Featured Categories/Sistemas de escenario y megafonía/Micrófonos/Micrófonos de condensador"
4965499031;"instrumentos_musicales/Featured Categories/Sistemas de escenario y megafonía/Micrófonos/Micrófonos dinámicos"
4965500031;"instrumentos_musicales/Featured Categories/Sistemas de escenario y megafonía/Micrófonos/Micrófonos inalámbricos"
4965415031;"instrumentos_musicales/Featured Categories/Sistemas de escenario y megafonía/Procesadores de señal y de efectos"
4965534031;"instrumentos_musicales/Featured Categories/Sistemas de escenario y megafonía/Sistemas de megafonía y anuncio"
4916299031;"instrumentos_musicales/Búsqueda avanzada"
