PetSupplies;1
Automotive;1
Luggage & Bags;1
Beauty;1
Baby;1
Jewelry;1
Miscellaneous;1
HomeImprovement;1
shoes;1
Home & Kitchen;1
OfficeProducts;1
Appliances;1
Electronics;1
MusicalInstruments;1
Toys;1
VideoGames;1
Lighting;1
Watches;1
HealthPersonalCare;1
SportingGoods;1
Apparel;1
