Automotive;1
Baby;1
Beauty;1
Apparel;1
Clothing;1
PCHardware;1
HomeImprovement;1
Electronics;1
Grocery;1
HealthPersonalCare;1
HomeGarden;1
Jewelry;1
Appliances;1
Lighting;1
Luggage & Bags;1
MusicalInstruments;1
VideoGames;1
PetSupplies;1
Shoes;1
Miscellaneous;1
Software;1
SportingGoods;1
OfficeProducts;1
Toys;1
Watches;1
