5477654011;"featured_stores/Amazon Frustration-Free Packaging"
5477658011;"featured_stores/Amazon Frustration-Free Packaging/Amazon Frustration-Free Packaging Certification"
2229639011;"featured_stores/Amazon & Our Planet"
2229640011;"featured_stores/Amazon & the Environment"
2229641011;"featured_stores/Author & Publisher Groups"
11966131;"featured_stores/Awards and Prizes"
3044331;"featured_stores/Best of 2002"
10027151;"featured_stores/Best of 2003"
13618581;"featured_stores/Best of 2004"
15905251;"featured_stores/Best of 2005"
299512011;"featured_stores/Best of 2006"
391448011;"featured_stores/Best of 2007"
402117011;"featured_stores/Best of 2008"
402118011;"featured_stores/Best of 2009"
402119011;"featured_stores/Best of 2010"
402116011;"featured_stores/Business Store"
178809011;"featured_stores/Canada Day Deals"
13300701;"featured_stores/Canadian Essentials"
2571149011;"featured_stores/Careers"
2571156011;"featured_stores/Careers/Home"
2571157011;"featured_stores/Careers/Search Jobs"
2571158011;"featured_stores/Careers/Apply Now"
2571159011;"featured_stores/Careers/About Amazon"
2571160011;"featured_stores/Careers/Amazon Values"
2571161011;"featured_stores/Careers/Locations"
2571162011;"featured_stores/Careers/Why Join Amazon?"
2571163011;"featured_stores/Careers/Inside Amazon"
2571164011;"featured_stores/Careers/Benefits"
2571165011;"featured_stores/Careers/How to Apply"
2571166011;"featured_stores/Careers/Interview Process"
2571167011;"featured_stores/Careers/FAQ"
2571168011;"featured_stores/Careers/University Recruiting"
377965011;"featured_stores/Classical Blowout"
12842221;"featured_stores/Correios"
12842231;"featured_stores/Correios/1"
12842241;"featured_stores/Correios/2"
12842251;"featured_stores/Correios/3"
1265255011;"featured_stores/Deals at Amazon.ca: Save on Electronics, Video Games, DVD and More"
1233339011;"featured_stores/Disaster Relief"
1263817011;"featured_stores/Earth Day"
13603281;"featured_stores/Editors' Daily Picks"
13769991;"featured_stores/Editors' Picks"
13770031;"featured_stores/Editors' Picks/Ryan Boudinot"
13770131;"featured_stores/Editors' Picks/Daphne Durham"
13770141;"featured_stores/Editors' Picks/Nathalie Farage"
13770101;"featured_stores/Editors' Picks/Shane Farmer"
13832271;"featured_stores/Editors' Picks/Ted Fry"
13770121;"featured_stores/Editors' Picks/E. Brooke Gilbert"
13770001;"featured_stores/Editors' Picks/Megan Halverson"
13770071;"featured_stores/Editors' Picks/Peter Hilgendorf"
13770191;"featured_stores/Editors' Picks/David Horiuchi"
13832281;"featured_stores/Editors' Picks/Pat Kearney"
13838261;"featured_stores/Editors' Picks/Erin Kilpatrick"
13838251;"featured_stores/Editors' Picks/Steve Landau"
13770051;"featured_stores/Editors' Picks/Benjamin Lukoff"
13838271;"featured_stores/Editors' Picks/Beth Massa"
13770091;"featured_stores/Editors' Picks/Thomas May"
13770021;"featured_stores/Editors' Picks/Rob McDonald"
13770111;"featured_stores/Editors' Picks/Tom Nissley"
13770151;"featured_stores/Editors' Picks/Brad Thomas Parsons"
13770161;"featured_stores/Editors' Picks/Ben Reese"
13770181;"featured_stores/Editors' Picks/Doug Thomas"
13770171;"featured_stores/Editors' Picks/Dan Vancini"
13770011;"featured_stores/Editors' Picks/Jason Verlinde"
13770081;"featured_stores/Editors' Picks/Leah Weathersby"
1161110;"featured_stores/Fall into Savings"
234933011;"featured_stores/Gifts"
234934011;"featured_stores/Gifts/Gift Certificates"
3339029011;"featured_stores/Gifts/Gifts"
1292877011;"featured_stores/Gifts for Dads & Grads: Books, Electronics, Movies, Music & More"
13987861;"featured_stores/Harry Potter Store"
13609231;"featured_stores/Holiday A-List"
402115011;"featured_stores/Kids & Family Store"
236539011;"featured_stores/Labour Day Sale"
3044341;"featured_stores/Le meilleur de l'année 2002"
10365841;"featured_stores/Le meilleur de l'année 2003"
402126011;"featured_stores/Le meilleur de l'année 2008"
402127011;"featured_stores/Le meilleur de l'année 2009"
402128011;"featured_stores/Le meilleur de l'année 2010"
3199481;"featured_stores/Le printemps à petits prix"
13300711;"featured_stores/Les incontournables qu&eacute;b&eacute;cois"
1272739011;"featured_stores/Mother's Day Gifts"
3034411;"featured_stores/New Year, New You"
3244041;"featured_stores/Nos coups de c&oelig;ur"
3034421;"featured_stores/Nouvelle année, nouvelles idées"
3234051;"featured_stores/Prix et récompenses"
3199471;"featured_stores/Spring into Savings"
15695201;"featured_stores/Star Wars Store"
402121011;"featured_stores/Award Winners"
402122011;"featured_stores/Valentine's Day"
402123011;"featured_stores/Back to School"
402124011;"featured_stores/Mother's Day"
402125011;"featured_stores/Halloween"
1297211011;"featured_stores/Summer Fun - Hot Books, Movies, Music and More for the Summer"
402120011;"featured_stores/Tax Central"
256504011;"featured_stores/The Da Vinci Code"
1192088;"featured_stores/The J.R.R. Tolkien Store"
2229642011;"featured_stores/Tools for Nonprofits"
1077034;"featured_stores/Toronto International Film Festival"
385063011;"featured_stores/Travel Store"
2243054011;"featured_stores/Valentine's Day Gifts: Books, Electronics, Movies, TV Shows, Music, and More"
1077032;"featured_stores/Vancouver International Film Festival"
3143529011;"featured_stores/Self-Service"
3143530011;"featured_stores/Self-Service/Custom Stores"
5854268011;"featured_stores/Self-Service/Custom Stores/Markdowns"
5854272011;"featured_stores/Self-Service/Custom Stores/Markdowns/Baby"
5854271011;"featured_stores/Self-Service/Custom Stores/Markdowns/Books"
5854273011;"featured_stores/Self-Service/Custom Stores/Markdowns/Electronics"
5854274011;"featured_stores/Self-Service/Custom Stores/Markdowns/Home & Garden"
5854281011;"featured_stores/Self-Service/Custom Stores/Markdowns/Movies & TV"
5854282011;"featured_stores/Self-Service/Custom Stores/Markdowns/Music"
5854284011;"featured_stores/Self-Service/Custom Stores/Markdowns/Software"
5854285011;"featured_stores/Self-Service/Custom Stores/Markdowns/Sports & Outdoors"
5854286011;"featured_stores/Self-Service/Custom Stores/Markdowns/Tools & Building Supplies"
5854288011;"featured_stores/Self-Service/Custom Stores/Markdowns/Video Games"
5854289011;"featured_stores/Self-Service/Custom Stores/Markdowns/Watches"
6115667011;"featured_stores/Self-Service/Custom Stores/Gift Ideas"
7706568011;"featured_stores/Self-Service/Custom Stores/October Baby Bonus Top Picks"
7974179011;"featured_stores/Self-Service/Custom Stores/New Year, New You"
7990745011;"featured_stores/Self-Service/Custom Stores/Baby Bonus Top Picks: November"
7990852011;"featured_stores/Self-Service/Custom Stores/Health & Beauty Deals"
8021393011;"featured_stores/Self-Service/Custom Stores/Health & Beauty Gift Guide"
8852092011;"featured_stores/Self-Service/Custom Stores/Spring Refresh"
9209903011;"featured_stores/Self-Service/Custom Stores/Victoria Day"
9271385011;"featured_stores/Self-Service/Custom Stores/Victoria Day/Head to the Cottage"
9271384011;"featured_stores/Self-Service/Custom Stores/Victoria Day/Go Camping"
9271383011;"featured_stores/Self-Service/Custom Stores/Victoria Day/Start Your Garden"
9271382011;"featured_stores/Self-Service/Custom Stores/Victoria Day/Take a Trip"
9271381011;"featured_stores/Self-Service/Custom Stores/Victoria Day/Get Out the Grill"
9214900011;"featured_stores/Self-Service/Custom Stores/Graduation 2014"
9284110011;"featured_stores/Self-Service/Custom Stores/DIY Dad"
9284111011;"featured_stores/Self-Service/Custom Stores/Dapper Dad"
9284113011;"featured_stores/Self-Service/Custom Stores/Gadget Dad"
9284114011;"featured_stores/Self-Service/Custom Stores/Sporty Dad"
9284115011;"featured_stores/Self-Service/Custom Stores/Media Mogul"
9284116011;"featured_stores/Self-Service/Custom Stores/The Hobbyist"
9648404011;"featured_stores/Self-Service/Custom Stores/Amazon Student Page"
9934629011;"featured_stores/Self-Service/Custom Stores/Canada Thanksgiving 2014"
10032368011;"featured_stores/Self-Service/Custom Stores/Canada Thanksgiving 2014/Cookbooks"
10130900011;"featured_stores/Self-Service/Custom Stores/Halloween"
10151694011;"featured_stores/Self-Service/Custom Stores/Halloween/Halloween Entertainment"
10152349011;"featured_stores/Self-Service/Custom Stores/Halloween/Halloween Entertainment/Music"
10151743011;"featured_stores/Self-Service/Custom Stores/Halloween/Halloween Entertainment/The Walking Dead"
10151723011;"featured_stores/Self-Service/Custom Stores/Halloween/Halloween Entertainment/Movies & TV Shows"
10152209011;"featured_stores/Self-Service/Custom Stores/Halloween/Halloween Entertainment/Movies & TV Shows/Thrillers"
10151742011;"featured_stores/Self-Service/Custom Stores/Halloween/Halloween Entertainment/Movies & TV Shows/The Walking Dead"
10151732011;"featured_stores/Self-Service/Custom Stores/Halloween/Halloween Entertainment/Movies & TV Shows/Classics"
10151740011;"featured_stores/Self-Service/Custom Stores/Halloween/Halloween Entertainment/Movies & TV Shows/Scary & Spooky"
10151741011;"featured_stores/Self-Service/Custom Stores/Halloween/Halloween Entertainment/Movies & TV Shows/Frighteningly Funny"
10151731011;"featured_stores/Self-Service/Custom Stores/Halloween/Halloween Entertainment/Movies & TV Shows/Kids & Family"
10151727011;"featured_stores/Self-Service/Custom Stores/Halloween/Halloween Entertainment/Books & Graphic Novels"
10151728011;"featured_stores/Self-Service/Custom Stores/Halloween/Halloween Entertainment/CD & Vinyl"
10151726011;"featured_stores/Self-Service/Custom Stores/Halloween/Halloween Entertainment/Toys & Games"
10151725011;"featured_stores/Self-Service/Custom Stores/Halloween/Halloween Entertainment/Video Games"
10151693011;"featured_stores/Self-Service/Custom Stores/Halloween/Candy & Party Essentials"
10151712011;"featured_stores/Self-Service/Custom Stores/Halloween/Candy & Party Essentials/Candy"
10151716011;"featured_stores/Self-Service/Custom Stores/Halloween/Candy & Party Essentials/Bakeware & Decorations"
10151718011;"featured_stores/Self-Service/Custom Stores/Halloween/Candy & Party Essentials/Home Décor"
10151721011;"featured_stores/Self-Service/Custom Stores/Halloween/Candy & Party Essentials/Outdoor Lighting & Accessories"
10151720011;"featured_stores/Self-Service/Custom Stores/Halloween/Candy & Party Essentials/Party Favours"
10151692011;"featured_stores/Self-Service/Custom Stores/Halloween/Costumes & Accessories"
10151695011;"featured_stores/Self-Service/Custom Stores/Halloween/Costumes & Accessories/Costumes"
10151707011;"featured_stores/Self-Service/Custom Stores/Halloween/Costumes & Accessories/Costumes/Pets"
10151706011;"featured_stores/Self-Service/Custom Stores/Halloween/Costumes & Accessories/Costumes/Baby"
10151705011;"featured_stores/Self-Service/Custom Stores/Halloween/Costumes & Accessories/Costumes/Kids"
10151701011;"featured_stores/Self-Service/Custom Stores/Halloween/Costumes & Accessories/Capes"
10151700011;"featured_stores/Self-Service/Custom Stores/Halloween/Costumes & Accessories/Hats & Caps"
10151697011;"featured_stores/Self-Service/Custom Stores/Halloween/Costumes & Accessories/Make-Up"
10151696011;"featured_stores/Self-Service/Custom Stores/Halloween/Costumes & Accessories/Masks"
10151698011;"featured_stores/Self-Service/Custom Stores/Halloween/Costumes & Accessories/Wigs"
10130938011;"featured_stores/Self-Service/Custom Stores/Halloween Entertainment"
10157641011;"featured_stores/Self-Service/Custom Stores/Collection30secondes"
10157710011;"featured_stores/Self-Service/Custom Stores/Placeholder3"
10157833011;"featured_stores/Self-Service/Custom Stores/Placeholder4"
10157834011;"featured_stores/Self-Service/Custom Stores/Placeholder6"
10192582011;"featured_stores/Self-Service/Custom Stores/Editor's Picks"
10306567011;"featured_stores/Self-Service/Custom Stores/Editor's Picks/Gifts for Dad"
10306566011;"featured_stores/Self-Service/Custom Stores/Editor's Picks/Gifts for Mom"
10306568011;"featured_stores/Self-Service/Custom Stores/Editor's Picks/Friends & Neighbours"
10306569011;"featured_stores/Self-Service/Custom Stores/Editor's Picks/Teachers"
10306570011;"featured_stores/Self-Service/Custom Stores/Editor's Picks/Hostess Gifts"
10192583011;"featured_stores/Self-Service/Custom Stores/Stocking Stuffers"
10192691011;"featured_stores/Self-Service/Custom Stores/The Do-It-Yourselfer"
10192692011;"featured_stores/Self-Service/Custom Stores/The Foodie"
10192693011;"featured_stores/Self-Service/Custom Stores/The Consummate Host"
10192694011;"featured_stores/Self-Service/Custom Stores/The Green Thumb"
10192695011;"featured_stores/Self-Service/Custom Stores/The Glamour Girl"
10192697011;"featured_stores/Self-Service/Custom Stores/The Dude"
10192698011;"featured_stores/Self-Service/Custom Stores/The Happy Camper"
10192699011;"featured_stores/Self-Service/Custom Stores/The Techie"
10192700011;"featured_stores/Self-Service/Custom Stores/The Busy Professional"
10192702011;"featured_stores/Self-Service/Custom Stores/The Media Mogul"
10192704011;"featured_stores/Self-Service/Custom Stores/The Sports Fan"
10192705011;"featured_stores/Self-Service/Custom Stores/The Globe Trotter"
10192706011;"featured_stores/Self-Service/Custom Stores/The Pet Lover"
10192707011;"featured_stores/Self-Service/Custom Stores/The One Who Has Everything"
10306559011;"featured_stores/Self-Service/Custom Stores/Baby"
10306561011;"featured_stores/Self-Service/Custom Stores/5-8 Years"
10306562011;"featured_stores/Self-Service/Custom Stores/9-12 Years"
10306563011;"featured_stores/Self-Service/Custom Stores/13-17 Years"
10306564011;"featured_stores/Self-Service/Custom Stores/2-4 Years"
10306565011;"featured_stores/Self-Service/Custom Stores/Kids' Gifts by Age"
10306582011;"featured_stores/Self-Service/Custom Stores/Holiday Gifts"
10313919011;"featured_stores/Self-Service/Custom Stores/The Gamer"
10313920011;"featured_stores/Self-Service/Custom Stores/The Audiophile"
10318991011;"featured_stores/Self-Service/Custom Stores/New Parents"
10319309011;"featured_stores/Self-Service/Custom Stores/Idées cadeaux 2014"
10329535011;"featured_stores/Self-Service/Custom Stores/Celui/celle qui a tout"
10329536011;"featured_stores/Self-Service/Custom Stores/Vedettes du sport"
10329537011;"featured_stores/Self-Service/Custom Stores/Globe-trotteurs"
10329538011;"featured_stores/Self-Service/Custom Stores/Les battants"
10329539011;"featured_stores/Self-Service/Custom Stores/Les créatifs"
10329540011;"featured_stores/Self-Service/Custom Stores/Auteurs franco-canadiens"
10329589011;"featured_stores/Self-Service/Custom Stores/Les petits génies"
10329602011;"featured_stores/Self-Service/Custom Stores/Les amateurs d'histoire"
10329639011;"featured_stores/Self-Service/Custom Stores/Les amateurs de fiction"
10329640011;"featured_stores/Self-Service/Custom Stores/Les gourmets"
10329641011;"featured_stores/Self-Service/Custom Stores/Les amateurs de suspense"
10329642011;"featured_stores/Self-Service/Custom Stores/Les aventuriers"
10329643011;"featured_stores/Self-Service/Custom Stores/Livres pour les fêtes"
10329644011;"featured_stores/Self-Service/Custom Stores/Les amateurs de mode"
10329645011;"featured_stores/Self-Service/Custom Stores/Les technophiles"
10329646011;"featured_stores/Self-Service/Custom Stores/Articles à moins de 10 $"
10329647011;"featured_stores/Self-Service/Custom Stores/Articles à moins de 20 $"
10329648011;"featured_stores/Self-Service/Custom Stores/Articles à moins de 30 $"
3143531011;"featured_stores/Self-Service/Special Features Stores"
3145644011;"featured_stores/Self-Service/Special Features Stores/Sell Your Stuff"
3230544011;"featured_stores/Self-Service/Special Features Stores/Credit Card Marketplace"
3338579011;"featured_stores/Self-Service/Special Features Stores/Scotiabank"
3338580011;"featured_stores/Self-Service/Special Features Stores/Royal Bank of Canada"
3338662011;"featured_stores/Self-Service/Special Features Stores/National Bank of Canada"
3338664011;"featured_stores/Self-Service/Special Features Stores/CIBC"
3338665011;"featured_stores/Self-Service/Special Features Stores/Student Card"
3338675011;"featured_stores/Self-Service/Special Features Stores/Business Card"
3338676011;"featured_stores/Self-Service/Special Features Stores/Personal Card"
3338677011;"featured_stores/Self-Service/Special Features Stores/Bonus Amazon.ca Gift Certificate"
3338678011;"featured_stores/Self-Service/Special Features Stores/Low Interest Rate"
3338679011;"featured_stores/Self-Service/Special Features Stores/No Annual Fee"
3338680011;"featured_stores/Self-Service/Special Features Stores/Travel Cards"
3338681011;"featured_stores/Self-Service/Special Features Stores/Cash Back Cards"
4985746011;"featured_stores/Self-Service/Special Features Stores/Display Ads - Overview"
4985747011;"featured_stores/Self-Service/Special Features Stores/Display Ads - Personalization & Insights"
4985758011;"featured_stores/Self-Service/Special Features Stores/Display Ads - Creative Inspiration"
4985759011;"featured_stores/Self-Service/Special Features Stores/Display Ads - Case Studies"
4985760011;"featured_stores/Self-Service/Special Features Stores/Display Ads - Ad Specs & Policies"
4985766011;"featured_stores/Self-Service/Special Features Stores/Display Ads - Medium Rectangle"
4985767011;"featured_stores/Self-Service/Special Features Stores/Display Ads - IAB Standard Media"
4985771011;"featured_stores/Self-Service/Special Features Stores/Display Ads - Leaderboard"
4985772011;"featured_stores/Self-Service/Special Features Stores/Display Ads - Wide Skyscraper"
4985773011;"featured_stores/Self-Service/Special Features Stores/Display Ads - Half Page"
4985774011;"featured_stores/Self-Service/Special Features Stores/Display Ads - Payment Selection Ad Unit"
4985871011;"featured_stores/Self-Service/Special Features Stores/Display Ads - Custom Media"
4985872011;"featured_stores/Self-Service/Special Features Stores/Display Ads - Marquee Pushdown"
4985873011;"featured_stores/Self-Service/Special Features Stores/Display Ads - Mini-Marquee"
4985888011;"featured_stores/Self-Service/Special Features Stores/Display Ads - Mini-Marquee Pushdown"
4985889011;"featured_stores/Self-Service/Special Features Stores/Display Ads - Home Page Pushdown"
4985890011;"featured_stores/Self-Service/Special Features Stores/Display Ads - Gold Box Site Stripe"
4985891011;"featured_stores/Self-Service/Special Features Stores/Display Ads - Wish List Sponsorship (Marquee)"
4985892011;"featured_stores/Self-Service/Special Features Stores/Display Ads - Detail Page Navigation Unit"
4985893011;"featured_stores/Self-Service/Special Features Stores/Display Ads - Woot Daily Deals Site Stripe"
4985894011;"featured_stores/Self-Service/Special Features Stores/Display Ads - Seller Central Login Page Rectangle"
4985895011;"featured_stores/Self-Service/Special Features Stores/Display Ads - Seller Central HomePage Rectangle"
4985896011;"featured_stores/Self-Service/Special Features Stores/Display Ads - Seller Central Application Pages Button"
4985897011;"featured_stores/Self-Service/Special Features Stores/Display Ads - Data Mashups"
4985898011;"featured_stores/Self-Service/Special Features Stores/Display Ads - Add to Cart"
4985899011;"featured_stores/Self-Service/Special Features Stores/Display Ads - Customer Reviews"
4985903011;"featured_stores/Self-Service/Special Features Stores/Display Ads - Kindle"
4985904011;"featured_stores/Self-Service/Special Features Stores/Display Ads - Kindle with Special Offers"
4985905011;"featured_stores/Self-Service/Special Features Stores/Display Ads - Mobile"
4985906011;"featured_stores/Self-Service/Special Features Stores/Display Ads - Mobile Gateway"
4985908011;"featured_stores/Self-Service/Special Features Stores/Display Ads - Ad Policies"
4985909011;"featured_stores/Self-Service/Special Features Stores/Display Ads - General Policies"
4985911011;"featured_stores/Self-Service/Special Features Stores/Display Ads - Creative Acceptance"
4985912011;"featured_stores/Self-Service/Special Features Stores/Display Ads - Technical Guidelines"
4985913011;"featured_stores/Self-Service/Special Features Stores/Display Ads - Approved Third Party Ad Servers and Technology Providers"
4985915011;"featured_stores/Self-Service/Special Features Stores/Display Ads - Production Timelines"
4985920011;"featured_stores/Self-Service/Special Features Stores/Display Ads - Additional Sites"
4985922011;"featured_stores/Self-Service/Special Features Stores/Display Ads - Privacy"
4985926011;"featured_stores/Self-Service/Special Features Stores/Advertising Jobs"
4985928011;"featured_stores/Self-Service/Special Features Stores/Join Amazon Advertising"
4985929011;"featured_stores/Self-Service/Special Features Stores/Life in Amazon Advertising"
4985931011;"featured_stores/Self-Service/Special Features Stores/Office Locations"
5006188011;"featured_stores/Self-Service/Special Features Stores/Advertising on Amazon - Overview"
5019867011;"featured_stores/Self-Service/Special Features Stores/Display Ads - Marquee"
5019882011;"featured_stores/Self-Service/Special Features Stores/Display Ads - Premium Interactive Messaging (PIM)"
5160030011;"featured_stores/Self-Service/Special Features Stores/Interest-Based Ads"
5160035011;"featured_stores/Self-Service/Special Features Stores/Publicité reposant sur les centres d¿intérêt"
5412224011;"featured_stores/Self-Service/Special Features Stores/Credit Cards"
6054205011;"featured_stores/Self-Service/Special Features Stores/Black Friday Deals"
6054206011;"featured_stores/Self-Service/Special Features Stores/Cyber Monday Deals"
6054207011;"featured_stores/Self-Service/Special Features Stores/Boxing Day Deals"
6074962011;"featured_stores/Self-Service/Special Features Stores/Holiday Ordering Cutoffs"
6105238011;"featured_stores/Self-Service/Special Features Stores/Dates de livraison pour Noël"
7152733011;"featured_stores/Self-Service/Special Features Stores/Back to School"
7259042011;"featured_stores/Self-Service/Special Features Stores/Back to School Savings"
7466679011;"featured_stores/Self-Service/Special Features Stores/Baby Bonus Week"
7654226011;"featured_stores/Self-Service/Special Features Stores/Gift Central"
7968558011;"featured_stores/Self-Service/Special Features Stores/Amazon Prime Holiday Ordering Cutoffs"
7968560011;"featured_stores/Self-Service/Special Features Stores/Dates de livraison pour Noël (Amazon Prime)"
8198264011;"featured_stores/Self-Service/Special Features Stores/Father's Day"
8238730011;"featured_stores/Self-Service/Special Features Stores/Update Your Home"
8238731011;"featured_stores/Self-Service/Special Features Stores/Learn Something New"
8238732011;"featured_stores/Self-Service/Special Features Stores/Plan to Relax"
8238733011;"featured_stores/Self-Service/Special Features Stores/Focus on Health"
8238734011;"featured_stores/Self-Service/Special Features Stores/Get Active"
8238735011;"featured_stores/Self-Service/Special Features Stores/Update Your Look"
8238736011;"featured_stores/Self-Service/Special Features Stores/Get your Finances in Order"
8238737011;"featured_stores/Self-Service/Special Features Stores/Manage Your Time"
8238741011;"featured_stores/Self-Service/Special Features Stores/Go on an Adventure"
8438004011;"featured_stores/Self-Service/Special Features Stores/Currency Converter"
8438005011;"featured_stores/Self-Service/Special Features Stores/Shop With Points"
8927116011;"featured_stores/Self-Service/Special Features Stores/Le Convertisseur de Devises Amazon"
9007361011;"featured_stores/Self-Service/Special Features Stores/Luxe Mom"
9007362011;"featured_stores/Self-Service/Special Features Stores/Household CEO"
9007363011;"featured_stores/Self-Service/Special Features Stores/Professional Mom"
9007364011;"featured_stores/Self-Service/Special Features Stores/Fit Mom"
9007365011;"featured_stores/Self-Service/Special Features Stores/Escape Artist"
9007366011;"featured_stores/Self-Service/Special Features Stores/Crafty Mom"
9152791011;"featured_stores/Self-Service/Special Features Stores/Exclusive Gift Card Offer"
9152812011;"featured_stores/Self-Service/Special Features Stores/Graduation"
9152829011;"featured_stores/Self-Service/Special Features Stores/DIY Dad"
9152830011;"featured_stores/Self-Service/Special Features Stores/Dapper Dad"
9152831011;"featured_stores/Self-Service/Special Features Stores/Gadget Dad"
9152842011;"featured_stores/Self-Service/Special Features Stores/Sporty Dad"
9152843011;"featured_stores/Self-Service/Special Features Stores/Media Mogul"
9152848011;"featured_stores/Self-Service/Special Features Stores/The Hobbyist"
9644616011;"featured_stores/Self-Service/Special Features Stores/Amazon Student Exclusive Deals Store"
9698210011;"featured_stores/Self-Service/Special Features Stores/K-12"
9698211011;"featured_stores/Self-Service/Special Features Stores/University"
9698212011;"featured_stores/Self-Service/Special Features Stores/Teachers"
9699038011;"featured_stores/Self-Service/Special Features Stores/Kindergarten"
9699039011;"featured_stores/Self-Service/Special Features Stores/Grades 1-3"
9699043011;"featured_stores/Self-Service/Special Features Stores/Grades 4-5"
9699044011;"featured_stores/Self-Service/Special Features Stores/Junior High & High School"
9699045011;"featured_stores/Self-Service/Special Features Stores/Dorm Essentials"
9699046011;"featured_stores/Self-Service/Special Features Stores/Kitchen & Dining"
9699049011;"featured_stores/Self-Service/Special Features Stores/School Supplies"
9699076011;"featured_stores/Self-Service/Special Features Stores/Music Instruction"
9699077011;"featured_stores/Self-Service/Special Features Stores/Art Supplies"
9699078011;"featured_stores/Self-Service/Special Features Stores/Classroom Supplies"
9699079011;"featured_stores/Self-Service/Special Features Stores/Teaching Aids"
9764637011;"featured_stores/Self-Service/Special Features Stores/Health, Beauty, & Grocery"
9833876011;"featured_stores/Self-Service/Special Features Stores/Outlet Store"
9863204011;"featured_stores/Self-Service/Special Features Stores/Same-Day Delivery"
9940774011;"featured_stores/Self-Service/Special Features Stores/Same-Day Delivery Coverage"
10126088011;"featured_stores/Self-Service/Special Features Stores/Pickup Points"
10157593011;"featured_stores/Self-Service/Special Features Stores/Placeholder1"
10157786011;"featured_stores/Self-Service/Special Features Stores/Placeholder5"
10177825011;"featured_stores/Self-Service/Special Features Stores/12 Days of Deals"
10184373011;"featured_stores/Self-Service/Special Features Stores/Top Holiday Deals"
6583741011;"featured_stores/Subscribe & Save"
6583744011;"featured_stores/Subscribe & Save/SnS Electronics"
6583745011;"featured_stores/Subscribe & Save/SnS Grocery"
6583746011;"featured_stores/Subscribe & Save/SnS Health & Personal Care"
6583747011;"featured_stores/Subscribe & Save/Subscribe & Save Details"
6583748011;"featured_stores/Subscribe & Save/Subscribe & Save Beauty"
6583749011;"featured_stores/Subscribe & Save/Subscribe & Save Pet Supplies"
6583750011;"featured_stores/Subscribe & Save/Subscribe & Save Home Improvement"
1200214;"spine/Gifts"
16050461;"spine/Gifts/Gifts"
7234083011;"spine/Gifts/Gifts/Amazon Gift Certificates"
915400;"spine/Help"
915402;"spine/Help/Help Categories"
1162206;"spine/Help/Help Categories/Amazon.ca Services"
12931601;"spine/Help/Help Categories/Amazon.ca Services/Amazon Associates"
16035941;"spine/Help/Help Categories/Amazon.ca Services/Delivers E-mail Subscriptions"
1197914;"spine/Help/Help Categories/Amazon.ca Services/Listmania Lists"
1162208;"spine/Help/Help Categories/Amazon.ca Services/Recommendations"
12843171;"spine/Help/Help Categories/Amazon.ca Services/Refer-a-Friend"
1197916;"spine/Help/Help Categories/Amazon.ca Services/Wish Lists"
1197918;"spine/Help/Help Categories/Amazon.ca Services/Wish Lists/Birthday Information"
1197920;"spine/Help/Help Categories/Amazon.ca Services/Wish Lists/Buying Items from Your Own Wish List"
1197922;"spine/Help/Help Categories/Amazon.ca Services/Wish Lists/Controlling Wish List Searchability"
1197924;"spine/Help/Help Categories/Amazon.ca Services/Wish Lists/Creating a Wish List"
15781941;"spine/Help/Help Categories/Amazon.ca Services/Wish Lists/Deleting Your Wish List"
1197926;"spine/Help/Help Categories/Amazon.ca Services/Wish Lists/Making Sure Someone Hasn't Already Bought an Item"
1197928;"spine/Help/Help Categories/Amazon.ca Services/Wish Lists/Placing an Item on Your Wish List"
15781951;"spine/Help/Help Categories/Amazon.ca Services/Wish Lists/Purchasing from a Wish List"
1197930;"spine/Help/Help Categories/Amazon.ca Services/Wish Lists/Revealing Items That Have Been Purchased for You"
1197932;"spine/Help/Help Categories/Amazon.ca Services/Wish Lists/Searching for Wish Lists"
1197934;"spine/Help/Help Categories/Amazon.ca Services/Wish Lists/Where Purchases Are Sent"
915404;"spine/Help/Help Categories/Contact Us"
1060472;"spine/Help/Help Categories/Contact Us/About Amazon.ca"
1056238;"spine/Help/Help Categories/Contact Us/Customer Service"
1040836;"spine/Help/Help Categories/Contact Us/Labels' Guide"
1040838;"spine/Help/Help Categories/Contact Us/Labels' Guide/Catalogue Guide"
1040846;"spine/Help/Help Categories/Contact Us/Labels' Guide/Corrections"
1040844;"spine/Help/Help Categories/Contact Us/Labels' Guide/Cover Art"
1040848;"spine/Help/Help Categories/Contact Us/Labels' Guide/FAQ"
1040850;"spine/Help/Help Categories/Contact Us/Labels' Guide/Glossary"
1040816;"spine/Help/Help Categories/Contact Us/Publishers' Guide"
1040818;"spine/Help/Help Categories/Contact Us/Publishers' Guide/Catalogue Guide"
1040828;"spine/Help/Help Categories/Contact Us/Publishers' Guide/Corrections"
1040826;"spine/Help/Help Categories/Contact Us/Publishers' Guide/Cover Art"
1040830;"spine/Help/Help Categories/Contact Us/Publishers' Guide/FAQ"
1040832;"spine/Help/Help Categories/Contact Us/Publishers' Guide/Glossary"
14209881;"spine/Help/Help Categories/Contact Us/Publishers' Guide/Search Inside!"
1040854;"spine/Help/Help Categories/Contact Us/Studios' Guide"
1040856;"spine/Help/Help Categories/Contact Us/Studios' Guide/Catalogue Guide"
1040864;"spine/Help/Help Categories/Contact Us/Studios' Guide/Corrections"
1040862;"spine/Help/Help Categories/Contact Us/Studios' Guide/Cover Art"
1040866;"spine/Help/Help Categories/Contact Us/Studios' Guide/FAQ"
1040868;"spine/Help/Help Categories/Contact Us/Studios' Guide/Glossary"
918670;"spine/Help/Help Categories/Dual-language Content"
915406;"spine/Help/Help Categories/Ordering"
918680;"spine/Help/Help Categories/Ordering/Assistance for New Customers"
918682;"spine/Help/Help Categories/Ordering/Availability"
918670;"spine/Help/Help Categories/Ordering/Dual-language Content"
915412;"spine/Help/Help Categories/Ordering/Gifts & Gift Certificates"
918672;"spine/Help/Help Categories/Ordering/Gifts & Gift Certificates/Gift Certificates"
1196366;"spine/Help/Help Categories/Ordering/Gifts & Gift Certificates/Gift Wizard"
918676;"spine/Help/Help Categories/Ordering/Gifts & Gift Certificates/Gift Wrap and Gift Messaging"
918678;"spine/Help/Help Categories/Ordering/Gifts & Gift Certificates/Letting Us Know An Order Is a Gift"
918684;"spine/Help/Help Categories/Ordering/International Sites"
918690;"spine/Help/Help Categories/Ordering/Ordering via 1-Click"
918692;"spine/Help/Help Categories/Ordering/Ordering via 1-Click/1-Click Default Address"
918694;"spine/Help/Help Categories/Ordering/Ordering via 1-Click/1-Click Settings"
918696;"spine/Help/Help Categories/Ordering/Ordering via 1-Click/1-Click Technical Troubleshooting"
918698;"spine/Help/Help Categories/Ordering/Ordering via 1-Click/Reviewing & Changing 1-Click Orders"
918700;"spine/Help/Help Categories/Ordering/Ordering via 1-Click/Sending Gifts With 1-Click"
918702;"spine/Help/Help Categories/Ordering/Ordering via 1-Click/Shipment Consolidation"
918704;"spine/Help/Help Categories/Ordering/Ordering via 1-Click/Turning 1-Click On & Off"
918706;"spine/Help/Help Categories/Ordering/Ordering via 1-Click/Using 1-Click at Public Terminals"
918710;"spine/Help/Help Categories/Ordering/Pricing"
918712;"spine/Help/Help Categories/Ordering/Promotional Offers"
918714;"spine/Help/Help Categories/Ordering/Rebates"
918824;"spine/Help/Help Categories/Ordering/Safe Shopping Guarantee"
918716;"spine/Help/Help Categories/Ordering/Sales Tax"
918718;"spine/Help/Help Categories/Ordering/Search Tips & Product FAQs"
918722;"spine/Help/Help Categories/Ordering/Search Tips & Product FAQs/Books"
1040812;"spine/Help/Help Categories/Ordering/Search Tips & Product FAQs/Co-op Disclosure"
3247851;"spine/Help/Help Categories/Ordering/Search Tips & Product FAQs/Computer & Video Games"
918724;"spine/Help/Help Categories/Ordering/Search Tips & Product FAQs/DVD"
918672;"spine/Help/Help Categories/Ordering/Search Tips & Product FAQs/Gift Certificates"
918726;"spine/Help/Help Categories/Ordering/Search Tips & Product FAQs/Music"
924334;"spine/Help/Help Categories/Ordering/Search Tips & Product FAQs/Real Audio Sound Samples"
1057790;"spine/Help/Help Categories/Ordering/Search Tips & Product FAQs/Review Writing Guidelines"
3247841;"spine/Help/Help Categories/Ordering/Search Tips & Product FAQs/Software"
918728;"spine/Help/Help Categories/Ordering/Search Tips & Product FAQs/Video"
918730;"spine/Help/Help Categories/Ordering/Search Tips & Product FAQs/What Sales Rank Means"
918732;"spine/Help/Help Categories/Ordering/Using the Shopping Cart"
915408;"spine/Help/Help Categories/Payment Methods"
918736;"spine/Help/Help Categories/Payment Methods/Credit Cards & Check Cards"
1056256;"spine/Help/Help Categories/Payment Methods/Gift Certificates"
924306;"spine/Help/Help Categories/Payment Methods/Promotional Certificates"
2245305011;"spine/Help/Help Categories/Payment Methods/Unactivated Gift Cards"
915416;"spine/Help/Help Categories/Privacy & Security"
918828;"spine/Help/Help Categories/Privacy & Security/Amazon.ca Charter of Rights"
918814;"spine/Help/Help Categories/Privacy & Security/Privacy Notice"
918824;"spine/Help/Help Categories/Privacy & Security/Safe Shopping Guarantee"
13940691;"spine/Help/Help Categories/Privacy & Security/Safe and Secure Online Transactions"
918808;"spine/Help/Help Categories/Privacy & Security/Signing Out"
915410;"spine/Help/Help Categories/Shipping & Returns"
918742;"spine/Help/Help Categories/Shipping & Returns/Free Shipping"
915464;"spine/Help/Help Categories/Shipping & Returns/Items Requiring Special Handling"
915466;"spine/Help/Help Categories/Shipping & Returns/Returns"
915468;"spine/Help/Help Categories/Shipping & Returns/Shipping Preferences"
915470;"spine/Help/Help Categories/Shipping & Returns/Shipping Rates"
915472;"spine/Help/Help Categories/Shipping & Returns/Shipping Rates/Domestic Shipping Rates"
915474;"spine/Help/Help Categories/Shipping & Returns/Shipping Rates/International Shipping Rates"
918748;"spine/Help/Help Categories/Shipping & Returns/Shipping Rates/International Shipping Rates/Customs"
924312;"spine/Help/Help Categories/Shipping & Returns/Shipping Rates/International Shipping Rates/Japan and Southeast Asia"
924314;"spine/Help/Help Categories/Shipping & Returns/Shipping Rates/International Shipping Rates/Rest of the World"
918768;"spine/Help/Help Categories/Shipping & Returns/Shipping Rates/International Shipping Rates/United States"
924310;"spine/Help/Help Categories/Shipping & Returns/Shipping Rates/International Shipping Rates/Western Europe"
918804;"spine/Help/Help Categories/Shipping & Returns/Tracking a Package"
918774;"spine/Help/Help Categories/Shipping & Returns/Where's My Stuff?"
11966091;"spine/Help/Help Categories/Streaming Audio"
11966101;"spine/Help/Help Categories/Streaming Audio/Assistance for AOL Users"
11966111;"spine/Help/Help Categories/Streaming Audio/RealOne Player"
11966121;"spine/Help/Help Categories/Streaming Audio/Windows Media Player"
915414;"spine/Help/Help Categories/Using Your Account"
918778;"spine/Help/Help Categories/Using Your Account/Address Book"
918780;"spine/Help/Help Categories/Using Your Account/Changing 1-Click Settings"
918782;"spine/Help/Help Categories/Using Your Account/Changing Name, E-mail Address, or Password"
918784;"spine/Help/Help Categories/Using Your Account/Closing Your Account"
918790;"spine/Help/Help Categories/Using Your Account/Reviewing & Changing Orders"
918794;"spine/Help/Help Categories/Using Your Account/Reviewing & Changing Orders/Cancelling Items from an Order"
918798;"spine/Help/Help Categories/Using Your Account/Reviewing & Changing Orders/Editing Gift-Wrapping & Gift Messages"
918800;"spine/Help/Help Categories/Using Your Account/Reviewing & Changing Orders/Problem with an Order?"
918802;"spine/Help/Help Categories/Using Your Account/Reviewing & Changing Orders/Revising Shipping & Billing Information"
1061830;"spine/Help/Help Categories/Using Your Account/Reviewing & Changing Orders/Updating Payment Information for Your Order"
918698;"spine/Help/Help Categories/Using Your Account/Reviewing & Changing Orders/Viewing or Changing 1-Click Orders"
918808;"spine/Help/Help Categories/Using Your Account/Signing Out"
918810;"spine/Help/Help Categories/Using Your Account/Updating Subscriptions and Communication Preferences"
918812;"spine/Help/Help Categories/Using Your Account/Viewing Gift Certificate Balance"
14272201;"spine/Institutional Discount"
1036452;"spine/Nos boutiques francophones"
3053941;"spine/test"
3053961;"spine/test/chicken"
3053971;"spine/test/becky"
3053951;"spine/test/pie"
3053981;"spine/test/doodoo"
2673677011;"spine/Disaster Relief: Japan Earthquake Landing Page"
2673678011;"spine/Disaster Relief: Japan Earthquake Thank You Page"
