246698031;"lighting/Brands"
213078031;"lighting/Categories"
11716781;"lighting/Categories/Bathroom Lighting"
3764785031;"lighting/Categories/Bathroom Lighting/Bath Ceiling Lights"
3764786031;"lighting/Categories/Bathroom Lighting/Bath Mirror Lamps"
3764787031;"lighting/Categories/Bathroom Lighting/Bath Recessed Lighting"
3764788031;"lighting/Categories/Bathroom Lighting/Bath Wall Lights"
3764789031;"lighting/Categories/Christmas Lighting"
13754561;"lighting/Categories/Christmas Lighting/Indoor Lights"
13754571;"lighting/Categories/Christmas Lighting/Outdoor Lights"
10709301;"lighting/Categories/Indoor Lighting"
248449031;"lighting/Categories/Indoor Lighting/Ceiling Lighting"
3764799031;"lighting/Categories/Indoor Lighting/Ceiling Lighting/Ceiling Fans with Lamp"
10709331;"lighting/Categories/Indoor Lighting/Ceiling Lighting/Ceiling Lights"
3764805031;"lighting/Categories/Indoor Lighting/Ceiling Lighting/Ceiling Spots"
378775011;"lighting/Categories/Indoor Lighting/Ceiling Lighting/Chandeliers"
248560031;"lighting/Categories/Indoor Lighting/Ceiling Lighting/Office Ceiling Lights"
248451031;"lighting/Categories/Indoor Lighting/Ceiling Lighting/Pendant Lights"
248454031;"lighting/Categories/Indoor Lighting/Ceiling Lighting/Track, Rail & Cable Lighting Systems"
60117031;"lighting/Categories/Indoor Lighting/Children's Lighting"
248564031;"lighting/Categories/Indoor Lighting/Clip Lights"
3764795031;"lighting/Categories/Indoor Lighting/Lamps"
3764796031;"lighting/Categories/Indoor Lighting/Lamps/Bedside and Table Lamps"
200988031;"lighting/Categories/Indoor Lighting/Lamps/Desk Lamps"
10709381;"lighting/Categories/Indoor Lighting/Lamps/Floor Lamps & Torchieres"
378776011;"lighting/Categories/Indoor Lighting/Lamps/Lamp Bases"
10709351;"lighting/Categories/Indoor Lighting/Lamps/Lamp Shades"
248566031;"lighting/Categories/Indoor Lighting/Recessed Lighting"
11716791;"lighting/Categories/Indoor Lighting/Specialty & Decorative Lighting"
3764797031;"lighting/Categories/Indoor Lighting/Specialty & Decorative Lighting/Book Lights"
3764798031;"lighting/Categories/Indoor Lighting/Specialty & Decorative Lighting/Candle Lights"
3764799031;"lighting/Categories/Indoor Lighting/Specialty & Decorative Lighting/Ceiling Fans with Lamp"
248565031;"lighting/Categories/Indoor Lighting/Specialty & Decorative Lighting/Daylight Lamps"
3764800031;"lighting/Categories/Indoor Lighting/Specialty & Decorative Lighting/LED Strips"
3764801031;"lighting/Categories/Indoor Lighting/Specialty & Decorative Lighting/Lava Lamps"
4206149031;"lighting/Categories/Indoor Lighting/Specialty & Decorative Lighting/Light Signs"
248562031;"lighting/Categories/Indoor Lighting/Specialty & Decorative Lighting/Mood Lights"
3764802031;"lighting/Categories/Indoor Lighting/Specialty & Decorative Lighting/Motif Lamp"
10709371;"lighting/Categories/Indoor Lighting/Specialty & Decorative Lighting/Night Lights"
3764803031;"lighting/Categories/Indoor Lighting/Specialty & Decorative Lighting/Plant Lights"
529539031;"lighting/Categories/Indoor Lighting/Specialty & Decorative Lighting/Rope Lights"
248561031;"lighting/Categories/Indoor Lighting/Specialty & Decorative Lighting/String Lights"
3764804031;"lighting/Categories/Indoor Lighting/Specialty & Decorative Lighting/Workshop Lighting"
248453031;"lighting/Categories/Indoor Lighting/Spotlights & Spotbars"
3764805031;"lighting/Categories/Indoor Lighting/Spotlights & Spotbars/Ceiling Spots"
3764806031;"lighting/Categories/Indoor Lighting/Spotlights & Spotbars/Downlights"
3764808031;"lighting/Categories/Indoor Lighting/Spotlights & Spotbars/Spotbars"
248454031;"lighting/Categories/Indoor Lighting/Spotlights & Spotbars/Track, Rail & Cable Lighting Systems"
3764809031;"lighting/Categories/Indoor Lighting/Spotlights & Spotbars/Wall Spotlights"
3764810031;"lighting/Categories/Indoor Lighting/Vanity Lighting Fixtures"
248568031;"lighting/Categories/Indoor Lighting/Wake-Up Lights"
248450031;"lighting/Categories/Indoor Lighting/Wall Lighting Fixtures"
3764811031;"lighting/Categories/Indoor Lighting/Wall Lighting Fixtures/Candle Wall Lights"
3764812031;"lighting/Categories/Indoor Lighting/Wall Lighting Fixtures/Multi-armed Lights"
248455031;"lighting/Categories/Indoor Lighting/Wall Lighting Fixtures/Picture & Display Lights"
3764813031;"lighting/Categories/Indoor Lighting/Wall Lighting Fixtures/Reading Lights"
3764809031;"lighting/Categories/Indoor Lighting/Wall Lighting Fixtures/Wall Spotlights"
3764814031;"lighting/Categories/Indoor Lighting/Wall Lighting Fixtures/Wall Wash Lights"
227259031;"lighting/Categories/Light Bulbs"
3764815031;"lighting/Categories/Light Bulbs/Eco Halogen Bulbs"
248788031;"lighting/Categories/Light Bulbs/Energy-Saving Bulbs"
248791031;"lighting/Categories/Light Bulbs/Fluorescent & Neon Tubes"
248789031;"lighting/Categories/Light Bulbs/Halogen Bulbs"
3764816031;"lighting/Categories/Light Bulbs/High Intensity Discharge Bulbs"
3764817031;"lighting/Categories/Light Bulbs/High Intensity Discharge Bulbs/High Pressure Sodium Bulbs"
3764818031;"lighting/Categories/Light Bulbs/High Intensity Discharge Bulbs/Krypton & Xenon Bulbs"
3764819031;"lighting/Categories/Light Bulbs/High Intensity Discharge Bulbs/Mercury Vapor & Low Pressure Mercury Bulbs"
3764820031;"lighting/Categories/Light Bulbs/High Intensity Discharge Bulbs/Metal-halide Bulbs"
248792031;"lighting/Categories/Light Bulbs/Incandescent Bulbs"
248790031;"lighting/Categories/Light Bulbs/LED Bulbs"
3764821031;"lighting/Categories/Light Bulbs/OLED Bulbs"
3764822031;"lighting/Categories/Light Bulbs/Reflector Bulbs"
248793031;"lighting/Categories/Light Bulbs/Specialty Bulbs"
3764823031;"lighting/Categories/Light Bulbs/Specialty Bulbs/Colour Bulbs"
3764824031;"lighting/Categories/Light Bulbs/Specialty Bulbs/Decorative Light Bulbs"
3764825031;"lighting/Categories/Light Bulbs/Specialty Bulbs/Infrared Bulbs"
3764826031;"lighting/Categories/Light Bulbs/Stage Lighting  Bulbs"
3764827031;"lighting/Categories/Light Bulbs/UV Bulbs"
10709361;"lighting/Categories/Outdoor Lighting"
3764828031;"lighting/Categories/Outdoor Lighting/Decking & Patio Lighting"
248795031;"lighting/Categories/Outdoor Lighting/Flood & Spot Lighting"
3764829031;"lighting/Categories/Outdoor Lighting/Lanterns"
3764830031;"lighting/Categories/Outdoor Lighting/Outdoor Lighting Accessories"
3764831031;"lighting/Categories/Outdoor Lighting/Outdoor Lighting Accessories/Lamp Oil"
3764832031;"lighting/Categories/Outdoor Lighting/Outdoor Lighting Accessories/Low-Voltage Transformers"
3764833031;"lighting/Categories/Outdoor Lighting/Outdoor String Lights"
3764834031;"lighting/Categories/Outdoor Lighting/Outdoor Tabletop Lighting"
13679881;"lighting/Categories/Outdoor Lighting/Outdoor Wall Lights"
248796031;"lighting/Categories/Outdoor Lighting/Pathway Lighting"
248797031;"lighting/Categories/Outdoor Lighting/Pond Lights"
3764835031;"lighting/Categories/Outdoor Lighting/Post Lights"
3764836031;"lighting/Categories/Outdoor Lighting/Rope Lights"
13679891;"lighting/Categories/Outdoor Lighting/Security Lighting"
13679871;"lighting/Categories/Outdoor Lighting/Solar Lights"
3764837031;"lighting/Categories/Outdoor Lighting/Torch Lights"
3764838031;"lighting/Categories/Outdoor Lighting/Umbrella Lights"
1938891031;"lighting/Categories/Torches"
1938892031;"lighting/Categories/Torches/Flashlight Lanterns"
1938894031;"lighting/Categories/Torches/Headlamps"
1938895031;"lighting/Categories/Torches/Key Ring Torches"
1938893031;"lighting/Categories/Torches/Standard Torches"
227238031;"lighting/Featured Categories"
11716781;"lighting/Featured Categories/Bathroom Lighting"
3764785031;"lighting/Featured Categories/Bathroom Lighting/Bath Ceiling Lights"
3764786031;"lighting/Featured Categories/Bathroom Lighting/Bath Mirror Lamps"
3764787031;"lighting/Featured Categories/Bathroom Lighting/Bath Recessed Lighting"
3764788031;"lighting/Featured Categories/Bathroom Lighting/Bath Wall Lights"
3764789031;"lighting/Featured Categories/Christmas Lighting"
13754561;"lighting/Featured Categories/Christmas Lighting/Indoor Lights"
13754571;"lighting/Featured Categories/Christmas Lighting/Outdoor Lights"
10709301;"lighting/Featured Categories/Indoor Lighting"
248449031;"lighting/Featured Categories/Indoor Lighting/Ceiling Lighting"
3764799031;"lighting/Featured Categories/Indoor Lighting/Ceiling Lighting/Ceiling Fans with Lamp"
10709331;"lighting/Featured Categories/Indoor Lighting/Ceiling Lighting/Ceiling Lights"
3764805031;"lighting/Featured Categories/Indoor Lighting/Ceiling Lighting/Ceiling Spots"
378775011;"lighting/Featured Categories/Indoor Lighting/Ceiling Lighting/Chandeliers"
248560031;"lighting/Featured Categories/Indoor Lighting/Ceiling Lighting/Office Ceiling Lights"
248451031;"lighting/Featured Categories/Indoor Lighting/Ceiling Lighting/Pendant Lights"
248454031;"lighting/Featured Categories/Indoor Lighting/Ceiling Lighting/Track, Rail & Cable Lighting Systems"
60117031;"lighting/Featured Categories/Indoor Lighting/Children's Lighting"
248564031;"lighting/Featured Categories/Indoor Lighting/Clip Lights"
3764795031;"lighting/Featured Categories/Indoor Lighting/Lamps"
3764796031;"lighting/Featured Categories/Indoor Lighting/Lamps/Bedside and Table Lamps"
200988031;"lighting/Featured Categories/Indoor Lighting/Lamps/Desk Lamps"
10709381;"lighting/Featured Categories/Indoor Lighting/Lamps/Floor Lamps & Torchieres"
378776011;"lighting/Featured Categories/Indoor Lighting/Lamps/Lamp Bases"
10709351;"lighting/Featured Categories/Indoor Lighting/Lamps/Lamp Shades"
248566031;"lighting/Featured Categories/Indoor Lighting/Recessed Lighting"
11716791;"lighting/Featured Categories/Indoor Lighting/Specialty & Decorative Lighting"
3764797031;"lighting/Featured Categories/Indoor Lighting/Specialty & Decorative Lighting/Book Lights"
3764798031;"lighting/Featured Categories/Indoor Lighting/Specialty & Decorative Lighting/Candle Lights"
3764799031;"lighting/Featured Categories/Indoor Lighting/Specialty & Decorative Lighting/Ceiling Fans with Lamp"
248565031;"lighting/Featured Categories/Indoor Lighting/Specialty & Decorative Lighting/Daylight Lamps"
3764800031;"lighting/Featured Categories/Indoor Lighting/Specialty & Decorative Lighting/LED Strips"
3764801031;"lighting/Featured Categories/Indoor Lighting/Specialty & Decorative Lighting/Lava Lamps"
4206149031;"lighting/Featured Categories/Indoor Lighting/Specialty & Decorative Lighting/Light Signs"
248562031;"lighting/Featured Categories/Indoor Lighting/Specialty & Decorative Lighting/Mood Lights"
3764802031;"lighting/Featured Categories/Indoor Lighting/Specialty & Decorative Lighting/Motif Lamp"
10709371;"lighting/Featured Categories/Indoor Lighting/Specialty & Decorative Lighting/Night Lights"
3764803031;"lighting/Featured Categories/Indoor Lighting/Specialty & Decorative Lighting/Plant Lights"
529539031;"lighting/Featured Categories/Indoor Lighting/Specialty & Decorative Lighting/Rope Lights"
248561031;"lighting/Featured Categories/Indoor Lighting/Specialty & Decorative Lighting/String Lights"
3764804031;"lighting/Featured Categories/Indoor Lighting/Specialty & Decorative Lighting/Workshop Lighting"
248453031;"lighting/Featured Categories/Indoor Lighting/Spotlights & Spotbars"
3764805031;"lighting/Featured Categories/Indoor Lighting/Spotlights & Spotbars/Ceiling Spots"
3764806031;"lighting/Featured Categories/Indoor Lighting/Spotlights & Spotbars/Downlights"
3764808031;"lighting/Featured Categories/Indoor Lighting/Spotlights & Spotbars/Spotbars"
248454031;"lighting/Featured Categories/Indoor Lighting/Spotlights & Spotbars/Track, Rail & Cable Lighting Systems"
3764809031;"lighting/Featured Categories/Indoor Lighting/Spotlights & Spotbars/Wall Spotlights"
3764810031;"lighting/Featured Categories/Indoor Lighting/Vanity Lighting Fixtures"
248568031;"lighting/Featured Categories/Indoor Lighting/Wake-Up Lights"
248450031;"lighting/Featured Categories/Indoor Lighting/Wall Lighting Fixtures"
3764811031;"lighting/Featured Categories/Indoor Lighting/Wall Lighting Fixtures/Candle Wall Lights"
3764812031;"lighting/Featured Categories/Indoor Lighting/Wall Lighting Fixtures/Multi-armed Lights"
248455031;"lighting/Featured Categories/Indoor Lighting/Wall Lighting Fixtures/Picture & Display Lights"
3764813031;"lighting/Featured Categories/Indoor Lighting/Wall Lighting Fixtures/Reading Lights"
3764809031;"lighting/Featured Categories/Indoor Lighting/Wall Lighting Fixtures/Wall Spotlights"
3764814031;"lighting/Featured Categories/Indoor Lighting/Wall Lighting Fixtures/Wall Wash Lights"
227259031;"lighting/Featured Categories/Light Bulbs"
3764815031;"lighting/Featured Categories/Light Bulbs/Eco Halogen Bulbs"
248788031;"lighting/Featured Categories/Light Bulbs/Energy-Saving Bulbs"
248791031;"lighting/Featured Categories/Light Bulbs/Fluorescent & Neon Tubes"
248789031;"lighting/Featured Categories/Light Bulbs/Halogen Bulbs"
3764816031;"lighting/Featured Categories/Light Bulbs/High Intensity Discharge Bulbs"
3764817031;"lighting/Featured Categories/Light Bulbs/High Intensity Discharge Bulbs/High Pressure Sodium Bulbs"
3764818031;"lighting/Featured Categories/Light Bulbs/High Intensity Discharge Bulbs/Krypton & Xenon Bulbs"
3764819031;"lighting/Featured Categories/Light Bulbs/High Intensity Discharge Bulbs/Mercury Vapor & Low Pressure Mercury Bulbs"
3764820031;"lighting/Featured Categories/Light Bulbs/High Intensity Discharge Bulbs/Metal-halide Bulbs"
248792031;"lighting/Featured Categories/Light Bulbs/Incandescent Bulbs"
248790031;"lighting/Featured Categories/Light Bulbs/LED Bulbs"
3764821031;"lighting/Featured Categories/Light Bulbs/OLED Bulbs"
3764822031;"lighting/Featured Categories/Light Bulbs/Reflector Bulbs"
248793031;"lighting/Featured Categories/Light Bulbs/Specialty Bulbs"
3764823031;"lighting/Featured Categories/Light Bulbs/Specialty Bulbs/Colour Bulbs"
3764824031;"lighting/Featured Categories/Light Bulbs/Specialty Bulbs/Decorative Light Bulbs"
3764825031;"lighting/Featured Categories/Light Bulbs/Specialty Bulbs/Infrared Bulbs"
3764826031;"lighting/Featured Categories/Light Bulbs/Stage Lighting  Bulbs"
3764827031;"lighting/Featured Categories/Light Bulbs/UV Bulbs"
10709361;"lighting/Featured Categories/Outdoor Lighting"
3764828031;"lighting/Featured Categories/Outdoor Lighting/Decking & Patio Lighting"
248795031;"lighting/Featured Categories/Outdoor Lighting/Flood & Spot Lighting"
3764829031;"lighting/Featured Categories/Outdoor Lighting/Lanterns"
3764830031;"lighting/Featured Categories/Outdoor Lighting/Outdoor Lighting Accessories"
3764831031;"lighting/Featured Categories/Outdoor Lighting/Outdoor Lighting Accessories/Lamp Oil"
3764832031;"lighting/Featured Categories/Outdoor Lighting/Outdoor Lighting Accessories/Low-Voltage Transformers"
3764833031;"lighting/Featured Categories/Outdoor Lighting/Outdoor String Lights"
3764834031;"lighting/Featured Categories/Outdoor Lighting/Outdoor Tabletop Lighting"
13679881;"lighting/Featured Categories/Outdoor Lighting/Outdoor Wall Lights"
248796031;"lighting/Featured Categories/Outdoor Lighting/Pathway Lighting"
248797031;"lighting/Featured Categories/Outdoor Lighting/Pond Lights"
3764835031;"lighting/Featured Categories/Outdoor Lighting/Post Lights"
3764836031;"lighting/Featured Categories/Outdoor Lighting/Rope Lights"
13679891;"lighting/Featured Categories/Outdoor Lighting/Security Lighting"
13679871;"lighting/Featured Categories/Outdoor Lighting/Solar Lights"
3764837031;"lighting/Featured Categories/Outdoor Lighting/Torch Lights"
3764838031;"lighting/Featured Categories/Outdoor Lighting/Umbrella Lights"
1938891031;"lighting/Featured Categories/Torches"
1938892031;"lighting/Featured Categories/Torches/Flashlight Lanterns"
1938894031;"lighting/Featured Categories/Torches/Headlamps"
1938895031;"lighting/Featured Categories/Torches/Key Ring Torches"
1938893031;"lighting/Featured Categories/Torches/Standard Torches"
227239031;"lighting/Power Search"
227237031;"lighting/Special Features"
227240031;"lighting/Special Features/Content Stores"
309917031;"lighting/Special Features/Content Stores/Energy Saving Week"
341018031;"lighting/Special Features/Content Stores/Half-Price Energy-Saving Light Bulbs"
345089031;"lighting/Special Features/Content Stores/Energy-Saving Lighting"
419504031;"lighting/Special Features/Content Stores/LED Lighting"
227241031;"lighting/Special Features/Custom Stores"
227242031;"lighting/Special Features/Regular Stores"
265963031;"lighting/Special Features/Regular Stores/Deals of the Week"
438279031;"lighting/Special Features/Regular Stores/Save ££s on Selected Lighting"
424141031;"lighting/Special Features/Regular Stores/What's New in Lighting"
517071031;"lighting/Special Features/Regular Stores/Green Lighting"
