11055981;"beauty/Products"
11055991;"beauty/Products/Bath & Body"
11056211;"beauty/Products/Bath & Body/Bath"
11056221;"beauty/Products/Bath & Body/Bath/Bath Bombs"
11056231;"beauty/Products/Bath & Body/Bath/Bath Pearls & Flakes"
11056241;"beauty/Products/Bath & Body/Bath/Bubble Bath"
11056251;"beauty/Products/Bath & Body/Bath/Minerals & Salts"
11056261;"beauty/Products/Bath & Body/Bath/Oils"
11056271;"beauty/Products/Bath & Body/Bath/Tub Tea"
11056491;"beauty/Products/Bath & Body/Bathing Accessories"
11056501;"beauty/Products/Bath & Body/Bathing Accessories/Bath Brushes"
11056511;"beauty/Products/Bath & Body/Bathing Accessories/Bath Mitts & Cloths"
11056521;"beauty/Products/Bath & Body/Bathing Accessories/Bath Pillows"
11056531;"beauty/Products/Bath & Body/Bathing Accessories/Bath Trays"
11056541;"beauty/Products/Bath & Body/Bathing Accessories/Eye Masks"
11056551;"beauty/Products/Bath & Body/Bathing Accessories/Loofahs, Sponges & Poufs"
11056571;"beauty/Products/Bath & Body/Bathing Accessories/Shower Caps"
11056281;"beauty/Products/Bath & Body/Cleansers"
11056291;"beauty/Products/Bath & Body/Cleansers/Body Washes"
11056341;"beauty/Products/Bath & Body/Cleansers/Soaps"
11056421;"beauty/Products/Bath & Body/Scrubs & Body Treatments"
11056441;"beauty/Products/Bath & Body/Scrubs & Body Treatments/Body Mud"
11056471;"beauty/Products/Bath & Body/Scrubs & Body Treatments/Body Scrubs"
11056481;"beauty/Products/Bath & Body/Scrubs & Body Treatments/Body Souffles & Mousse"
11056581;"beauty/Products/Bath & Body/Sets"
11056591;"beauty/Products/Fragrance"
11056931;"beauty/Products/Fragrance/Women's"
3783161;"beauty/Products/Fragrance/Women's/Body Sprays"
11057051;"beauty/Products/Fragrance/Women's/Cologne"
11057071;"beauty/Products/Fragrance/Women's/Eau de Parfum"
11057081;"beauty/Products/Fragrance/Women's/Eau de Toilette"
11057091;"beauty/Products/Fragrance/Women's/Essential Oils"
11057111;"beauty/Products/Fragrance/Women's/Sets"
11056761;"beauty/Products/Fragrance/Men's"
11059721;"beauty/Products/Fragrance/Men's/Cologne"
363235011;"beauty/Products/Fragrance/Men's/Eau de Parfum"
363236011;"beauty/Products/Fragrance/Men's/Eau de Toilette"
11059741;"beauty/Products/Fragrance/Men's/Sets"
11056711;"beauty/Products/Fragrance/Children's"
7240192011;"beauty/Products/Fragrance/Candles & Home Scents"
11056891;"beauty/Products/Fragrance/Sets"
11057111;"beauty/Products/Fragrance/Sets/Women's"
11059741;"beauty/Products/Fragrance/Sets/Men's"
11057241;"beauty/Products/Hair Care"
11057251;"beauty/Products/Hair Care/Conditioners"
11057431;"beauty/Products/Hair Care/Hair & Scalp Treatments"
11057451;"beauty/Products/Hair Care/Hair Color"
10728531;"beauty/Products/Hair Care/Hair Color/Chemical Hair Dyes"
3781671;"beauty/Products/Hair Care/Hair Color/Color Correctors"
3781651;"beauty/Products/Hair Care/Hair Color/Color Primers"
3781661;"beauty/Products/Hair Care/Hair Color/Color Refreshers"
3781641;"beauty/Products/Hair Care/Hair Color/Hennas"
3781631;"beauty/Products/Hair Care/Hair Color/Highlights"
11057561;"beauty/Products/Hair Care/Hair Loss Products"
11057571;"beauty/Products/Hair Care/Hair Loss Products/Conditioners"
11057581;"beauty/Products/Hair Care/Hair Loss Products/Hair Regrowth Treatments"
11057631;"beauty/Products/Hair Care/Hair Loss Products/Shampoos"
3781871;"beauty/Products/Hair Care/Hair Loss Products/Styling Products"
3781901;"beauty/Products/Hair Care/Hair Perms & Texturizers"
3781941;"beauty/Products/Hair Care/Hair Perms & Texturizers/After-Perm Shampoos"
3781911;"beauty/Products/Hair Care/Hair Perms & Texturizers/Home Permanent Kits"
3799601;"beauty/Products/Hair Care/Hair Perms & Texturizers/Texturizers"
3781951;"beauty/Products/Hair Care/Hair Relaxers"
3781981;"beauty/Products/Hair Care/Hair Relaxers/Activators"
3782001;"beauty/Products/Hair Care/Hair Relaxers/Conditioners"
702373011;"beauty/Products/Hair Care/Hair Relaxers/Creams"
702374011;"beauty/Products/Hair Care/Hair Relaxers/Gels"
702375011;"beauty/Products/Hair Care/Hair Relaxers/Lotions"
3781991;"beauty/Products/Hair Care/Hair Relaxers/Shampoos"
11057651;"beauty/Products/Hair Care/Shampoos"
3781381;"beauty/Products/Hair Care/Shampoo Plus Conditioner"
11057441;"beauty/Products/Hair Care/Shampoo & Conditioner Sets"
11057841;"beauty/Products/Hair Care/Styling Products"
3782071;"beauty/Products/Hair Care/Styling Products/Braid Maintenance"
11057871;"beauty/Products/Hair Care/Styling Products/Creams, Gels & Lotions"
3781751;"beauty/Products/Hair Care/Styling Products/Curl Enhancers"
13105931;"beauty/Products/Hair Care/Styling Products/Hair Extensions & Wigs"
702379011;"beauty/Products/Hair Care/Styling Products/Hair Extensions & Wigs/Hair Extensions"
702380011;"beauty/Products/Hair Care/Styling Products/Hair Extensions & Wigs/Hairpieces"
702381011;"beauty/Products/Hair Care/Styling Products/Hair Extensions & Wigs/Wigs"
11057891;"beauty/Products/Hair Care/Styling Products/Hair Sprays"
382803011;"beauty/Products/Hair Care/Styling Products/Hair Styling Serums"
11057901;"beauty/Products/Hair Care/Styling Products/Mousses & Foams"
11057931;"beauty/Products/Hair Care/Styling Products/Pomades & Waxes"
11058091;"beauty/Products/Hair Care/Styling Tools"
3784241;"beauty/Products/Hair Care/Styling Tools/Braiders"
11058121;"beauty/Products/Hair Care/Styling Tools/Brushes"
11058131;"beauty/Products/Hair Care/Styling Tools/Combs"
11058111;"beauty/Products/Hair Care/Styling Tools/Diffusers"
11058141;"beauty/Products/Hair Care/Styling Tools/Hair Dryers"
3784371;"beauty/Products/Hair Care/Styling Tools/Hair Rollers"
11058221;"beauty/Products/Hair Care/Styling Tools/Hot-Air Brushes"
11058231;"beauty/Products/Hair Care/Styling Tools/Irons"
3784341;"beauty/Products/Hair Care/Styling Tools/Irons/Crimping Irons"
11058251;"beauty/Products/Hair Care/Styling Tools/Irons/Curling Irons"
11058261;"beauty/Products/Hair Care/Styling Tools/Irons/Flattening Irons"
11057971;"beauty/Products/Hair Care/Styling Tools/Styling Accessories"
11057981;"beauty/Products/Hair Care/Styling Tools/Styling Accessories/Barrettes"
11057991;"beauty/Products/Hair Care/Styling Tools/Styling Accessories/Claws"
3784401;"beauty/Products/Hair Care/Styling Tools/Styling Accessories/Clips"
11058011;"beauty/Products/Hair Care/Styling Tools/Styling Accessories/Decorative Combs"
3784491;"beauty/Products/Hair Care/Styling Tools/Styling Accessories/Hair Drying Towels"
11058041;"beauty/Products/Hair Care/Styling Tools/Styling Accessories/Hair Sticks"
11058051;"beauty/Products/Hair Care/Styling Tools/Styling Accessories/Headbands"
3784391;"beauty/Products/Hair Care/Styling Tools/Styling Accessories/Hair Pins"
11058071;"beauty/Products/Hair Care/Styling Tools/Styling Accessories/Ponytail Holders"
3006300011;"beauty/Products/Hair Care/Styling Tools/Scissors"
3006301011;"beauty/Products/Hair Care/Styling Tools/Hair Cutting Kits"
11058281;"beauty/Products/Makeup"
11058291;"beauty/Products/Makeup/Body"
11058301;"beauty/Products/Makeup/Body/Body Glitter"
702382011;"beauty/Products/Makeup/Body/Body Paint"
11058311;"beauty/Products/Makeup/Body/Bronzing Powder"
11058321;"beauty/Products/Makeup/Body/Concealer"
702383011;"beauty/Products/Makeup/Body/Henna"
702384011;"beauty/Products/Makeup/Body/Temporary Tattoos"
11058331;"beauty/Products/Makeup/Eyes"
11058341;"beauty/Products/Makeup/Eyes/Concealer & Base"
11058361;"beauty/Products/Makeup/Eyes/Eye Shadow"
11058451;"beauty/Products/Makeup/Eyes/Eyebrow Color"
11058521;"beauty/Products/Makeup/Eyes/Eyeliner"
3006286011;"beauty/Products/Makeup/Eyes/Glitter & Shimmer"
10312668011;"beauty/Products/Makeup/Eyes/Lash Enhancers & Primers"
11058381;"beauty/Products/Makeup/Eyes/Liner & Shadow Combinations"
11058611;"beauty/Products/Makeup/Eyes/Mascara"
11058691;"beauty/Products/Makeup/Face"
11058701;"beauty/Products/Makeup/Face/Blotting Paper"
11058711;"beauty/Products/Makeup/Face/Blush"
11058781;"beauty/Products/Makeup/Face/Bronzers & Highlighters"
11058791;"beauty/Products/Makeup/Face/Concealers & Neutralizers"
11058871;"beauty/Products/Makeup/Face/Foundation"
388109011;"beauty/Products/Makeup/Face/Foundation Primers"
11058971;"beauty/Products/Makeup/Face/Powder"
11059031;"beauty/Products/Makeup/Lips"
11059041;"beauty/Products/Makeup/Lips/Lip Glosses"
11059101;"beauty/Products/Makeup/Lips/Lip Liners"
14104641;"beauty/Products/Makeup/Lips/Lip Plumpers"
11059051;"beauty/Products/Makeup/Lips/Lip Stains"
11059111;"beauty/Products/Makeup/Lips/Lipstick"
11059221;"beauty/Products/Makeup/Lips/Lipstick Primers"
2265896011;"beauty/Products/Makeup/Makeup Palettes"
11059231;"beauty/Products/Makeup/Makeup Remover"
11059241;"beauty/Products/Makeup/Makeup Remover/Eyes"
11059251;"beauty/Products/Makeup/Makeup Remover/Face"
3782991;"beauty/Products/Makeup/Makeup Remover/Lips"
11059301;"beauty/Products/Makeup/Makeup Sets"
11059311;"beauty/Products/Makeup/Nails"
13106071;"beauty/Products/Makeup/Nails/Nail Art"
11059321;"beauty/Products/Makeup/Nails/Nail Polish"
11059371;"beauty/Products/Makeup/Nails/Nail Polish Remover"
3782871;"beauty/Products/Makeup/Nails/Nail Thickening Solution"
11062291;"beauty/Products/Makeup/Nails/Nail Treatments"
11062311;"beauty/Products/Makeup/Nails/Nail Treatments/Growth Formula"
11062321;"beauty/Products/Makeup/Nails/Nail Treatments/Nail Repair"
11062331;"beauty/Products/Makeup/Nails/Nail Treatments/Nail Strengthening"
11062341;"beauty/Products/Makeup/Nails/Nail Treatments/Nail Whitening"
11062351;"beauty/Products/Makeup/Nails/Nail Treatments/Ridge Filler"
11059361;"beauty/Products/Makeup/Nails/Top & Base Coats"
11059401;"beauty/Products/Makeup/Brushes & Applicators"
11060451;"beauty/Products/Skin Care"
11060521;"beauty/Products/Skin Care/Body"
11056421;"beauty/Products/Skin Care/Body/Exfoliators"
11056441;"beauty/Products/Skin Care/Body/Exfoliators/Body Mud"
11056471;"beauty/Products/Skin Care/Body/Exfoliators/Body Scrubs"
11056481;"beauty/Products/Skin Care/Body/Exfoliators/Body Souffles & Mousse"
11060661;"beauty/Products/Skin Care/Body/Moisturizers"
11060671;"beauty/Products/Skin Care/Body/Moisturizers/Body Butter"
11060681;"beauty/Products/Skin Care/Body/Moisturizers/Creams"
14024031;"beauty/Products/Skin Care/Body/Moisturizers/Lotions"
11060691;"beauty/Products/Skin Care/Body/Moisturizers/Oils"
11061941;"beauty/Products/Skin Care/Eyes"
11061961;"beauty/Products/Skin Care/Eyes/Dark Circle Treatments"
11061971;"beauty/Products/Skin Care/Eyes/Masks"
11061991;"beauty/Products/Skin Care/Eyes/Puffiness Treatments"
7730088011;"beauty/Products/Skin Care/Eyes/Combinations"
7730089011;"beauty/Products/Skin Care/Eyes/Complexes"
7730090011;"beauty/Products/Skin Care/Eyes/Creams"
7730091011;"beauty/Products/Skin Care/Eyes/Fillers"
7730092011;"beauty/Products/Skin Care/Eyes/Gels"
7730093011;"beauty/Products/Skin Care/Eyes/Masks & Pillows"
7730094011;"beauty/Products/Skin Care/Eyes/Masks & Pillows/Pillows"
11061971;"beauty/Products/Skin Care/Eyes/Masks & Pillows/Masks"
7730095011;"beauty/Products/Skin Care/Eyes/Rollers & Pens"
7730098011;"beauty/Products/Skin Care/Eyes/Serums"
11060711;"beauty/Products/Skin Care/Face"
11060901;"beauty/Products/Skin Care/Face/Cleansers"
7730189011;"beauty/Products/Skin Care/Face/Cleansers/Bars"
11060941;"beauty/Products/Skin Care/Face/Cleansers/Cloths & Towelettes"
11061001;"beauty/Products/Skin Care/Face/Cleansers/Gels"
7730193011;"beauty/Products/Skin Care/Face/Cleansers/Washes"
11061301;"beauty/Products/Skin Care/Face/Creams & Moisturizers"
7965426011;"beauty/Products/Skin Care/Face/Creams & Moisturizers/Day Creams"
7792272011;"beauty/Products/Skin Care/Face/Creams & Moisturizers/Fluids & Lotions"
7792273011;"beauty/Products/Skin Care/Face/Creams & Moisturizers/Fluids & Lotions/Fluids"
7792274011;"beauty/Products/Skin Care/Face/Creams & Moisturizers/Fluids & Lotions/Lotions"
7792277011;"beauty/Products/Skin Care/Face/Creams & Moisturizers/Neck & Décolleté"
7792275011;"beauty/Products/Skin Care/Face/Creams & Moisturizers/Night Creams"
7792276011;"beauty/Products/Skin Care/Face/Creams & Moisturizers/Tinted Moisturizers"
11061091;"beauty/Products/Skin Care/Face/Exfoliators & Scrubs"
7792686011;"beauty/Products/Skin Care/Face/Exfoliators & Scrubs/Exfoliators"
11061151;"beauty/Products/Skin Care/Face/Exfoliators & Scrubs/Polishes"
11061161;"beauty/Products/Skin Care/Face/Exfoliators & Scrubs/Scrubs"
7792515011;"beauty/Products/Skin Care/Face/Oils & Serums"
7792541011;"beauty/Products/Skin Care/Face/Sunscreens & Self Tanners"
7792567011;"beauty/Products/Skin Care/Face/Sunscreens & Self Tanners/Sunscreens"
7792568011;"beauty/Products/Skin Care/Face/Sunscreens & Self Tanners/Self Tanners"
11061931;"beauty/Products/Skin Care/Face/Toners & Astringents"
11062031;"beauty/Products/Skin Care/Face/Treatments & Masks"
7792926011;"beauty/Products/Skin Care/Face/Treatments & Masks/Acids & Peels"
7792927011;"beauty/Products/Skin Care/Face/Treatments & Masks/Acids & Peels/Alpha Beta"
7792928011;"beauty/Products/Skin Care/Face/Treatments & Masks/Acids & Peels/Glycolic Acid"
7792929011;"beauty/Products/Skin Care/Face/Treatments & Masks/Acids & Peels/Lactic Acid"
7792931011;"beauty/Products/Skin Care/Face/Treatments & Masks/Acids & Peels/Retinol"
7792932011;"beauty/Products/Skin Care/Face/Treatments & Masks/Acids & Peels/Salicylic Acid"
11061121;"beauty/Products/Skin Care/Face/Treatments & Masks/Masks"
7792934011;"beauty/Products/Skin Care/Face/Treatments & Masks/Microdermabrasion"
7792936011;"beauty/Products/Skin Care/Face/Treatments & Masks/Pore Cleansing Strips"
7792636011;"beauty/Products/Skin Care/Face/Sets & Kits"
3780041;"beauty/Products/Skin Care/Feet"
11062211;"beauty/Products/Skin Care/Hands & Nails"
11062221;"beauty/Products/Skin Care/Hands & Nails/Cuticle Care"
11062231;"beauty/Products/Skin Care/Hands & Nails/Cuticle Care/Cuticle Creams & Oils"
11062241;"beauty/Products/Skin Care/Hands & Nails/Cuticle Care/Cuticle Removers"
11062251;"beauty/Products/Skin Care/Hands & Nails/Cuticle Care/Cuticle Repair"
11062261;"beauty/Products/Skin Care/Hands & Nails/Hand Creams & Lotions"
11062271;"beauty/Products/Skin Care/Hands & Nails/Hand Soaps"
11062281;"beauty/Products/Skin Care/Hands & Nails/Moisturizing Gloves"
11062291;"beauty/Products/Skin Care/Hands & Nails/Nail Treatments"
11062311;"beauty/Products/Skin Care/Hands & Nails/Nail Treatments/Growth Formula"
11062321;"beauty/Products/Skin Care/Hands & Nails/Nail Treatments/Nail Repair"
11062331;"beauty/Products/Skin Care/Hands & Nails/Nail Treatments/Nail Strengthening"
11062341;"beauty/Products/Skin Care/Hands & Nails/Nail Treatments/Nail Whitening"
11062351;"beauty/Products/Skin Care/Hands & Nails/Nail Treatments/Ridge Filler"
3787271;"beauty/Products/Skin Care/Hands & Nails/Paraffin Baths"
3761351;"beauty/Products/Skin Care/Lips"
979546011;"beauty/Products/Skin Care/Lips/Balms & Moisturizers"
979548011;"beauty/Products/Skin Care/Lips/Scrubs"
11062691;"beauty/Products/Skin Care/Lips/Sunscreens"
11062371;"beauty/Products/Skin Care/Maternity"
11062581;"beauty/Products/Skin Care/Sets & Kits"
11062591;"beauty/Products/Skin Care/Sun"
11062601;"beauty/Products/Skin Care/Sun/After Sun"
11062691;"beauty/Products/Skin Care/Sun/Lip Protection"
11062641;"beauty/Products/Skin Care/Sun/Self-Tanners & Bronzers"
11062651;"beauty/Products/Skin Care/Sun/Skin Protection"
11062701;"beauty/Products/Skin Care/Sun/Skin Protection/Sports"
11062731;"beauty/Products/Skin Care/Sun/Tanning Oils"
11062741;"beauty/Products/Tools & Accessories"
11062751;"beauty/Products/Tools & Accessories/Bags & Cases"
11062761;"beauty/Products/Tools & Accessories/Bags & Cases/Brush Bags"
11062771;"beauty/Products/Tools & Accessories/Bags & Cases/Cosmetic Bags"
11062781;"beauty/Products/Tools & Accessories/Bags & Cases/Refillable Containers"
387321011;"beauty/Products/Tools & Accessories/Bags & Cases/Toiletry Bags"
11062791;"beauty/Products/Tools & Accessories/Bags & Cases/Tote Bags"
11062801;"beauty/Products/Tools & Accessories/Bags & Cases/Train Cases"
11062811;"beauty/Products/Tools & Accessories/Bags & Cases/Travel Cases & Holders"
11056491;"beauty/Products/Tools & Accessories/Bathing Accessories"
11056501;"beauty/Products/Tools & Accessories/Bathing Accessories/Bath Brushes"
11056511;"beauty/Products/Tools & Accessories/Bathing Accessories/Bath Mitts & Cloths"
11056521;"beauty/Products/Tools & Accessories/Bathing Accessories/Bath Pillows"
11056531;"beauty/Products/Tools & Accessories/Bathing Accessories/Bath Trays"
11056541;"beauty/Products/Tools & Accessories/Bathing Accessories/Eye Masks"
11056551;"beauty/Products/Tools & Accessories/Bathing Accessories/Loofahs, Sponges & Poufs"
11056571;"beauty/Products/Tools & Accessories/Bathing Accessories/Shower Caps"
3784921;"beauty/Products/Tools & Accessories/Cotton & Swabs"
3784931;"beauty/Products/Tools & Accessories/Cotton & Swabs/Cotton Balls"
3784941;"beauty/Products/Tools & Accessories/Cotton & Swabs/Cotton Swabs"
234944011;"beauty/Products/Tools & Accessories/Epilators"
3784151;"beauty/Products/Tools & Accessories/Hair Coloring Tools"
3784161;"beauty/Products/Tools & Accessories/Hair Coloring Tools/Applicator Bottles"
3784171;"beauty/Products/Tools & Accessories/Hair Coloring Tools/Brushes, Combs & Needles"
3784181;"beauty/Products/Tools & Accessories/Hair Coloring Tools/Caps, Foils & Wraps"
3784191;"beauty/Products/Tools & Accessories/Hair Coloring Tools/Hair Color Mixing Bowls"
3784201;"beauty/Products/Tools & Accessories/Hair Coloring Tools/Hair Color Removers"
11058091;"beauty/Products/Tools & Accessories/Hair Styling Tools"
3784241;"beauty/Products/Tools & Accessories/Hair Styling Tools/Braiders"
11058121;"beauty/Products/Tools & Accessories/Hair Styling Tools/Brushes"
11058131;"beauty/Products/Tools & Accessories/Hair Styling Tools/Combs"
11058111;"beauty/Products/Tools & Accessories/Hair Styling Tools/Diffusers"
11058141;"beauty/Products/Tools & Accessories/Hair Styling Tools/Hair Dryers"
3784371;"beauty/Products/Tools & Accessories/Hair Styling Tools/Hair Rollers"
11058221;"beauty/Products/Tools & Accessories/Hair Styling Tools/Hot-Air Brushes"
11058231;"beauty/Products/Tools & Accessories/Hair Styling Tools/Irons"
3784341;"beauty/Products/Tools & Accessories/Hair Styling Tools/Irons/Crimping Irons"
11058251;"beauty/Products/Tools & Accessories/Hair Styling Tools/Irons/Curling Irons"
11058261;"beauty/Products/Tools & Accessories/Hair Styling Tools/Irons/Flattening Irons"
11057971;"beauty/Products/Tools & Accessories/Hair Styling Tools/Styling Accessories"
11057981;"beauty/Products/Tools & Accessories/Hair Styling Tools/Styling Accessories/Barrettes"
11057991;"beauty/Products/Tools & Accessories/Hair Styling Tools/Styling Accessories/Claws"
3784401;"beauty/Products/Tools & Accessories/Hair Styling Tools/Styling Accessories/Clips"
11058011;"beauty/Products/Tools & Accessories/Hair Styling Tools/Styling Accessories/Decorative Combs"
3784491;"beauty/Products/Tools & Accessories/Hair Styling Tools/Styling Accessories/Hair Drying Towels"
11058041;"beauty/Products/Tools & Accessories/Hair Styling Tools/Styling Accessories/Hair Sticks"
11058051;"beauty/Products/Tools & Accessories/Hair Styling Tools/Styling Accessories/Headbands"
3784391;"beauty/Products/Tools & Accessories/Hair Styling Tools/Styling Accessories/Hair Pins"
11058071;"beauty/Products/Tools & Accessories/Hair Styling Tools/Styling Accessories/Ponytail Holders"
3006300011;"beauty/Products/Tools & Accessories/Hair Styling Tools/Scissors"
3006301011;"beauty/Products/Tools & Accessories/Hair Styling Tools/Hair Cutting Kits"
11059391;"beauty/Products/Tools & Accessories/Makeup Brushes & Tools"
11058701;"beauty/Products/Tools & Accessories/Makeup Brushes & Tools/Blotting Paper"
11059401;"beauty/Products/Tools & Accessories/Makeup Brushes & Tools/Brushes & Applicators"
11059471;"beauty/Products/Tools & Accessories/Makeup Brushes & Tools/Eyelash Tools"
11059481;"beauty/Products/Tools & Accessories/Makeup Brushes & Tools/Eyelash Tools/Curlers"
11059491;"beauty/Products/Tools & Accessories/Makeup Brushes & Tools/Eyelash Tools/Fake Eyelashes & Adhesives"
11059501;"beauty/Products/Tools & Accessories/Makeup Brushes & Tools/Puffs, Sponges & Wedges"
11059521;"beauty/Products/Tools & Accessories/Makeup Brushes & Tools/Sharpeners"
11059531;"beauty/Products/Tools & Accessories/Makeup Brushes & Tools/Treatment Tools"
11059541;"beauty/Products/Tools & Accessories/Makeup Brushes & Tools/Treatment Tools/Blemish Tools"
11059551;"beauty/Products/Tools & Accessories/Makeup Brushes & Tools/Treatment Tools/Face Cleansing Brushes"
11059511;"beauty/Products/Tools & Accessories/Makeup Brushes & Tools/Sets & Kits"
11063411;"beauty/Products/Tools & Accessories/Mirrors"
3785121;"beauty/Products/Tools & Accessories/Mirrors/Makeup Mirrors"
3785131;"beauty/Products/Tools & Accessories/Mirrors/Shower Mirrors"
11063461;"beauty/Products/Tools & Accessories/Nail Tools"
11063481;"beauty/Products/Tools & Accessories/Nail Tools/Clippers & Trimmers"
11063491;"beauty/Products/Tools & Accessories/Nail Tools/Cuticle Pushers"
11063501;"beauty/Products/Tools & Accessories/Nail Tools/Cuticle Scissors"
3784781;"beauty/Products/Tools & Accessories/Nail Tools/False Nails"
11063611;"beauty/Products/Tools & Accessories/Nail Tools/Foot Rasps"
13106421;"beauty/Products/Tools & Accessories/Nail Tools/Nail Art Equipment"
11063531;"beauty/Products/Tools & Accessories/Nail Tools/Nail Brushes"
3784801;"beauty/Products/Tools & Accessories/Nail Tools/Nail Dryers"
11063551;"beauty/Products/Tools & Accessories/Nail Tools/Nail Files & Buffers"
3784911;"beauty/Products/Tools & Accessories/Nail Tools/Sets & Kits"
11063681;"beauty/Products/Tools & Accessories/Nail Tools/Spa Slippers"
11063691;"beauty/Products/Tools & Accessories/Nail Tools/Toe Separators"
11056581;"beauty/Products/Tools & Accessories/Toiletry Kits"
3779181;"beauty/Products/Tools & Accessories/Tweezers"
3779191;"beauty/Products/Tools & Accessories/Waxing"
3779221;"beauty/Products/Tools & Accessories/Waxing/Powders"
3779231;"beauty/Products/Tools & Accessories/Waxing/Skin Cleansers"
3779241;"beauty/Products/Tools & Accessories/Waxing/Spatulas"
3779271;"beauty/Products/Tools & Accessories/Waxing/Strips"
3779261;"beauty/Products/Tools & Accessories/Waxing/Warmers"
3779251;"beauty/Products/Tools & Accessories/Waxing/Wax"
3779281;"beauty/Products/Tools & Accessories/Waxing/Waxing Kits"
51570011;"beauty/Featured Categories"
11055991;"beauty/Featured Categories/Bath & Shower"
11056211;"beauty/Featured Categories/Bath & Shower/Bath"
11056221;"beauty/Featured Categories/Bath & Shower/Bath/Bath Bombs"
11056231;"beauty/Featured Categories/Bath & Shower/Bath/Bath Pearls & Flakes"
11056241;"beauty/Featured Categories/Bath & Shower/Bath/Bubble Bath"
11056251;"beauty/Featured Categories/Bath & Shower/Bath/Minerals & Salts"
11056261;"beauty/Featured Categories/Bath & Shower/Bath/Oils"
11056271;"beauty/Featured Categories/Bath & Shower/Bath/Tub Tea"
11056491;"beauty/Featured Categories/Bath & Shower/Bathing Accessories"
11056501;"beauty/Featured Categories/Bath & Shower/Bathing Accessories/Bath Brushes"
11056511;"beauty/Featured Categories/Bath & Shower/Bathing Accessories/Bath Mitts & Cloths"
11056521;"beauty/Featured Categories/Bath & Shower/Bathing Accessories/Bath Pillows"
11056531;"beauty/Featured Categories/Bath & Shower/Bathing Accessories/Bath Trays"
11056541;"beauty/Featured Categories/Bath & Shower/Bathing Accessories/Eye Masks"
11056551;"beauty/Featured Categories/Bath & Shower/Bathing Accessories/Loofahs, Sponges & Poufs"
11056571;"beauty/Featured Categories/Bath & Shower/Bathing Accessories/Shower Caps"
11056281;"beauty/Featured Categories/Bath & Shower/Cleansers"
11056291;"beauty/Featured Categories/Bath & Shower/Cleansers/Body Washes"
11056341;"beauty/Featured Categories/Bath & Shower/Cleansers/Soaps"
11056421;"beauty/Featured Categories/Bath & Shower/Scrubs & Body Treatments"
11056441;"beauty/Featured Categories/Bath & Shower/Scrubs & Body Treatments/Body Mud"
11056471;"beauty/Featured Categories/Bath & Shower/Scrubs & Body Treatments/Body Scrubs"
11056481;"beauty/Featured Categories/Bath & Shower/Scrubs & Body Treatments/Body Souffles & Mousse"
11056581;"beauty/Featured Categories/Bath & Shower/Sets"
11056591;"beauty/Featured Categories/Fragrance"
11056931;"beauty/Featured Categories/Fragrance/Women's"
3783161;"beauty/Featured Categories/Fragrance/Women's/Body Sprays"
11057051;"beauty/Featured Categories/Fragrance/Women's/Cologne"
11057071;"beauty/Featured Categories/Fragrance/Women's/Eau de Parfum"
11057081;"beauty/Featured Categories/Fragrance/Women's/Eau de Toilette"
11057091;"beauty/Featured Categories/Fragrance/Women's/Essential Oils"
11057111;"beauty/Featured Categories/Fragrance/Women's/Sets"
11056761;"beauty/Featured Categories/Fragrance/Men's"
11059721;"beauty/Featured Categories/Fragrance/Men's/Cologne"
363235011;"beauty/Featured Categories/Fragrance/Men's/Eau de Parfum"
363236011;"beauty/Featured Categories/Fragrance/Men's/Eau de Toilette"
11059741;"beauty/Featured Categories/Fragrance/Men's/Sets"
11056711;"beauty/Featured Categories/Fragrance/Children's"
7240192011;"beauty/Featured Categories/Fragrance/Candles & Home Scents"
11056891;"beauty/Featured Categories/Fragrance/Sets"
11057111;"beauty/Featured Categories/Fragrance/Sets/Women's"
11059741;"beauty/Featured Categories/Fragrance/Sets/Men's"
11057131;"beauty/Featured Categories/Gift Sets"
11057241;"beauty/Featured Categories/Hair Care"
11057251;"beauty/Featured Categories/Hair Care/Conditioners"
11057431;"beauty/Featured Categories/Hair Care/Hair & Scalp Treatments"
11057451;"beauty/Featured Categories/Hair Care/Hair Color"
10728531;"beauty/Featured Categories/Hair Care/Hair Color/Chemical Hair Dyes"
3781671;"beauty/Featured Categories/Hair Care/Hair Color/Color Correctors"
3781651;"beauty/Featured Categories/Hair Care/Hair Color/Color Primers"
3781661;"beauty/Featured Categories/Hair Care/Hair Color/Color Refreshers"
3781641;"beauty/Featured Categories/Hair Care/Hair Color/Hennas"
3781631;"beauty/Featured Categories/Hair Care/Hair Color/Highlights"
11057561;"beauty/Featured Categories/Hair Care/Hair Loss Products"
11057571;"beauty/Featured Categories/Hair Care/Hair Loss Products/Conditioners"
11057581;"beauty/Featured Categories/Hair Care/Hair Loss Products/Hair Regrowth Treatments"
11057631;"beauty/Featured Categories/Hair Care/Hair Loss Products/Shampoos"
3781871;"beauty/Featured Categories/Hair Care/Hair Loss Products/Styling Products"
3781901;"beauty/Featured Categories/Hair Care/Hair Perms & Texturizers"
3781941;"beauty/Featured Categories/Hair Care/Hair Perms & Texturizers/After-Perm Shampoos"
3781911;"beauty/Featured Categories/Hair Care/Hair Perms & Texturizers/Home Permanent Kits"
3799601;"beauty/Featured Categories/Hair Care/Hair Perms & Texturizers/Texturizers"
3781951;"beauty/Featured Categories/Hair Care/Hair Relaxers"
3781981;"beauty/Featured Categories/Hair Care/Hair Relaxers/Activators"
3782001;"beauty/Featured Categories/Hair Care/Hair Relaxers/Conditioners"
702373011;"beauty/Featured Categories/Hair Care/Hair Relaxers/Creams"
702374011;"beauty/Featured Categories/Hair Care/Hair Relaxers/Gels"
702375011;"beauty/Featured Categories/Hair Care/Hair Relaxers/Lotions"
3781991;"beauty/Featured Categories/Hair Care/Hair Relaxers/Shampoos"
11057651;"beauty/Featured Categories/Hair Care/Shampoos"
3781381;"beauty/Featured Categories/Hair Care/Shampoo Plus Conditioner"
11057441;"beauty/Featured Categories/Hair Care/Shampoo & Conditioner Sets"
11057841;"beauty/Featured Categories/Hair Care/Styling Products"
3782071;"beauty/Featured Categories/Hair Care/Styling Products/Braid Maintenance"
11057871;"beauty/Featured Categories/Hair Care/Styling Products/Creams, Gels & Lotions"
3781751;"beauty/Featured Categories/Hair Care/Styling Products/Curl Enhancers"
13105931;"beauty/Featured Categories/Hair Care/Styling Products/Hair Extensions & Wigs"
702379011;"beauty/Featured Categories/Hair Care/Styling Products/Hair Extensions & Wigs/Hair Extensions"
702380011;"beauty/Featured Categories/Hair Care/Styling Products/Hair Extensions & Wigs/Hairpieces"
702381011;"beauty/Featured Categories/Hair Care/Styling Products/Hair Extensions & Wigs/Wigs"
11057891;"beauty/Featured Categories/Hair Care/Styling Products/Hair Sprays"
382803011;"beauty/Featured Categories/Hair Care/Styling Products/Hair Styling Serums"
11057901;"beauty/Featured Categories/Hair Care/Styling Products/Mousses & Foams"
11057931;"beauty/Featured Categories/Hair Care/Styling Products/Pomades & Waxes"
11058091;"beauty/Featured Categories/Hair Care/Styling Tools"
3784241;"beauty/Featured Categories/Hair Care/Styling Tools/Braiders"
11058121;"beauty/Featured Categories/Hair Care/Styling Tools/Brushes"
11058131;"beauty/Featured Categories/Hair Care/Styling Tools/Combs"
11058111;"beauty/Featured Categories/Hair Care/Styling Tools/Diffusers"
11058141;"beauty/Featured Categories/Hair Care/Styling Tools/Hair Dryers"
3784371;"beauty/Featured Categories/Hair Care/Styling Tools/Hair Rollers"
11058221;"beauty/Featured Categories/Hair Care/Styling Tools/Hot-Air Brushes"
11058231;"beauty/Featured Categories/Hair Care/Styling Tools/Irons"
3784341;"beauty/Featured Categories/Hair Care/Styling Tools/Irons/Crimping Irons"
11058251;"beauty/Featured Categories/Hair Care/Styling Tools/Irons/Curling Irons"
11058261;"beauty/Featured Categories/Hair Care/Styling Tools/Irons/Flattening Irons"
11057971;"beauty/Featured Categories/Hair Care/Styling Tools/Styling Accessories"
11057981;"beauty/Featured Categories/Hair Care/Styling Tools/Styling Accessories/Barrettes"
11057991;"beauty/Featured Categories/Hair Care/Styling Tools/Styling Accessories/Claws"
3784401;"beauty/Featured Categories/Hair Care/Styling Tools/Styling Accessories/Clips"
11058011;"beauty/Featured Categories/Hair Care/Styling Tools/Styling Accessories/Decorative Combs"
3784491;"beauty/Featured Categories/Hair Care/Styling Tools/Styling Accessories/Hair Drying Towels"
11058041;"beauty/Featured Categories/Hair Care/Styling Tools/Styling Accessories/Hair Sticks"
11058051;"beauty/Featured Categories/Hair Care/Styling Tools/Styling Accessories/Headbands"
3784391;"beauty/Featured Categories/Hair Care/Styling Tools/Styling Accessories/Hair Pins"
11058071;"beauty/Featured Categories/Hair Care/Styling Tools/Styling Accessories/Ponytail Holders"
3006300011;"beauty/Featured Categories/Hair Care/Styling Tools/Scissors"
3006301011;"beauty/Featured Categories/Hair Care/Styling Tools/Hair Cutting Kits"
11058281;"beauty/Featured Categories/Makeup"
11058291;"beauty/Featured Categories/Makeup/Body"
11058301;"beauty/Featured Categories/Makeup/Body/Body Glitter"
702382011;"beauty/Featured Categories/Makeup/Body/Body Paint"
11058311;"beauty/Featured Categories/Makeup/Body/Bronzing Powder"
11058321;"beauty/Featured Categories/Makeup/Body/Concealer"
702383011;"beauty/Featured Categories/Makeup/Body/Henna"
702384011;"beauty/Featured Categories/Makeup/Body/Temporary Tattoos"
11058331;"beauty/Featured Categories/Makeup/Eyes"
11058341;"beauty/Featured Categories/Makeup/Eyes/Concealer & Base"
11058361;"beauty/Featured Categories/Makeup/Eyes/Eye Shadow"
11058451;"beauty/Featured Categories/Makeup/Eyes/Eyebrow Color"
11058521;"beauty/Featured Categories/Makeup/Eyes/Eyeliner"
3006286011;"beauty/Featured Categories/Makeup/Eyes/Glitter & Shimmer"
10312668011;"beauty/Featured Categories/Makeup/Eyes/Lash Enhancers & Primers"
11058381;"beauty/Featured Categories/Makeup/Eyes/Liner & Shadow Combinations"
11058611;"beauty/Featured Categories/Makeup/Eyes/Mascara"
11058691;"beauty/Featured Categories/Makeup/Face"
11058701;"beauty/Featured Categories/Makeup/Face/Blotting Paper"
11058711;"beauty/Featured Categories/Makeup/Face/Blush"
11058781;"beauty/Featured Categories/Makeup/Face/Bronzers & Highlighters"
11058791;"beauty/Featured Categories/Makeup/Face/Concealers & Neutralizers"
11058871;"beauty/Featured Categories/Makeup/Face/Foundation"
388109011;"beauty/Featured Categories/Makeup/Face/Foundation Primers"
11058971;"beauty/Featured Categories/Makeup/Face/Powder"
11059031;"beauty/Featured Categories/Makeup/Lips"
11059041;"beauty/Featured Categories/Makeup/Lips/Lip Glosses"
11059101;"beauty/Featured Categories/Makeup/Lips/Lip Liners"
14104641;"beauty/Featured Categories/Makeup/Lips/Lip Plumpers"
11059051;"beauty/Featured Categories/Makeup/Lips/Lip Stains"
11059111;"beauty/Featured Categories/Makeup/Lips/Lipstick"
11059221;"beauty/Featured Categories/Makeup/Lips/Lipstick Primers"
2265896011;"beauty/Featured Categories/Makeup/Makeup Palettes"
11059231;"beauty/Featured Categories/Makeup/Makeup Remover"
11059241;"beauty/Featured Categories/Makeup/Makeup Remover/Eyes"
11059251;"beauty/Featured Categories/Makeup/Makeup Remover/Face"
3782991;"beauty/Featured Categories/Makeup/Makeup Remover/Lips"
11059301;"beauty/Featured Categories/Makeup/Makeup Sets"
11059311;"beauty/Featured Categories/Makeup/Nails"
13106071;"beauty/Featured Categories/Makeup/Nails/Nail Art"
11059321;"beauty/Featured Categories/Makeup/Nails/Nail Polish"
11059371;"beauty/Featured Categories/Makeup/Nails/Nail Polish Remover"
3782871;"beauty/Featured Categories/Makeup/Nails/Nail Thickening Solution"
11062291;"beauty/Featured Categories/Makeup/Nails/Nail Treatments"
11062311;"beauty/Featured Categories/Makeup/Nails/Nail Treatments/Growth Formula"
11062321;"beauty/Featured Categories/Makeup/Nails/Nail Treatments/Nail Repair"
11062331;"beauty/Featured Categories/Makeup/Nails/Nail Treatments/Nail Strengthening"
11062341;"beauty/Featured Categories/Makeup/Nails/Nail Treatments/Nail Whitening"
11062351;"beauty/Featured Categories/Makeup/Nails/Nail Treatments/Ridge Filler"
11059361;"beauty/Featured Categories/Makeup/Nails/Top & Base Coats"
11059401;"beauty/Featured Categories/Makeup/Brushes & Applicators"
11060451;"beauty/Featured Categories/Skin Care"
11060521;"beauty/Featured Categories/Skin Care/Body"
11056421;"beauty/Featured Categories/Skin Care/Body/Exfoliators"
11056441;"beauty/Featured Categories/Skin Care/Body/Exfoliators/Body Mud"
11056471;"beauty/Featured Categories/Skin Care/Body/Exfoliators/Body Scrubs"
11056481;"beauty/Featured Categories/Skin Care/Body/Exfoliators/Body Souffles & Mousse"
11060661;"beauty/Featured Categories/Skin Care/Body/Moisturizers"
11060671;"beauty/Featured Categories/Skin Care/Body/Moisturizers/Body Butter"
11060681;"beauty/Featured Categories/Skin Care/Body/Moisturizers/Creams"
14024031;"beauty/Featured Categories/Skin Care/Body/Moisturizers/Lotions"
11060691;"beauty/Featured Categories/Skin Care/Body/Moisturizers/Oils"
11061941;"beauty/Featured Categories/Skin Care/Eyes"
11061961;"beauty/Featured Categories/Skin Care/Eyes/Dark Circle Treatments"
11061971;"beauty/Featured Categories/Skin Care/Eyes/Masks"
11061991;"beauty/Featured Categories/Skin Care/Eyes/Puffiness Treatments"
7730088011;"beauty/Featured Categories/Skin Care/Eyes/Combinations"
7730089011;"beauty/Featured Categories/Skin Care/Eyes/Complexes"
7730090011;"beauty/Featured Categories/Skin Care/Eyes/Creams"
7730091011;"beauty/Featured Categories/Skin Care/Eyes/Fillers"
7730092011;"beauty/Featured Categories/Skin Care/Eyes/Gels"
7730093011;"beauty/Featured Categories/Skin Care/Eyes/Masks & Pillows"
7730094011;"beauty/Featured Categories/Skin Care/Eyes/Masks & Pillows/Pillows"
11061971;"beauty/Featured Categories/Skin Care/Eyes/Masks & Pillows/Masks"
7730095011;"beauty/Featured Categories/Skin Care/Eyes/Rollers & Pens"
7730098011;"beauty/Featured Categories/Skin Care/Eyes/Serums"
11060711;"beauty/Featured Categories/Skin Care/Face"
11060901;"beauty/Featured Categories/Skin Care/Face/Cleansers"
7730189011;"beauty/Featured Categories/Skin Care/Face/Cleansers/Bars"
11060941;"beauty/Featured Categories/Skin Care/Face/Cleansers/Cloths & Towelettes"
11061001;"beauty/Featured Categories/Skin Care/Face/Cleansers/Gels"
7730193011;"beauty/Featured Categories/Skin Care/Face/Cleansers/Washes"
11061301;"beauty/Featured Categories/Skin Care/Face/Creams & Moisturizers"
7965426011;"beauty/Featured Categories/Skin Care/Face/Creams & Moisturizers/Day Creams"
7792272011;"beauty/Featured Categories/Skin Care/Face/Creams & Moisturizers/Fluids & Lotions"
7792273011;"beauty/Featured Categories/Skin Care/Face/Creams & Moisturizers/Fluids & Lotions/Fluids"
7792274011;"beauty/Featured Categories/Skin Care/Face/Creams & Moisturizers/Fluids & Lotions/Lotions"
7792277011;"beauty/Featured Categories/Skin Care/Face/Creams & Moisturizers/Neck & Décolleté"
7792275011;"beauty/Featured Categories/Skin Care/Face/Creams & Moisturizers/Night Creams"
7792276011;"beauty/Featured Categories/Skin Care/Face/Creams & Moisturizers/Tinted Moisturizers"
11061091;"beauty/Featured Categories/Skin Care/Face/Exfoliators & Scrubs"
7792686011;"beauty/Featured Categories/Skin Care/Face/Exfoliators & Scrubs/Exfoliators"
11061151;"beauty/Featured Categories/Skin Care/Face/Exfoliators & Scrubs/Polishes"
11061161;"beauty/Featured Categories/Skin Care/Face/Exfoliators & Scrubs/Scrubs"
7792515011;"beauty/Featured Categories/Skin Care/Face/Oils & Serums"
7792541011;"beauty/Featured Categories/Skin Care/Face/Sunscreens & Self Tanners"
7792567011;"beauty/Featured Categories/Skin Care/Face/Sunscreens & Self Tanners/Sunscreens"
7792568011;"beauty/Featured Categories/Skin Care/Face/Sunscreens & Self Tanners/Self Tanners"
11061931;"beauty/Featured Categories/Skin Care/Face/Toners & Astringents"
11062031;"beauty/Featured Categories/Skin Care/Face/Treatments & Masks"
7792926011;"beauty/Featured Categories/Skin Care/Face/Treatments & Masks/Acids & Peels"
7792927011;"beauty/Featured Categories/Skin Care/Face/Treatments & Masks/Acids & Peels/Alpha Beta"
7792928011;"beauty/Featured Categories/Skin Care/Face/Treatments & Masks/Acids & Peels/Glycolic Acid"
7792929011;"beauty/Featured Categories/Skin Care/Face/Treatments & Masks/Acids & Peels/Lactic Acid"
7792931011;"beauty/Featured Categories/Skin Care/Face/Treatments & Masks/Acids & Peels/Retinol"
7792932011;"beauty/Featured Categories/Skin Care/Face/Treatments & Masks/Acids & Peels/Salicylic Acid"
11061121;"beauty/Featured Categories/Skin Care/Face/Treatments & Masks/Masks"
7792934011;"beauty/Featured Categories/Skin Care/Face/Treatments & Masks/Microdermabrasion"
7792936011;"beauty/Featured Categories/Skin Care/Face/Treatments & Masks/Pore Cleansing Strips"
7792636011;"beauty/Featured Categories/Skin Care/Face/Sets & Kits"
3780041;"beauty/Featured Categories/Skin Care/Feet"
11062211;"beauty/Featured Categories/Skin Care/Hands & Nails"
11062221;"beauty/Featured Categories/Skin Care/Hands & Nails/Cuticle Care"
11062231;"beauty/Featured Categories/Skin Care/Hands & Nails/Cuticle Care/Cuticle Creams & Oils"
11062241;"beauty/Featured Categories/Skin Care/Hands & Nails/Cuticle Care/Cuticle Removers"
11062251;"beauty/Featured Categories/Skin Care/Hands & Nails/Cuticle Care/Cuticle Repair"
11062261;"beauty/Featured Categories/Skin Care/Hands & Nails/Hand Creams & Lotions"
11062271;"beauty/Featured Categories/Skin Care/Hands & Nails/Hand Soaps"
11062281;"beauty/Featured Categories/Skin Care/Hands & Nails/Moisturizing Gloves"
11062291;"beauty/Featured Categories/Skin Care/Hands & Nails/Nail Treatments"
11062311;"beauty/Featured Categories/Skin Care/Hands & Nails/Nail Treatments/Growth Formula"
11062321;"beauty/Featured Categories/Skin Care/Hands & Nails/Nail Treatments/Nail Repair"
11062331;"beauty/Featured Categories/Skin Care/Hands & Nails/Nail Treatments/Nail Strengthening"
11062341;"beauty/Featured Categories/Skin Care/Hands & Nails/Nail Treatments/Nail Whitening"
11062351;"beauty/Featured Categories/Skin Care/Hands & Nails/Nail Treatments/Ridge Filler"
3787271;"beauty/Featured Categories/Skin Care/Hands & Nails/Paraffin Baths"
3761351;"beauty/Featured Categories/Skin Care/Lips"
979546011;"beauty/Featured Categories/Skin Care/Lips/Balms & Moisturizers"
979548011;"beauty/Featured Categories/Skin Care/Lips/Scrubs"
11062691;"beauty/Featured Categories/Skin Care/Lips/Sunscreens"
11062371;"beauty/Featured Categories/Skin Care/Maternity"
11062581;"beauty/Featured Categories/Skin Care/Sets & Kits"
11062591;"beauty/Featured Categories/Skin Care/Sun"
11062601;"beauty/Featured Categories/Skin Care/Sun/After Sun"
11062691;"beauty/Featured Categories/Skin Care/Sun/Lip Protection"
11062641;"beauty/Featured Categories/Skin Care/Sun/Self-Tanners & Bronzers"
11062651;"beauty/Featured Categories/Skin Care/Sun/Skin Protection"
11062701;"beauty/Featured Categories/Skin Care/Sun/Skin Protection/Sports"
11062731;"beauty/Featured Categories/Skin Care/Sun/Tanning Oils"
11062741;"beauty/Featured Categories/Tools & Accessories"
11062751;"beauty/Featured Categories/Tools & Accessories/Bags & Cases"
11062761;"beauty/Featured Categories/Tools & Accessories/Bags & Cases/Brush Bags"
11062771;"beauty/Featured Categories/Tools & Accessories/Bags & Cases/Cosmetic Bags"
11062781;"beauty/Featured Categories/Tools & Accessories/Bags & Cases/Refillable Containers"
387321011;"beauty/Featured Categories/Tools & Accessories/Bags & Cases/Toiletry Bags"
11062791;"beauty/Featured Categories/Tools & Accessories/Bags & Cases/Tote Bags"
11062801;"beauty/Featured Categories/Tools & Accessories/Bags & Cases/Train Cases"
11062811;"beauty/Featured Categories/Tools & Accessories/Bags & Cases/Travel Cases & Holders"
11056491;"beauty/Featured Categories/Tools & Accessories/Bathing Accessories"
11056501;"beauty/Featured Categories/Tools & Accessories/Bathing Accessories/Bath Brushes"
11056511;"beauty/Featured Categories/Tools & Accessories/Bathing Accessories/Bath Mitts & Cloths"
11056521;"beauty/Featured Categories/Tools & Accessories/Bathing Accessories/Bath Pillows"
11056531;"beauty/Featured Categories/Tools & Accessories/Bathing Accessories/Bath Trays"
11056541;"beauty/Featured Categories/Tools & Accessories/Bathing Accessories/Eye Masks"
11056551;"beauty/Featured Categories/Tools & Accessories/Bathing Accessories/Loofahs, Sponges & Poufs"
11056571;"beauty/Featured Categories/Tools & Accessories/Bathing Accessories/Shower Caps"
3784921;"beauty/Featured Categories/Tools & Accessories/Cotton & Swabs"
3784931;"beauty/Featured Categories/Tools & Accessories/Cotton & Swabs/Cotton Balls"
3784941;"beauty/Featured Categories/Tools & Accessories/Cotton & Swabs/Cotton Swabs"
234944011;"beauty/Featured Categories/Tools & Accessories/Epilators"
3784151;"beauty/Featured Categories/Tools & Accessories/Hair Coloring Tools"
3784161;"beauty/Featured Categories/Tools & Accessories/Hair Coloring Tools/Applicator Bottles"
3784171;"beauty/Featured Categories/Tools & Accessories/Hair Coloring Tools/Brushes, Combs & Needles"
3784181;"beauty/Featured Categories/Tools & Accessories/Hair Coloring Tools/Caps, Foils & Wraps"
3784191;"beauty/Featured Categories/Tools & Accessories/Hair Coloring Tools/Hair Color Mixing Bowls"
3784201;"beauty/Featured Categories/Tools & Accessories/Hair Coloring Tools/Hair Color Removers"
11058091;"beauty/Featured Categories/Tools & Accessories/Hair Styling Tools"
3784241;"beauty/Featured Categories/Tools & Accessories/Hair Styling Tools/Braiders"
11058121;"beauty/Featured Categories/Tools & Accessories/Hair Styling Tools/Brushes"
11058131;"beauty/Featured Categories/Tools & Accessories/Hair Styling Tools/Combs"
11058111;"beauty/Featured Categories/Tools & Accessories/Hair Styling Tools/Diffusers"
11058141;"beauty/Featured Categories/Tools & Accessories/Hair Styling Tools/Hair Dryers"
3784371;"beauty/Featured Categories/Tools & Accessories/Hair Styling Tools/Hair Rollers"
11058221;"beauty/Featured Categories/Tools & Accessories/Hair Styling Tools/Hot-Air Brushes"
11058231;"beauty/Featured Categories/Tools & Accessories/Hair Styling Tools/Irons"
3784341;"beauty/Featured Categories/Tools & Accessories/Hair Styling Tools/Irons/Crimping Irons"
11058251;"beauty/Featured Categories/Tools & Accessories/Hair Styling Tools/Irons/Curling Irons"
11058261;"beauty/Featured Categories/Tools & Accessories/Hair Styling Tools/Irons/Flattening Irons"
11057971;"beauty/Featured Categories/Tools & Accessories/Hair Styling Tools/Styling Accessories"
11057981;"beauty/Featured Categories/Tools & Accessories/Hair Styling Tools/Styling Accessories/Barrettes"
11057991;"beauty/Featured Categories/Tools & Accessories/Hair Styling Tools/Styling Accessories/Claws"
3784401;"beauty/Featured Categories/Tools & Accessories/Hair Styling Tools/Styling Accessories/Clips"
11058011;"beauty/Featured Categories/Tools & Accessories/Hair Styling Tools/Styling Accessories/Decorative Combs"
3784491;"beauty/Featured Categories/Tools & Accessories/Hair Styling Tools/Styling Accessories/Hair Drying Towels"
11058041;"beauty/Featured Categories/Tools & Accessories/Hair Styling Tools/Styling Accessories/Hair Sticks"
11058051;"beauty/Featured Categories/Tools & Accessories/Hair Styling Tools/Styling Accessories/Headbands"
3784391;"beauty/Featured Categories/Tools & Accessories/Hair Styling Tools/Styling Accessories/Hair Pins"
11058071;"beauty/Featured Categories/Tools & Accessories/Hair Styling Tools/Styling Accessories/Ponytail Holders"
3006300011;"beauty/Featured Categories/Tools & Accessories/Hair Styling Tools/Scissors"
3006301011;"beauty/Featured Categories/Tools & Accessories/Hair Styling Tools/Hair Cutting Kits"
11059391;"beauty/Featured Categories/Tools & Accessories/Makeup Brushes & Tools"
11058701;"beauty/Featured Categories/Tools & Accessories/Makeup Brushes & Tools/Blotting Paper"
11059401;"beauty/Featured Categories/Tools & Accessories/Makeup Brushes & Tools/Brushes & Applicators"
11059471;"beauty/Featured Categories/Tools & Accessories/Makeup Brushes & Tools/Eyelash Tools"
11059481;"beauty/Featured Categories/Tools & Accessories/Makeup Brushes & Tools/Eyelash Tools/Curlers"
11059491;"beauty/Featured Categories/Tools & Accessories/Makeup Brushes & Tools/Eyelash Tools/Fake Eyelashes & Adhesives"
11059501;"beauty/Featured Categories/Tools & Accessories/Makeup Brushes & Tools/Puffs, Sponges & Wedges"
11059521;"beauty/Featured Categories/Tools & Accessories/Makeup Brushes & Tools/Sharpeners"
11059531;"beauty/Featured Categories/Tools & Accessories/Makeup Brushes & Tools/Treatment Tools"
11059541;"beauty/Featured Categories/Tools & Accessories/Makeup Brushes & Tools/Treatment Tools/Blemish Tools"
11059551;"beauty/Featured Categories/Tools & Accessories/Makeup Brushes & Tools/Treatment Tools/Face Cleansing Brushes"
11059511;"beauty/Featured Categories/Tools & Accessories/Makeup Brushes & Tools/Sets & Kits"
11063411;"beauty/Featured Categories/Tools & Accessories/Mirrors"
3785121;"beauty/Featured Categories/Tools & Accessories/Mirrors/Makeup Mirrors"
3785131;"beauty/Featured Categories/Tools & Accessories/Mirrors/Shower Mirrors"
11063461;"beauty/Featured Categories/Tools & Accessories/Nail Tools"
11063481;"beauty/Featured Categories/Tools & Accessories/Nail Tools/Clippers & Trimmers"
11063491;"beauty/Featured Categories/Tools & Accessories/Nail Tools/Cuticle Pushers"
11063501;"beauty/Featured Categories/Tools & Accessories/Nail Tools/Cuticle Scissors"
3784781;"beauty/Featured Categories/Tools & Accessories/Nail Tools/False Nails"
11063611;"beauty/Featured Categories/Tools & Accessories/Nail Tools/Foot Rasps"
13106421;"beauty/Featured Categories/Tools & Accessories/Nail Tools/Nail Art Equipment"
11063531;"beauty/Featured Categories/Tools & Accessories/Nail Tools/Nail Brushes"
3784801;"beauty/Featured Categories/Tools & Accessories/Nail Tools/Nail Dryers"
11063551;"beauty/Featured Categories/Tools & Accessories/Nail Tools/Nail Files & Buffers"
3784911;"beauty/Featured Categories/Tools & Accessories/Nail Tools/Sets & Kits"
11063681;"beauty/Featured Categories/Tools & Accessories/Nail Tools/Spa Slippers"
11063691;"beauty/Featured Categories/Tools & Accessories/Nail Tools/Toe Separators"
11056581;"beauty/Featured Categories/Tools & Accessories/Toiletry Kits"
3779181;"beauty/Featured Categories/Tools & Accessories/Tweezers"
3779191;"beauty/Featured Categories/Tools & Accessories/Waxing"
3779221;"beauty/Featured Categories/Tools & Accessories/Waxing/Powders"
3779231;"beauty/Featured Categories/Tools & Accessories/Waxing/Skin Cleansers"
3779241;"beauty/Featured Categories/Tools & Accessories/Waxing/Spatulas"
3779271;"beauty/Featured Categories/Tools & Accessories/Waxing/Strips"
3779261;"beauty/Featured Categories/Tools & Accessories/Waxing/Warmers"
3779251;"beauty/Featured Categories/Tools & Accessories/Waxing/Wax"
3779281;"beauty/Featured Categories/Tools & Accessories/Waxing/Waxing Kits"
