2619526011;"appliances/Categories"
3737671;"appliances/Categories/Air Conditioners"
9425951011;"appliances/Categories/Air Conditioners/Air Conditioner Accessories"
3737761;"appliances/Categories/Air Conditioners/Energy Star Qualified"
3737741;"appliances/Categories/Air Conditioners/Multiroom"
1193678;"appliances/Categories/Air Conditioners/Portable"
3737681;"appliances/Categories/Air Conditioners/Replacement Parts"
2232419011;"appliances/Categories/Air Conditioners/Replacement Parts/Fans"
2232420011;"appliances/Categories/Air Conditioners/Replacement Parts/Filters"
2232421011;"appliances/Categories/Air Conditioners/Replacement Parts/Knobs"
2232422011;"appliances/Categories/Air Conditioners/Replacement Parts/Motors"
2232423011;"appliances/Categories/Air Conditioners/Replacement Parts/Power Cords"
3737751;"appliances/Categories/Air Conditioners/Single-Room"
3737701;"appliances/Categories/Air Conditioners/Slider Casement"
3737711;"appliances/Categories/Air Conditioners/Wall"
3737721;"appliances/Categories/Air Conditioners/Window"
267554011;"appliances/Categories/Air Purifiers"
510196;"appliances/Categories/Air Purifiers/Air Ionizers"
3737411;"appliances/Categories/Air Purifiers/Charcoal Air Purifiers"
3737421;"appliances/Categories/Air Purifiers/Electrostatic Air Purifiers"
510192;"appliances/Categories/Air Purifiers/HEPA Air Purifiers"
3737401;"appliances/Categories/Air Purifiers/Parts & Accessories"
3737451;"appliances/Categories/Air Purifiers/Travel-Size Air Purifiers"
3737431;"appliances/Categories/Air Purifiers/ULPA Air Purifiers"
2632820011;"appliances/Categories/Appliance Services"
2242350011;"appliances/Categories/Appliance Warranties"
2686378011;"appliances/Categories/Beer Keg Refrigerators"
2686328011;"appliances/Categories/Beverage Refrigerators"
495362;"appliances/Categories/Ceiling Fans & Accessories"
404433011;"appliances/Categories/Ceiling Fans & Accessories/Ceiling Fans"
495364;"appliances/Categories/Ceiling Fans & Accessories/Accessories"
5486414011;"appliances/Categories/Ceiling Fans & Accessories/Accessories/Downrod Couplers"
2054340011;"appliances/Categories/Ceiling Fans & Accessories/Accessories/Downrods"
5486415011;"appliances/Categories/Ceiling Fans & Accessories/Accessories/Fan Replacement Blades"
5486413011;"appliances/Categories/Ceiling Fans & Accessories/Accessories/Mount Adapters"
5486427011;"appliances/Categories/Ceiling Fans & Accessories/Accessories/Pull Chain Ornaments"
5486426011;"appliances/Categories/Ceiling Fans & Accessories/Accessories/Pull Chains"
2054338011;"appliances/Categories/Ceiling Fans & Accessories/Accessories/Remote Controls"
5486416011;"appliances/Categories/Ceiling Fans & Accessories/Accessories/Wall Controls"
3736701;"appliances/Categories/Ceiling Fans & Accessories/Ceiling Fan Light Kits"
678542011;"appliances/Categories/Compact Refrigerators"
3741261;"appliances/Categories/Cooktops"
3741271;"appliances/Categories/Dishwashers"
3741281;"appliances/Categories/Dishwashers/Built-In Dishwashers"
3741311;"appliances/Categories/Dishwashers/Specialty Dishwashers"
3737601;"appliances/Categories/Fans"
3304320011;"appliances/Categories/Fans/Floor Fans"
3737621;"appliances/Categories/Fans/Pedestal Fans"
3737631;"appliances/Categories/Fans/Table Fans"
241127011;"appliances/Categories/Fans/Tower Fans"
3741331;"appliances/Categories/Freezers"
3741341;"appliances/Categories/Freezers/Chest Freezers"
3741351;"appliances/Categories/Freezers/Upright Freezers"
680343011;"appliances/Categories/Garbage Disposals"
3226848011;"appliances/Categories/Garbage Disposals/Garbage Disposals"
3226849011;"appliances/Categories/Garbage Disposals/Garbage Disposal Parts"
267555011;"appliances/Categories/Humidifiers"
7031378011;"appliances/Categories/Humidifiers/Single Room Humidifiers"
7031379011;"appliances/Categories/Humidifiers/Whole House Humidifiers"
3737511;"appliances/Categories/Humidifiers/Humidifier Parts & Accessories"
3737521;"appliances/Categories/Humidifiers/Humidifier Parts & Accessories/Absorption Sleeves"
3737531;"appliances/Categories/Humidifiers/Humidifier Parts & Accessories/Chemicals"
3737571;"appliances/Categories/Humidifiers/Humidifier Parts & Accessories/Humidity Meters"
3737541;"appliances/Categories/Humidifiers/Humidifier Parts & Accessories/Replacement Belts"
3737551;"appliances/Categories/Humidifiers/Humidifier Parts & Accessories/Replacement Filters"
3737561;"appliances/Categories/Humidifiers/Humidifier Parts & Accessories/Replacement Wicks"
2399939011;"appliances/Categories/Ice Makers"
510240;"appliances/Categories/Irons, Steamers & Accessories"
3737851;"appliances/Categories/Irons, Steamers & Accessories/Ironing Accessories"
3737871;"appliances/Categories/Irons, Steamers & Accessories/Ironing Board Covers"
510246;"appliances/Categories/Irons, Steamers & Accessories/Ironing Boards"
3737841;"appliances/Categories/Irons, Steamers & Accessories/Ironing Sets"
510242;"appliances/Categories/Irons, Steamers & Accessories/Irons"
3737861;"appliances/Categories/Irons, Steamers & Accessories/Garment Steamer Accessories"
510248;"appliances/Categories/Irons, Steamers & Accessories/Garment Steamers"
3737831;"appliances/Categories/Irons, Steamers & Accessories/Travel Garment Steamers"
3737881;"appliances/Categories/Irons, Steamers & Accessories/Trouser Pressers"
289935;"appliances/Categories/Microwave Ovens"
3741621;"appliances/Categories/Microwave Ovens/Compact Microwave Ovens"
3741631;"appliances/Categories/Microwave Ovens/Countertop Microwave Ovens"
3741641;"appliances/Categories/Microwave Ovens/Microhood Microwave Ovens"
3741611;"appliances/Categories/Microwave Ovens/Over-the-Range Microwave Ovens"
3741651;"appliances/Categories/Microwave Ovens/Speed-Cooking Microwave Ovens"
3741181;"appliances/Categories/Parts & Accessories"
9425843011;"appliances/Categories/Parts & Accessories/Beer Keg Refrigerator Replacement Parts"
9425844011;"appliances/Categories/Parts & Accessories/Beverage Refrigerator Replacement Parts"
3204211011;"appliances/Categories/Parts & Accessories/Bread Machine Parts & Accessories"
3115648011;"appliances/Categories/Parts & Accessories/Coffee & Espresso Machine Parts & Accessories"
3115626011;"appliances/Categories/Parts & Accessories/Coffee & Espresso Machine Parts & Accessories/Coffee & Espresso Machine Cleaning Products"
289743;"appliances/Categories/Parts & Accessories/Coffee & Espresso Machine Parts & Accessories/Coffee Machine Accessories"
14042401;"appliances/Categories/Parts & Accessories/Coffee & Espresso Machine Parts & Accessories/Coffee Machine Accessories/Coffee Filters"
14162601;"appliances/Categories/Parts & Accessories/Coffee & Espresso Machine Parts & Accessories/Coffee Machine Accessories/Coffee Filters/Disposable Filters"
14162611;"appliances/Categories/Parts & Accessories/Coffee & Espresso Machine Parts & Accessories/Coffee Machine Accessories/Coffee Filters/Permanent Filters"
14162591;"appliances/Categories/Parts & Accessories/Coffee & Espresso Machine Parts & Accessories/Coffee Machine Accessories/Coffee Filters/Reusable Filters"
14167251;"appliances/Categories/Parts & Accessories/Coffee & Espresso Machine Parts & Accessories/Coffee Machine Accessories/Coffeemaker Pots"
14167261;"appliances/Categories/Parts & Accessories/Coffee & Espresso Machine Parts & Accessories/Coffee Machine Accessories/Coffeemaker Pot Lids"
914434;"appliances/Categories/Parts & Accessories/Coffee & Espresso Machine Parts & Accessories/Coffee Machine Accessories/Thermal Carafes"
3115627011;"appliances/Categories/Parts & Accessories/Coffee & Espresso Machine Parts & Accessories/Coffee Machine Replacement Parts"
1261207011;"appliances/Categories/Parts & Accessories/Coffee & Espresso Machine Parts & Accessories/Espresso Machine Accessories"
3242817011;"appliances/Categories/Parts & Accessories/Coffee & Espresso Machine Parts & Accessories/Espresso Machine Accessories/Milk Frothing Pitchers"
3242820011;"appliances/Categories/Parts & Accessories/Coffee & Espresso Machine Parts & Accessories/Espresso Machine Accessories/Tampers"
3115628011;"appliances/Categories/Parts & Accessories/Coffee & Espresso Machine Parts & Accessories/Espresso Machine Replacement Parts"
3741191;"appliances/Categories/Parts & Accessories/Cooktop Parts & Accessories"
3741201;"appliances/Categories/Parts & Accessories/Dishwasher Parts & Accessories"
2232353011;"appliances/Categories/Parts & Accessories/Dishwasher Parts & Accessories/Baskets"
2232354011;"appliances/Categories/Parts & Accessories/Dishwasher Parts & Accessories/Door Springs"
2232355011;"appliances/Categories/Parts & Accessories/Dishwasher Parts & Accessories/Doors"
2232356011;"appliances/Categories/Parts & Accessories/Dishwasher Parts & Accessories/Handles"
2232357011;"appliances/Categories/Parts & Accessories/Dishwasher Parts & Accessories/Hoses"
2232358011;"appliances/Categories/Parts & Accessories/Dishwasher Parts & Accessories/Panels"
2232359011;"appliances/Categories/Parts & Accessories/Dishwasher Parts & Accessories/Power Cords"
2232360011;"appliances/Categories/Parts & Accessories/Dishwasher Parts & Accessories/Racks"
9425848011;"appliances/Categories/Parts & Accessories/Dishwasher Parts & Accessories/Replacement Parts"
2232361011;"appliances/Categories/Parts & Accessories/Dishwasher Parts & Accessories/Trim Kits"
2232362011;"appliances/Categories/Parts & Accessories/Dishwasher Parts & Accessories/Wash Arms"
2232336011;"appliances/Categories/Parts & Accessories/Dryer Parts & Accessories"
2232337011;"appliances/Categories/Parts & Accessories/Dryer Parts & Accessories/Doors"
2232338011;"appliances/Categories/Parts & Accessories/Dryer Parts & Accessories/Lint Screens"
2232339011;"appliances/Categories/Parts & Accessories/Dryer Parts & Accessories/Plug Receptacles"
2232340011;"appliances/Categories/Parts & Accessories/Dryer Parts & Accessories/Power Cords"
9425850011;"appliances/Categories/Parts & Accessories/Dryer Parts & Accessories/Replacement Parts"
2232341011;"appliances/Categories/Parts & Accessories/Dryer Parts & Accessories/Shoe Rack Inserts"
2232342011;"appliances/Categories/Parts & Accessories/Dryer Parts & Accessories/Vents"
2232335011;"appliances/Categories/Parts & Accessories/Fasteners"
3204224011;"appliances/Categories/Parts & Accessories/Food Processor Parts & Accessories"
2232363011;"appliances/Categories/Parts & Accessories/Food Waste Disposer Parts & Accessories"
3741211;"appliances/Categories/Parts & Accessories/Freezer Parts & Accessories"
9425855011;"appliances/Categories/Parts & Accessories/Freezer Parts & Accessories/Accessories"
2232365011;"appliances/Categories/Parts & Accessories/Freezer Parts & Accessories/Doors"
2232366011;"appliances/Categories/Parts & Accessories/Freezer Parts & Accessories/Drawers"
2232367011;"appliances/Categories/Parts & Accessories/Freezer Parts & Accessories/Handles"
2232368011;"appliances/Categories/Parts & Accessories/Freezer Parts & Accessories/Ice Maker Parts"
2232369011;"appliances/Categories/Parts & Accessories/Freezer Parts & Accessories/Power Cords"
2232370011;"appliances/Categories/Parts & Accessories/Freezer Parts & Accessories/Shelves"
2232371011;"appliances/Categories/Parts & Accessories/Freezer Parts & Accessories/Trays"
3737511;"appliances/Categories/Parts & Accessories/Humidifier Parts & Accessories"
3737521;"appliances/Categories/Parts & Accessories/Humidifier Parts & Accessories/Absorption Sleeves"
3737531;"appliances/Categories/Parts & Accessories/Humidifier Parts & Accessories/Chemicals"
3737571;"appliances/Categories/Parts & Accessories/Humidifier Parts & Accessories/Humidity Meters"
3737541;"appliances/Categories/Parts & Accessories/Humidifier Parts & Accessories/Replacement Belts"
3737551;"appliances/Categories/Parts & Accessories/Humidifier Parts & Accessories/Replacement Filters"
3737561;"appliances/Categories/Parts & Accessories/Humidifier Parts & Accessories/Replacement Wicks"
3204226011;"appliances/Categories/Parts & Accessories/Microwave Oven Parts & Accessories"
2232383011;"appliances/Categories/Parts & Accessories/Microwave Oven Parts & Accessories/Filters"
2232384011;"appliances/Categories/Parts & Accessories/Microwave Oven Parts & Accessories/Trim Kits"
2232385011;"appliances/Categories/Parts & Accessories/Microwave Oven Parts & Accessories/Turntables"
3204225011;"appliances/Categories/Parts & Accessories/Mixer Parts & Accessories"
3741221;"appliances/Categories/Parts & Accessories/Oven Parts & Accessories"
2232402011;"appliances/Categories/Parts & Accessories/Range Hood Parts & Accessories"
2232403011;"appliances/Categories/Parts & Accessories/Range Hood Parts & Accessories/Blowers"
2232404011;"appliances/Categories/Parts & Accessories/Range Hood Parts & Accessories/Filters"
2232405011;"appliances/Categories/Parts & Accessories/Range Hood Parts & Accessories/Knobs"
2232406011;"appliances/Categories/Parts & Accessories/Range Hood Parts & Accessories/Screens"
3741231;"appliances/Categories/Parts & Accessories/Range Parts & Accessories"
9425863011;"appliances/Categories/Parts & Accessories/Range Parts & Accessories/Accessories"
2232387011;"appliances/Categories/Parts & Accessories/Range Parts & Accessories/Backguards"
2232388011;"appliances/Categories/Parts & Accessories/Range Parts & Accessories/Built-in Thermometers"
2232389011;"appliances/Categories/Parts & Accessories/Range Parts & Accessories/Built-in Timers"
2232390011;"appliances/Categories/Parts & Accessories/Range Parts & Accessories/Burner Rings"
2232391011;"appliances/Categories/Parts & Accessories/Range Parts & Accessories/Burners"
2232392011;"appliances/Categories/Parts & Accessories/Range Parts & Accessories/Drip Pans"
2232393011;"appliances/Categories/Parts & Accessories/Range Parts & Accessories/Exhaust Fans"
2232394011;"appliances/Categories/Parts & Accessories/Range Parts & Accessories/Grills"
2232395011;"appliances/Categories/Parts & Accessories/Range Parts & Accessories/Heating Elements"
2232396011;"appliances/Categories/Parts & Accessories/Range Parts & Accessories/Knobs"
2232397011;"appliances/Categories/Parts & Accessories/Range Parts & Accessories/Oven Racks"
2232398011;"appliances/Categories/Parts & Accessories/Range Parts & Accessories/Paneling"
2232399011;"appliances/Categories/Parts & Accessories/Range Parts & Accessories/Plug Receptacles"
2232400011;"appliances/Categories/Parts & Accessories/Range Parts & Accessories/Power Cords"
2232401011;"appliances/Categories/Parts & Accessories/Range Parts & Accessories/Trim Kits"
3741241;"appliances/Categories/Parts & Accessories/Refrigerator Parts & Accessories"
2232408011;"appliances/Categories/Parts & Accessories/Refrigerator Parts & Accessories/Bins"
2232409011;"appliances/Categories/Parts & Accessories/Refrigerator Parts & Accessories/Doors"
2232410011;"appliances/Categories/Parts & Accessories/Refrigerator Parts & Accessories/Grills"
2232411011;"appliances/Categories/Parts & Accessories/Refrigerator Parts & Accessories/Handles"
2232412011;"appliances/Categories/Parts & Accessories/Refrigerator Parts & Accessories/Ice Makers"
2232413011;"appliances/Categories/Parts & Accessories/Refrigerator Parts & Accessories/Motors"
2232414011;"appliances/Categories/Parts & Accessories/Refrigerator Parts & Accessories/Power Cords"
2232415011;"appliances/Categories/Parts & Accessories/Refrigerator Parts & Accessories/Shelves"
2232416011;"appliances/Categories/Parts & Accessories/Refrigerator Parts & Accessories/Trays"
2232417011;"appliances/Categories/Parts & Accessories/Refrigerator Parts & Accessories/Water Conditioners"
3741161;"appliances/Categories/Parts & Accessories/Refrigerator Parts & Accessories/Water Filters"
7956269011;"appliances/Categories/Parts & Accessories/Soda Maker Parts & Accessories"
2232424011;"appliances/Categories/Parts & Accessories/Trash Compactor Parts & Accessories"
2232425011;"appliances/Categories/Parts & Accessories/Trash Compactor Parts & Accessories/Knobs"
2232426011;"appliances/Categories/Parts & Accessories/Trash Compactor Parts & Accessories/Power Cords"
2232343011;"appliances/Categories/Parts & Accessories/Washer Parts & Accessories"
2232344011;"appliances/Categories/Parts & Accessories/Washer Parts & Accessories/Clamps"
2232345011;"appliances/Categories/Parts & Accessories/Washer Parts & Accessories/Detergent Trays"
2232346011;"appliances/Categories/Parts & Accessories/Washer Parts & Accessories/Doors"
2232347011;"appliances/Categories/Parts & Accessories/Washer Parts & Accessories/Drain Pumps"
2232348011;"appliances/Categories/Parts & Accessories/Washer Parts & Accessories/Floor Trays"
2232349011;"appliances/Categories/Parts & Accessories/Washer Parts & Accessories/Hoses"
2232350011;"appliances/Categories/Parts & Accessories/Washer Parts & Accessories/Motors"
2232351011;"appliances/Categories/Parts & Accessories/Washer Parts & Accessories/Power Cords"
9425870011;"appliances/Categories/Parts & Accessories/Washer Parts & Accessories/Replacement Parts"
3741251;"appliances/Categories/Parts & Accessories/Wine Cellar Parts & Accessories"
3741441;"appliances/Categories/Range Hoods"
3741411;"appliances/Categories/Ranges"
3741421;"appliances/Categories/Ranges/Drop-In Ranges"
3741431;"appliances/Categories/Ranges/Freestanding Ranges"
2399946011;"appliances/Categories/Ranges/Slide-In Ranges"
3741361;"appliances/Categories/Refrigerators"
289913;"appliances/Categories/Small Appliances"
2686378011;"appliances/Categories/Small Appliances/Beer Keg Refrigerators"
2686328011;"appliances/Categories/Small Appliances/Beverage Refrigerators"
289914;"appliances/Categories/Small Appliances/Blenders"
289915;"appliances/Categories/Small Appliances/Blenders/Countertop Blenders"
289916;"appliances/Categories/Small Appliances/Blenders/Hand Blenders"
3117947011;"appliances/Categories/Small Appliances/Blenders/Personal Size Blenders"
289917;"appliances/Categories/Small Appliances/Bread Machines"
8614937011;"appliances/Categories/Small Appliances/Cake Pop & Mini Cake Makers"
8614939011;"appliances/Categories/Small Appliances/Cake Pop & Mini Cake Makers/Cake Pop Makers"
8614941011;"appliances/Categories/Small Appliances/Cake Pop & Mini Cake Makers/Mini Donut Makers"
8614943011;"appliances/Categories/Small Appliances/Cake Pop & Mini Cake Makers/Cupcake Makers"
289742;"appliances/Categories/Small Appliances/Coffee, Tea & Espresso Appliances"
3737031;"appliances/Categories/Small Appliances/Coffee, Tea & Espresso Appliances/Beverage Warmers"
289745;"appliances/Categories/Small Appliances/Coffee, Tea & Espresso Appliances/Coffee Machines"
3117948011;"appliances/Categories/Small Appliances/Coffee, Tea & Espresso Appliances/Electric Coffee Percolators"
289753;"appliances/Categories/Small Appliances/Coffee, Tea & Espresso Appliances/Electric Kettles"
14163731;"appliances/Categories/Small Appliances/Coffee, Tea & Espresso Appliances/Espresso Machine & Coffeemaker Combos"
289748;"appliances/Categories/Small Appliances/Coffee, Tea & Espresso Appliances/Espresso Machines"
14162661;"appliances/Categories/Small Appliances/Coffee, Tea & Espresso Appliances/Espresso Machines/Semi-Automatic Espresso Machines"
14162631;"appliances/Categories/Small Appliances/Coffee, Tea & Espresso Appliances/Espresso Machines/Steam Espresso Machines"
14162671;"appliances/Categories/Small Appliances/Coffee, Tea & Espresso Appliances/Espresso Machines/Super-Automatic Espresso Machines"
3117950011;"appliances/Categories/Small Appliances/Coffee, Tea & Espresso Appliances/Iced Tea Machines"
14042381;"appliances/Categories/Small Appliances/Coffee, Tea & Espresso Appliances/Milk Frothers"
2474054011;"appliances/Categories/Small Appliances/Coffee, Tea & Espresso Appliances/Single-Serve Brewers"
678542011;"appliances/Categories/Small Appliances/Compact Refrigerators"
289925;"appliances/Categories/Small Appliances/Contact Grills"
13838451;"appliances/Categories/Small Appliances/Countertop Burners"
289918;"appliances/Categories/Small Appliances/Deep Fryers"
13838461;"appliances/Categories/Small Appliances/Electric Griddles"
3117954011;"appliances/Categories/Small Appliances/Electric Pressure Cookers"
13838481;"appliances/Categories/Small Appliances/Electric Skillets"
13838491;"appliances/Categories/Small Appliances/Electric Woks"
289920;"appliances/Categories/Small Appliances/Food Processors"
3117951011;"appliances/Categories/Small Appliances/Hot Pots"
289924;"appliances/Categories/Small Appliances/Ice Cream Machines"
289926;"appliances/Categories/Small Appliances/Juicers"
7223586011;"appliances/Categories/Small Appliances/Juicers/Centrifugal Juicers"
3117955011;"appliances/Categories/Small Appliances/Juicers/Citrus Juicers"
7223587011;"appliances/Categories/Small Appliances/Juicers/Masticating Juicers"
289935;"appliances/Categories/Small Appliances/Microwave Ovens"
3741621;"appliances/Categories/Small Appliances/Microwave Ovens/Compact Microwave Ovens"
3741631;"appliances/Categories/Small Appliances/Microwave Ovens/Countertop Microwave Ovens"
3741641;"appliances/Categories/Small Appliances/Microwave Ovens/Microhood Microwave Ovens"
3741611;"appliances/Categories/Small Appliances/Microwave Ovens/Over-the-Range Microwave Ovens"
3741651;"appliances/Categories/Small Appliances/Microwave Ovens/Speed-Cooking Microwave Ovens"
289929;"appliances/Categories/Small Appliances/Mixers"
289931;"appliances/Categories/Small Appliances/Mixers/Hand Mixers"
289932;"appliances/Categories/Small Appliances/Mixers/Stand Mixers"
289933;"appliances/Categories/Small Appliances/Ovens & Toasters"
289934;"appliances/Categories/Small Appliances/Ovens & Toasters/Convection Ovens"
289936;"appliances/Categories/Small Appliances/Ovens & Toasters/Rotisseries & Roasters"
289937;"appliances/Categories/Small Appliances/Ovens & Toasters/Toaster Ovens"
289938;"appliances/Categories/Small Appliances/Ovens & Toasters/Toasters"
678540011;"appliances/Categories/Small Appliances/Rice Cookers"
289940;"appliances/Categories/Small Appliances/Slow Cookers"
3741591;"appliances/Categories/Small Appliances/Small Appliance Sets"
7956268011;"appliances/Categories/Small Appliances/Soda Makers"
289941;"appliances/Categories/Small Appliances/Specialty Appliances"
3741661;"appliances/Categories/Small Appliances/Specialty Appliances/Bagel Slicers"
297927011;"appliances/Categories/Small Appliances/Specialty Appliances/Chocolate Fountains"
3741671;"appliances/Categories/Small Appliances/Specialty Appliances/Crepe Makers"
1090752;"appliances/Categories/Small Appliances/Specialty Appliances/Dehydrators"
1090754;"appliances/Categories/Small Appliances/Specialty Appliances/Egg Cookers"
1090758;"appliances/Categories/Small Appliances/Specialty Appliances/Electric Slicers"
3117953011;"appliances/Categories/Small Appliances/Specialty Appliances/Electric Wine Bottle Openers"
1090760;"appliances/Categories/Small Appliances/Specialty Appliances/Food Grinders & Mills"
289867;"appliances/Categories/Small Appliances/Specialty Appliances/Knife Sharpeners"
1090762;"appliances/Categories/Small Appliances/Specialty Appliances/Pizzelle Makers"
1090764;"appliances/Categories/Small Appliances/Specialty Appliances/Popcorn Poppers"
3741681;"appliances/Categories/Small Appliances/Specialty Appliances/Quesadilla & Tortilla Makers"
1090766;"appliances/Categories/Small Appliances/Specialty Appliances/Sandwich Makers & Panini Presses"
3117959011;"appliances/Categories/Small Appliances/Specialty Appliances/Shaved Ice Machines"
1090768;"appliances/Categories/Small Appliances/Specialty Appliances/Vacuum Sealers"
16012141;"appliances/Categories/Small Appliances/Specialty Appliances/Yogurt Makers"
678541011;"appliances/Categories/Small Appliances/Steamers"
289942;"appliances/Categories/Small Appliances/Waffle Irons"
3741521;"appliances/Categories/Small Appliances/Wine Cellars"
3741551;"appliances/Categories/Small Appliances/Wine Cellars/Built-In Wine Cellars"
3741541;"appliances/Categories/Small Appliances/Wine Cellars/Freestanding Wine Cellars"
3741561;"appliances/Categories/Small Appliances/Wine Cellars/Furniture-Style Wine Cellars"
3741531;"appliances/Categories/Small Appliances/Wine Cellars/Small Wine Cellars"
3741581;"appliances/Categories/Small Appliances/Wine Cellars/Wine Cellar Cooling Systems"
3741571;"appliances/Categories/Small Appliances/Wine Cellars/Wine Rooms"
510182;"appliances/Categories/Space Heaters"
3741451;"appliances/Categories/Trash Compactors"
510106;"appliances/Categories/Vacuums & Floor Care"
3743521;"appliances/Categories/Vacuums & Floor Care/Vacuums"
510108;"appliances/Categories/Vacuums & Floor Care/Vacuums/Canister Vacuums"
3743571;"appliances/Categories/Vacuums & Floor Care/Vacuums/Carpet Cleaners, Sweepers & Accessories"
510114;"appliances/Categories/Vacuums & Floor Care/Vacuums/Handheld Vacuums"
3743561;"appliances/Categories/Vacuums & Floor Care/Vacuums/Robotic Vacuums"
510112;"appliances/Categories/Vacuums & Floor Care/Vacuums/Stick Vacuums & Electric Brooms"
510110;"appliances/Categories/Vacuums & Floor Care/Vacuums/Upright Vacuums"
510128;"appliances/Categories/Vacuums & Floor Care/Vacuum Accessories"
3743741;"appliances/Categories/Vacuums & Floor Care/Vacuum Accessories/Attachments & Brushes"
510120;"appliances/Categories/Vacuums & Floor Care/Vacuum Accessories/Bags"
695496011;"appliances/Categories/Vacuums & Floor Care/Vacuum Accessories/Bags/Canister Bags"
695500011;"appliances/Categories/Vacuums & Floor Care/Vacuum Accessories/Bags/Handheld Bags"
695502011;"appliances/Categories/Vacuums & Floor Care/Vacuum Accessories/Bags/Upright Bags"
3743621;"appliances/Categories/Vacuums & Floor Care/Vacuum Accessories/Belts"
3743631;"appliances/Categories/Vacuums & Floor Care/Vacuum Accessories/Covers"
12955681;"appliances/Categories/Vacuums & Floor Care/Vacuum Accessories/Filters"
695497011;"appliances/Categories/Vacuums & Floor Care/Vacuum Accessories/Filters/Canister Filters"
695501011;"appliances/Categories/Vacuums & Floor Care/Vacuum Accessories/Filters/Handheld Filters"
695503011;"appliances/Categories/Vacuums & Floor Care/Vacuum Accessories/Filters/Upright Filters"
3743711;"appliances/Categories/Vacuums & Floor Care/Vacuum Accessories/Hoses"
3743641;"appliances/Categories/Vacuums & Floor Care/Vacuum Accessories/Lamp Bulbs"
3743651;"appliances/Categories/Vacuums & Floor Care/Vacuum Accessories/Pads"
9647655011;"appliances/Categories/Vacuums & Floor Care/Vacuum Accessories/Vacuum Replacement Batteries"
1063922;"appliances/Categories/Vacuums & Floor Care/Carpet Cleaners"
695498011;"appliances/Categories/Vacuums & Floor Care/Carpet Cleaner Accessories"
510094;"appliances/Categories/Vacuums & Floor Care/Carpet Sweepers"
510118;"appliances/Categories/Vacuums & Floor Care/Floor Polishers"
3303860011;"appliances/Categories/Vacuums & Floor Care/Steam Cleaners & Accessories"
3303861011;"appliances/Categories/Vacuums & Floor Care/Steam Cleaners & Accessories/Steam Mops"
3303862011;"appliances/Categories/Vacuums & Floor Care/Steam Cleaners & Accessories/Handheld Steamers"
6574820011;"appliances/Categories/Vacuums & Floor Care/Steam Cleaners & Accessories/Steam Mop Accessories"
3741481;"appliances/Categories/Wall Ovens"
3741491;"appliances/Categories/Wall Ovens/Combination Microwave & Wall Ovens"
3741501;"appliances/Categories/Wall Ovens/Double Wall Ovens"
3741511;"appliances/Categories/Wall Ovens/Single Wall Ovens"
2399955011;"appliances/Categories/Warming Drawers"
2383576011;"appliances/Categories/Washers & Dryers"
13397481;"appliances/Categories/Washers & Dryers/Dryers"
13397491;"appliances/Categories/Washers & Dryers/Washers"
13755271;"appliances/Categories/Washers & Dryers/All-in-One Combination Washers & Dryers"
2399957011;"appliances/Categories/Washers & Dryers/Stacked Washer & Dryer Units"
3741521;"appliances/Categories/Wine Cellars"
3741551;"appliances/Categories/Wine Cellars/Built-In Wine Cellars"
3741541;"appliances/Categories/Wine Cellars/Freestanding Wine Cellars"
3741561;"appliances/Categories/Wine Cellars/Furniture-Style Wine Cellars"
3741531;"appliances/Categories/Wine Cellars/Small Wine Cellars"
3741581;"appliances/Categories/Wine Cellars/Wine Cellar Cooling Systems"
3741571;"appliances/Categories/Wine Cellars/Wine Rooms"
2645269011;"appliances/Featured Categories"
3741261;"appliances/Featured Categories/Cooktops"
3741271;"appliances/Featured Categories/Dishwashers"
3741281;"appliances/Featured Categories/Dishwashers/Built-In Dishwashers"
3741311;"appliances/Featured Categories/Dishwashers/Specialty Dishwashers"
3741331;"appliances/Featured Categories/Freezers"
3741341;"appliances/Featured Categories/Freezers/Chest Freezers"
3741351;"appliances/Featured Categories/Freezers/Upright Freezers"
2399939011;"appliances/Featured Categories/Ice Makers"
3741441;"appliances/Featured Categories/Range Hoods"
3741411;"appliances/Featured Categories/Ranges"
3741421;"appliances/Featured Categories/Ranges/Drop-In Ranges"
3741431;"appliances/Featured Categories/Ranges/Freestanding Ranges"
2399946011;"appliances/Featured Categories/Ranges/Slide-In Ranges"
3741361;"appliances/Featured Categories/Refrigerators"
3741481;"appliances/Featured Categories/Wall Ovens"
3741491;"appliances/Featured Categories/Wall Ovens/Combination Microwave & Wall Ovens"
3741501;"appliances/Featured Categories/Wall Ovens/Double Wall Ovens"
3741511;"appliances/Featured Categories/Wall Ovens/Single Wall Ovens"
2399955011;"appliances/Featured Categories/Warming Drawers"
2383576011;"appliances/Featured Categories/Washers & Dryers"
13397481;"appliances/Featured Categories/Washers & Dryers/Dryers"
13397491;"appliances/Featured Categories/Washers & Dryers/Washers"
13755271;"appliances/Featured Categories/Washers & Dryers/All-in-One Combination Washers & Dryers"
2399957011;"appliances/Featured Categories/Washers & Dryers/Stacked Washer & Dryer Units"
3741521;"appliances/Featured Categories/Wine Cellars"
3741551;"appliances/Featured Categories/Wine Cellars/Built-In Wine Cellars"
3741541;"appliances/Featured Categories/Wine Cellars/Freestanding Wine Cellars"
3741561;"appliances/Featured Categories/Wine Cellars/Furniture-Style Wine Cellars"
3741531;"appliances/Featured Categories/Wine Cellars/Small Wine Cellars"
3741581;"appliances/Featured Categories/Wine Cellars/Wine Cellar Cooling Systems"
3741571;"appliances/Featured Categories/Wine Cellars/Wine Rooms"
2242350011;"appliances/Featured Categories/Appliance Warranties"
