6967216011;"grocery_and_gourmet_food/Categories"
7351088011;"grocery_and_gourmet_food/Categories/Baby Food"
6369683011;"grocery_and_gourmet_food/Categories/Baby Food/Baby Formula"
7351089011;"grocery_and_gourmet_food/Categories/Baby Food/Dinners"
7351090011;"grocery_and_gourmet_food/Categories/Baby Food/Fruit"
7351092011;"grocery_and_gourmet_food/Categories/Baby Food/Snack Food"
7351093011;"grocery_and_gourmet_food/Categories/Baby Food/Vegetables"
7351094011;"grocery_and_gourmet_food/Categories/Beverages"
7351101011;"grocery_and_gourmet_food/Categories/Beverages/Coconut Water"
7351102011;"grocery_and_gourmet_food/Categories/Beverages/Coffee"
7351590011;"grocery_and_gourmet_food/Categories/Beverages/Coffee/Coffee Gifts"
7351105011;"grocery_and_gourmet_food/Categories/Beverages/Coffee/Ground Coffee"
7351106011;"grocery_and_gourmet_food/Categories/Beverages/Coffee/Instant Coffee"
7351103011;"grocery_and_gourmet_food/Categories/Beverages/Coffee/Single Serve Capsules"
7351107011;"grocery_and_gourmet_food/Categories/Beverages/Coffee/Single Serve Cups"
7351108011;"grocery_and_gourmet_food/Categories/Beverages/Coffee/Single Serve Pods"
7351111011;"grocery_and_gourmet_food/Categories/Beverages/Coffee/Whole Beans"
7351112011;"grocery_and_gourmet_food/Categories/Beverages/Energy Drinks"
7351113011;"grocery_and_gourmet_food/Categories/Beverages/Flavouring Syrups"
7351114011;"grocery_and_gourmet_food/Categories/Beverages/Hot Cocoa"
7351115011;"grocery_and_gourmet_food/Categories/Beverages/Iced Tea & Lemonade"
7351118011;"grocery_and_gourmet_food/Categories/Beverages/Juices"
7351120011;"grocery_and_gourmet_food/Categories/Beverages/Juices/Fruit Juice"
7351122011;"grocery_and_gourmet_food/Categories/Beverages/Juices/Sparkling Juice"
7351123011;"grocery_and_gourmet_food/Categories/Beverages/Juices/Vegetable Juice"
7351124011;"grocery_and_gourmet_food/Categories/Beverages/Meal Replacement Drinks"
7351125011;"grocery_and_gourmet_food/Categories/Beverages/Powdered Drink Mixes"
7351130011;"grocery_and_gourmet_food/Categories/Beverages/Protein Drinks"
7351132011;"grocery_and_gourmet_food/Categories/Beverages/Soft Drinks"
7351133011;"grocery_and_gourmet_food/Categories/Beverages/Sports Drinks"
7351134011;"grocery_and_gourmet_food/Categories/Beverages/Tea"
7351135011;"grocery_and_gourmet_food/Categories/Beverages/Tea/Black"
7351136011;"grocery_and_gourmet_food/Categories/Beverages/Tea/Chai"
7351137011;"grocery_and_gourmet_food/Categories/Beverages/Tea/Green"
7351138011;"grocery_and_gourmet_food/Categories/Beverages/Tea/Herbal"
7351139011;"grocery_and_gourmet_food/Categories/Beverages/Tea/Oolong"
7351140011;"grocery_and_gourmet_food/Categories/Beverages/Tea/Rooibos"
7351599011;"grocery_and_gourmet_food/Categories/Beverages/Tea/Tea Gifts"
7351141011;"grocery_and_gourmet_food/Categories/Beverages/Tea/Tea Samplers"
7351142011;"grocery_and_gourmet_food/Categories/Beverages/Tea/White"
7351143011;"grocery_and_gourmet_food/Categories/Beverages/Water"
7351144011;"grocery_and_gourmet_food/Categories/Beverages/Water/Flavoured & Enhanced Water"
7351147011;"grocery_and_gourmet_food/Categories/Beverages/Water/Seltzer & Tonic Water"
7351150011;"grocery_and_gourmet_food/Categories/Beverages/Water/Sparkling & Mineral Water"
7351153011;"grocery_and_gourmet_food/Categories/Breads & Bakery"
7351173011;"grocery_and_gourmet_food/Categories/Breads & Bakery/Cakes"
7351181011;"grocery_and_gourmet_food/Categories/Breads & Bakery/Desserts"
7351591011;"grocery_and_gourmet_food/Categories/Breads & Bakery/Desserts/Dessert Gifts"
7351255011;"grocery_and_gourmet_food/Categories/Breakfast Food"
7351256011;"grocery_and_gourmet_food/Categories/Breakfast Food/Breakfast & Cereal Bars"
7351257011;"grocery_and_gourmet_food/Categories/Breakfast Food/Breakfast & Cereal Bars/Cereal"
7351258011;"grocery_and_gourmet_food/Categories/Breakfast Food/Breakfast & Cereal Bars/Energy & Nutritional"
7352691011;"grocery_and_gourmet_food/Categories/Breakfast Food/Breakfast & Cereal Bars/Granola & Trail Mix"
7351259011;"grocery_and_gourmet_food/Categories/Breakfast Food/Cereals"
7351260011;"grocery_and_gourmet_food/Categories/Breakfast Food/Cereals/Cold Cereals"
7351261011;"grocery_and_gourmet_food/Categories/Breakfast Food/Cereals/Granola"
7351263011;"grocery_and_gourmet_food/Categories/Breakfast Food/Cereals/Muesli"
7351264011;"grocery_and_gourmet_food/Categories/Breakfast Food/Cereals/Oatmeal"
7351266011;"grocery_and_gourmet_food/Categories/Candy & Chocolate"
7351269011;"grocery_and_gourmet_food/Categories/Candy & Chocolate/Bars"
7351270011;"grocery_and_gourmet_food/Categories/Candy & Chocolate/Bars/Multipack"
7351271011;"grocery_and_gourmet_food/Categories/Candy & Chocolate/Bars/Single Serve"
7351274011;"grocery_and_gourmet_food/Categories/Candy & Chocolate/Caramels"
7351275011;"grocery_and_gourmet_food/Categories/Candy & Chocolate/Chewing Gum"
7351276011;"grocery_and_gourmet_food/Categories/Candy & Chocolate/Chocolate Gifts"
7351587011;"grocery_and_gourmet_food/Categories/Candy & Chocolate/Chocolate Gifts/Candy Gifts"
7351589011;"grocery_and_gourmet_food/Categories/Candy & Chocolate/Chocolate Gifts/Chocolate Gifts"
7351278011;"grocery_and_gourmet_food/Categories/Candy & Chocolate/Fruit, Nuts & Snacks"
7351285011;"grocery_and_gourmet_food/Categories/Candy & Chocolate/Fruity Candy"
7351287011;"grocery_and_gourmet_food/Categories/Candy & Chocolate/Gummy Candy"
7351290011;"grocery_and_gourmet_food/Categories/Candy & Chocolate/Jelly Beans"
7351292011;"grocery_and_gourmet_food/Categories/Candy & Chocolate/Licorice"
7351294011;"grocery_and_gourmet_food/Categories/Candy & Chocolate/Mints"
7351297011;"grocery_and_gourmet_food/Categories/Candy & Chocolate/Sour Candy"
7351298011;"grocery_and_gourmet_food/Categories/Candy & Chocolate/Suckers & Lollipops"
7351300011;"grocery_and_gourmet_food/Categories/Candy & Chocolate/Toffee"
2224015011;"grocery_and_gourmet_food/Categories/Fresh Flowers & Indoor Plants"
6646845011;"grocery_and_gourmet_food/Categories/Fresh Flowers & Indoor Plants/Fresh Cut Flowers"
6646846011;"grocery_and_gourmet_food/Categories/Fresh Flowers & Indoor Plants/Fresh Cut Flowers/Mixed Bouquets"
6646847011;"grocery_and_gourmet_food/Categories/Fresh Flowers & Indoor Plants/Fresh Cut Flowers/Carnations"
6646850011;"grocery_and_gourmet_food/Categories/Fresh Flowers & Indoor Plants/Fresh Cut Flowers/Daisies"
6646852011;"grocery_and_gourmet_food/Categories/Fresh Flowers & Indoor Plants/Fresh Cut Flowers/Lilies"
6646854011;"grocery_and_gourmet_food/Categories/Fresh Flowers & Indoor Plants/Fresh Cut Flowers/Roses"
6646855011;"grocery_and_gourmet_food/Categories/Fresh Flowers & Indoor Plants/Fresh Cut Flowers/Sunflowers"
6646857011;"grocery_and_gourmet_food/Categories/Fresh Flowers & Indoor Plants/Indoor Plants"
6646858011;"grocery_and_gourmet_food/Categories/Fresh Flowers & Indoor Plants/Indoor Plants/House Plants"
6646859011;"grocery_and_gourmet_food/Categories/Fresh Flowers & Indoor Plants/Indoor Plants/Orchids"
6646864011;"grocery_and_gourmet_food/Categories/Fresh Flowers & Indoor Plants/Indoor Plants/Bonsai"
7351586011;"grocery_and_gourmet_food/Categories/Gourmet Gifts"
7351587011;"grocery_and_gourmet_food/Categories/Gourmet Gifts/Candy Gifts"
7351589011;"grocery_and_gourmet_food/Categories/Gourmet Gifts/Chocolate Gifts"
7351590011;"grocery_and_gourmet_food/Categories/Gourmet Gifts/Coffee Gifts"
7351591011;"grocery_and_gourmet_food/Categories/Gourmet Gifts/Dessert Gifts"
7351592011;"grocery_and_gourmet_food/Categories/Gourmet Gifts/Fruit Gifts"
7351597011;"grocery_and_gourmet_food/Categories/Gourmet Gifts/Snack Gifts"
7351599011;"grocery_and_gourmet_food/Categories/Gourmet Gifts/Tea Gifts"
7351600011;"grocery_and_gourmet_food/Categories/Home Brewing & Winemaking"
7351795011;"grocery_and_gourmet_food/Categories/Pantry Staples"
7351796011;"grocery_and_gourmet_food/Categories/Pantry Staples/Canned & Jarred Food"
7351797011;"grocery_and_gourmet_food/Categories/Pantry Staples/Canned & Jarred Food/Beans"
7351798011;"grocery_and_gourmet_food/Categories/Pantry Staples/Canned & Jarred Food/Beans/Baked"
7351799011;"grocery_and_gourmet_food/Categories/Pantry Staples/Canned & Jarred Food/Beans/Black"
7351801011;"grocery_and_gourmet_food/Categories/Pantry Staples/Canned & Jarred Food/Beans/Kidney"
7351803011;"grocery_and_gourmet_food/Categories/Pantry Staples/Canned & Jarred Food/Beans/Pinto"
7351830011;"grocery_and_gourmet_food/Categories/Pantry Staples/Canned & Jarred Food/Meat & Seafood"
7351838011;"grocery_and_gourmet_food/Categories/Pantry Staples/Canned & Jarred Food/Soups, Stews & Chilis"
7351839011;"grocery_and_gourmet_food/Categories/Pantry Staples/Canned & Jarred Food/Soups, Stews & Chilis/Asian Noodle Soups"
7351840011;"grocery_and_gourmet_food/Categories/Pantry Staples/Canned & Jarred Food/Soups, Stews & Chilis/Beef Soups"
7351841011;"grocery_and_gourmet_food/Categories/Pantry Staples/Canned & Jarred Food/Soups, Stews & Chilis/Bisques"
7351842011;"grocery_and_gourmet_food/Categories/Pantry Staples/Canned & Jarred Food/Soups, Stews & Chilis/Chicken Soups"
7351843011;"grocery_and_gourmet_food/Categories/Pantry Staples/Canned & Jarred Food/Soups, Stews & Chilis/Chili"
7351844011;"grocery_and_gourmet_food/Categories/Pantry Staples/Canned & Jarred Food/Soups, Stews & Chilis/Chowders"
7351846011;"grocery_and_gourmet_food/Categories/Pantry Staples/Canned & Jarred Food/Soups, Stews & Chilis/Miso Soups"
7351847011;"grocery_and_gourmet_food/Categories/Pantry Staples/Canned & Jarred Food/Soups, Stews & Chilis/Noodle Soups"
7351848011;"grocery_and_gourmet_food/Categories/Pantry Staples/Canned & Jarred Food/Soups, Stews & Chilis/Split Pea Soups"
7351850011;"grocery_and_gourmet_food/Categories/Pantry Staples/Canned & Jarred Food/Soups, Stews & Chilis/Tomato Soups"
7351851011;"grocery_and_gourmet_food/Categories/Pantry Staples/Canned & Jarred Food/Soups, Stews & Chilis/Vegetable Soups"
7351852011;"grocery_and_gourmet_food/Categories/Pantry Staples/Canned & Jarred Food/Stocks, Broth & Bouillon"
7351853011;"grocery_and_gourmet_food/Categories/Pantry Staples/Canned & Jarred Food/Stocks, Broth & Bouillon/Bouillon"
7351854011;"grocery_and_gourmet_food/Categories/Pantry Staples/Canned & Jarred Food/Stocks, Broth & Bouillon/Bouillon/Beef"
7351855011;"grocery_and_gourmet_food/Categories/Pantry Staples/Canned & Jarred Food/Stocks, Broth & Bouillon/Bouillon/Chicken"
7351856011;"grocery_and_gourmet_food/Categories/Pantry Staples/Canned & Jarred Food/Stocks, Broth & Bouillon/Bouillon/Vegetable"
7351857011;"grocery_and_gourmet_food/Categories/Pantry Staples/Canned & Jarred Food/Stocks, Broth & Bouillon/Broth"
7351858011;"grocery_and_gourmet_food/Categories/Pantry Staples/Canned & Jarred Food/Stocks, Broth & Bouillon/Broth/Beef"
7351859011;"grocery_and_gourmet_food/Categories/Pantry Staples/Canned & Jarred Food/Stocks, Broth & Bouillon/Broth/Chicken"
7351860011;"grocery_and_gourmet_food/Categories/Pantry Staples/Canned & Jarred Food/Stocks, Broth & Bouillon/Broth/Vegetable"
7351861011;"grocery_and_gourmet_food/Categories/Pantry Staples/Canned & Jarred Food/Stocks, Broth & Bouillon/Stocks"
7351865011;"grocery_and_gourmet_food/Categories/Pantry Staples/Canned & Jarred Food/Vegetables"
7351893011;"grocery_and_gourmet_food/Categories/Pantry Staples/Condiments, Pickles & Relishes"
7351896011;"grocery_and_gourmet_food/Categories/Pantry Staples/Condiments, Pickles & Relishes/Chutneys"
7351898011;"grocery_and_gourmet_food/Categories/Pantry Staples/Condiments, Pickles & Relishes/Horseradish"
7351899011;"grocery_and_gourmet_food/Categories/Pantry Staples/Condiments, Pickles & Relishes/Ketchup"
7351900011;"grocery_and_gourmet_food/Categories/Pantry Staples/Condiments, Pickles & Relishes/Mayonnaise"
7351901011;"grocery_and_gourmet_food/Categories/Pantry Staples/Condiments, Pickles & Relishes/Mustard"
7351906011;"grocery_and_gourmet_food/Categories/Pantry Staples/Condiments, Pickles & Relishes/Olives"
7351919011;"grocery_and_gourmet_food/Categories/Pantry Staples/Condiments, Pickles & Relishes/Pickles"
7351934011;"grocery_and_gourmet_food/Categories/Pantry Staples/Cooking & Baking Supplies"
7351935011;"grocery_and_gourmet_food/Categories/Pantry Staples/Cooking & Baking Supplies/Baking Chocolates, Carob & Cocoa"
7351937011;"grocery_and_gourmet_food/Categories/Pantry Staples/Cooking & Baking Supplies/Baking Chocolates, Carob & Cocoa/Chocolate Chips"
7351939011;"grocery_and_gourmet_food/Categories/Pantry Staples/Cooking & Baking Supplies/Baking Chocolates, Carob & Cocoa/Cocoa"
7351940011;"grocery_and_gourmet_food/Categories/Pantry Staples/Cooking & Baking Supplies/Baking Mixes"
7351942011;"grocery_and_gourmet_food/Categories/Pantry Staples/Cooking & Baking Supplies/Baking Mixes/Breads"
7351943011;"grocery_and_gourmet_food/Categories/Pantry Staples/Cooking & Baking Supplies/Baking Mixes/Brownies"
7351944011;"grocery_and_gourmet_food/Categories/Pantry Staples/Cooking & Baking Supplies/Baking Mixes/Cakes"
7351945011;"grocery_and_gourmet_food/Categories/Pantry Staples/Cooking & Baking Supplies/Baking Mixes/Cookies"
7351946011;"grocery_and_gourmet_food/Categories/Pantry Staples/Cooking & Baking Supplies/Baking Mixes/Muffins"
7351947011;"grocery_and_gourmet_food/Categories/Pantry Staples/Cooking & Baking Supplies/Baking Mixes/Pancakes & Waffles"
7351959011;"grocery_and_gourmet_food/Categories/Pantry Staples/Cooking & Baking Supplies/Cooking Oils, Vinegars & Sprays"
7351961011;"grocery_and_gourmet_food/Categories/Pantry Staples/Cooking & Baking Supplies/Cooking Oils, Vinegars & Sprays/Oils"
7351962011;"grocery_and_gourmet_food/Categories/Pantry Staples/Cooking & Baking Supplies/Cooking Oils, Vinegars & Sprays/Oils/Almond"
7351964011;"grocery_and_gourmet_food/Categories/Pantry Staples/Cooking & Baking Supplies/Cooking Oils, Vinegars & Sprays/Oils/Canola"
7351965011;"grocery_and_gourmet_food/Categories/Pantry Staples/Cooking & Baking Supplies/Cooking Oils, Vinegars & Sprays/Oils/Coconut"
7351967011;"grocery_and_gourmet_food/Categories/Pantry Staples/Cooking & Baking Supplies/Cooking Oils, Vinegars & Sprays/Oils/Grapeseed"
7351969011;"grocery_and_gourmet_food/Categories/Pantry Staples/Cooking & Baking Supplies/Cooking Oils, Vinegars & Sprays/Oils/Olive"
7351971011;"grocery_and_gourmet_food/Categories/Pantry Staples/Cooking & Baking Supplies/Cooking Oils, Vinegars & Sprays/Oils/Sesame"
7351973011;"grocery_and_gourmet_food/Categories/Pantry Staples/Cooking & Baking Supplies/Cooking Oils, Vinegars & Sprays/Oils/Specialty"
7351974011;"grocery_and_gourmet_food/Categories/Pantry Staples/Cooking & Baking Supplies/Cooking Oils, Vinegars & Sprays/Oils/Sunflower"
7351978011;"grocery_and_gourmet_food/Categories/Pantry Staples/Cooking & Baking Supplies/Cooking Oils, Vinegars & Sprays/Vinegars"
7351979011;"grocery_and_gourmet_food/Categories/Pantry Staples/Cooking & Baking Supplies/Cooking Oils, Vinegars & Sprays/Vinegars/Apple Cider"
7351980011;"grocery_and_gourmet_food/Categories/Pantry Staples/Cooking & Baking Supplies/Cooking Oils, Vinegars & Sprays/Vinegars/Balsamic"
7351982011;"grocery_and_gourmet_food/Categories/Pantry Staples/Cooking & Baking Supplies/Cooking Oils, Vinegars & Sprays/Vinegars/Malt"
7351983011;"grocery_and_gourmet_food/Categories/Pantry Staples/Cooking & Baking Supplies/Cooking Oils, Vinegars & Sprays/Vinegars/Red Wine"
7351984011;"grocery_and_gourmet_food/Categories/Pantry Staples/Cooking & Baking Supplies/Cooking Oils, Vinegars & Sprays/Vinegars/Rice"
7351994011;"grocery_and_gourmet_food/Categories/Pantry Staples/Cooking & Baking Supplies/Dessert Syrups & Sauces"
7351997011;"grocery_and_gourmet_food/Categories/Pantry Staples/Cooking & Baking Supplies/Dessert Syrups & Sauces/Flavouring Syrup"
7351998011;"grocery_and_gourmet_food/Categories/Pantry Staples/Cooking & Baking Supplies/Dessert Syrups & Sauces/Fruit"
7352004011;"grocery_and_gourmet_food/Categories/Pantry Staples/Cooking & Baking Supplies/Extracts & Flavouring"
7352007011;"grocery_and_gourmet_food/Categories/Pantry Staples/Cooking & Baking Supplies/Flours & Meals"
7352019011;"grocery_and_gourmet_food/Categories/Pantry Staples/Cooking & Baking Supplies/Food Colouring"
7352020011;"grocery_and_gourmet_food/Categories/Pantry Staples/Cooking & Baking Supplies/Frosting, Icing & Decorations"
7352021011;"grocery_and_gourmet_food/Categories/Pantry Staples/Cooking & Baking Supplies/Frosting, Icing & Decorations/Decorations"
7352022011;"grocery_and_gourmet_food/Categories/Pantry Staples/Cooking & Baking Supplies/Frosting, Icing & Decorations/Decorations/Cake Toppers"
7352024011;"grocery_and_gourmet_food/Categories/Pantry Staples/Cooking & Baking Supplies/Frosting, Icing & Decorations/Decorations/Dusting Powder"
7352025011;"grocery_and_gourmet_food/Categories/Pantry Staples/Cooking & Baking Supplies/Frosting, Icing & Decorations/Decorations/Glitter"
7352026011;"grocery_and_gourmet_food/Categories/Pantry Staples/Cooking & Baking Supplies/Frosting, Icing & Decorations/Decorations/Sprinkles"
7352027011;"grocery_and_gourmet_food/Categories/Pantry Staples/Cooking & Baking Supplies/Frosting, Icing & Decorations/Frosting"
7352028011;"grocery_and_gourmet_food/Categories/Pantry Staples/Cooking & Baking Supplies/Frosting, Icing & Decorations/Icing"
7352034011;"grocery_and_gourmet_food/Categories/Pantry Staples/Cooking & Baking Supplies/Leaveners & Yeasts"
7352066011;"grocery_and_gourmet_food/Categories/Pantry Staples/Cooking & Baking Supplies/Pudding & Gelatin Mixes"
7352070011;"grocery_and_gourmet_food/Categories/Pantry Staples/Cooking & Baking Supplies/Sugar Substitutes"
7352071011;"grocery_and_gourmet_food/Categories/Pantry Staples/Cooking & Baking Supplies/Syrups, Sugars & Sweeteners"
7352073011;"grocery_and_gourmet_food/Categories/Pantry Staples/Cooking & Baking Supplies/Syrups, Sugars & Sweeteners/Honey"
7352074011;"grocery_and_gourmet_food/Categories/Pantry Staples/Cooking & Baking Supplies/Syrups, Sugars & Sweeteners/Maple Syrup"
7352077011;"grocery_and_gourmet_food/Categories/Pantry Staples/Cooking & Baking Supplies/Syrups, Sugars & Sweeteners/Sugars"
7352084011;"grocery_and_gourmet_food/Categories/Pantry Staples/Cooking & Baking Supplies/Thickeners"
7352088011;"grocery_and_gourmet_food/Categories/Pantry Staples/Dried Beans, Grains & Rice"
7352089011;"grocery_and_gourmet_food/Categories/Pantry Staples/Dried Beans, Grains & Rice/Beans"
7352096011;"grocery_and_gourmet_food/Categories/Pantry Staples/Dried Beans, Grains & Rice/Grains & Rice"
7352098011;"grocery_and_gourmet_food/Categories/Pantry Staples/Dried Beans, Grains & Rice/Grains & Rice/Basmati"
7352099011;"grocery_and_gourmet_food/Categories/Pantry Staples/Dried Beans, Grains & Rice/Grains & Rice/Brown"
7352101011;"grocery_and_gourmet_food/Categories/Pantry Staples/Dried Beans, Grains & Rice/Grains & Rice/Couscous"
7352105011;"grocery_and_gourmet_food/Categories/Pantry Staples/Dried Beans, Grains & Rice/Grains & Rice/Quinoa"
7352109011;"grocery_and_gourmet_food/Categories/Pantry Staples/Dried Beans, Grains & Rice/Lentils"
7352114011;"grocery_and_gourmet_food/Categories/Pantry Staples/Herbs, Spices & Seasonings"
7352115011;"grocery_and_gourmet_food/Categories/Pantry Staples/Herbs, Spices & Seasonings/Mixed Spices & Seasonings"
7352122011;"grocery_and_gourmet_food/Categories/Pantry Staples/Herbs, Spices & Seasonings/Mixed Spices & Seasonings/Curry Powder"
7352124011;"grocery_and_gourmet_food/Categories/Pantry Staples/Herbs, Spices & Seasonings/Mixed Spices & Seasonings/Gourmet Rubs"
7352127011;"grocery_and_gourmet_food/Categories/Pantry Staples/Herbs, Spices & Seasonings/Mixed Spices & Seasonings/Italian Seasoning"
7352128011;"grocery_and_gourmet_food/Categories/Pantry Staples/Herbs, Spices & Seasonings/Mixed Spices & Seasonings/Meat Seasoning"
7352129011;"grocery_and_gourmet_food/Categories/Pantry Staples/Herbs, Spices & Seasonings/Mixed Spices & Seasonings/Mexican Seasoning"
7352133011;"grocery_and_gourmet_food/Categories/Pantry Staples/Herbs, Spices & Seasonings/Pepper & Peppercorns"
7352134011;"grocery_and_gourmet_food/Categories/Pantry Staples/Herbs, Spices & Seasonings/Pepper & Peppercorns/Ground Pepper"
7352135011;"grocery_and_gourmet_food/Categories/Pantry Staples/Herbs, Spices & Seasonings/Pepper & Peppercorns/Peppercorns"
7352136011;"grocery_and_gourmet_food/Categories/Pantry Staples/Herbs, Spices & Seasonings/Salt & Salt Substitutes"
7352150011;"grocery_and_gourmet_food/Categories/Pantry Staples/Herbs, Spices & Seasonings/Single Herbs & Spices"
7352198011;"grocery_and_gourmet_food/Categories/Pantry Staples/Jams, Jellies & Sweet Spreads"
7352199011;"grocery_and_gourmet_food/Categories/Pantry Staples/Jams, Jellies & Sweet Spreads/Fruit Butters"
7352204011;"grocery_and_gourmet_food/Categories/Pantry Staples/Jams, Jellies & Sweet Spreads/Maple Butter"
7352205011;"grocery_and_gourmet_food/Categories/Pantry Staples/Jams, Jellies & Sweet Spreads/Marmalades"
7352207011;"grocery_and_gourmet_food/Categories/Pantry Staples/Jams, Jellies & Sweet Spreads/Nut Butters"
7352208011;"grocery_and_gourmet_food/Categories/Pantry Staples/Jams, Jellies & Sweet Spreads/Nut Butters/Almond Butter"
7352209011;"grocery_and_gourmet_food/Categories/Pantry Staples/Jams, Jellies & Sweet Spreads/Nut Butters/Cashew Butter"
7352210011;"grocery_and_gourmet_food/Categories/Pantry Staples/Jams, Jellies & Sweet Spreads/Nut Butters/Peanut Butter"
7352211011;"grocery_and_gourmet_food/Categories/Pantry Staples/Oils, Vinegars & Dressings"
7351961011;"grocery_and_gourmet_food/Categories/Pantry Staples/Oils, Vinegars & Dressings/Oils"
7351962011;"grocery_and_gourmet_food/Categories/Pantry Staples/Oils, Vinegars & Dressings/Oils/Almond"
7351964011;"grocery_and_gourmet_food/Categories/Pantry Staples/Oils, Vinegars & Dressings/Oils/Canola"
7351965011;"grocery_and_gourmet_food/Categories/Pantry Staples/Oils, Vinegars & Dressings/Oils/Coconut"
7351967011;"grocery_and_gourmet_food/Categories/Pantry Staples/Oils, Vinegars & Dressings/Oils/Grapeseed"
7351969011;"grocery_and_gourmet_food/Categories/Pantry Staples/Oils, Vinegars & Dressings/Oils/Olive"
7351971011;"grocery_and_gourmet_food/Categories/Pantry Staples/Oils, Vinegars & Dressings/Oils/Sesame"
7351973011;"grocery_and_gourmet_food/Categories/Pantry Staples/Oils, Vinegars & Dressings/Oils/Specialty"
7351974011;"grocery_and_gourmet_food/Categories/Pantry Staples/Oils, Vinegars & Dressings/Oils/Sunflower"
7352212011;"grocery_and_gourmet_food/Categories/Pantry Staples/Oils, Vinegars & Dressings/Salad Dressings"
7351978011;"grocery_and_gourmet_food/Categories/Pantry Staples/Oils, Vinegars & Dressings/Vinegars"
7351979011;"grocery_and_gourmet_food/Categories/Pantry Staples/Oils, Vinegars & Dressings/Vinegars/Apple Cider"
7351980011;"grocery_and_gourmet_food/Categories/Pantry Staples/Oils, Vinegars & Dressings/Vinegars/Balsamic"
7351982011;"grocery_and_gourmet_food/Categories/Pantry Staples/Oils, Vinegars & Dressings/Vinegars/Malt"
7351983011;"grocery_and_gourmet_food/Categories/Pantry Staples/Oils, Vinegars & Dressings/Vinegars/Red Wine"
7351984011;"grocery_and_gourmet_food/Categories/Pantry Staples/Oils, Vinegars & Dressings/Vinegars/Rice"
7352227011;"grocery_and_gourmet_food/Categories/Pantry Staples/Packaged Meals & Side Dishes"
7352230011;"grocery_and_gourmet_food/Categories/Pantry Staples/Packaged Meals & Side Dishes/Macaroni & Cheese"
7352243011;"grocery_and_gourmet_food/Categories/Pantry Staples/Packaged Meals & Side Dishes/Pasta & Noodle Dinner Kits"
7352244011;"grocery_and_gourmet_food/Categories/Pantry Staples/Packaged Meals & Side Dishes/Pasta & Noodle Dinner Kits/Noodle"
7352245011;"grocery_and_gourmet_food/Categories/Pantry Staples/Packaged Meals & Side Dishes/Pasta & Noodle Dinner Kits/Pasta"
7352248011;"grocery_and_gourmet_food/Categories/Pantry Staples/Packaged Meals & Side Dishes/Potatoes & Stuffings"
7352259011;"grocery_and_gourmet_food/Categories/Pantry Staples/Packaged Meals & Side Dishes/Rice Dishes"
7352268011;"grocery_and_gourmet_food/Categories/Pantry Staples/Pasta & Noodles"
7352269011;"grocery_and_gourmet_food/Categories/Pantry Staples/Pasta & Noodles/Noodles"
7352276011;"grocery_and_gourmet_food/Categories/Pantry Staples/Pasta & Noodles/Pasta"
7352279011;"grocery_and_gourmet_food/Categories/Pantry Staples/Pasta & Noodles/Pasta/Fettuccine"
7352280011;"grocery_and_gourmet_food/Categories/Pantry Staples/Pasta & Noodles/Pasta/Fusilli"
7352281011;"grocery_and_gourmet_food/Categories/Pantry Staples/Pasta & Noodles/Pasta/Elbow Macaroni"
7352283011;"grocery_and_gourmet_food/Categories/Pantry Staples/Pasta & Noodles/Pasta/Lasagna"
7352284011;"grocery_and_gourmet_food/Categories/Pantry Staples/Pasta & Noodles/Pasta/Linguine"
7352287011;"grocery_and_gourmet_food/Categories/Pantry Staples/Pasta & Noodles/Pasta/Penne"
7352290011;"grocery_and_gourmet_food/Categories/Pantry Staples/Pasta & Noodles/Pasta/Spaghetti"
7352295011;"grocery_and_gourmet_food/Categories/Pantry Staples/Sauces, Gravies & Marinades"
7352297011;"grocery_and_gourmet_food/Categories/Pantry Staples/Sauces, Gravies & Marinades/Gravies"
7352306011;"grocery_and_gourmet_food/Categories/Pantry Staples/Sauces, Gravies & Marinades/Hot Sauces"
7352309011;"grocery_and_gourmet_food/Categories/Pantry Staples/Sauces, Gravies & Marinades/Sauces"
7352310011;"grocery_and_gourmet_food/Categories/Pantry Staples/Sauces, Gravies & Marinades/Sauces/Asian"
7352325011;"grocery_and_gourmet_food/Categories/Pantry Staples/Sauces, Gravies & Marinades/Sauces/Barbecue"
7352327011;"grocery_and_gourmet_food/Categories/Pantry Staples/Sauces, Gravies & Marinades/Sauces/Italian"
7352337011;"grocery_and_gourmet_food/Categories/Pantry Staples/Sauces, Gravies & Marinades/Sauces/Spanish & Mexican"
7352635011;"grocery_and_gourmet_food/Categories/Snack Food"
7352636011;"grocery_and_gourmet_food/Categories/Snack Food/Applesauce & Fruit Cups"
7352640011;"grocery_and_gourmet_food/Categories/Snack Food/Chips & Crisps"
7352643011;"grocery_and_gourmet_food/Categories/Snack Food/Chips & Crisps/Potato"
7352645011;"grocery_and_gourmet_food/Categories/Snack Food/Chips & Crisps/Tortilla"
7352646011;"grocery_and_gourmet_food/Categories/Snack Food/Chips & Crisps/Vegetable"
7352647011;"grocery_and_gourmet_food/Categories/Snack Food/Cookies"
7352652011;"grocery_and_gourmet_food/Categories/Snack Food/Cookies/Butter"
7352653011;"grocery_and_gourmet_food/Categories/Snack Food/Cookies/Chocolate"
7352654011;"grocery_and_gourmet_food/Categories/Snack Food/Cookies/Chocolate-Chip"
7352657011;"grocery_and_gourmet_food/Categories/Snack Food/Cookies/Ginger Snaps"
7352665011;"grocery_and_gourmet_food/Categories/Snack Food/Cookies/Sandwich"
7352666011;"grocery_and_gourmet_food/Categories/Snack Food/Cookies/Shortbread"
7352670011;"grocery_and_gourmet_food/Categories/Snack Food/Crackers"
7352671011;"grocery_and_gourmet_food/Categories/Snack Food/Crackers/Animal Shaped"
7352674011;"grocery_and_gourmet_food/Categories/Snack Food/Crackers/Cheese"
7352676011;"grocery_and_gourmet_food/Categories/Snack Food/Crackers/Flatbread"
7352678011;"grocery_and_gourmet_food/Categories/Snack Food/Crackers/Matzo"
7352683011;"grocery_and_gourmet_food/Categories/Snack Food/Crackers/Wheat"
7352684011;"grocery_and_gourmet_food/Categories/Snack Food/Dried Fruit & Raisins"
7352686011;"grocery_and_gourmet_food/Categories/Snack Food/Dried Fruit & Raisins/Dried Fruit"
7352688011;"grocery_and_gourmet_food/Categories/Snack Food/Dried Fruit & Raisins/Raisins"
7352690011;"grocery_and_gourmet_food/Categories/Snack Food/Fruit Snacks"
7352691011;"grocery_and_gourmet_food/Categories/Snack Food/Granola & Trail Mix Bars"
7352697011;"grocery_and_gourmet_food/Categories/Snack Food/Jerky & Dried Meats"
7352698011;"grocery_and_gourmet_food/Categories/Snack Food/Nuts & Seeds"
7352699011;"grocery_and_gourmet_food/Categories/Snack Food/Nuts & Seeds/Almonds"
7352700011;"grocery_and_gourmet_food/Categories/Snack Food/Nuts & Seeds/Cashews"
7352705011;"grocery_and_gourmet_food/Categories/Snack Food/Nuts & Seeds/Pistachio Nuts"
7352707011;"grocery_and_gourmet_food/Categories/Snack Food/Nuts & Seeds/Sunflower Seeds"
7352709011;"grocery_and_gourmet_food/Categories/Snack Food/Party Mix"
7352710011;"grocery_and_gourmet_food/Categories/Snack Food/Popcorn"
7352715011;"grocery_and_gourmet_food/Categories/Snack Food/Pretzels"
7352720011;"grocery_and_gourmet_food/Categories/Snack Food/Rice Cake, Chips & Crackers"
7352724011;"grocery_and_gourmet_food/Categories/Snack Food/Salsas, Dips & Spreads"
7351597011;"grocery_and_gourmet_food/Categories/Snack Food/Snack Gifts"
7385768011;"grocery_and_gourmet_food/Categories/Snack Food/Trail Mix"
6967217011;"grocery_and_gourmet_food/Featured Categories"
7351088011;"grocery_and_gourmet_food/Featured Categories/Baby Food"
6369683011;"grocery_and_gourmet_food/Featured Categories/Baby Food/Baby Formula"
7351089011;"grocery_and_gourmet_food/Featured Categories/Baby Food/Dinners"
7351090011;"grocery_and_gourmet_food/Featured Categories/Baby Food/Fruit"
7351092011;"grocery_and_gourmet_food/Featured Categories/Baby Food/Snack Food"
7351093011;"grocery_and_gourmet_food/Featured Categories/Baby Food/Vegetables"
7351094011;"grocery_and_gourmet_food/Featured Categories/Beverages"
7351101011;"grocery_and_gourmet_food/Featured Categories/Beverages/Coconut Water"
7351102011;"grocery_and_gourmet_food/Featured Categories/Beverages/Coffee"
7351590011;"grocery_and_gourmet_food/Featured Categories/Beverages/Coffee/Coffee Gifts"
7351105011;"grocery_and_gourmet_food/Featured Categories/Beverages/Coffee/Ground Coffee"
7351106011;"grocery_and_gourmet_food/Featured Categories/Beverages/Coffee/Instant Coffee"
7351103011;"grocery_and_gourmet_food/Featured Categories/Beverages/Coffee/Single Serve Capsules"
7351107011;"grocery_and_gourmet_food/Featured Categories/Beverages/Coffee/Single Serve Cups"
7351108011;"grocery_and_gourmet_food/Featured Categories/Beverages/Coffee/Single Serve Pods"
7351111011;"grocery_and_gourmet_food/Featured Categories/Beverages/Coffee/Whole Beans"
7351112011;"grocery_and_gourmet_food/Featured Categories/Beverages/Energy Drinks"
7351113011;"grocery_and_gourmet_food/Featured Categories/Beverages/Flavouring Syrups"
7351114011;"grocery_and_gourmet_food/Featured Categories/Beverages/Hot Cocoa"
7351115011;"grocery_and_gourmet_food/Featured Categories/Beverages/Iced Tea & Lemonade"
7351118011;"grocery_and_gourmet_food/Featured Categories/Beverages/Juices"
7351120011;"grocery_and_gourmet_food/Featured Categories/Beverages/Juices/Fruit Juice"
7351122011;"grocery_and_gourmet_food/Featured Categories/Beverages/Juices/Sparkling Juice"
7351123011;"grocery_and_gourmet_food/Featured Categories/Beverages/Juices/Vegetable Juice"
7351124011;"grocery_and_gourmet_food/Featured Categories/Beverages/Meal Replacement Drinks"
7351125011;"grocery_and_gourmet_food/Featured Categories/Beverages/Powdered Drink Mixes"
7351130011;"grocery_and_gourmet_food/Featured Categories/Beverages/Protein Drinks"
7351132011;"grocery_and_gourmet_food/Featured Categories/Beverages/Soft Drinks"
7351133011;"grocery_and_gourmet_food/Featured Categories/Beverages/Sports Drinks"
7351134011;"grocery_and_gourmet_food/Featured Categories/Beverages/Tea"
7351135011;"grocery_and_gourmet_food/Featured Categories/Beverages/Tea/Black"
7351136011;"grocery_and_gourmet_food/Featured Categories/Beverages/Tea/Chai"
7351137011;"grocery_and_gourmet_food/Featured Categories/Beverages/Tea/Green"
7351138011;"grocery_and_gourmet_food/Featured Categories/Beverages/Tea/Herbal"
7351139011;"grocery_and_gourmet_food/Featured Categories/Beverages/Tea/Oolong"
7351140011;"grocery_and_gourmet_food/Featured Categories/Beverages/Tea/Rooibos"
7351599011;"grocery_and_gourmet_food/Featured Categories/Beverages/Tea/Tea Gifts"
7351141011;"grocery_and_gourmet_food/Featured Categories/Beverages/Tea/Tea Samplers"
7351142011;"grocery_and_gourmet_food/Featured Categories/Beverages/Tea/White"
7351143011;"grocery_and_gourmet_food/Featured Categories/Beverages/Water"
7351144011;"grocery_and_gourmet_food/Featured Categories/Beverages/Water/Flavoured & Enhanced Water"
7351147011;"grocery_and_gourmet_food/Featured Categories/Beverages/Water/Seltzer & Tonic Water"
7351150011;"grocery_and_gourmet_food/Featured Categories/Beverages/Water/Sparkling & Mineral Water"
7351153011;"grocery_and_gourmet_food/Featured Categories/Breads & Bakery"
7351173011;"grocery_and_gourmet_food/Featured Categories/Breads & Bakery/Cakes"
7351181011;"grocery_and_gourmet_food/Featured Categories/Breads & Bakery/Desserts"
7351591011;"grocery_and_gourmet_food/Featured Categories/Breads & Bakery/Desserts/Dessert Gifts"
7351255011;"grocery_and_gourmet_food/Featured Categories/Breakfast Food"
7351256011;"grocery_and_gourmet_food/Featured Categories/Breakfast Food/Breakfast & Cereal Bars"
7351257011;"grocery_and_gourmet_food/Featured Categories/Breakfast Food/Breakfast & Cereal Bars/Cereal"
7351258011;"grocery_and_gourmet_food/Featured Categories/Breakfast Food/Breakfast & Cereal Bars/Energy & Nutritional"
7352691011;"grocery_and_gourmet_food/Featured Categories/Breakfast Food/Breakfast & Cereal Bars/Granola & Trail Mix"
7351259011;"grocery_and_gourmet_food/Featured Categories/Breakfast Food/Cereals"
7351260011;"grocery_and_gourmet_food/Featured Categories/Breakfast Food/Cereals/Cold Cereals"
7351261011;"grocery_and_gourmet_food/Featured Categories/Breakfast Food/Cereals/Granola"
7351263011;"grocery_and_gourmet_food/Featured Categories/Breakfast Food/Cereals/Muesli"
7351264011;"grocery_and_gourmet_food/Featured Categories/Breakfast Food/Cereals/Oatmeal"
7351266011;"grocery_and_gourmet_food/Featured Categories/Candy & Chocolate"
7351269011;"grocery_and_gourmet_food/Featured Categories/Candy & Chocolate/Bars"
7351270011;"grocery_and_gourmet_food/Featured Categories/Candy & Chocolate/Bars/Multipack"
7351271011;"grocery_and_gourmet_food/Featured Categories/Candy & Chocolate/Bars/Single Serve"
7351274011;"grocery_and_gourmet_food/Featured Categories/Candy & Chocolate/Caramels"
7351275011;"grocery_and_gourmet_food/Featured Categories/Candy & Chocolate/Chewing Gum"
7351276011;"grocery_and_gourmet_food/Featured Categories/Candy & Chocolate/Chocolate Gifts"
7351587011;"grocery_and_gourmet_food/Featured Categories/Candy & Chocolate/Chocolate Gifts/Candy Gifts"
7351589011;"grocery_and_gourmet_food/Featured Categories/Candy & Chocolate/Chocolate Gifts/Chocolate Gifts"
7351278011;"grocery_and_gourmet_food/Featured Categories/Candy & Chocolate/Fruit, Nuts & Snacks"
7351285011;"grocery_and_gourmet_food/Featured Categories/Candy & Chocolate/Fruity Candy"
7351287011;"grocery_and_gourmet_food/Featured Categories/Candy & Chocolate/Gummy Candy"
7351290011;"grocery_and_gourmet_food/Featured Categories/Candy & Chocolate/Jelly Beans"
7351292011;"grocery_and_gourmet_food/Featured Categories/Candy & Chocolate/Licorice"
7351294011;"grocery_and_gourmet_food/Featured Categories/Candy & Chocolate/Mints"
7351297011;"grocery_and_gourmet_food/Featured Categories/Candy & Chocolate/Sour Candy"
7351298011;"grocery_and_gourmet_food/Featured Categories/Candy & Chocolate/Suckers & Lollipops"
7351300011;"grocery_and_gourmet_food/Featured Categories/Candy & Chocolate/Toffee"
2224015011;"grocery_and_gourmet_food/Featured Categories/Fresh Flowers & Indoor Plants"
6646845011;"grocery_and_gourmet_food/Featured Categories/Fresh Flowers & Indoor Plants/Fresh Cut Flowers"
6646846011;"grocery_and_gourmet_food/Featured Categories/Fresh Flowers & Indoor Plants/Fresh Cut Flowers/Mixed Bouquets"
6646847011;"grocery_and_gourmet_food/Featured Categories/Fresh Flowers & Indoor Plants/Fresh Cut Flowers/Carnations"
6646850011;"grocery_and_gourmet_food/Featured Categories/Fresh Flowers & Indoor Plants/Fresh Cut Flowers/Daisies"
6646852011;"grocery_and_gourmet_food/Featured Categories/Fresh Flowers & Indoor Plants/Fresh Cut Flowers/Lilies"
6646854011;"grocery_and_gourmet_food/Featured Categories/Fresh Flowers & Indoor Plants/Fresh Cut Flowers/Roses"
6646855011;"grocery_and_gourmet_food/Featured Categories/Fresh Flowers & Indoor Plants/Fresh Cut Flowers/Sunflowers"
6646857011;"grocery_and_gourmet_food/Featured Categories/Fresh Flowers & Indoor Plants/Indoor Plants"
6646858011;"grocery_and_gourmet_food/Featured Categories/Fresh Flowers & Indoor Plants/Indoor Plants/House Plants"
6646859011;"grocery_and_gourmet_food/Featured Categories/Fresh Flowers & Indoor Plants/Indoor Plants/Orchids"
6646864011;"grocery_and_gourmet_food/Featured Categories/Fresh Flowers & Indoor Plants/Indoor Plants/Bonsai"
7351586011;"grocery_and_gourmet_food/Featured Categories/Gourmet Gifts"
7351587011;"grocery_and_gourmet_food/Featured Categories/Gourmet Gifts/Candy Gifts"
7351589011;"grocery_and_gourmet_food/Featured Categories/Gourmet Gifts/Chocolate Gifts"
7351590011;"grocery_and_gourmet_food/Featured Categories/Gourmet Gifts/Coffee Gifts"
7351591011;"grocery_and_gourmet_food/Featured Categories/Gourmet Gifts/Dessert Gifts"
7351592011;"grocery_and_gourmet_food/Featured Categories/Gourmet Gifts/Fruit Gifts"
7351597011;"grocery_and_gourmet_food/Featured Categories/Gourmet Gifts/Snack Gifts"
7351599011;"grocery_and_gourmet_food/Featured Categories/Gourmet Gifts/Tea Gifts"
7351600011;"grocery_and_gourmet_food/Featured Categories/Home Brewing & Winemaking"
7351795011;"grocery_and_gourmet_food/Featured Categories/Pantry Staples"
7351796011;"grocery_and_gourmet_food/Featured Categories/Pantry Staples/Canned & Jarred Food"
7351797011;"grocery_and_gourmet_food/Featured Categories/Pantry Staples/Canned & Jarred Food/Beans"
7351798011;"grocery_and_gourmet_food/Featured Categories/Pantry Staples/Canned & Jarred Food/Beans/Baked"
7351799011;"grocery_and_gourmet_food/Featured Categories/Pantry Staples/Canned & Jarred Food/Beans/Black"
7351801011;"grocery_and_gourmet_food/Featured Categories/Pantry Staples/Canned & Jarred Food/Beans/Kidney"
7351803011;"grocery_and_gourmet_food/Featured Categories/Pantry Staples/Canned & Jarred Food/Beans/Pinto"
7351830011;"grocery_and_gourmet_food/Featured Categories/Pantry Staples/Canned & Jarred Food/Meat & Seafood"
7351838011;"grocery_and_gourmet_food/Featured Categories/Pantry Staples/Canned & Jarred Food/Soups, Stews & Chilis"
7351839011;"grocery_and_gourmet_food/Featured Categories/Pantry Staples/Canned & Jarred Food/Soups, Stews & Chilis/Asian Noodle Soups"
7351840011;"grocery_and_gourmet_food/Featured Categories/Pantry Staples/Canned & Jarred Food/Soups, Stews & Chilis/Beef Soups"
7351841011;"grocery_and_gourmet_food/Featured Categories/Pantry Staples/Canned & Jarred Food/Soups, Stews & Chilis/Bisques"
7351842011;"grocery_and_gourmet_food/Featured Categories/Pantry Staples/Canned & Jarred Food/Soups, Stews & Chilis/Chicken Soups"
7351843011;"grocery_and_gourmet_food/Featured Categories/Pantry Staples/Canned & Jarred Food/Soups, Stews & Chilis/Chili"
7351844011;"grocery_and_gourmet_food/Featured Categories/Pantry Staples/Canned & Jarred Food/Soups, Stews & Chilis/Chowders"
7351846011;"grocery_and_gourmet_food/Featured Categories/Pantry Staples/Canned & Jarred Food/Soups, Stews & Chilis/Miso Soups"
7351847011;"grocery_and_gourmet_food/Featured Categories/Pantry Staples/Canned & Jarred Food/Soups, Stews & Chilis/Noodle Soups"
7351848011;"grocery_and_gourmet_food/Featured Categories/Pantry Staples/Canned & Jarred Food/Soups, Stews & Chilis/Split Pea Soups"
7351850011;"grocery_and_gourmet_food/Featured Categories/Pantry Staples/Canned & Jarred Food/Soups, Stews & Chilis/Tomato Soups"
7351851011;"grocery_and_gourmet_food/Featured Categories/Pantry Staples/Canned & Jarred Food/Soups, Stews & Chilis/Vegetable Soups"
7351852011;"grocery_and_gourmet_food/Featured Categories/Pantry Staples/Canned & Jarred Food/Stocks, Broth & Bouillon"
7351853011;"grocery_and_gourmet_food/Featured Categories/Pantry Staples/Canned & Jarred Food/Stocks, Broth & Bouillon/Bouillon"
7351854011;"grocery_and_gourmet_food/Featured Categories/Pantry Staples/Canned & Jarred Food/Stocks, Broth & Bouillon/Bouillon/Beef"
7351855011;"grocery_and_gourmet_food/Featured Categories/Pantry Staples/Canned & Jarred Food/Stocks, Broth & Bouillon/Bouillon/Chicken"
7351856011;"grocery_and_gourmet_food/Featured Categories/Pantry Staples/Canned & Jarred Food/Stocks, Broth & Bouillon/Bouillon/Vegetable"
7351857011;"grocery_and_gourmet_food/Featured Categories/Pantry Staples/Canned & Jarred Food/Stocks, Broth & Bouillon/Broth"
7351858011;"grocery_and_gourmet_food/Featured Categories/Pantry Staples/Canned & Jarred Food/Stocks, Broth & Bouillon/Broth/Beef"
7351859011;"grocery_and_gourmet_food/Featured Categories/Pantry Staples/Canned & Jarred Food/Stocks, Broth & Bouillon/Broth/Chicken"
7351860011;"grocery_and_gourmet_food/Featured Categories/Pantry Staples/Canned & Jarred Food/Stocks, Broth & Bouillon/Broth/Vegetable"
7351861011;"grocery_and_gourmet_food/Featured Categories/Pantry Staples/Canned & Jarred Food/Stocks, Broth & Bouillon/Stocks"
7351865011;"grocery_and_gourmet_food/Featured Categories/Pantry Staples/Canned & Jarred Food/Vegetables"
7351893011;"grocery_and_gourmet_food/Featured Categories/Pantry Staples/Condiments, Pickles & Relishes"
7351896011;"grocery_and_gourmet_food/Featured Categories/Pantry Staples/Condiments, Pickles & Relishes/Chutneys"
7351898011;"grocery_and_gourmet_food/Featured Categories/Pantry Staples/Condiments, Pickles & Relishes/Horseradish"
7351899011;"grocery_and_gourmet_food/Featured Categories/Pantry Staples/Condiments, Pickles & Relishes/Ketchup"
7351900011;"grocery_and_gourmet_food/Featured Categories/Pantry Staples/Condiments, Pickles & Relishes/Mayonnaise"
7351901011;"grocery_and_gourmet_food/Featured Categories/Pantry Staples/Condiments, Pickles & Relishes/Mustard"
7351906011;"grocery_and_gourmet_food/Featured Categories/Pantry Staples/Condiments, Pickles & Relishes/Olives"
7351919011;"grocery_and_gourmet_food/Featured Categories/Pantry Staples/Condiments, Pickles & Relishes/Pickles"
7351934011;"grocery_and_gourmet_food/Featured Categories/Pantry Staples/Cooking & Baking Supplies"
7351935011;"grocery_and_gourmet_food/Featured Categories/Pantry Staples/Cooking & Baking Supplies/Baking Chocolates, Carob & Cocoa"
7351937011;"grocery_and_gourmet_food/Featured Categories/Pantry Staples/Cooking & Baking Supplies/Baking Chocolates, Carob & Cocoa/Chocolate Chips"
7351939011;"grocery_and_gourmet_food/Featured Categories/Pantry Staples/Cooking & Baking Supplies/Baking Chocolates, Carob & Cocoa/Cocoa"
7351940011;"grocery_and_gourmet_food/Featured Categories/Pantry Staples/Cooking & Baking Supplies/Baking Mixes"
7351942011;"grocery_and_gourmet_food/Featured Categories/Pantry Staples/Cooking & Baking Supplies/Baking Mixes/Breads"
7351943011;"grocery_and_gourmet_food/Featured Categories/Pantry Staples/Cooking & Baking Supplies/Baking Mixes/Brownies"
7351944011;"grocery_and_gourmet_food/Featured Categories/Pantry Staples/Cooking & Baking Supplies/Baking Mixes/Cakes"
7351945011;"grocery_and_gourmet_food/Featured Categories/Pantry Staples/Cooking & Baking Supplies/Baking Mixes/Cookies"
7351946011;"grocery_and_gourmet_food/Featured Categories/Pantry Staples/Cooking & Baking Supplies/Baking Mixes/Muffins"
7351947011;"grocery_and_gourmet_food/Featured Categories/Pantry Staples/Cooking & Baking Supplies/Baking Mixes/Pancakes & Waffles"
7351959011;"grocery_and_gourmet_food/Featured Categories/Pantry Staples/Cooking & Baking Supplies/Cooking Oils, Vinegars & Sprays"
7351961011;"grocery_and_gourmet_food/Featured Categories/Pantry Staples/Cooking & Baking Supplies/Cooking Oils, Vinegars & Sprays/Oils"
7351962011;"grocery_and_gourmet_food/Featured Categories/Pantry Staples/Cooking & Baking Supplies/Cooking Oils, Vinegars & Sprays/Oils/Almond"
7351964011;"grocery_and_gourmet_food/Featured Categories/Pantry Staples/Cooking & Baking Supplies/Cooking Oils, Vinegars & Sprays/Oils/Canola"
7351965011;"grocery_and_gourmet_food/Featured Categories/Pantry Staples/Cooking & Baking Supplies/Cooking Oils, Vinegars & Sprays/Oils/Coconut"
7351967011;"grocery_and_gourmet_food/Featured Categories/Pantry Staples/Cooking & Baking Supplies/Cooking Oils, Vinegars & Sprays/Oils/Grapeseed"
7351969011;"grocery_and_gourmet_food/Featured Categories/Pantry Staples/Cooking & Baking Supplies/Cooking Oils, Vinegars & Sprays/Oils/Olive"
7351971011;"grocery_and_gourmet_food/Featured Categories/Pantry Staples/Cooking & Baking Supplies/Cooking Oils, Vinegars & Sprays/Oils/Sesame"
7351973011;"grocery_and_gourmet_food/Featured Categories/Pantry Staples/Cooking & Baking Supplies/Cooking Oils, Vinegars & Sprays/Oils/Specialty"
7351974011;"grocery_and_gourmet_food/Featured Categories/Pantry Staples/Cooking & Baking Supplies/Cooking Oils, Vinegars & Sprays/Oils/Sunflower"
7351978011;"grocery_and_gourmet_food/Featured Categories/Pantry Staples/Cooking & Baking Supplies/Cooking Oils, Vinegars & Sprays/Vinegars"
7351979011;"grocery_and_gourmet_food/Featured Categories/Pantry Staples/Cooking & Baking Supplies/Cooking Oils, Vinegars & Sprays/Vinegars/Apple Cider"
7351980011;"grocery_and_gourmet_food/Featured Categories/Pantry Staples/Cooking & Baking Supplies/Cooking Oils, Vinegars & Sprays/Vinegars/Balsamic"
7351982011;"grocery_and_gourmet_food/Featured Categories/Pantry Staples/Cooking & Baking Supplies/Cooking Oils, Vinegars & Sprays/Vinegars/Malt"
7351983011;"grocery_and_gourmet_food/Featured Categories/Pantry Staples/Cooking & Baking Supplies/Cooking Oils, Vinegars & Sprays/Vinegars/Red Wine"
7351984011;"grocery_and_gourmet_food/Featured Categories/Pantry Staples/Cooking & Baking Supplies/Cooking Oils, Vinegars & Sprays/Vinegars/Rice"
7351994011;"grocery_and_gourmet_food/Featured Categories/Pantry Staples/Cooking & Baking Supplies/Dessert Syrups & Sauces"
7351997011;"grocery_and_gourmet_food/Featured Categories/Pantry Staples/Cooking & Baking Supplies/Dessert Syrups & Sauces/Flavouring Syrup"
7351998011;"grocery_and_gourmet_food/Featured Categories/Pantry Staples/Cooking & Baking Supplies/Dessert Syrups & Sauces/Fruit"
7352004011;"grocery_and_gourmet_food/Featured Categories/Pantry Staples/Cooking & Baking Supplies/Extracts & Flavouring"
7352007011;"grocery_and_gourmet_food/Featured Categories/Pantry Staples/Cooking & Baking Supplies/Flours & Meals"
7352019011;"grocery_and_gourmet_food/Featured Categories/Pantry Staples/Cooking & Baking Supplies/Food Colouring"
7352020011;"grocery_and_gourmet_food/Featured Categories/Pantry Staples/Cooking & Baking Supplies/Frosting, Icing & Decorations"
7352021011;"grocery_and_gourmet_food/Featured Categories/Pantry Staples/Cooking & Baking Supplies/Frosting, Icing & Decorations/Decorations"
7352022011;"grocery_and_gourmet_food/Featured Categories/Pantry Staples/Cooking & Baking Supplies/Frosting, Icing & Decorations/Decorations/Cake Toppers"
7352024011;"grocery_and_gourmet_food/Featured Categories/Pantry Staples/Cooking & Baking Supplies/Frosting, Icing & Decorations/Decorations/Dusting Powder"
7352025011;"grocery_and_gourmet_food/Featured Categories/Pantry Staples/Cooking & Baking Supplies/Frosting, Icing & Decorations/Decorations/Glitter"
7352026011;"grocery_and_gourmet_food/Featured Categories/Pantry Staples/Cooking & Baking Supplies/Frosting, Icing & Decorations/Decorations/Sprinkles"
7352027011;"grocery_and_gourmet_food/Featured Categories/Pantry Staples/Cooking & Baking Supplies/Frosting, Icing & Decorations/Frosting"
7352028011;"grocery_and_gourmet_food/Featured Categories/Pantry Staples/Cooking & Baking Supplies/Frosting, Icing & Decorations/Icing"
7352034011;"grocery_and_gourmet_food/Featured Categories/Pantry Staples/Cooking & Baking Supplies/Leaveners & Yeasts"
7352066011;"grocery_and_gourmet_food/Featured Categories/Pantry Staples/Cooking & Baking Supplies/Pudding & Gelatin Mixes"
7352070011;"grocery_and_gourmet_food/Featured Categories/Pantry Staples/Cooking & Baking Supplies/Sugar Substitutes"
7352071011;"grocery_and_gourmet_food/Featured Categories/Pantry Staples/Cooking & Baking Supplies/Syrups, Sugars & Sweeteners"
7352073011;"grocery_and_gourmet_food/Featured Categories/Pantry Staples/Cooking & Baking Supplies/Syrups, Sugars & Sweeteners/Honey"
7352074011;"grocery_and_gourmet_food/Featured Categories/Pantry Staples/Cooking & Baking Supplies/Syrups, Sugars & Sweeteners/Maple Syrup"
7352077011;"grocery_and_gourmet_food/Featured Categories/Pantry Staples/Cooking & Baking Supplies/Syrups, Sugars & Sweeteners/Sugars"
7352084011;"grocery_and_gourmet_food/Featured Categories/Pantry Staples/Cooking & Baking Supplies/Thickeners"
7352088011;"grocery_and_gourmet_food/Featured Categories/Pantry Staples/Dried Beans, Grains & Rice"
7352089011;"grocery_and_gourmet_food/Featured Categories/Pantry Staples/Dried Beans, Grains & Rice/Beans"
7352096011;"grocery_and_gourmet_food/Featured Categories/Pantry Staples/Dried Beans, Grains & Rice/Grains & Rice"
7352098011;"grocery_and_gourmet_food/Featured Categories/Pantry Staples/Dried Beans, Grains & Rice/Grains & Rice/Basmati"
7352099011;"grocery_and_gourmet_food/Featured Categories/Pantry Staples/Dried Beans, Grains & Rice/Grains & Rice/Brown"
7352101011;"grocery_and_gourmet_food/Featured Categories/Pantry Staples/Dried Beans, Grains & Rice/Grains & Rice/Couscous"
7352105011;"grocery_and_gourmet_food/Featured Categories/Pantry Staples/Dried Beans, Grains & Rice/Grains & Rice/Quinoa"
7352109011;"grocery_and_gourmet_food/Featured Categories/Pantry Staples/Dried Beans, Grains & Rice/Lentils"
7352114011;"grocery_and_gourmet_food/Featured Categories/Pantry Staples/Herbs, Spices & Seasonings"
7352115011;"grocery_and_gourmet_food/Featured Categories/Pantry Staples/Herbs, Spices & Seasonings/Mixed Spices & Seasonings"
7352122011;"grocery_and_gourmet_food/Featured Categories/Pantry Staples/Herbs, Spices & Seasonings/Mixed Spices & Seasonings/Curry Powder"
7352124011;"grocery_and_gourmet_food/Featured Categories/Pantry Staples/Herbs, Spices & Seasonings/Mixed Spices & Seasonings/Gourmet Rubs"
7352127011;"grocery_and_gourmet_food/Featured Categories/Pantry Staples/Herbs, Spices & Seasonings/Mixed Spices & Seasonings/Italian Seasoning"
7352128011;"grocery_and_gourmet_food/Featured Categories/Pantry Staples/Herbs, Spices & Seasonings/Mixed Spices & Seasonings/Meat Seasoning"
7352129011;"grocery_and_gourmet_food/Featured Categories/Pantry Staples/Herbs, Spices & Seasonings/Mixed Spices & Seasonings/Mexican Seasoning"
7352133011;"grocery_and_gourmet_food/Featured Categories/Pantry Staples/Herbs, Spices & Seasonings/Pepper & Peppercorns"
7352134011;"grocery_and_gourmet_food/Featured Categories/Pantry Staples/Herbs, Spices & Seasonings/Pepper & Peppercorns/Ground Pepper"
7352135011;"grocery_and_gourmet_food/Featured Categories/Pantry Staples/Herbs, Spices & Seasonings/Pepper & Peppercorns/Peppercorns"
7352136011;"grocery_and_gourmet_food/Featured Categories/Pantry Staples/Herbs, Spices & Seasonings/Salt & Salt Substitutes"
7352150011;"grocery_and_gourmet_food/Featured Categories/Pantry Staples/Herbs, Spices & Seasonings/Single Herbs & Spices"
7352198011;"grocery_and_gourmet_food/Featured Categories/Pantry Staples/Jams, Jellies & Sweet Spreads"
7352199011;"grocery_and_gourmet_food/Featured Categories/Pantry Staples/Jams, Jellies & Sweet Spreads/Fruit Butters"
7352204011;"grocery_and_gourmet_food/Featured Categories/Pantry Staples/Jams, Jellies & Sweet Spreads/Maple Butter"
7352205011;"grocery_and_gourmet_food/Featured Categories/Pantry Staples/Jams, Jellies & Sweet Spreads/Marmalades"
7352207011;"grocery_and_gourmet_food/Featured Categories/Pantry Staples/Jams, Jellies & Sweet Spreads/Nut Butters"
7352208011;"grocery_and_gourmet_food/Featured Categories/Pantry Staples/Jams, Jellies & Sweet Spreads/Nut Butters/Almond Butter"
7352209011;"grocery_and_gourmet_food/Featured Categories/Pantry Staples/Jams, Jellies & Sweet Spreads/Nut Butters/Cashew Butter"
7352210011;"grocery_and_gourmet_food/Featured Categories/Pantry Staples/Jams, Jellies & Sweet Spreads/Nut Butters/Peanut Butter"
7352211011;"grocery_and_gourmet_food/Featured Categories/Pantry Staples/Oils, Vinegars & Dressings"
7351961011;"grocery_and_gourmet_food/Featured Categories/Pantry Staples/Oils, Vinegars & Dressings/Oils"
7351962011;"grocery_and_gourmet_food/Featured Categories/Pantry Staples/Oils, Vinegars & Dressings/Oils/Almond"
7351964011;"grocery_and_gourmet_food/Featured Categories/Pantry Staples/Oils, Vinegars & Dressings/Oils/Canola"
7351965011;"grocery_and_gourmet_food/Featured Categories/Pantry Staples/Oils, Vinegars & Dressings/Oils/Coconut"
7351967011;"grocery_and_gourmet_food/Featured Categories/Pantry Staples/Oils, Vinegars & Dressings/Oils/Grapeseed"
7351969011;"grocery_and_gourmet_food/Featured Categories/Pantry Staples/Oils, Vinegars & Dressings/Oils/Olive"
7351971011;"grocery_and_gourmet_food/Featured Categories/Pantry Staples/Oils, Vinegars & Dressings/Oils/Sesame"
7351973011;"grocery_and_gourmet_food/Featured Categories/Pantry Staples/Oils, Vinegars & Dressings/Oils/Specialty"
7351974011;"grocery_and_gourmet_food/Featured Categories/Pantry Staples/Oils, Vinegars & Dressings/Oils/Sunflower"
7352212011;"grocery_and_gourmet_food/Featured Categories/Pantry Staples/Oils, Vinegars & Dressings/Salad Dressings"
7351978011;"grocery_and_gourmet_food/Featured Categories/Pantry Staples/Oils, Vinegars & Dressings/Vinegars"
7351979011;"grocery_and_gourmet_food/Featured Categories/Pantry Staples/Oils, Vinegars & Dressings/Vinegars/Apple Cider"
7351980011;"grocery_and_gourmet_food/Featured Categories/Pantry Staples/Oils, Vinegars & Dressings/Vinegars/Balsamic"
7351982011;"grocery_and_gourmet_food/Featured Categories/Pantry Staples/Oils, Vinegars & Dressings/Vinegars/Malt"
7351983011;"grocery_and_gourmet_food/Featured Categories/Pantry Staples/Oils, Vinegars & Dressings/Vinegars/Red Wine"
7351984011;"grocery_and_gourmet_food/Featured Categories/Pantry Staples/Oils, Vinegars & Dressings/Vinegars/Rice"
7352227011;"grocery_and_gourmet_food/Featured Categories/Pantry Staples/Packaged Meals & Side Dishes"
7352230011;"grocery_and_gourmet_food/Featured Categories/Pantry Staples/Packaged Meals & Side Dishes/Macaroni & Cheese"
7352243011;"grocery_and_gourmet_food/Featured Categories/Pantry Staples/Packaged Meals & Side Dishes/Pasta & Noodle Dinner Kits"
7352244011;"grocery_and_gourmet_food/Featured Categories/Pantry Staples/Packaged Meals & Side Dishes/Pasta & Noodle Dinner Kits/Noodle"
7352245011;"grocery_and_gourmet_food/Featured Categories/Pantry Staples/Packaged Meals & Side Dishes/Pasta & Noodle Dinner Kits/Pasta"
7352248011;"grocery_and_gourmet_food/Featured Categories/Pantry Staples/Packaged Meals & Side Dishes/Potatoes & Stuffings"
7352259011;"grocery_and_gourmet_food/Featured Categories/Pantry Staples/Packaged Meals & Side Dishes/Rice Dishes"
7352268011;"grocery_and_gourmet_food/Featured Categories/Pantry Staples/Pasta & Noodles"
7352269011;"grocery_and_gourmet_food/Featured Categories/Pantry Staples/Pasta & Noodles/Noodles"
7352276011;"grocery_and_gourmet_food/Featured Categories/Pantry Staples/Pasta & Noodles/Pasta"
7352279011;"grocery_and_gourmet_food/Featured Categories/Pantry Staples/Pasta & Noodles/Pasta/Fettuccine"
7352280011;"grocery_and_gourmet_food/Featured Categories/Pantry Staples/Pasta & Noodles/Pasta/Fusilli"
7352281011;"grocery_and_gourmet_food/Featured Categories/Pantry Staples/Pasta & Noodles/Pasta/Elbow Macaroni"
7352283011;"grocery_and_gourmet_food/Featured Categories/Pantry Staples/Pasta & Noodles/Pasta/Lasagna"
7352284011;"grocery_and_gourmet_food/Featured Categories/Pantry Staples/Pasta & Noodles/Pasta/Linguine"
7352287011;"grocery_and_gourmet_food/Featured Categories/Pantry Staples/Pasta & Noodles/Pasta/Penne"
7352290011;"grocery_and_gourmet_food/Featured Categories/Pantry Staples/Pasta & Noodles/Pasta/Spaghetti"
7352295011;"grocery_and_gourmet_food/Featured Categories/Pantry Staples/Sauces, Gravies & Marinades"
7352297011;"grocery_and_gourmet_food/Featured Categories/Pantry Staples/Sauces, Gravies & Marinades/Gravies"
7352306011;"grocery_and_gourmet_food/Featured Categories/Pantry Staples/Sauces, Gravies & Marinades/Hot Sauces"
7352309011;"grocery_and_gourmet_food/Featured Categories/Pantry Staples/Sauces, Gravies & Marinades/Sauces"
7352310011;"grocery_and_gourmet_food/Featured Categories/Pantry Staples/Sauces, Gravies & Marinades/Sauces/Asian"
7352325011;"grocery_and_gourmet_food/Featured Categories/Pantry Staples/Sauces, Gravies & Marinades/Sauces/Barbecue"
7352327011;"grocery_and_gourmet_food/Featured Categories/Pantry Staples/Sauces, Gravies & Marinades/Sauces/Italian"
7352337011;"grocery_and_gourmet_food/Featured Categories/Pantry Staples/Sauces, Gravies & Marinades/Sauces/Spanish & Mexican"
7352635011;"grocery_and_gourmet_food/Featured Categories/Snack Food"
7352636011;"grocery_and_gourmet_food/Featured Categories/Snack Food/Applesauce & Fruit Cups"
7352640011;"grocery_and_gourmet_food/Featured Categories/Snack Food/Chips & Crisps"
7352643011;"grocery_and_gourmet_food/Featured Categories/Snack Food/Chips & Crisps/Potato"
7352645011;"grocery_and_gourmet_food/Featured Categories/Snack Food/Chips & Crisps/Tortilla"
7352646011;"grocery_and_gourmet_food/Featured Categories/Snack Food/Chips & Crisps/Vegetable"
7352647011;"grocery_and_gourmet_food/Featured Categories/Snack Food/Cookies"
7352652011;"grocery_and_gourmet_food/Featured Categories/Snack Food/Cookies/Butter"
7352653011;"grocery_and_gourmet_food/Featured Categories/Snack Food/Cookies/Chocolate"
7352654011;"grocery_and_gourmet_food/Featured Categories/Snack Food/Cookies/Chocolate-Chip"
7352657011;"grocery_and_gourmet_food/Featured Categories/Snack Food/Cookies/Ginger Snaps"
7352665011;"grocery_and_gourmet_food/Featured Categories/Snack Food/Cookies/Sandwich"
7352666011;"grocery_and_gourmet_food/Featured Categories/Snack Food/Cookies/Shortbread"
7352670011;"grocery_and_gourmet_food/Featured Categories/Snack Food/Crackers"
7352671011;"grocery_and_gourmet_food/Featured Categories/Snack Food/Crackers/Animal Shaped"
7352674011;"grocery_and_gourmet_food/Featured Categories/Snack Food/Crackers/Cheese"
7352676011;"grocery_and_gourmet_food/Featured Categories/Snack Food/Crackers/Flatbread"
7352678011;"grocery_and_gourmet_food/Featured Categories/Snack Food/Crackers/Matzo"
7352683011;"grocery_and_gourmet_food/Featured Categories/Snack Food/Crackers/Wheat"
7352684011;"grocery_and_gourmet_food/Featured Categories/Snack Food/Dried Fruit & Raisins"
7352686011;"grocery_and_gourmet_food/Featured Categories/Snack Food/Dried Fruit & Raisins/Dried Fruit"
7352688011;"grocery_and_gourmet_food/Featured Categories/Snack Food/Dried Fruit & Raisins/Raisins"
7352690011;"grocery_and_gourmet_food/Featured Categories/Snack Food/Fruit Snacks"
7352691011;"grocery_and_gourmet_food/Featured Categories/Snack Food/Granola & Trail Mix Bars"
7352697011;"grocery_and_gourmet_food/Featured Categories/Snack Food/Jerky & Dried Meats"
7352698011;"grocery_and_gourmet_food/Featured Categories/Snack Food/Nuts & Seeds"
7352699011;"grocery_and_gourmet_food/Featured Categories/Snack Food/Nuts & Seeds/Almonds"
7352700011;"grocery_and_gourmet_food/Featured Categories/Snack Food/Nuts & Seeds/Cashews"
7352705011;"grocery_and_gourmet_food/Featured Categories/Snack Food/Nuts & Seeds/Pistachio Nuts"
7352707011;"grocery_and_gourmet_food/Featured Categories/Snack Food/Nuts & Seeds/Sunflower Seeds"
7352709011;"grocery_and_gourmet_food/Featured Categories/Snack Food/Party Mix"
7352710011;"grocery_and_gourmet_food/Featured Categories/Snack Food/Popcorn"
7352715011;"grocery_and_gourmet_food/Featured Categories/Snack Food/Pretzels"
7352720011;"grocery_and_gourmet_food/Featured Categories/Snack Food/Rice Cake, Chips & Crackers"
7352724011;"grocery_and_gourmet_food/Featured Categories/Snack Food/Salsas, Dips & Spreads"
7351597011;"grocery_and_gourmet_food/Featured Categories/Snack Food/Snack Gifts"
7385768011;"grocery_and_gourmet_food/Featured Categories/Snack Food/Trail Mix"
6967218011;"grocery_and_gourmet_food/Specialty Stores"
6967219011;"grocery_and_gourmet_food/Specialty Stores/Custom Stores"
