6205518011;"toys_and_games/Categories"
6303769011;"toys_and_games/Categories/Action & Toy Figures"
6741937011;"toys_and_games/Categories/Action & Toy Figures/Accessories"
6741940011;"toys_and_games/Categories/Action & Toy Figures/Figures"
6741941011;"toys_and_games/Categories/Action & Toy Figures/Playsets"
6741942011;"toys_and_games/Categories/Action & Toy Figures/Statues, Maquettes & Busts"
6303770011;"toys_and_games/Categories/Arts & Crafts"
6741945011;"toys_and_games/Categories/Arts & Crafts/Aprons & Smocks"
6741948011;"toys_and_games/Categories/Arts & Crafts/Beads"
6741949011;"toys_and_games/Categories/Arts & Crafts/Blackboards & Whiteboards"
6741953011;"toys_and_games/Categories/Arts & Crafts/Clay & Dough"
6741956011;"toys_and_games/Categories/Arts & Crafts/Craft Kits"
6741959011;"toys_and_games/Categories/Arts & Crafts/Craft Kits/Felt Kits"
6741960011;"toys_and_games/Categories/Arts & Crafts/Craft Kits/Flower Pressing"
6741961011;"toys_and_games/Categories/Arts & Crafts/Craft Kits/Glass Arts & Sun Catchers"
6741964011;"toys_and_games/Categories/Arts & Crafts/Craft Kits/Jewellery"
6741965011;"toys_and_games/Categories/Arts & Crafts/Craft Kits/Mosaics"
6741966011;"toys_and_games/Categories/Arts & Crafts/Craft Kits/Paint-By-Number Kits"
6741967011;"toys_and_games/Categories/Arts & Crafts/Craft Kits/Paper Craft"
6741968011;"toys_and_games/Categories/Arts & Crafts/Craft Kits/Pottery"
6741969011;"toys_and_games/Categories/Arts & Crafts/Craft Kits/Sand Art"
6741970011;"toys_and_games/Categories/Arts & Crafts/Craft Kits/Scrapbooking"
6741971011;"toys_and_games/Categories/Arts & Crafts/Craft Kits/Scratch Art"
6741972011;"toys_and_games/Categories/Arts & Crafts/Craft Kits/Sewing"
6741973011;"toys_and_games/Categories/Arts & Crafts/Craft Kits/Tie-Dye & Fashion"
6741976011;"toys_and_games/Categories/Arts & Crafts/Craft Kits/Waterpainting Kits"
6741977011;"toys_and_games/Categories/Arts & Crafts/Craft Kits/Wood"
6741978011;"toys_and_games/Categories/Arts & Crafts/Drawing & Painting Supplies"
6741979011;"toys_and_games/Categories/Arts & Crafts/Drawing & Painting Supplies/Chalk"
6741980011;"toys_and_games/Categories/Arts & Crafts/Drawing & Painting Supplies/Colored Pencils"
6741981011;"toys_and_games/Categories/Arts & Crafts/Drawing & Painting Supplies/Coloring Pens & Markers"
6741984011;"toys_and_games/Categories/Arts & Crafts/Drawing & Painting Supplies/Crayons"
6741985011;"toys_and_games/Categories/Arts & Crafts/Drawing & Painting Supplies/Drawing & Sketch Pads"
6741986011;"toys_and_games/Categories/Arts & Crafts/Drawing & Painting Supplies/Drawing Sets"
6741987011;"toys_and_games/Categories/Arts & Crafts/Drawing & Painting Supplies/Paintbrushes"
6741988011;"toys_and_games/Categories/Arts & Crafts/Drawing & Painting Supplies/Paints"
6741989011;"toys_and_games/Categories/Arts & Crafts/Drawing & Painting Supplies/Paints/Finger Paint"
6741990011;"toys_and_games/Categories/Arts & Crafts/Drawing & Painting Supplies/Paints/Tempera & Poster Paint"
6741993011;"toys_and_games/Categories/Arts & Crafts/Drawing & Painting Supplies/Paints/Watercolor Paint"
6741994011;"toys_and_games/Categories/Arts & Crafts/Drawing & Painting Supplies/Paper"
6741995011;"toys_and_games/Categories/Arts & Crafts/Drawing & Painting Supplies/Paper/Loose Drawing Paper"
6741996011;"toys_and_games/Categories/Arts & Crafts/Drawing & Painting Supplies/Paper/Stencil & Tracing Paper"
6741999011;"toys_and_games/Categories/Arts & Crafts/Drawing & Painting Supplies/Paper/Watercolor Paper"
6742000011;"toys_and_games/Categories/Arts & Crafts/Drawing & Painting Supplies/Pencil Erasers"
6742001011;"toys_and_games/Categories/Arts & Crafts/Drawing & Painting Supplies/Pencils"
6742003011;"toys_and_games/Categories/Arts & Crafts/Drawing & Sketching Tablets"
6742004011;"toys_and_games/Categories/Arts & Crafts/Easels"
6742005011;"toys_and_games/Categories/Arts & Crafts/Fuse Beads"
6742006011;"toys_and_games/Categories/Arts & Crafts/Glue, Paste & Tape"
6742010011;"toys_and_games/Categories/Arts & Crafts/Molding & Sculpting Sticks"
6742011011;"toys_and_games/Categories/Arts & Crafts/Printing & Stamping"
6742012011;"toys_and_games/Categories/Arts & Crafts/Printing & Stamping/Decorative Stamps"
6742013011;"toys_and_games/Categories/Arts & Crafts/Printing & Stamping/Stamp Ink Pads"
6742014011;"toys_and_games/Categories/Arts & Crafts/Scissors"
6742015011;"toys_and_games/Categories/Arts & Crafts/Stickers"
4624226011;"toys_and_games/Categories/Baby & Toddler Toys"
4624227011;"toys_and_games/Categories/Baby & Toddler Toys/Activity Play Centres"
4624228011;"toys_and_games/Categories/Baby & Toddler Toys/Baby Toys"
4624229011;"toys_and_games/Categories/Baby & Toddler Toys/Baby Toys/Baby Balls"
4624230011;"toys_and_games/Categories/Baby & Toddler Toys/Baby Toys/Bath Toys"
4624231011;"toys_and_games/Categories/Baby & Toddler Toys/Baby Toys/Bricks & Blocks"
4624232011;"toys_and_games/Categories/Baby & Toddler Toys/Baby Toys/Car Seat & Stroller Toys"
4624233011;"toys_and_games/Categories/Baby & Toddler Toys/Baby Toys/Counting Frames"
4624234011;"toys_and_games/Categories/Baby & Toddler Toys/Baby Toys/Crib Toys & Attachments"
4624235011;"toys_and_games/Categories/Baby & Toddler Toys/Baby Toys/Hammering & Nailing Toys"
4624236011;"toys_and_games/Categories/Baby & Toddler Toys/Baby Toys/Marble Runs"
4624237011;"toys_and_games/Categories/Baby & Toddler Toys/Baby Toys/Mirrors"
4624238011;"toys_and_games/Categories/Baby & Toddler Toys/Baby Toys/Motor Activity Toys"
4624239011;"toys_and_games/Categories/Baby & Toddler Toys/Baby Toys/Music Boxes"
4624240011;"toys_and_games/Categories/Baby & Toddler Toys/Baby Toys/Push & Pull Toys"
4624241011;"toys_and_games/Categories/Baby & Toddler Toys/Baby Toys/Rattles & Plush Rings"
4624242011;"toys_and_games/Categories/Baby & Toddler Toys/Baby Toys/Rocking & Spring Ride-Ons"
4624243011;"toys_and_games/Categories/Baby & Toddler Toys/Baby Toys/Sound Toys"
4624245011;"toys_and_games/Categories/Baby & Toddler Toys/Baby Toys/Stacking & Nesting Toys"
4624246011;"toys_and_games/Categories/Baby & Toddler Toys/Baby Toys/Stick Horses"
4624247011;"toys_and_games/Categories/Baby & Toddler Toys/Baby Toys/Stuffed Animals & Toys"
4624249011;"toys_and_games/Categories/Baby & Toddler Toys/Teaching Clocks"
4624280011;"toys_and_games/Categories/Baby & Toddler Toys/Teethers"
6303784011;"toys_and_games/Categories/Bikes, Scooters & Ride-Ons"
6742016011;"toys_and_games/Categories/Bikes, Scooters & Ride-Ons/Balance Bikes"
2438929011;"toys_and_games/Categories/Bikes, Scooters & Ride-Ons/Bike Accessories"
2438930011;"toys_and_games/Categories/Bikes, Scooters & Ride-Ons/Kids' Bikes"
2438931011;"toys_and_games/Categories/Bikes, Scooters & Ride-Ons/Kids' Helmets"
2438932011;"toys_and_games/Categories/Bikes, Scooters & Ride-Ons/Kids' Protective Gear"
6742019011;"toys_and_games/Categories/Bikes, Scooters & Ride-Ons/Pull-Along Wagons"
6742020011;"toys_and_games/Categories/Bikes, Scooters & Ride-Ons/Ride-On Toys"
6742021011;"toys_and_games/Categories/Bikes, Scooters & Ride-Ons/Ride-On Toys/Push Ride-Ons"
6742022011;"toys_and_games/Categories/Bikes, Scooters & Ride-Ons/Ride-On Toys/Ride-On Accessories"
6742023011;"toys_and_games/Categories/Bikes, Scooters & Ride-Ons/Safety Equipment"
2406134011;"toys_and_games/Categories/Bikes, Scooters & Ride-Ons/Scooters & Equipment"
2438530011;"toys_and_games/Categories/Bikes, Scooters & Ride-Ons/Scooters & Equipment/Helmets"
2438505011;"toys_and_games/Categories/Bikes, Scooters & Ride-Ons/Scooters & Equipment/Scooter Parts"
6786574011;"toys_and_games/Categories/Bikes, Scooters & Ride-Ons/Scooters & Equipment/Scooter Parts/Batteries & Battery Chargers"
6786582011;"toys_and_games/Categories/Bikes, Scooters & Ride-Ons/Scooters & Equipment/Scooter Parts/Batteries & Battery Chargers/Batteries"
6786583011;"toys_and_games/Categories/Bikes, Scooters & Ride-Ons/Scooters & Equipment/Scooter Parts/Batteries & Battery Chargers/Battery Chargers"
6786576011;"toys_and_games/Categories/Bikes, Scooters & Ride-Ons/Scooters & Equipment/Scooter Parts/Grip Tape"
6786579011;"toys_and_games/Categories/Bikes, Scooters & Ride-Ons/Scooters & Equipment/Scooter Parts/Replacement Wheels"
2438506011;"toys_and_games/Categories/Bikes, Scooters & Ride-Ons/Scooters & Equipment/Scooters"
6786777011;"toys_and_games/Categories/Bikes, Scooters & Ride-Ons/Scooters & Equipment/Scooters/Kick Scooters"
6786779011;"toys_and_games/Categories/Bikes, Scooters & Ride-Ons/Scooters & Equipment/Scooters/Three-Wheeled Scooters"
2438545011;"toys_and_games/Categories/Bikes, Scooters & Ride-Ons/Skateboards"
2406123011;"toys_and_games/Categories/Bikes, Scooters & Ride-Ons/Skates"
2438530011;"toys_and_games/Categories/Bikes, Scooters & Ride-Ons/Skates/Helmets"
2438395011;"toys_and_games/Categories/Bikes, Scooters & Ride-Ons/Skates/Inline Skate Parts"
2438396011;"toys_and_games/Categories/Bikes, Scooters & Ride-Ons/Skates/Inline Skate Parts/Bearings"
2438397011;"toys_and_games/Categories/Bikes, Scooters & Ride-Ons/Skates/Inline Skate Parts/Wheels"
2438398011;"toys_and_games/Categories/Bikes, Scooters & Ride-Ons/Skates/Inline Skates"
2438531011;"toys_and_games/Categories/Bikes, Scooters & Ride-Ons/Skates/Protective Gear"
2438532011;"toys_and_games/Categories/Bikes, Scooters & Ride-Ons/Skates/Protective Gear/Elbow Pads"
2438533011;"toys_and_games/Categories/Bikes, Scooters & Ride-Ons/Skates/Protective Gear/Knee Pads"
2438534011;"toys_and_games/Categories/Bikes, Scooters & Ride-Ons/Skates/Protective Gear/Wrist Guards"
2438404011;"toys_and_games/Categories/Bikes, Scooters & Ride-Ons/Skates/Roller Skates"
6742027011;"toys_and_games/Categories/Bikes, Scooters & Ride-Ons/Tricycles"
6303772011;"toys_and_games/Categories/Building Toys"
6742029011;"toys_and_games/Categories/Building Toys/Building Sets"
6742030011;"toys_and_games/Categories/Building Toys/Building Sets/Figures"
6742031011;"toys_and_games/Categories/Building Toys/Building Sets/Loose Bricks"
6742032011;"toys_and_games/Categories/Building Toys/Building Sets/Storage & Accessories"
6742033011;"toys_and_games/Categories/Building Toys/Gear Sets"
6742034011;"toys_and_games/Categories/Building Toys/Marble Runs"
6742035011;"toys_and_games/Categories/Building Toys/Stacking Blocks"
6303773011;"toys_and_games/Categories/Dolls & Accessories"
6742036011;"toys_and_games/Categories/Dolls & Accessories/Doll Accessories"
6742037011;"toys_and_games/Categories/Dolls & Accessories/Doll Accessories/Clothing & Shoes"
6742038011;"toys_and_games/Categories/Dolls & Accessories/Doll Accessories/Furniture"
6742039011;"toys_and_games/Categories/Dolls & Accessories/Doll Accessories/Strollers"
6742040011;"toys_and_games/Categories/Dolls & Accessories/Dollhouse Accessories"
6742041011;"toys_and_games/Categories/Dolls & Accessories/Dollhouse Accessories/Décor"
6742042011;"toys_and_games/Categories/Dolls & Accessories/Dollhouse Accessories/Furniture"
6742043011;"toys_and_games/Categories/Dolls & Accessories/Dollhouses"
6742044011;"toys_and_games/Categories/Dolls & Accessories/Dolls"
6742045011;"toys_and_games/Categories/Dolls & Accessories/Playsets"
6303774011;"toys_and_games/Categories/Dress Up & Pretend Play"
6742046011;"toys_and_games/Categories/Dress Up & Pretend Play/Accessories"
6742047011;"toys_and_games/Categories/Dress Up & Pretend Play/Beauty & Fashion"
6742049011;"toys_and_games/Categories/Dress Up & Pretend Play/Beauty & Fashion/Jewellery Music Boxes"
6742050011;"toys_and_games/Categories/Dress Up & Pretend Play/Beauty & Fashion/Makeup"
6742052011;"toys_and_games/Categories/Dress Up & Pretend Play/Beauty & Fashion/Purses"
6742054011;"toys_and_games/Categories/Dress Up & Pretend Play/Beauty & Fashion/Vanity Cases"
6742055011;"toys_and_games/Categories/Dress Up & Pretend Play/Costumes"
6742062011;"toys_and_games/Categories/Dress Up & Pretend Play/Hair & Nails"
6742063011;"toys_and_games/Categories/Dress Up & Pretend Play/Hats"
6742065011;"toys_and_games/Categories/Dress Up & Pretend Play/Pretend Play"
6742066011;"toys_and_games/Categories/Dress Up & Pretend Play/Pretend Play/Construction Tools"
6742067011;"toys_and_games/Categories/Dress Up & Pretend Play/Pretend Play/Grocery Shopping"
6742068011;"toys_and_games/Categories/Dress Up & Pretend Play/Pretend Play/Grocery Shopping/Cash Registers"
6742070011;"toys_and_games/Categories/Dress Up & Pretend Play/Pretend Play/Grocery Shopping/Shopping Carts"
6742071011;"toys_and_games/Categories/Dress Up & Pretend Play/Pretend Play/Housekeeping"
6742077011;"toys_and_games/Categories/Dress Up & Pretend Play/Pretend Play/Kitchen Toys"
6742078011;"toys_and_games/Categories/Dress Up & Pretend Play/Pretend Play/Kitchen Toys/Cooking & Baking Kits"
6742079011;"toys_and_games/Categories/Dress Up & Pretend Play/Pretend Play/Kitchen Toys/Dishes & Tea Sets"
6742082011;"toys_and_games/Categories/Dress Up & Pretend Play/Pretend Play/Kitchen Toys/Kitchen Playsets"
6742083011;"toys_and_games/Categories/Dress Up & Pretend Play/Pretend Play/Kitchen Toys/Play Food"
6742084011;"toys_and_games/Categories/Dress Up & Pretend Play/Pretend Play/Kitchen Toys/Pots & Pans"
6742085011;"toys_and_games/Categories/Dress Up & Pretend Play/Pretend Play/Kitchen Toys/Real-Food Appliances"
6742309011;"toys_and_games/Categories/Dress Up & Pretend Play/Pretend Play/Magic Kits & Accessories"
6742086011;"toys_and_games/Categories/Dress Up & Pretend Play/Pretend Play/Magnet & Felt Playboards"
6742087011;"toys_and_games/Categories/Dress Up & Pretend Play/Pretend Play/Medical Kits"
6742088011;"toys_and_games/Categories/Dress Up & Pretend Play/Pretend Play/Money & Banking"
6742089011;"toys_and_games/Categories/Dress Up & Pretend Play/Pretend Play/Paper & Magnetic Dolls"
6742092011;"toys_and_games/Categories/Dress Up & Pretend Play/Wigs"
6303775011;"toys_and_games/Categories/Electronics for Kids"
6742093011;"toys_and_games/Categories/Electronics for Kids/Cameras & Camcorders"
6742096011;"toys_and_games/Categories/Electronics for Kids/Dance Mats"
6742097011;"toys_and_games/Categories/Electronics for Kids/Educational Electronics"
6742098011;"toys_and_games/Categories/Electronics for Kids/Electronic Pets"
6742099011;"toys_and_games/Categories/Electronics for Kids/Electronic Toys"
6742100011;"toys_and_games/Categories/Electronics for Kids/Music Players & Karaoke"
6742101011;"toys_and_games/Categories/Electronics for Kids/Personal Video Players & Accessories"
6742102011;"toys_and_games/Categories/Electronics for Kids/Plug & Play Video Games"
6742103011;"toys_and_games/Categories/Electronics for Kids/Systems & Accessories"
6742104011;"toys_and_games/Categories/Electronics for Kids/Systems & Accessories/Electronic Software & Books"
6742105011;"toys_and_games/Categories/Electronics for Kids/Systems & Accessories/Electronic Software & Books/Books"
6742106011;"toys_and_games/Categories/Electronics for Kids/Systems & Accessories/Electronic Software & Books/Cartridges"
6742107011;"toys_and_games/Categories/Electronics for Kids/Systems & Accessories/Electronic System Accessories"
6742108011;"toys_and_games/Categories/Electronics for Kids/Systems & Accessories/Electronic Systems"
6742109011;"toys_and_games/Categories/Electronics for Kids/Walkie Talkies"
6303776011;"toys_and_games/Categories/Games"
6742110011;"toys_and_games/Categories/Games/Battling Tops"
6742111011;"toys_and_games/Categories/Games/Board Games"
6742112011;"toys_and_games/Categories/Games/Card Games"
6742113011;"toys_and_games/Categories/Games/DVD Games"
6742114011;"toys_and_games/Categories/Games/Dice & Gaming Dice"
6742115011;"toys_and_games/Categories/Games/Floor Games"
6742116011;"toys_and_games/Categories/Games/Game Accessories"
6742118011;"toys_and_games/Categories/Games/Game Room Games"
6742121011;"toys_and_games/Categories/Games/Game Room Games/Combination Table Games"
6742122011;"toys_and_games/Categories/Games/Game Room Games/Darts"
6742126011;"toys_and_games/Categories/Games/Game Room Games/Indoor Bowling"
6742129011;"toys_and_games/Categories/Games/Game Room Games/Table Tennis"
6742130011;"toys_and_games/Categories/Games/Handheld Games"
6742131011;"toys_and_games/Categories/Games/Stacking Games"
6742132011;"toys_and_games/Categories/Games/Standard Playing Card Decks"
6742133011;"toys_and_games/Categories/Games/Tile Games"
6742134011;"toys_and_games/Categories/Games/Trading Card Games"
6742135011;"toys_and_games/Categories/Games/Trading Card Games/Albums, Cases & Sleeves"
6742136011;"toys_and_games/Categories/Games/Trading Card Games/Albums, Cases & Sleeves/Albums"
6742137011;"toys_and_games/Categories/Games/Trading Card Games/Albums, Cases & Sleeves/Cases"
6742138011;"toys_and_games/Categories/Games/Trading Card Games/Albums, Cases & Sleeves/Protective Sleeves"
6742139011;"toys_and_games/Categories/Games/Trading Card Games/Booster Packs"
6742140011;"toys_and_games/Categories/Games/Trading Card Games/Counters, Playmats & Gameplay Accessories"
6742141011;"toys_and_games/Categories/Games/Trading Card Games/Counters, Playmats & Gameplay Accessories/Counters"
6742143011;"toys_and_games/Categories/Games/Trading Card Games/Counters, Playmats & Gameplay Accessories/Playmats"
6742144011;"toys_and_games/Categories/Games/Trading Card Games/Decks & Sets"
6742145011;"toys_and_games/Categories/Games/Trading Card Games/Decks & Sets/Card Decks"
6742146011;"toys_and_games/Categories/Games/Trading Card Games/Decks & Sets/Card Sets"
6742148011;"toys_and_games/Categories/Games/Trading Card Games/Single Cards"
6742149011;"toys_and_games/Categories/Games/Travel Games"
6742150011;"toys_and_games/Categories/Grown-Up Toys"
6742151011;"toys_and_games/Categories/Grown-Up Toys/Action & Toy Figures"
6742152011;"toys_and_games/Categories/Grown-Up Toys/Die-Cast & Toy Vehicles"
6742153011;"toys_and_games/Categories/Grown-Up Toys/Games"
6742155011;"toys_and_games/Categories/Grown-Up Toys/Novelty & Gag Toys"
6742156011;"toys_and_games/Categories/Grown-Up Toys/Puzzles"
6303777011;"toys_and_games/Categories/Hobbies"
6742157011;"toys_and_games/Categories/Hobbies/Action & Toy Figure Display Cases"
6742158011;"toys_and_games/Categories/Hobbies/Coin Collecting"
6742166011;"toys_and_games/Categories/Hobbies/Model Building Kits & Tools"
6742167011;"toys_and_games/Categories/Hobbies/Model Building Kits & Tools/Aircraft"
6742168011;"toys_and_games/Categories/Hobbies/Model Building Kits & Tools/Animals & Insects"
6742169011;"toys_and_games/Categories/Hobbies/Model Building Kits & Tools/Boats & Watercraft"
6742170011;"toys_and_games/Categories/Hobbies/Model Building Kits & Tools/Buildings & Bridges"
6742171011;"toys_and_games/Categories/Hobbies/Model Building Kits & Tools/Cars"
6742172011;"toys_and_games/Categories/Hobbies/Model Building Kits & Tools/Figures"
6742173011;"toys_and_games/Categories/Hobbies/Model Building Kits & Tools/Helicopters"
6742174011;"toys_and_games/Categories/Hobbies/Model Building Kits & Tools/Military"
6742175011;"toys_and_games/Categories/Hobbies/Model Building Kits & Tools/Model Building Tools"
6742177011;"toys_and_games/Categories/Hobbies/Model Building Kits & Tools/Model Building Tools/Cutters"
6742178011;"toys_and_games/Categories/Hobbies/Model Building Kits & Tools/Model Building Tools/Glues"
6742179011;"toys_and_games/Categories/Hobbies/Model Building Kits & Tools/Model Building Tools/Magnifiers"
6742180011;"toys_and_games/Categories/Hobbies/Model Building Kits & Tools/Model Building Tools/Painting Tools"
6742181011;"toys_and_games/Categories/Hobbies/Model Building Kits & Tools/Model Building Tools/Paints"
6742182011;"toys_and_games/Categories/Hobbies/Model Building Kits & Tools/Model Building Tools/Tool Sets"
6742183011;"toys_and_games/Categories/Hobbies/Model Building Kits & Tools/Model Building Tools/Tweezers"
6742184011;"toys_and_games/Categories/Hobbies/Model Building Kits & Tools/Motorcycles"
6742185011;"toys_and_games/Categories/Hobbies/Model Building Kits & Tools/Robots"
6742186011;"toys_and_games/Categories/Hobbies/Model Building Kits & Tools/Rockets & Spacecraft"
6742187011;"toys_and_games/Categories/Hobbies/Radio Control"
6742188011;"toys_and_games/Categories/Hobbies/Radio Control/Accessories"
6742189011;"toys_and_games/Categories/Hobbies/Radio Control/Accessories/Batteries"
6742190011;"toys_and_games/Categories/Hobbies/Radio Control/Accessories/Battery Chargers"
6742192011;"toys_and_games/Categories/Hobbies/Radio Control/Accessories/Fuel & Fueling"
6742193011;"toys_and_games/Categories/Hobbies/Radio Control/Accessories/Radio Transmitters"
6742194011;"toys_and_games/Categories/Hobbies/Radio Control/Accessories/Starter Products"
6742195011;"toys_and_games/Categories/Hobbies/Radio Control/Airplanes"
6742196011;"toys_and_games/Categories/Hobbies/Radio Control/Boats & Watercraft"
6742197011;"toys_and_games/Categories/Hobbies/Radio Control/Cars"
6742198011;"toys_and_games/Categories/Hobbies/Radio Control/Crawlers"
6742199011;"toys_and_games/Categories/Hobbies/Radio Control/Helicopters"
6742200011;"toys_and_games/Categories/Hobbies/Radio Control/Military Vehicles"
6742201011;"toys_and_games/Categories/Hobbies/Radio Control/Motorcycles"
6742202011;"toys_and_games/Categories/Hobbies/Radio Control/Parts"
6742203011;"toys_and_games/Categories/Hobbies/Radio Control/Parts/Antennas"
6742204011;"toys_and_games/Categories/Hobbies/Radio Control/Parts/Engines"
6742205011;"toys_and_games/Categories/Hobbies/Radio Control/Parts/Motors"
6742206011;"toys_and_games/Categories/Hobbies/Radio Control/Parts/Radio Receivers"
6742207011;"toys_and_games/Categories/Hobbies/Radio Control/Parts/Servos"
6742208011;"toys_and_games/Categories/Hobbies/Radio Control/Parts/Vehicle Speed Controls"
6742209011;"toys_and_games/Categories/Hobbies/Radio Control/Trucks"
6742210011;"toys_and_games/Categories/Hobbies/Rockets"
6742211011;"toys_and_games/Categories/Hobbies/Rockets/Model Rocket Kits"
6742212011;"toys_and_games/Categories/Hobbies/Rockets/Model Rockets"
6742213011;"toys_and_games/Categories/Hobbies/Rockets/Rocket Accessories"
6742214011;"toys_and_games/Categories/Hobbies/Scaled Model Vehicles"
6742216011;"toys_and_games/Categories/Hobbies/Slot Cars, Race Tracks & Accessories"
6742217011;"toys_and_games/Categories/Hobbies/Slot Cars, Race Tracks & Accessories/Race Tracks"
6742219011;"toys_and_games/Categories/Hobbies/Slot Cars, Race Tracks & Accessories/Slot Car Parts & Chassis"
6742222011;"toys_and_games/Categories/Hobbies/Slot Cars, Race Tracks & Accessories/Slot Cars"
6742223011;"toys_and_games/Categories/Hobbies/Stamp Collecting"
6742229011;"toys_and_games/Categories/Hobbies/Trains & Accessories"
6742230011;"toys_and_games/Categories/Hobbies/Trains & Accessories/Accessories"
6742231011;"toys_and_games/Categories/Hobbies/Trains & Accessories/Accessories/Buildings"
6742232011;"toys_and_games/Categories/Hobbies/Trains & Accessories/Accessories/Car Accessories"
6742233011;"toys_and_games/Categories/Hobbies/Trains & Accessories/Accessories/Figures"
6742235011;"toys_and_games/Categories/Hobbies/Trains & Accessories/Accessories/Scenery"
6742237011;"toys_and_games/Categories/Hobbies/Trains & Accessories/Accessories/Tracks"
6742239011;"toys_and_games/Categories/Hobbies/Trains & Accessories/Accessories/Vehicles"
6742245011;"toys_and_games/Categories/Hobbies/Trains & Accessories/Train Sets"
6742246011;"toys_and_games/Categories/Kids' Furniture, Décor & Storage"
2224009011;"toys_and_games/Categories/Kids' Furniture, Décor & Storage/Bedding & Slumber Bags"
6646822011;"toys_and_games/Categories/Kids' Furniture, Décor & Storage/Bedding & Slumber Bags/Quilts & Coverlets"
6646823011;"toys_and_games/Categories/Kids' Furniture, Décor & Storage/Bedding & Slumber Bags/Sheets & Pillowcases"
2224023011;"toys_and_games/Categories/Kids' Furniture, Décor & Storage/Indoor Furniture"
6742247011;"toys_and_games/Categories/Kids' Furniture, Décor & Storage/Outdoor Furniture"
6742248011;"toys_and_games/Categories/Kids' Furniture, Décor & Storage/Outdoor Furniture/Benches"
6742249011;"toys_and_games/Categories/Kids' Furniture, Décor & Storage/Outdoor Furniture/Chairs"
6742250011;"toys_and_games/Categories/Kids' Furniture, Décor & Storage/Outdoor Furniture/Picnic Tables"
6742251011;"toys_and_games/Categories/Kids' Furniture, Décor & Storage/Outdoor Furniture/Table & Chair Sets"
6742404011;"toys_and_games/Categories/Kids' Furniture, Décor & Storage/Play Tents & Tunnels"
2224036011;"toys_and_games/Categories/Kids' Furniture, Décor & Storage/Room Décor"
6742252011;"toys_and_games/Categories/Kids' Furniture, Décor & Storage/Storage Racks & Chests"
6303778011;"toys_and_games/Categories/Learning & Education"
6742253011;"toys_and_games/Categories/Learning & Education/Basic & Life Skills Toys"
6742254011;"toys_and_games/Categories/Learning & Education/Electronics"
6742104011;"toys_and_games/Categories/Learning & Education/Electronics/Electronic Cartridges & Books"
6742105011;"toys_and_games/Categories/Learning & Education/Electronics/Electronic Cartridges & Books/Books"
6742106011;"toys_and_games/Categories/Learning & Education/Electronics/Electronic Cartridges & Books/Cartridges"
6742099011;"toys_and_games/Categories/Learning & Education/Electronics/Electronic Learning Toys"
6742107011;"toys_and_games/Categories/Learning & Education/Electronics/Electronic System Accessories"
6742108011;"toys_and_games/Categories/Learning & Education/Electronics/Electronic Systems"
6742255011;"toys_and_games/Categories/Learning & Education/Flash Cards"
6742256011;"toys_and_games/Categories/Learning & Education/Geography"
6742257011;"toys_and_games/Categories/Learning & Education/Habitats"
6742258011;"toys_and_games/Categories/Learning & Education/Handwriting Aids"
6742259011;"toys_and_games/Categories/Learning & Education/History"
6742260011;"toys_and_games/Categories/Learning & Education/Languages"
6742261011;"toys_and_games/Categories/Learning & Education/Mathematics & Counting"
6742264011;"toys_and_games/Categories/Learning & Education/Musical Instruments"
6742265011;"toys_and_games/Categories/Learning & Education/Musical Instruments/Accessories"
6742266011;"toys_and_games/Categories/Learning & Education/Musical Instruments/Drums & Percussion"
6742267011;"toys_and_games/Categories/Learning & Education/Musical Instruments/Guitars & Strings"
6742268011;"toys_and_games/Categories/Learning & Education/Musical Instruments/Pianos & Keyboards"
6742269011;"toys_and_games/Categories/Learning & Education/Musical Instruments/Wind & Brass"
6742317011;"toys_and_games/Categories/Learning & Education/Prisms & Kaleidoscopes"
6742270011;"toys_and_games/Categories/Learning & Education/Reading & Writing"
6742271011;"toys_and_games/Categories/Learning & Education/Reading & Writing/Alphabet Blocks"
6742272011;"toys_and_games/Categories/Learning & Education/Reading & Writing/Diaries, Journals & Notebooks"
6742275011;"toys_and_games/Categories/Learning & Education/Reading & Writing/Magnetic Letters & Words"
6742276011;"toys_and_games/Categories/Learning & Education/Science"
6742277011;"toys_and_games/Categories/Learning & Education/Science/Archaeology & Paleontology"
6742280011;"toys_and_games/Categories/Learning & Education/Science/Biology"
6742281011;"toys_and_games/Categories/Learning & Education/Science/Biology/Anatomy"
6742282011;"toys_and_games/Categories/Learning & Education/Science/Biology/Biology"
6742283011;"toys_and_games/Categories/Learning & Education/Science/Biology/Botany"
6742284011;"toys_and_games/Categories/Learning & Education/Science/Chemistry"
6742285011;"toys_and_games/Categories/Learning & Education/Science/Electronics & Robotics Kits"
6742288011;"toys_and_games/Categories/Learning & Education/Science/Geology & Earth Sciences"
6742289011;"toys_and_games/Categories/Learning & Education/Science/Magnets"
6742290011;"toys_and_games/Categories/Learning & Education/Science/Mechanics"
6742291011;"toys_and_games/Categories/Learning & Education/Science/Microscopes"
6742292011;"toys_and_games/Categories/Learning & Education/Science/Physics"
6742293011;"toys_and_games/Categories/Learning & Education/Science/Rock Tumblers"
6742294011;"toys_and_games/Categories/Learning & Education/Science/Telescopes"
6742295011;"toys_and_games/Categories/Learning & Education/Solar"
6742296011;"toys_and_games/Categories/Learning & Education/Speech Aids"
6303779011;"toys_and_games/Categories/Novelty & Gag Toys"
6742297011;"toys_and_games/Categories/Novelty & Gag Toys/Finger Boards & Finger Bikes"
6742298011;"toys_and_games/Categories/Novelty & Gag Toys/Finger Boards & Finger Bikes/Bikes"
6742299011;"toys_and_games/Categories/Novelty & Gag Toys/Finger Boards & Finger Bikes/Rockets"
6742301011;"toys_and_games/Categories/Novelty & Gag Toys/Finger Boards & Finger Bikes/Skateboards"
6742302011;"toys_and_games/Categories/Novelty & Gag Toys/Flying Toys"
6742305011;"toys_and_games/Categories/Novelty & Gag Toys/Fortune Telling Toys"
6742306011;"toys_and_games/Categories/Novelty & Gag Toys/Gag Toys & Practical Jokes"
6742308011;"toys_and_games/Categories/Novelty & Gag Toys/Light-Up Toys"
6742309011;"toys_and_games/Categories/Novelty & Gag Toys/Magic Kits & Accessories"
6742310011;"toys_and_games/Categories/Novelty & Gag Toys/Magnets & Magnetic Toys"
6742311011;"toys_and_games/Categories/Novelty & Gag Toys/Miniatures"
6742312011;"toys_and_games/Categories/Novelty & Gag Toys/Money Banks"
6742313011;"toys_and_games/Categories/Novelty & Gag Toys/Nesting Dolls"
6742314011;"toys_and_games/Categories/Novelty & Gag Toys/Novelty Games"
6742316011;"toys_and_games/Categories/Novelty & Gag Toys/Popping & Jumping Toys"
6742317011;"toys_and_games/Categories/Novelty & Gag Toys/Prisms & Kaleidoscopes"
6742320011;"toys_and_games/Categories/Novelty & Gag Toys/Shaped Rubber Wristbands"
6742321011;"toys_and_games/Categories/Novelty & Gag Toys/Slime & Putty Toys"
6742324011;"toys_and_games/Categories/Novelty & Gag Toys/Spy Gadgets"
6742326011;"toys_and_games/Categories/Novelty & Gag Toys/Tarot Cards"
6742327011;"toys_and_games/Categories/Novelty & Gag Toys/Temporary Tattoos"
6742328011;"toys_and_games/Categories/Novelty & Gag Toys/Toy Balls"
6742329011;"toys_and_games/Categories/Novelty & Gag Toys/Viewfinders"
6742430011;"toys_and_games/Categories/Novelty & Gag Toys/Water Balloons"
6742330011;"toys_and_games/Categories/Novelty & Gag Toys/Wind-up Toys"
6303782011;"toys_and_games/Categories/Outdoor Play"
6742375011;"toys_and_games/Categories/Outdoor Play/Ball Pits & Accessories"
6742376011;"toys_and_games/Categories/Outdoor Play/Beanbags & Foot Bags"
6742381011;"toys_and_games/Categories/Outdoor Play/Blasters & Foam Play"
6742382011;"toys_and_games/Categories/Outdoor Play/Bubbles"
6742383011;"toys_and_games/Categories/Outdoor Play/Fishing Combinations & Accessories"
6742384011;"toys_and_games/Categories/Outdoor Play/Fitness Equipment"
6742302011;"toys_and_games/Categories/Outdoor Play/Flying Toys"
6742385011;"toys_and_games/Categories/Outdoor Play/Gardening Tools"
6742386011;"toys_and_games/Categories/Outdoor Play/Gym Sets & Swings"
6742392011;"toys_and_games/Categories/Outdoor Play/Inflatable Bouncers"
6742396011;"toys_and_games/Categories/Outdoor Play/Kites & Wind Spinners"
6742397011;"toys_and_games/Categories/Outdoor Play/Kites & Wind Spinners/Kite Accessories"
6742398011;"toys_and_games/Categories/Outdoor Play/Kites & Wind Spinners/Kite Making Kits"
6742399011;"toys_and_games/Categories/Outdoor Play/Kites & Wind Spinners/Kites"
6742400011;"toys_and_games/Categories/Outdoor Play/Kites & Wind Spinners/Wind Spinners"
6742401011;"toys_and_games/Categories/Outdoor Play/Lawn Games"
2406094011;"toys_and_games/Categories/Outdoor Play/Lawn Games/Badminton"
2439700011;"toys_and_games/Categories/Outdoor Play/Lawn Games/Badminton/Complete Sets"
2439701011;"toys_and_games/Categories/Outdoor Play/Lawn Games/Badminton/Equipment Bags"
2439702011;"toys_and_games/Categories/Outdoor Play/Lawn Games/Badminton/Nets"
2439703011;"toys_and_games/Categories/Outdoor Play/Lawn Games/Badminton/Racquets"
2439704011;"toys_and_games/Categories/Outdoor Play/Lawn Games/Badminton/Shuttlecocks"
2439282011;"toys_and_games/Categories/Outdoor Play/Lawn Games/Flying Discs"
6742402011;"toys_and_games/Categories/Outdoor Play/Marble Games"
6742403011;"toys_and_games/Categories/Outdoor Play/Nature Exploration Toys"
6742247011;"toys_and_games/Categories/Outdoor Play/Outdoor Furniture"
6742248011;"toys_and_games/Categories/Outdoor Play/Outdoor Furniture/Benches"
6742249011;"toys_and_games/Categories/Outdoor Play/Outdoor Furniture/Chairs"
6742250011;"toys_and_games/Categories/Outdoor Play/Outdoor Furniture/Picnic Tables"
6742251011;"toys_and_games/Categories/Outdoor Play/Outdoor Furniture/Table & Chair Sets"
6742404011;"toys_and_games/Categories/Outdoor Play/Play Tents & Tunnels"
6742407011;"toys_and_games/Categories/Outdoor Play/Playhouses"
6742408011;"toys_and_games/Categories/Outdoor Play/Pogo Sticks & Hoppers"
6742411011;"toys_and_games/Categories/Outdoor Play/Pools & Water Fun"
6742412011;"toys_and_games/Categories/Outdoor Play/Pools & Water Fun/Baby Floats"
6742413011;"toys_and_games/Categories/Outdoor Play/Pools & Water Fun/Basketball & Volleyball Sets"
6742416011;"toys_and_games/Categories/Outdoor Play/Pools & Water Fun/Beach Toys"
6742417011;"toys_and_games/Categories/Outdoor Play/Pools & Water Fun/Kiddie Pools"
6742418011;"toys_and_games/Categories/Outdoor Play/Pools & Water Fun/Lawn Water Slides"
6742419011;"toys_and_games/Categories/Outdoor Play/Pools & Water Fun/Pool Loungers"
6742420011;"toys_and_games/Categories/Outdoor Play/Pools & Water Fun/Pool Rafts & Inflatable Ride-ons"
6742423011;"toys_and_games/Categories/Outdoor Play/Pools & Water Fun/Pool Toys"
6742424011;"toys_and_games/Categories/Outdoor Play/Pools & Water Fun/Pool Toys/Dive Rings & Toys"
6742425011;"toys_and_games/Categories/Outdoor Play/Pools & Water Fun/Pool Toys/Inflatable Water Slides"
6742427011;"toys_and_games/Categories/Outdoor Play/Pools & Water Fun/Pool Toys/Swim Rings"
6742428011;"toys_and_games/Categories/Outdoor Play/Pools & Water Fun/Sprinklers"
6742429011;"toys_and_games/Categories/Outdoor Play/Pools & Water Fun/Swimming Floatation Devices"
6742430011;"toys_and_games/Categories/Outdoor Play/Pools & Water Fun/Water Balloons"
6742431011;"toys_and_games/Categories/Outdoor Play/Pools & Water Fun/Water Guns, Blasters & Soakers"
6742436011;"toys_and_games/Categories/Outdoor Play/Sand & Water Tables"
6742437011;"toys_and_games/Categories/Outdoor Play/Sandboxes & Accessories"
6742440011;"toys_and_games/Categories/Outdoor Play/Slumber Bags"
6742441011;"toys_and_games/Categories/Outdoor Play/Toy Sports"
6742442011;"toys_and_games/Categories/Outdoor Play/Toy Sports/Toy Baseball"
6742443011;"toys_and_games/Categories/Outdoor Play/Toy Sports/Toy Basketball"
6742444011;"toys_and_games/Categories/Outdoor Play/Toy Sports/Toy Football"
6742445011;"toys_and_games/Categories/Outdoor Play/Toy Sports/Toy Golf"
6742446011;"toys_and_games/Categories/Outdoor Play/Toy Sports/Toy Hockey"
6742447011;"toys_and_games/Categories/Outdoor Play/Toy Sports/Toy Soccer"
6742448011;"toys_and_games/Categories/Outdoor Play/Trampolines"
6303780011;"toys_and_games/Categories/Party Supplies"
6742333011;"toys_and_games/Categories/Party Supplies/Balloons"
6742334011;"toys_and_games/Categories/Party Supplies/Banners, Streamers & Confetti"
6742335011;"toys_and_games/Categories/Party Supplies/Banners, Streamers & Confetti/Banners"
6742336011;"toys_and_games/Categories/Party Supplies/Banners, Streamers & Confetti/Confetti"
6742337011;"toys_and_games/Categories/Party Supplies/Banners, Streamers & Confetti/Streamers"
6742338011;"toys_and_games/Categories/Party Supplies/Cake Supplies"
6742339011;"toys_and_games/Categories/Party Supplies/Decorations"
6742340011;"toys_and_games/Categories/Party Supplies/Invitations & Cards"
6742343011;"toys_and_games/Categories/Party Supplies/Noisemakers"
6742344011;"toys_and_games/Categories/Party Supplies/Party Favors"
6742345011;"toys_and_games/Categories/Party Supplies/Party Games & Crafts"
6742346011;"toys_and_games/Categories/Party Supplies/Party Hats"
6742347011;"toys_and_games/Categories/Party Supplies/Party Packs"
6742348011;"toys_and_games/Categories/Party Supplies/Party Tableware"
6742349011;"toys_and_games/Categories/Party Supplies/Party Tableware/Cups"
6742350011;"toys_and_games/Categories/Party Supplies/Party Tableware/Napkins"
6742351011;"toys_and_games/Categories/Party Supplies/Party Tableware/Plates"
6742352011;"toys_and_games/Categories/Party Supplies/Piñatas"
6742353011;"toys_and_games/Categories/Party Supplies/Tablecovers & Centerpieces"
6742354011;"toys_and_games/Categories/Party Supplies/Tablecovers & Centerpieces/Centerpieces"
6742355011;"toys_and_games/Categories/Party Supplies/Tablecovers & Centerpieces/Tablecovers"
6303781011;"toys_and_games/Categories/Puzzles"
6742356011;"toys_and_games/Categories/Puzzles/3-D Puzzles"
6742357011;"toys_and_games/Categories/Puzzles/Brain Teasers"
6742358011;"toys_and_games/Categories/Puzzles/Brain Teasers/Assembly & Disentanglement Puzzles"
6742359011;"toys_and_games/Categories/Puzzles/Brain Teasers/Maze & Sequential Puzzles"
6742360011;"toys_and_games/Categories/Puzzles/Brain Teasers/Maze & Sequential Puzzles/Maze Puzzles"
6742361011;"toys_and_games/Categories/Puzzles/Brain Teasers/Maze & Sequential Puzzles/Sequential Puzzles"
6742362011;"toys_and_games/Categories/Puzzles/Brain Teasers/Puzzle Boxes"
6742363011;"toys_and_games/Categories/Puzzles/Floor Puzzles"
6742364011;"toys_and_games/Categories/Puzzles/Jigsaw Puzzles"
6742365011;"toys_and_games/Categories/Puzzles/Jigsaw Puzzles/Double-Sided Puzzles"
6742366011;"toys_and_games/Categories/Puzzles/Jigsaw Puzzles/Funny-Shaped Puzzles"
6742367011;"toys_and_games/Categories/Puzzles/Jigsaw Puzzles/Panoramic Puzzles"
6742368011;"toys_and_games/Categories/Puzzles/Jigsaw Puzzles/Photomosaic Puzzles"
6742369011;"toys_and_games/Categories/Puzzles/Pegged Puzzles"
6742370011;"toys_and_games/Categories/Puzzles/Puzzle Accessories"
6742371011;"toys_and_games/Categories/Puzzles/Puzzle Play Mats"
6742372011;"toys_and_games/Categories/Puzzles/Sudoku Puzzles"
6742373011;"toys_and_games/Categories/Puzzles/Travel Puzzles"
6303783011;"toys_and_games/Categories/Stuffed Animals & Plush"
6742450011;"toys_and_games/Categories/Stuffed Animals & Plush/Animals & Figures"
6742451011;"toys_and_games/Categories/Stuffed Animals & Plush/Plush Backpacks & Purses"
6742452011;"toys_and_games/Categories/Stuffed Animals & Plush/Plush Backpacks & Purses/Plush Backpacks"
6742052011;"toys_and_games/Categories/Stuffed Animals & Plush/Plush Backpacks & Purses/Plush Purses"
6742453011;"toys_and_games/Categories/Stuffed Animals & Plush/Plush Pillows"
6742454011;"toys_and_games/Categories/Stuffed Animals & Plush/Plush Puppets"
6742455011;"toys_and_games/Categories/Stuffed Animals & Plush/Puppets"
6742456011;"toys_and_games/Categories/Stuffed Animals & Plush/Puppets/Finger Puppets"
6742457011;"toys_and_games/Categories/Stuffed Animals & Plush/Puppets/Hand Puppets"
6742458011;"toys_and_games/Categories/Stuffed Animals & Plush/Puppets/Marionettes"
6742454011;"toys_and_games/Categories/Stuffed Animals & Plush/Puppets/Plush Puppets"
6742459011;"toys_and_games/Categories/Stuffed Animals & Plush/Puppets/Puppet Theaters"
6742460011;"toys_and_games/Categories/Stuffed Animals & Plush/Puppets/Ventriloquist"
6742462011;"toys_and_games/Categories/Stuffed Animals & Plush/Teddy Bears"
6303785011;"toys_and_games/Categories/Vehicles, Trains & Remote-Control"
6742463011;"toys_and_games/Categories/Vehicles, Trains & Remote-Control/Die-Cast Vehicles"
6742465011;"toys_and_games/Categories/Vehicles, Trains & Remote-Control/Play Trains & Railway Sets"
6742473011;"toys_and_games/Categories/Vehicles, Trains & Remote-Control/Play Vehicles"
6742475011;"toys_and_games/Categories/Vehicles, Trains & Remote-Control/Radio & Remote Control"
6742490011;"toys_and_games/Categories/Vehicles, Trains & Remote-Control/Vehicle Playsets"
7267389011;"toys_and_games/Categories/Jeux et Jouets en français"
6205519011;"toys_and_games/Specialty Stores"
6712281011;"toys_and_games/Specialty Stores/Custom Stores"
6558849011;"toys_and_games/Featured Categories"
6303769011;"toys_and_games/Featured Categories/Action & Toy Figures"
6741937011;"toys_and_games/Featured Categories/Action & Toy Figures/Accessories"
6741940011;"toys_and_games/Featured Categories/Action & Toy Figures/Figures"
6741941011;"toys_and_games/Featured Categories/Action & Toy Figures/Playsets"
6741942011;"toys_and_games/Featured Categories/Action & Toy Figures/Statues, Maquettes & Busts"
6303770011;"toys_and_games/Featured Categories/Arts & Crafts"
6741945011;"toys_and_games/Featured Categories/Arts & Crafts/Aprons & Smocks"
6741948011;"toys_and_games/Featured Categories/Arts & Crafts/Beads"
6741949011;"toys_and_games/Featured Categories/Arts & Crafts/Blackboards & Whiteboards"
6741953011;"toys_and_games/Featured Categories/Arts & Crafts/Clay & Dough"
6741956011;"toys_and_games/Featured Categories/Arts & Crafts/Craft Kits"
6741959011;"toys_and_games/Featured Categories/Arts & Crafts/Craft Kits/Felt Kits"
6741960011;"toys_and_games/Featured Categories/Arts & Crafts/Craft Kits/Flower Pressing"
6741961011;"toys_and_games/Featured Categories/Arts & Crafts/Craft Kits/Glass Arts & Sun Catchers"
6741964011;"toys_and_games/Featured Categories/Arts & Crafts/Craft Kits/Jewellery"
6741965011;"toys_and_games/Featured Categories/Arts & Crafts/Craft Kits/Mosaics"
6741966011;"toys_and_games/Featured Categories/Arts & Crafts/Craft Kits/Paint-By-Number Kits"
6741967011;"toys_and_games/Featured Categories/Arts & Crafts/Craft Kits/Paper Craft"
6741968011;"toys_and_games/Featured Categories/Arts & Crafts/Craft Kits/Pottery"
6741969011;"toys_and_games/Featured Categories/Arts & Crafts/Craft Kits/Sand Art"
6741970011;"toys_and_games/Featured Categories/Arts & Crafts/Craft Kits/Scrapbooking"
6741971011;"toys_and_games/Featured Categories/Arts & Crafts/Craft Kits/Scratch Art"
6741972011;"toys_and_games/Featured Categories/Arts & Crafts/Craft Kits/Sewing"
6741973011;"toys_and_games/Featured Categories/Arts & Crafts/Craft Kits/Tie-Dye & Fashion"
6741976011;"toys_and_games/Featured Categories/Arts & Crafts/Craft Kits/Waterpainting Kits"
6741977011;"toys_and_games/Featured Categories/Arts & Crafts/Craft Kits/Wood"
6741978011;"toys_and_games/Featured Categories/Arts & Crafts/Drawing & Painting Supplies"
6741979011;"toys_and_games/Featured Categories/Arts & Crafts/Drawing & Painting Supplies/Chalk"
6741980011;"toys_and_games/Featured Categories/Arts & Crafts/Drawing & Painting Supplies/Colored Pencils"
6741981011;"toys_and_games/Featured Categories/Arts & Crafts/Drawing & Painting Supplies/Coloring Pens & Markers"
6741984011;"toys_and_games/Featured Categories/Arts & Crafts/Drawing & Painting Supplies/Crayons"
6741985011;"toys_and_games/Featured Categories/Arts & Crafts/Drawing & Painting Supplies/Drawing & Sketch Pads"
6741986011;"toys_and_games/Featured Categories/Arts & Crafts/Drawing & Painting Supplies/Drawing Sets"
6741987011;"toys_and_games/Featured Categories/Arts & Crafts/Drawing & Painting Supplies/Paintbrushes"
6741988011;"toys_and_games/Featured Categories/Arts & Crafts/Drawing & Painting Supplies/Paints"
6741989011;"toys_and_games/Featured Categories/Arts & Crafts/Drawing & Painting Supplies/Paints/Finger Paint"
6741990011;"toys_and_games/Featured Categories/Arts & Crafts/Drawing & Painting Supplies/Paints/Tempera & Poster Paint"
6741993011;"toys_and_games/Featured Categories/Arts & Crafts/Drawing & Painting Supplies/Paints/Watercolor Paint"
6741994011;"toys_and_games/Featured Categories/Arts & Crafts/Drawing & Painting Supplies/Paper"
6741995011;"toys_and_games/Featured Categories/Arts & Crafts/Drawing & Painting Supplies/Paper/Loose Drawing Paper"
6741996011;"toys_and_games/Featured Categories/Arts & Crafts/Drawing & Painting Supplies/Paper/Stencil & Tracing Paper"
6741999011;"toys_and_games/Featured Categories/Arts & Crafts/Drawing & Painting Supplies/Paper/Watercolor Paper"
6742000011;"toys_and_games/Featured Categories/Arts & Crafts/Drawing & Painting Supplies/Pencil Erasers"
6742001011;"toys_and_games/Featured Categories/Arts & Crafts/Drawing & Painting Supplies/Pencils"
6742003011;"toys_and_games/Featured Categories/Arts & Crafts/Drawing & Sketching Tablets"
6742004011;"toys_and_games/Featured Categories/Arts & Crafts/Easels"
6742005011;"toys_and_games/Featured Categories/Arts & Crafts/Fuse Beads"
6742006011;"toys_and_games/Featured Categories/Arts & Crafts/Glue, Paste & Tape"
6742010011;"toys_and_games/Featured Categories/Arts & Crafts/Molding & Sculpting Sticks"
6742011011;"toys_and_games/Featured Categories/Arts & Crafts/Printing & Stamping"
6742012011;"toys_and_games/Featured Categories/Arts & Crafts/Printing & Stamping/Decorative Stamps"
6742013011;"toys_and_games/Featured Categories/Arts & Crafts/Printing & Stamping/Stamp Ink Pads"
6742014011;"toys_and_games/Featured Categories/Arts & Crafts/Scissors"
6742015011;"toys_and_games/Featured Categories/Arts & Crafts/Stickers"
4624226011;"toys_and_games/Featured Categories/Baby & Toddler Toys"
4624227011;"toys_and_games/Featured Categories/Baby & Toddler Toys/Activity Play Centres"
4624228011;"toys_and_games/Featured Categories/Baby & Toddler Toys/Baby Toys"
4624229011;"toys_and_games/Featured Categories/Baby & Toddler Toys/Baby Toys/Baby Balls"
4624230011;"toys_and_games/Featured Categories/Baby & Toddler Toys/Baby Toys/Bath Toys"
4624231011;"toys_and_games/Featured Categories/Baby & Toddler Toys/Baby Toys/Bricks & Blocks"
4624232011;"toys_and_games/Featured Categories/Baby & Toddler Toys/Baby Toys/Car Seat & Stroller Toys"
4624233011;"toys_and_games/Featured Categories/Baby & Toddler Toys/Baby Toys/Counting Frames"
4624234011;"toys_and_games/Featured Categories/Baby & Toddler Toys/Baby Toys/Crib Toys & Attachments"
4624235011;"toys_and_games/Featured Categories/Baby & Toddler Toys/Baby Toys/Hammering & Nailing Toys"
4624236011;"toys_and_games/Featured Categories/Baby & Toddler Toys/Baby Toys/Marble Runs"
4624237011;"toys_and_games/Featured Categories/Baby & Toddler Toys/Baby Toys/Mirrors"
4624238011;"toys_and_games/Featured Categories/Baby & Toddler Toys/Baby Toys/Motor Activity Toys"
4624239011;"toys_and_games/Featured Categories/Baby & Toddler Toys/Baby Toys/Music Boxes"
4624240011;"toys_and_games/Featured Categories/Baby & Toddler Toys/Baby Toys/Push & Pull Toys"
4624241011;"toys_and_games/Featured Categories/Baby & Toddler Toys/Baby Toys/Rattles & Plush Rings"
4624242011;"toys_and_games/Featured Categories/Baby & Toddler Toys/Baby Toys/Rocking & Spring Ride-Ons"
4624243011;"toys_and_games/Featured Categories/Baby & Toddler Toys/Baby Toys/Sound Toys"
4624245011;"toys_and_games/Featured Categories/Baby & Toddler Toys/Baby Toys/Stacking & Nesting Toys"
4624246011;"toys_and_games/Featured Categories/Baby & Toddler Toys/Baby Toys/Stick Horses"
4624247011;"toys_and_games/Featured Categories/Baby & Toddler Toys/Baby Toys/Stuffed Animals & Toys"
4624249011;"toys_and_games/Featured Categories/Baby & Toddler Toys/Teaching Clocks"
4624280011;"toys_and_games/Featured Categories/Baby & Toddler Toys/Teethers"
6303784011;"toys_and_games/Featured Categories/Bikes, Scooters & Ride-Ons"
6742016011;"toys_and_games/Featured Categories/Bikes, Scooters & Ride-Ons/Balance Bikes"
2438929011;"toys_and_games/Featured Categories/Bikes, Scooters & Ride-Ons/Bike Accessories"
2438930011;"toys_and_games/Featured Categories/Bikes, Scooters & Ride-Ons/Kids' Bikes"
2438931011;"toys_and_games/Featured Categories/Bikes, Scooters & Ride-Ons/Kids' Helmets"
2438932011;"toys_and_games/Featured Categories/Bikes, Scooters & Ride-Ons/Kids' Protective Gear"
6742019011;"toys_and_games/Featured Categories/Bikes, Scooters & Ride-Ons/Pull-Along Wagons"
6742020011;"toys_and_games/Featured Categories/Bikes, Scooters & Ride-Ons/Ride-On Toys"
6742021011;"toys_and_games/Featured Categories/Bikes, Scooters & Ride-Ons/Ride-On Toys/Push Ride-Ons"
6742022011;"toys_and_games/Featured Categories/Bikes, Scooters & Ride-Ons/Ride-On Toys/Ride-On Accessories"
6742023011;"toys_and_games/Featured Categories/Bikes, Scooters & Ride-Ons/Safety Equipment"
2406134011;"toys_and_games/Featured Categories/Bikes, Scooters & Ride-Ons/Scooters & Equipment"
2438530011;"toys_and_games/Featured Categories/Bikes, Scooters & Ride-Ons/Scooters & Equipment/Helmets"
2438505011;"toys_and_games/Featured Categories/Bikes, Scooters & Ride-Ons/Scooters & Equipment/Scooter Parts"
6786574011;"toys_and_games/Featured Categories/Bikes, Scooters & Ride-Ons/Scooters & Equipment/Scooter Parts/Batteries & Battery Chargers"
6786582011;"toys_and_games/Featured Categories/Bikes, Scooters & Ride-Ons/Scooters & Equipment/Scooter Parts/Batteries & Battery Chargers/Batteries"
6786583011;"toys_and_games/Featured Categories/Bikes, Scooters & Ride-Ons/Scooters & Equipment/Scooter Parts/Batteries & Battery Chargers/Battery Chargers"
6786576011;"toys_and_games/Featured Categories/Bikes, Scooters & Ride-Ons/Scooters & Equipment/Scooter Parts/Grip Tape"
6786579011;"toys_and_games/Featured Categories/Bikes, Scooters & Ride-Ons/Scooters & Equipment/Scooter Parts/Replacement Wheels"
2438506011;"toys_and_games/Featured Categories/Bikes, Scooters & Ride-Ons/Scooters & Equipment/Scooters"
6786777011;"toys_and_games/Featured Categories/Bikes, Scooters & Ride-Ons/Scooters & Equipment/Scooters/Kick Scooters"
6786779011;"toys_and_games/Featured Categories/Bikes, Scooters & Ride-Ons/Scooters & Equipment/Scooters/Three-Wheeled Scooters"
2438545011;"toys_and_games/Featured Categories/Bikes, Scooters & Ride-Ons/Skateboards"
2406123011;"toys_and_games/Featured Categories/Bikes, Scooters & Ride-Ons/Skates"
2438530011;"toys_and_games/Featured Categories/Bikes, Scooters & Ride-Ons/Skates/Helmets"
2438395011;"toys_and_games/Featured Categories/Bikes, Scooters & Ride-Ons/Skates/Inline Skate Parts"
2438396011;"toys_and_games/Featured Categories/Bikes, Scooters & Ride-Ons/Skates/Inline Skate Parts/Bearings"
2438397011;"toys_and_games/Featured Categories/Bikes, Scooters & Ride-Ons/Skates/Inline Skate Parts/Wheels"
2438398011;"toys_and_games/Featured Categories/Bikes, Scooters & Ride-Ons/Skates/Inline Skates"
2438531011;"toys_and_games/Featured Categories/Bikes, Scooters & Ride-Ons/Skates/Protective Gear"
2438532011;"toys_and_games/Featured Categories/Bikes, Scooters & Ride-Ons/Skates/Protective Gear/Elbow Pads"
2438533011;"toys_and_games/Featured Categories/Bikes, Scooters & Ride-Ons/Skates/Protective Gear/Knee Pads"
2438534011;"toys_and_games/Featured Categories/Bikes, Scooters & Ride-Ons/Skates/Protective Gear/Wrist Guards"
2438404011;"toys_and_games/Featured Categories/Bikes, Scooters & Ride-Ons/Skates/Roller Skates"
6742027011;"toys_and_games/Featured Categories/Bikes, Scooters & Ride-Ons/Tricycles"
6303772011;"toys_and_games/Featured Categories/Building Toys"
6742029011;"toys_and_games/Featured Categories/Building Toys/Building Sets"
6742030011;"toys_and_games/Featured Categories/Building Toys/Building Sets/Figures"
6742031011;"toys_and_games/Featured Categories/Building Toys/Building Sets/Loose Bricks"
6742032011;"toys_and_games/Featured Categories/Building Toys/Building Sets/Storage & Accessories"
6742033011;"toys_and_games/Featured Categories/Building Toys/Gear Sets"
6742034011;"toys_and_games/Featured Categories/Building Toys/Marble Runs"
6742035011;"toys_and_games/Featured Categories/Building Toys/Stacking Blocks"
6303773011;"toys_and_games/Featured Categories/Dolls & Accessories"
6742036011;"toys_and_games/Featured Categories/Dolls & Accessories/Doll Accessories"
6742037011;"toys_and_games/Featured Categories/Dolls & Accessories/Doll Accessories/Clothing & Shoes"
6742038011;"toys_and_games/Featured Categories/Dolls & Accessories/Doll Accessories/Furniture"
6742039011;"toys_and_games/Featured Categories/Dolls & Accessories/Doll Accessories/Strollers"
6742040011;"toys_and_games/Featured Categories/Dolls & Accessories/Dollhouse Accessories"
6742041011;"toys_and_games/Featured Categories/Dolls & Accessories/Dollhouse Accessories/Décor"
6742042011;"toys_and_games/Featured Categories/Dolls & Accessories/Dollhouse Accessories/Furniture"
6742043011;"toys_and_games/Featured Categories/Dolls & Accessories/Dollhouses"
6742044011;"toys_and_games/Featured Categories/Dolls & Accessories/Dolls"
6742045011;"toys_and_games/Featured Categories/Dolls & Accessories/Playsets"
6303774011;"toys_and_games/Featured Categories/Dress Up & Pretend Play"
6742046011;"toys_and_games/Featured Categories/Dress Up & Pretend Play/Accessories"
6742047011;"toys_and_games/Featured Categories/Dress Up & Pretend Play/Beauty & Fashion"
6742049011;"toys_and_games/Featured Categories/Dress Up & Pretend Play/Beauty & Fashion/Jewellery Music Boxes"
6742050011;"toys_and_games/Featured Categories/Dress Up & Pretend Play/Beauty & Fashion/Makeup"
6742052011;"toys_and_games/Featured Categories/Dress Up & Pretend Play/Beauty & Fashion/Purses"
6742054011;"toys_and_games/Featured Categories/Dress Up & Pretend Play/Beauty & Fashion/Vanity Cases"
6742055011;"toys_and_games/Featured Categories/Dress Up & Pretend Play/Costumes"
6742062011;"toys_and_games/Featured Categories/Dress Up & Pretend Play/Hair & Nails"
6742063011;"toys_and_games/Featured Categories/Dress Up & Pretend Play/Hats"
6742065011;"toys_and_games/Featured Categories/Dress Up & Pretend Play/Pretend Play"
6742066011;"toys_and_games/Featured Categories/Dress Up & Pretend Play/Pretend Play/Construction Tools"
6742067011;"toys_and_games/Featured Categories/Dress Up & Pretend Play/Pretend Play/Grocery Shopping"
6742068011;"toys_and_games/Featured Categories/Dress Up & Pretend Play/Pretend Play/Grocery Shopping/Cash Registers"
6742070011;"toys_and_games/Featured Categories/Dress Up & Pretend Play/Pretend Play/Grocery Shopping/Shopping Carts"
6742071011;"toys_and_games/Featured Categories/Dress Up & Pretend Play/Pretend Play/Housekeeping"
6742077011;"toys_and_games/Featured Categories/Dress Up & Pretend Play/Pretend Play/Kitchen Toys"
6742078011;"toys_and_games/Featured Categories/Dress Up & Pretend Play/Pretend Play/Kitchen Toys/Cooking & Baking Kits"
6742079011;"toys_and_games/Featured Categories/Dress Up & Pretend Play/Pretend Play/Kitchen Toys/Dishes & Tea Sets"
6742082011;"toys_and_games/Featured Categories/Dress Up & Pretend Play/Pretend Play/Kitchen Toys/Kitchen Playsets"
6742083011;"toys_and_games/Featured Categories/Dress Up & Pretend Play/Pretend Play/Kitchen Toys/Play Food"
6742084011;"toys_and_games/Featured Categories/Dress Up & Pretend Play/Pretend Play/Kitchen Toys/Pots & Pans"
6742085011;"toys_and_games/Featured Categories/Dress Up & Pretend Play/Pretend Play/Kitchen Toys/Real-Food Appliances"
6742309011;"toys_and_games/Featured Categories/Dress Up & Pretend Play/Pretend Play/Magic Kits & Accessories"
6742086011;"toys_and_games/Featured Categories/Dress Up & Pretend Play/Pretend Play/Magnet & Felt Playboards"
6742087011;"toys_and_games/Featured Categories/Dress Up & Pretend Play/Pretend Play/Medical Kits"
6742088011;"toys_and_games/Featured Categories/Dress Up & Pretend Play/Pretend Play/Money & Banking"
6742089011;"toys_and_games/Featured Categories/Dress Up & Pretend Play/Pretend Play/Paper & Magnetic Dolls"
6742092011;"toys_and_games/Featured Categories/Dress Up & Pretend Play/Wigs"
6303775011;"toys_and_games/Featured Categories/Electronics for Kids"
6742093011;"toys_and_games/Featured Categories/Electronics for Kids/Cameras & Camcorders"
6742096011;"toys_and_games/Featured Categories/Electronics for Kids/Dance Mats"
6742097011;"toys_and_games/Featured Categories/Electronics for Kids/Educational Electronics"
6742098011;"toys_and_games/Featured Categories/Electronics for Kids/Electronic Pets"
6742099011;"toys_and_games/Featured Categories/Electronics for Kids/Electronic Toys"
6742100011;"toys_and_games/Featured Categories/Electronics for Kids/Music Players & Karaoke"
6742101011;"toys_and_games/Featured Categories/Electronics for Kids/Personal Video Players & Accessories"
6742102011;"toys_and_games/Featured Categories/Electronics for Kids/Plug & Play Video Games"
6742103011;"toys_and_games/Featured Categories/Electronics for Kids/Systems & Accessories"
6742104011;"toys_and_games/Featured Categories/Electronics for Kids/Systems & Accessories/Electronic Software & Books"
6742105011;"toys_and_games/Featured Categories/Electronics for Kids/Systems & Accessories/Electronic Software & Books/Books"
6742106011;"toys_and_games/Featured Categories/Electronics for Kids/Systems & Accessories/Electronic Software & Books/Cartridges"
6742107011;"toys_and_games/Featured Categories/Electronics for Kids/Systems & Accessories/Electronic System Accessories"
6742108011;"toys_and_games/Featured Categories/Electronics for Kids/Systems & Accessories/Electronic Systems"
6742109011;"toys_and_games/Featured Categories/Electronics for Kids/Walkie Talkies"
6303776011;"toys_and_games/Featured Categories/Games"
6742110011;"toys_and_games/Featured Categories/Games/Battling Tops"
6742111011;"toys_and_games/Featured Categories/Games/Board Games"
6742112011;"toys_and_games/Featured Categories/Games/Card Games"
6742113011;"toys_and_games/Featured Categories/Games/DVD Games"
6742114011;"toys_and_games/Featured Categories/Games/Dice & Gaming Dice"
6742115011;"toys_and_games/Featured Categories/Games/Floor Games"
6742116011;"toys_and_games/Featured Categories/Games/Game Accessories"
6742118011;"toys_and_games/Featured Categories/Games/Game Room Games"
6742121011;"toys_and_games/Featured Categories/Games/Game Room Games/Combination Table Games"
6742122011;"toys_and_games/Featured Categories/Games/Game Room Games/Darts"
6742126011;"toys_and_games/Featured Categories/Games/Game Room Games/Indoor Bowling"
6742129011;"toys_and_games/Featured Categories/Games/Game Room Games/Table Tennis"
6742130011;"toys_and_games/Featured Categories/Games/Handheld Games"
6742131011;"toys_and_games/Featured Categories/Games/Stacking Games"
6742132011;"toys_and_games/Featured Categories/Games/Standard Playing Card Decks"
6742133011;"toys_and_games/Featured Categories/Games/Tile Games"
6742134011;"toys_and_games/Featured Categories/Games/Trading Card Games"
6742135011;"toys_and_games/Featured Categories/Games/Trading Card Games/Albums, Cases & Sleeves"
6742136011;"toys_and_games/Featured Categories/Games/Trading Card Games/Albums, Cases & Sleeves/Albums"
6742137011;"toys_and_games/Featured Categories/Games/Trading Card Games/Albums, Cases & Sleeves/Cases"
6742138011;"toys_and_games/Featured Categories/Games/Trading Card Games/Albums, Cases & Sleeves/Protective Sleeves"
6742139011;"toys_and_games/Featured Categories/Games/Trading Card Games/Booster Packs"
6742140011;"toys_and_games/Featured Categories/Games/Trading Card Games/Counters, Playmats & Gameplay Accessories"
6742141011;"toys_and_games/Featured Categories/Games/Trading Card Games/Counters, Playmats & Gameplay Accessories/Counters"
6742143011;"toys_and_games/Featured Categories/Games/Trading Card Games/Counters, Playmats & Gameplay Accessories/Playmats"
6742144011;"toys_and_games/Featured Categories/Games/Trading Card Games/Decks & Sets"
6742145011;"toys_and_games/Featured Categories/Games/Trading Card Games/Decks & Sets/Card Decks"
6742146011;"toys_and_games/Featured Categories/Games/Trading Card Games/Decks & Sets/Card Sets"
6742148011;"toys_and_games/Featured Categories/Games/Trading Card Games/Single Cards"
6742149011;"toys_and_games/Featured Categories/Games/Travel Games"
6742150011;"toys_and_games/Featured Categories/Grown-Up Toys"
6742151011;"toys_and_games/Featured Categories/Grown-Up Toys/Action & Toy Figures"
6742152011;"toys_and_games/Featured Categories/Grown-Up Toys/Die-Cast & Toy Vehicles"
6742153011;"toys_and_games/Featured Categories/Grown-Up Toys/Games"
6742155011;"toys_and_games/Featured Categories/Grown-Up Toys/Novelty & Gag Toys"
6742156011;"toys_and_games/Featured Categories/Grown-Up Toys/Puzzles"
6303777011;"toys_and_games/Featured Categories/Hobbies"
6742157011;"toys_and_games/Featured Categories/Hobbies/Action & Toy Figure Display Cases"
6742158011;"toys_and_games/Featured Categories/Hobbies/Coin Collecting"
6742166011;"toys_and_games/Featured Categories/Hobbies/Model Building Kits & Tools"
6742167011;"toys_and_games/Featured Categories/Hobbies/Model Building Kits & Tools/Aircraft"
6742168011;"toys_and_games/Featured Categories/Hobbies/Model Building Kits & Tools/Animals & Insects"
6742169011;"toys_and_games/Featured Categories/Hobbies/Model Building Kits & Tools/Boats & Watercraft"
6742170011;"toys_and_games/Featured Categories/Hobbies/Model Building Kits & Tools/Buildings & Bridges"
6742171011;"toys_and_games/Featured Categories/Hobbies/Model Building Kits & Tools/Cars"
6742172011;"toys_and_games/Featured Categories/Hobbies/Model Building Kits & Tools/Figures"
6742173011;"toys_and_games/Featured Categories/Hobbies/Model Building Kits & Tools/Helicopters"
6742174011;"toys_and_games/Featured Categories/Hobbies/Model Building Kits & Tools/Military"
6742175011;"toys_and_games/Featured Categories/Hobbies/Model Building Kits & Tools/Model Building Tools"
6742177011;"toys_and_games/Featured Categories/Hobbies/Model Building Kits & Tools/Model Building Tools/Cutters"
6742178011;"toys_and_games/Featured Categories/Hobbies/Model Building Kits & Tools/Model Building Tools/Glues"
6742179011;"toys_and_games/Featured Categories/Hobbies/Model Building Kits & Tools/Model Building Tools/Magnifiers"
6742180011;"toys_and_games/Featured Categories/Hobbies/Model Building Kits & Tools/Model Building Tools/Painting Tools"
6742181011;"toys_and_games/Featured Categories/Hobbies/Model Building Kits & Tools/Model Building Tools/Paints"
6742182011;"toys_and_games/Featured Categories/Hobbies/Model Building Kits & Tools/Model Building Tools/Tool Sets"
6742183011;"toys_and_games/Featured Categories/Hobbies/Model Building Kits & Tools/Model Building Tools/Tweezers"
6742184011;"toys_and_games/Featured Categories/Hobbies/Model Building Kits & Tools/Motorcycles"
6742185011;"toys_and_games/Featured Categories/Hobbies/Model Building Kits & Tools/Robots"
6742186011;"toys_and_games/Featured Categories/Hobbies/Model Building Kits & Tools/Rockets & Spacecraft"
6742187011;"toys_and_games/Featured Categories/Hobbies/Radio Control"
6742188011;"toys_and_games/Featured Categories/Hobbies/Radio Control/Accessories"
6742189011;"toys_and_games/Featured Categories/Hobbies/Radio Control/Accessories/Batteries"
6742190011;"toys_and_games/Featured Categories/Hobbies/Radio Control/Accessories/Battery Chargers"
6742192011;"toys_and_games/Featured Categories/Hobbies/Radio Control/Accessories/Fuel & Fueling"
6742193011;"toys_and_games/Featured Categories/Hobbies/Radio Control/Accessories/Radio Transmitters"
6742194011;"toys_and_games/Featured Categories/Hobbies/Radio Control/Accessories/Starter Products"
6742195011;"toys_and_games/Featured Categories/Hobbies/Radio Control/Airplanes"
6742196011;"toys_and_games/Featured Categories/Hobbies/Radio Control/Boats & Watercraft"
6742197011;"toys_and_games/Featured Categories/Hobbies/Radio Control/Cars"
6742198011;"toys_and_games/Featured Categories/Hobbies/Radio Control/Crawlers"
6742199011;"toys_and_games/Featured Categories/Hobbies/Radio Control/Helicopters"
6742200011;"toys_and_games/Featured Categories/Hobbies/Radio Control/Military Vehicles"
6742201011;"toys_and_games/Featured Categories/Hobbies/Radio Control/Motorcycles"
6742202011;"toys_and_games/Featured Categories/Hobbies/Radio Control/Parts"
6742203011;"toys_and_games/Featured Categories/Hobbies/Radio Control/Parts/Antennas"
6742204011;"toys_and_games/Featured Categories/Hobbies/Radio Control/Parts/Engines"
6742205011;"toys_and_games/Featured Categories/Hobbies/Radio Control/Parts/Motors"
6742206011;"toys_and_games/Featured Categories/Hobbies/Radio Control/Parts/Radio Receivers"
6742207011;"toys_and_games/Featured Categories/Hobbies/Radio Control/Parts/Servos"
6742208011;"toys_and_games/Featured Categories/Hobbies/Radio Control/Parts/Vehicle Speed Controls"
6742209011;"toys_and_games/Featured Categories/Hobbies/Radio Control/Trucks"
6742210011;"toys_and_games/Featured Categories/Hobbies/Rockets"
6742211011;"toys_and_games/Featured Categories/Hobbies/Rockets/Model Rocket Kits"
6742212011;"toys_and_games/Featured Categories/Hobbies/Rockets/Model Rockets"
6742213011;"toys_and_games/Featured Categories/Hobbies/Rockets/Rocket Accessories"
6742214011;"toys_and_games/Featured Categories/Hobbies/Scaled Model Vehicles"
6742216011;"toys_and_games/Featured Categories/Hobbies/Slot Cars, Race Tracks & Accessories"
6742217011;"toys_and_games/Featured Categories/Hobbies/Slot Cars, Race Tracks & Accessories/Race Tracks"
6742219011;"toys_and_games/Featured Categories/Hobbies/Slot Cars, Race Tracks & Accessories/Slot Car Parts & Chassis"
6742222011;"toys_and_games/Featured Categories/Hobbies/Slot Cars, Race Tracks & Accessories/Slot Cars"
6742223011;"toys_and_games/Featured Categories/Hobbies/Stamp Collecting"
6742229011;"toys_and_games/Featured Categories/Hobbies/Trains & Accessories"
6742230011;"toys_and_games/Featured Categories/Hobbies/Trains & Accessories/Accessories"
6742231011;"toys_and_games/Featured Categories/Hobbies/Trains & Accessories/Accessories/Buildings"
6742232011;"toys_and_games/Featured Categories/Hobbies/Trains & Accessories/Accessories/Car Accessories"
6742233011;"toys_and_games/Featured Categories/Hobbies/Trains & Accessories/Accessories/Figures"
6742235011;"toys_and_games/Featured Categories/Hobbies/Trains & Accessories/Accessories/Scenery"
6742237011;"toys_and_games/Featured Categories/Hobbies/Trains & Accessories/Accessories/Tracks"
6742239011;"toys_and_games/Featured Categories/Hobbies/Trains & Accessories/Accessories/Vehicles"
6742245011;"toys_and_games/Featured Categories/Hobbies/Trains & Accessories/Train Sets"
6742246011;"toys_and_games/Featured Categories/Kids' Furniture, Décor & Storage"
2224009011;"toys_and_games/Featured Categories/Kids' Furniture, Décor & Storage/Bedding & Slumber Bags"
6646822011;"toys_and_games/Featured Categories/Kids' Furniture, Décor & Storage/Bedding & Slumber Bags/Quilts & Coverlets"
6646823011;"toys_and_games/Featured Categories/Kids' Furniture, Décor & Storage/Bedding & Slumber Bags/Sheets & Pillowcases"
2224023011;"toys_and_games/Featured Categories/Kids' Furniture, Décor & Storage/Indoor Furniture"
6742247011;"toys_and_games/Featured Categories/Kids' Furniture, Décor & Storage/Outdoor Furniture"
6742248011;"toys_and_games/Featured Categories/Kids' Furniture, Décor & Storage/Outdoor Furniture/Benches"
6742249011;"toys_and_games/Featured Categories/Kids' Furniture, Décor & Storage/Outdoor Furniture/Chairs"
6742250011;"toys_and_games/Featured Categories/Kids' Furniture, Décor & Storage/Outdoor Furniture/Picnic Tables"
6742251011;"toys_and_games/Featured Categories/Kids' Furniture, Décor & Storage/Outdoor Furniture/Table & Chair Sets"
6742404011;"toys_and_games/Featured Categories/Kids' Furniture, Décor & Storage/Play Tents & Tunnels"
2224036011;"toys_and_games/Featured Categories/Kids' Furniture, Décor & Storage/Room Décor"
6742252011;"toys_and_games/Featured Categories/Kids' Furniture, Décor & Storage/Storage Racks & Chests"
6303778011;"toys_and_games/Featured Categories/Learning & Education"
6742253011;"toys_and_games/Featured Categories/Learning & Education/Basic & Life Skills Toys"
6742254011;"toys_and_games/Featured Categories/Learning & Education/Electronics"
6742104011;"toys_and_games/Featured Categories/Learning & Education/Electronics/Electronic Cartridges & Books"
6742105011;"toys_and_games/Featured Categories/Learning & Education/Electronics/Electronic Cartridges & Books/Books"
6742106011;"toys_and_games/Featured Categories/Learning & Education/Electronics/Electronic Cartridges & Books/Cartridges"
6742099011;"toys_and_games/Featured Categories/Learning & Education/Electronics/Electronic Learning Toys"
6742107011;"toys_and_games/Featured Categories/Learning & Education/Electronics/Electronic System Accessories"
6742108011;"toys_and_games/Featured Categories/Learning & Education/Electronics/Electronic Systems"
6742255011;"toys_and_games/Featured Categories/Learning & Education/Flash Cards"
6742256011;"toys_and_games/Featured Categories/Learning & Education/Geography"
6742257011;"toys_and_games/Featured Categories/Learning & Education/Habitats"
6742258011;"toys_and_games/Featured Categories/Learning & Education/Handwriting Aids"
6742259011;"toys_and_games/Featured Categories/Learning & Education/History"
6742260011;"toys_and_games/Featured Categories/Learning & Education/Languages"
6742261011;"toys_and_games/Featured Categories/Learning & Education/Mathematics & Counting"
6742264011;"toys_and_games/Featured Categories/Learning & Education/Musical Instruments"
6742265011;"toys_and_games/Featured Categories/Learning & Education/Musical Instruments/Accessories"
6742266011;"toys_and_games/Featured Categories/Learning & Education/Musical Instruments/Drums & Percussion"
6742267011;"toys_and_games/Featured Categories/Learning & Education/Musical Instruments/Guitars & Strings"
6742268011;"toys_and_games/Featured Categories/Learning & Education/Musical Instruments/Pianos & Keyboards"
6742269011;"toys_and_games/Featured Categories/Learning & Education/Musical Instruments/Wind & Brass"
6742317011;"toys_and_games/Featured Categories/Learning & Education/Prisms & Kaleidoscopes"
6742270011;"toys_and_games/Featured Categories/Learning & Education/Reading & Writing"
6742271011;"toys_and_games/Featured Categories/Learning & Education/Reading & Writing/Alphabet Blocks"
6742272011;"toys_and_games/Featured Categories/Learning & Education/Reading & Writing/Diaries, Journals & Notebooks"
6742275011;"toys_and_games/Featured Categories/Learning & Education/Reading & Writing/Magnetic Letters & Words"
6742276011;"toys_and_games/Featured Categories/Learning & Education/Science"
6742277011;"toys_and_games/Featured Categories/Learning & Education/Science/Archaeology & Paleontology"
6742280011;"toys_and_games/Featured Categories/Learning & Education/Science/Biology"
6742281011;"toys_and_games/Featured Categories/Learning & Education/Science/Biology/Anatomy"
6742282011;"toys_and_games/Featured Categories/Learning & Education/Science/Biology/Biology"
6742283011;"toys_and_games/Featured Categories/Learning & Education/Science/Biology/Botany"
6742284011;"toys_and_games/Featured Categories/Learning & Education/Science/Chemistry"
6742285011;"toys_and_games/Featured Categories/Learning & Education/Science/Electronics & Robotics Kits"
6742288011;"toys_and_games/Featured Categories/Learning & Education/Science/Geology & Earth Sciences"
6742289011;"toys_and_games/Featured Categories/Learning & Education/Science/Magnets"
6742290011;"toys_and_games/Featured Categories/Learning & Education/Science/Mechanics"
6742291011;"toys_and_games/Featured Categories/Learning & Education/Science/Microscopes"
6742292011;"toys_and_games/Featured Categories/Learning & Education/Science/Physics"
6742293011;"toys_and_games/Featured Categories/Learning & Education/Science/Rock Tumblers"
6742294011;"toys_and_games/Featured Categories/Learning & Education/Science/Telescopes"
6742295011;"toys_and_games/Featured Categories/Learning & Education/Solar"
6742296011;"toys_and_games/Featured Categories/Learning & Education/Speech Aids"
6303779011;"toys_and_games/Featured Categories/Novelty & Gag Toys"
6742297011;"toys_and_games/Featured Categories/Novelty & Gag Toys/Finger Boards & Finger Bikes"
6742298011;"toys_and_games/Featured Categories/Novelty & Gag Toys/Finger Boards & Finger Bikes/Bikes"
6742299011;"toys_and_games/Featured Categories/Novelty & Gag Toys/Finger Boards & Finger Bikes/Rockets"
6742301011;"toys_and_games/Featured Categories/Novelty & Gag Toys/Finger Boards & Finger Bikes/Skateboards"
6742302011;"toys_and_games/Featured Categories/Novelty & Gag Toys/Flying Toys"
6742305011;"toys_and_games/Featured Categories/Novelty & Gag Toys/Fortune Telling Toys"
6742306011;"toys_and_games/Featured Categories/Novelty & Gag Toys/Gag Toys & Practical Jokes"
6742308011;"toys_and_games/Featured Categories/Novelty & Gag Toys/Light-Up Toys"
6742309011;"toys_and_games/Featured Categories/Novelty & Gag Toys/Magic Kits & Accessories"
6742310011;"toys_and_games/Featured Categories/Novelty & Gag Toys/Magnets & Magnetic Toys"
6742311011;"toys_and_games/Featured Categories/Novelty & Gag Toys/Miniatures"
6742312011;"toys_and_games/Featured Categories/Novelty & Gag Toys/Money Banks"
6742313011;"toys_and_games/Featured Categories/Novelty & Gag Toys/Nesting Dolls"
6742314011;"toys_and_games/Featured Categories/Novelty & Gag Toys/Novelty Games"
6742316011;"toys_and_games/Featured Categories/Novelty & Gag Toys/Popping & Jumping Toys"
6742317011;"toys_and_games/Featured Categories/Novelty & Gag Toys/Prisms & Kaleidoscopes"
6742320011;"toys_and_games/Featured Categories/Novelty & Gag Toys/Shaped Rubber Wristbands"
6742321011;"toys_and_games/Featured Categories/Novelty & Gag Toys/Slime & Putty Toys"
6742324011;"toys_and_games/Featured Categories/Novelty & Gag Toys/Spy Gadgets"
6742326011;"toys_and_games/Featured Categories/Novelty & Gag Toys/Tarot Cards"
6742327011;"toys_and_games/Featured Categories/Novelty & Gag Toys/Temporary Tattoos"
6742328011;"toys_and_games/Featured Categories/Novelty & Gag Toys/Toy Balls"
6742329011;"toys_and_games/Featured Categories/Novelty & Gag Toys/Viewfinders"
6742430011;"toys_and_games/Featured Categories/Novelty & Gag Toys/Water Balloons"
6742330011;"toys_and_games/Featured Categories/Novelty & Gag Toys/Wind-up Toys"
6303782011;"toys_and_games/Featured Categories/Outdoor Play"
6742375011;"toys_and_games/Featured Categories/Outdoor Play/Ball Pits & Accessories"
6742376011;"toys_and_games/Featured Categories/Outdoor Play/Beanbags & Foot Bags"
6742381011;"toys_and_games/Featured Categories/Outdoor Play/Blasters & Foam Play"
6742382011;"toys_and_games/Featured Categories/Outdoor Play/Bubbles"
6742383011;"toys_and_games/Featured Categories/Outdoor Play/Fishing Combinations & Accessories"
6742384011;"toys_and_games/Featured Categories/Outdoor Play/Fitness Equipment"
6742302011;"toys_and_games/Featured Categories/Outdoor Play/Flying Toys"
6742385011;"toys_and_games/Featured Categories/Outdoor Play/Gardening Tools"
6742386011;"toys_and_games/Featured Categories/Outdoor Play/Gym Sets & Swings"
6742392011;"toys_and_games/Featured Categories/Outdoor Play/Inflatable Bouncers"
6742396011;"toys_and_games/Featured Categories/Outdoor Play/Kites & Wind Spinners"
6742397011;"toys_and_games/Featured Categories/Outdoor Play/Kites & Wind Spinners/Kite Accessories"
6742398011;"toys_and_games/Featured Categories/Outdoor Play/Kites & Wind Spinners/Kite Making Kits"
6742399011;"toys_and_games/Featured Categories/Outdoor Play/Kites & Wind Spinners/Kites"
6742400011;"toys_and_games/Featured Categories/Outdoor Play/Kites & Wind Spinners/Wind Spinners"
6742401011;"toys_and_games/Featured Categories/Outdoor Play/Lawn Games"
2406094011;"toys_and_games/Featured Categories/Outdoor Play/Lawn Games/Badminton"
2439700011;"toys_and_games/Featured Categories/Outdoor Play/Lawn Games/Badminton/Complete Sets"
2439701011;"toys_and_games/Featured Categories/Outdoor Play/Lawn Games/Badminton/Equipment Bags"
2439702011;"toys_and_games/Featured Categories/Outdoor Play/Lawn Games/Badminton/Nets"
2439703011;"toys_and_games/Featured Categories/Outdoor Play/Lawn Games/Badminton/Racquets"
2439704011;"toys_and_games/Featured Categories/Outdoor Play/Lawn Games/Badminton/Shuttlecocks"
2439282011;"toys_and_games/Featured Categories/Outdoor Play/Lawn Games/Flying Discs"
6742402011;"toys_and_games/Featured Categories/Outdoor Play/Marble Games"
6742403011;"toys_and_games/Featured Categories/Outdoor Play/Nature Exploration Toys"
6742247011;"toys_and_games/Featured Categories/Outdoor Play/Outdoor Furniture"
6742248011;"toys_and_games/Featured Categories/Outdoor Play/Outdoor Furniture/Benches"
6742249011;"toys_and_games/Featured Categories/Outdoor Play/Outdoor Furniture/Chairs"
6742250011;"toys_and_games/Featured Categories/Outdoor Play/Outdoor Furniture/Picnic Tables"
6742251011;"toys_and_games/Featured Categories/Outdoor Play/Outdoor Furniture/Table & Chair Sets"
6742404011;"toys_and_games/Featured Categories/Outdoor Play/Play Tents & Tunnels"
6742407011;"toys_and_games/Featured Categories/Outdoor Play/Playhouses"
6742408011;"toys_and_games/Featured Categories/Outdoor Play/Pogo Sticks & Hoppers"
6742411011;"toys_and_games/Featured Categories/Outdoor Play/Pools & Water Fun"
6742412011;"toys_and_games/Featured Categories/Outdoor Play/Pools & Water Fun/Baby Floats"
6742413011;"toys_and_games/Featured Categories/Outdoor Play/Pools & Water Fun/Basketball & Volleyball Sets"
6742416011;"toys_and_games/Featured Categories/Outdoor Play/Pools & Water Fun/Beach Toys"
6742417011;"toys_and_games/Featured Categories/Outdoor Play/Pools & Water Fun/Kiddie Pools"
6742418011;"toys_and_games/Featured Categories/Outdoor Play/Pools & Water Fun/Lawn Water Slides"
6742419011;"toys_and_games/Featured Categories/Outdoor Play/Pools & Water Fun/Pool Loungers"
6742420011;"toys_and_games/Featured Categories/Outdoor Play/Pools & Water Fun/Pool Rafts & Inflatable Ride-ons"
6742423011;"toys_and_games/Featured Categories/Outdoor Play/Pools & Water Fun/Pool Toys"
6742424011;"toys_and_games/Featured Categories/Outdoor Play/Pools & Water Fun/Pool Toys/Dive Rings & Toys"
6742425011;"toys_and_games/Featured Categories/Outdoor Play/Pools & Water Fun/Pool Toys/Inflatable Water Slides"
6742427011;"toys_and_games/Featured Categories/Outdoor Play/Pools & Water Fun/Pool Toys/Swim Rings"
6742428011;"toys_and_games/Featured Categories/Outdoor Play/Pools & Water Fun/Sprinklers"
6742429011;"toys_and_games/Featured Categories/Outdoor Play/Pools & Water Fun/Swimming Floatation Devices"
6742430011;"toys_and_games/Featured Categories/Outdoor Play/Pools & Water Fun/Water Balloons"
6742431011;"toys_and_games/Featured Categories/Outdoor Play/Pools & Water Fun/Water Guns, Blasters & Soakers"
6742436011;"toys_and_games/Featured Categories/Outdoor Play/Sand & Water Tables"
6742437011;"toys_and_games/Featured Categories/Outdoor Play/Sandboxes & Accessories"
6742440011;"toys_and_games/Featured Categories/Outdoor Play/Slumber Bags"
6742441011;"toys_and_games/Featured Categories/Outdoor Play/Toy Sports"
6742442011;"toys_and_games/Featured Categories/Outdoor Play/Toy Sports/Toy Baseball"
6742443011;"toys_and_games/Featured Categories/Outdoor Play/Toy Sports/Toy Basketball"
6742444011;"toys_and_games/Featured Categories/Outdoor Play/Toy Sports/Toy Football"
6742445011;"toys_and_games/Featured Categories/Outdoor Play/Toy Sports/Toy Golf"
6742446011;"toys_and_games/Featured Categories/Outdoor Play/Toy Sports/Toy Hockey"
6742447011;"toys_and_games/Featured Categories/Outdoor Play/Toy Sports/Toy Soccer"
6742448011;"toys_and_games/Featured Categories/Outdoor Play/Trampolines"
6303780011;"toys_and_games/Featured Categories/Party Supplies"
6742333011;"toys_and_games/Featured Categories/Party Supplies/Balloons"
6742334011;"toys_and_games/Featured Categories/Party Supplies/Banners, Streamers & Confetti"
6742335011;"toys_and_games/Featured Categories/Party Supplies/Banners, Streamers & Confetti/Banners"
6742336011;"toys_and_games/Featured Categories/Party Supplies/Banners, Streamers & Confetti/Confetti"
6742337011;"toys_and_games/Featured Categories/Party Supplies/Banners, Streamers & Confetti/Streamers"
6742338011;"toys_and_games/Featured Categories/Party Supplies/Cake Supplies"
6742339011;"toys_and_games/Featured Categories/Party Supplies/Decorations"
6742340011;"toys_and_games/Featured Categories/Party Supplies/Invitations & Cards"
6742343011;"toys_and_games/Featured Categories/Party Supplies/Noisemakers"
6742344011;"toys_and_games/Featured Categories/Party Supplies/Party Favors"
6742345011;"toys_and_games/Featured Categories/Party Supplies/Party Games & Crafts"
6742346011;"toys_and_games/Featured Categories/Party Supplies/Party Hats"
6742347011;"toys_and_games/Featured Categories/Party Supplies/Party Packs"
6742348011;"toys_and_games/Featured Categories/Party Supplies/Party Tableware"
6742349011;"toys_and_games/Featured Categories/Party Supplies/Party Tableware/Cups"
6742350011;"toys_and_games/Featured Categories/Party Supplies/Party Tableware/Napkins"
6742351011;"toys_and_games/Featured Categories/Party Supplies/Party Tableware/Plates"
6742352011;"toys_and_games/Featured Categories/Party Supplies/Piñatas"
6742353011;"toys_and_games/Featured Categories/Party Supplies/Tablecovers & Centerpieces"
6742354011;"toys_and_games/Featured Categories/Party Supplies/Tablecovers & Centerpieces/Centerpieces"
6742355011;"toys_and_games/Featured Categories/Party Supplies/Tablecovers & Centerpieces/Tablecovers"
6303781011;"toys_and_games/Featured Categories/Puzzles"
6742356011;"toys_and_games/Featured Categories/Puzzles/3-D Puzzles"
6742357011;"toys_and_games/Featured Categories/Puzzles/Brain Teasers"
6742358011;"toys_and_games/Featured Categories/Puzzles/Brain Teasers/Assembly & Disentanglement Puzzles"
6742359011;"toys_and_games/Featured Categories/Puzzles/Brain Teasers/Maze & Sequential Puzzles"
6742360011;"toys_and_games/Featured Categories/Puzzles/Brain Teasers/Maze & Sequential Puzzles/Maze Puzzles"
6742361011;"toys_and_games/Featured Categories/Puzzles/Brain Teasers/Maze & Sequential Puzzles/Sequential Puzzles"
6742362011;"toys_and_games/Featured Categories/Puzzles/Brain Teasers/Puzzle Boxes"
6742363011;"toys_and_games/Featured Categories/Puzzles/Floor Puzzles"
6742364011;"toys_and_games/Featured Categories/Puzzles/Jigsaw Puzzles"
6742365011;"toys_and_games/Featured Categories/Puzzles/Jigsaw Puzzles/Double-Sided Puzzles"
6742366011;"toys_and_games/Featured Categories/Puzzles/Jigsaw Puzzles/Funny-Shaped Puzzles"
6742367011;"toys_and_games/Featured Categories/Puzzles/Jigsaw Puzzles/Panoramic Puzzles"
6742368011;"toys_and_games/Featured Categories/Puzzles/Jigsaw Puzzles/Photomosaic Puzzles"
6742369011;"toys_and_games/Featured Categories/Puzzles/Pegged Puzzles"
6742370011;"toys_and_games/Featured Categories/Puzzles/Puzzle Accessories"
6742371011;"toys_and_games/Featured Categories/Puzzles/Puzzle Play Mats"
6742372011;"toys_and_games/Featured Categories/Puzzles/Sudoku Puzzles"
6742373011;"toys_and_games/Featured Categories/Puzzles/Travel Puzzles"
6303783011;"toys_and_games/Featured Categories/Stuffed Animals & Plush"
6742450011;"toys_and_games/Featured Categories/Stuffed Animals & Plush/Animals & Figures"
6742451011;"toys_and_games/Featured Categories/Stuffed Animals & Plush/Plush Backpacks & Purses"
6742452011;"toys_and_games/Featured Categories/Stuffed Animals & Plush/Plush Backpacks & Purses/Plush Backpacks"
6742052011;"toys_and_games/Featured Categories/Stuffed Animals & Plush/Plush Backpacks & Purses/Plush Purses"
6742453011;"toys_and_games/Featured Categories/Stuffed Animals & Plush/Plush Pillows"
6742454011;"toys_and_games/Featured Categories/Stuffed Animals & Plush/Plush Puppets"
6742455011;"toys_and_games/Featured Categories/Stuffed Animals & Plush/Puppets"
6742456011;"toys_and_games/Featured Categories/Stuffed Animals & Plush/Puppets/Finger Puppets"
6742457011;"toys_and_games/Featured Categories/Stuffed Animals & Plush/Puppets/Hand Puppets"
6742458011;"toys_and_games/Featured Categories/Stuffed Animals & Plush/Puppets/Marionettes"
6742454011;"toys_and_games/Featured Categories/Stuffed Animals & Plush/Puppets/Plush Puppets"
6742459011;"toys_and_games/Featured Categories/Stuffed Animals & Plush/Puppets/Puppet Theaters"
6742460011;"toys_and_games/Featured Categories/Stuffed Animals & Plush/Puppets/Ventriloquist"
6742462011;"toys_and_games/Featured Categories/Stuffed Animals & Plush/Teddy Bears"
6303785011;"toys_and_games/Featured Categories/Vehicles, Trains & Remote-Control"
6742463011;"toys_and_games/Featured Categories/Vehicles, Trains & Remote-Control/Die-Cast Vehicles"
6742465011;"toys_and_games/Featured Categories/Vehicles, Trains & Remote-Control/Play Trains & Railway Sets"
6742473011;"toys_and_games/Featured Categories/Vehicles, Trains & Remote-Control/Play Vehicles"
6742475011;"toys_and_games/Featured Categories/Vehicles, Trains & Remote-Control/Radio & Remote Control"
6742490011;"toys_and_games/Featured Categories/Vehicles, Trains & Remote-Control/Vehicle Playsets"
