1571293031;"illuminazione/Categorie"
1849540031;"illuminazione/Categorie/Illuminazione per esterni"
4108388031;"illuminazione/Categorie/Illuminazione per esterni/Accessori"
4108390031;"illuminazione/Categorie/Illuminazione per esterni/Accessori/Olio per lampade"
4108391031;"illuminazione/Categorie/Illuminazione per esterni/Accessori/Trasformatori a bassa intensità"
1904555031;"illuminazione/Categorie/Illuminazione per esterni/Catene luminose"
4108375031;"illuminazione/Categorie/Illuminazione per esterni/Lampade da incasso a terra"
1904556031;"illuminazione/Categorie/Illuminazione per esterni/Lampade da parete"
4108395031;"illuminazione/Categorie/Illuminazione per esterni/Lampade da tavolo"
4108396031;"illuminazione/Categorie/Illuminazione per esterni/Lampioni"
1904557031;"illuminazione/Categorie/Illuminazione per esterni/Lanterne"
1904558031;"illuminazione/Categorie/Illuminazione per esterni/Luci di sicurezza"
1904559031;"illuminazione/Categorie/Illuminazione per esterni/Luci per laghetto"
4108398031;"illuminazione/Categorie/Illuminazione per esterni/Luci per ombrellone"
1904560031;"illuminazione/Categorie/Illuminazione per esterni/Luci per sentieri"
4108397031;"illuminazione/Categorie/Illuminazione per esterni/Luci solari"
1904561031;"illuminazione/Categorie/Illuminazione per esterni/Proiettori"
1904562031;"illuminazione/Categorie/Illuminazione per esterni/Strisce LED"
1904563031;"illuminazione/Categorie/Illuminazione per esterni/Torce da giardino"
1849538031;"illuminazione/Categorie/Illuminazione per interni"
1904564031;"illuminazione/Categorie/Illuminazione per interni/Faretti"
1904596031;"illuminazione/Categorie/Illuminazione per interni/Faretti/Sistemi di illuminazione a cavo e su binario"
1904565031;"illuminazione/Categorie/Illuminazione per interni/Luci da toletta"
1904566031;"illuminazione/Categorie/Illuminazione per interni/Illuminazione per bambini"
1904567031;"illuminazione/Categorie/Illuminazione per interni/Illuminazione per bambini/Lampadari"
1904568031;"illuminazione/Categorie/Illuminazione per interni/Illuminazione per bambini/Lampade da scrivania"
1904569031;"illuminazione/Categorie/Illuminazione per interni/Illuminazione per bambini/Lampade da tavolo e abat-jour"
1904570031;"illuminazione/Categorie/Illuminazione per interni/Illuminazione per bambini/Luci notturne per bambini"
1904571031;"illuminazione/Categorie/Illuminazione per interni/Illuminazione per bambini/Torce"
1904572031;"illuminazione/Categorie/Illuminazione per interni/Illuminazione speciale"
1904573031;"illuminazione/Categorie/Illuminazione per interni/Illuminazione speciale/Candele a LED"
1904574031;"illuminazione/Categorie/Illuminazione per interni/Illuminazione speciale/Catene luminose"
1904575031;"illuminazione/Categorie/Illuminazione per interni/Illuminazione speciale/Lampade da libro"
1904576031;"illuminazione/Categorie/Illuminazione per interni/Illuminazione speciale/Lava lamp"
1904577031;"illuminazione/Categorie/Illuminazione per interni/Illuminazione speciale/Luci da officina"
1904578031;"illuminazione/Categorie/Illuminazione per interni/Illuminazione speciale/Luci notturne"
1904579031;"illuminazione/Categorie/Illuminazione per interni/Illuminazione speciale/Mood Lights"
1904580031;"illuminazione/Categorie/Illuminazione per interni/Illuminazione speciale/Strisce LED"
1904581031;"illuminazione/Categorie/Illuminazione per interni/Illuminazione speciale/Ventilatori da soffitto con lampada"
1904583031;"illuminazione/Categorie/Illuminazione per interni/Lampade"
1904587031;"illuminazione/Categorie/Illuminazione per interni/Lampade/Basi per lampade"
1904588031;"illuminazione/Categorie/Illuminazione per interni/Lampade/Lampade da lavoro"
1904589031;"illuminazione/Categorie/Illuminazione per interni/Lampade/Lampade da tavolo e abat-jour"
1904590031;"illuminazione/Categorie/Illuminazione per interni/Lampade/Lampade da terra"
1904591031;"illuminazione/Categorie/Illuminazione per interni/Lampade/Paralumi"
1904585031;"illuminazione/Categorie/Illuminazione per interni/Lampade con pinza"
1904586031;"illuminazione/Categorie/Illuminazione per interni/Illuminazioni per pareti"
1904592031;"illuminazione/Categorie/Illuminazione per interni/Illuminazioni per pareti/Luci da esposizione"
1904593031;"illuminazione/Categorie/Illuminazione per interni/Luci da incasso"
1904597031;"illuminazione/Categorie/Illuminazione per interni/Wake-up Light"
3837406031;"illuminazione/Categorie/Illuminazione per interni/Lampadari, lampade a sospensione e plafoniere"
1904582031;"illuminazione/Categorie/Illuminazione per interni/Lampadari, lampade a sospensione e plafoniere/Lampadari"
1904584031;"illuminazione/Categorie/Illuminazione per interni/Lampadari, lampade a sospensione e plafoniere/Lampade a sospensione"
1904594031;"illuminazione/Categorie/Illuminazione per interni/Lampadari, lampade a sospensione e plafoniere/Plafoniere"
1904595031;"illuminazione/Categorie/Illuminazione per interni/Lampadari, lampade a sospensione e plafoniere/Plafoniere da ufficio"
1904596031;"illuminazione/Categorie/Illuminazione per interni/Lampadari, lampade a sospensione e plafoniere/Sistemi di illuminazione a cavo e su binario"
1904581031;"illuminazione/Categorie/Illuminazione per interni/Lampadari, lampade a sospensione e plafoniere/Ventilatori da soffitto con lampada"
1849539031;"illuminazione/Categorie/Lampadine"
1904598031;"illuminazione/Categorie/Lampadine/Fari da palco"
1904599031;"illuminazione/Categorie/Lampadine/Lampadine a incandescenza"
1904600031;"illuminazione/Categorie/Lampadine/Lampadine a LED"
1904601031;"illuminazione/Categorie/Lampadine/Lampadine a risparmio energetico"
1904602031;"illuminazione/Categorie/Lampadine/Lampadine a scarica ad alta intensità"
1904603031;"illuminazione/Categorie/Lampadine/Lampadine a scarica ad alta intensità/Lampadine a ioduri metallici"
1904604031;"illuminazione/Categorie/Lampadine/Lampadine a scarica ad alta intensità/Lampadine a vapore di mercurio"
1904605031;"illuminazione/Categorie/Lampadine/Lampadine a scarica ad alta intensità/Lampadine a vapori di sodio ad alta pressione"
1904606031;"illuminazione/Categorie/Lampadine/Lampadine a scarica ad alta intensità/Lampadine allo xeno e al kripton"
1904607031;"illuminazione/Categorie/Lampadine/Lampadine alogene"
1904608031;"illuminazione/Categorie/Lampadine/Lampadine fluorescenti e al neon"
4108329031;"illuminazione/Categorie/Lampadine/Lampadine OLED"
1904609031;"illuminazione/Categorie/Lampadine/Lampadine speciali"
1904613031;"illuminazione/Categorie/Lampadine/Lampadine spot"
4108347031;"illuminazione/Categorie/Lampadine/Lampadine UV"
3837356031;"illuminazione/Categorie/Luci natalizie"
1849537031;"illuminazione/Categorie/Materiale elettrico"
1904615031;"illuminazione/Categorie/Materiale elettrico/Attrezzatura elettrica"
1904616031;"illuminazione/Categorie/Materiale elettrico/Attrezzatura elettrica/Cavi di corrente"
1904617031;"illuminazione/Categorie/Materiale elettrico/Attrezzatura elettrica/Connettori CEE"
1904618031;"illuminazione/Categorie/Materiale elettrico/Attrezzatura elettrica/Prese CEE"
1904619031;"illuminazione/Categorie/Materiale elettrico/Attrezzatura elettrica/Prolunghe CEE"
1904620031;"illuminazione/Categorie/Materiale elettrico/Attrezzatura elettrica/Spine CEE"
1904621031;"illuminazione/Categorie/Materiale elettrico/Attrezzi e tester"
1904622031;"illuminazione/Categorie/Materiale elettrico/Attrezzi e tester/Amperometri"
1904623031;"illuminazione/Categorie/Materiale elettrico/Attrezzi e tester/Attrezzi per inserimento ed estrazione cavi"
1904624031;"illuminazione/Categorie/Materiale elettrico/Attrezzi e tester/Multimetri"
1904625031;"illuminazione/Categorie/Materiale elettrico/Attrezzi e tester/Ohmetri"
1904626031;"illuminazione/Categorie/Materiale elettrico/Attrezzi e tester/Pinze spelafili"
1904627031;"illuminazione/Categorie/Materiale elettrico/Attrezzi e tester/Rilevatori di tensione"
473570031;"illuminazione/Categorie/Materiale elettrico/Attrezzi e tester/Tester per batterie"
1904629031;"illuminazione/Categorie/Materiale elettrico/Attrezzi e tester/Tester per circuiti elettrici"
1904630031;"illuminazione/Categorie/Materiale elettrico/Avvolgicavi"
1904637031;"illuminazione/Categorie/Materiale elettrico/Cablaggio di superficie"
1904631031;"illuminazione/Categorie/Materiale elettrico/Capicorda"
1904632031;"illuminazione/Categorie/Materiale elettrico/Cavi"
1904633031;"illuminazione/Categorie/Materiale elettrico/Cavi elettrici"
1904634031;"illuminazione/Categorie/Materiale elettrico/Citofoni"
1904635031;"illuminazione/Categorie/Materiale elettrico/Fascette stringicavo"
1904636031;"illuminazione/Categorie/Materiale elettrico/Fusibili"
1904647031;"illuminazione/Categorie/Materiale elettrico/Interruttori automatici"
1904648031;"illuminazione/Categorie/Materiale elettrico/Interruttori e dimmer"
1904655031;"illuminazione/Categorie/Materiale elettrico/Misuratori di corrente"
1904656031;"illuminazione/Categorie/Materiale elettrico/Multiprese"
1904657031;"illuminazione/Categorie/Materiale elettrico/Placche"
1904658031;"illuminazione/Categorie/Materiale elettrico/Placche/Placche cieche"
1904659031;"illuminazione/Categorie/Materiale elettrico/Placche/Placche combinate interruttori e prese"
1904660031;"illuminazione/Categorie/Materiale elettrico/Placche/Placche per interruttori"
1904661031;"illuminazione/Categorie/Materiale elettrico/Placche/Placche per prese"
1904662031;"illuminazione/Categorie/Materiale elettrico/Placche autoportanti"
1904668031;"illuminazione/Categorie/Materiale elettrico/Prese a muro"
1904671031;"illuminazione/Categorie/Materiale elettrico/Quadri elettrici"
1904672031;"illuminazione/Categorie/Materiale elettrico/Raccordi per tubi"
1904673031;"illuminazione/Categorie/Materiale elettrico/Radiotrasmettitori a parete"
1904674031;"illuminazione/Categorie/Materiale elettrico/Salvavita"
1904675031;"illuminazione/Categorie/Materiale elettrico/Spine e prese schuko"
1904676031;"illuminazione/Categorie/Materiale elettrico/Spine e prese schuko/Prese schuko"
1904677031;"illuminazione/Categorie/Materiale elettrico/Spine e prese schuko/Spine schuko"
1904678031;"illuminazione/Categorie/Materiale elettrico/Timer"
1904679031;"illuminazione/Categorie/Materiale elettrico/Trasformatori"
969755031;"illuminazione/Categorie/Torce"
1597349031;"illuminazione/Featured Categories"
1849540031;"illuminazione/Featured Categories/Illuminazione per esterni"
4108388031;"illuminazione/Featured Categories/Illuminazione per esterni/Accessori"
4108390031;"illuminazione/Featured Categories/Illuminazione per esterni/Accessori/Olio per lampade"
4108391031;"illuminazione/Featured Categories/Illuminazione per esterni/Accessori/Trasformatori a bassa intensità"
1904555031;"illuminazione/Featured Categories/Illuminazione per esterni/Catene luminose"
4108375031;"illuminazione/Featured Categories/Illuminazione per esterni/Lampade da incasso a terra"
1904556031;"illuminazione/Featured Categories/Illuminazione per esterni/Lampade da parete"
4108395031;"illuminazione/Featured Categories/Illuminazione per esterni/Lampade da tavolo"
4108396031;"illuminazione/Featured Categories/Illuminazione per esterni/Lampioni"
1904557031;"illuminazione/Featured Categories/Illuminazione per esterni/Lanterne"
1904558031;"illuminazione/Featured Categories/Illuminazione per esterni/Luci di sicurezza"
1904559031;"illuminazione/Featured Categories/Illuminazione per esterni/Luci per laghetto"
4108398031;"illuminazione/Featured Categories/Illuminazione per esterni/Luci per ombrellone"
1904560031;"illuminazione/Featured Categories/Illuminazione per esterni/Luci per sentieri"
4108397031;"illuminazione/Featured Categories/Illuminazione per esterni/Luci solari"
1904561031;"illuminazione/Featured Categories/Illuminazione per esterni/Proiettori"
1904562031;"illuminazione/Featured Categories/Illuminazione per esterni/Strisce LED"
1904563031;"illuminazione/Featured Categories/Illuminazione per esterni/Torce da giardino"
1849538031;"illuminazione/Featured Categories/Illuminazione per interni"
1904564031;"illuminazione/Featured Categories/Illuminazione per interni/Faretti"
1904596031;"illuminazione/Featured Categories/Illuminazione per interni/Faretti/Sistemi di illuminazione a cavo e su binario"
1904565031;"illuminazione/Featured Categories/Illuminazione per interni/Luci da toletta"
1904566031;"illuminazione/Featured Categories/Illuminazione per interni/Illuminazione per bambini"
1904567031;"illuminazione/Featured Categories/Illuminazione per interni/Illuminazione per bambini/Lampadari"
1904568031;"illuminazione/Featured Categories/Illuminazione per interni/Illuminazione per bambini/Lampade da scrivania"
1904569031;"illuminazione/Featured Categories/Illuminazione per interni/Illuminazione per bambini/Lampade da tavolo e abat-jour"
1904570031;"illuminazione/Featured Categories/Illuminazione per interni/Illuminazione per bambini/Luci notturne per bambini"
1904571031;"illuminazione/Featured Categories/Illuminazione per interni/Illuminazione per bambini/Torce"
1904572031;"illuminazione/Featured Categories/Illuminazione per interni/Illuminazione speciale"
1904573031;"illuminazione/Featured Categories/Illuminazione per interni/Illuminazione speciale/Candele a LED"
1904574031;"illuminazione/Featured Categories/Illuminazione per interni/Illuminazione speciale/Catene luminose"
1904575031;"illuminazione/Featured Categories/Illuminazione per interni/Illuminazione speciale/Lampade da libro"
1904576031;"illuminazione/Featured Categories/Illuminazione per interni/Illuminazione speciale/Lava lamp"
1904577031;"illuminazione/Featured Categories/Illuminazione per interni/Illuminazione speciale/Luci da officina"
1904578031;"illuminazione/Featured Categories/Illuminazione per interni/Illuminazione speciale/Luci notturne"
1904579031;"illuminazione/Featured Categories/Illuminazione per interni/Illuminazione speciale/Mood Lights"
1904580031;"illuminazione/Featured Categories/Illuminazione per interni/Illuminazione speciale/Strisce LED"
1904581031;"illuminazione/Featured Categories/Illuminazione per interni/Illuminazione speciale/Ventilatori da soffitto con lampada"
1904583031;"illuminazione/Featured Categories/Illuminazione per interni/Lampade"
1904587031;"illuminazione/Featured Categories/Illuminazione per interni/Lampade/Basi per lampade"
1904588031;"illuminazione/Featured Categories/Illuminazione per interni/Lampade/Lampade da lavoro"
1904589031;"illuminazione/Featured Categories/Illuminazione per interni/Lampade/Lampade da tavolo e abat-jour"
1904590031;"illuminazione/Featured Categories/Illuminazione per interni/Lampade/Lampade da terra"
1904591031;"illuminazione/Featured Categories/Illuminazione per interni/Lampade/Paralumi"
1904585031;"illuminazione/Featured Categories/Illuminazione per interni/Lampade con pinza"
1904586031;"illuminazione/Featured Categories/Illuminazione per interni/Illuminazioni per pareti"
1904592031;"illuminazione/Featured Categories/Illuminazione per interni/Illuminazioni per pareti/Luci da esposizione"
1904593031;"illuminazione/Featured Categories/Illuminazione per interni/Luci da incasso"
1904597031;"illuminazione/Featured Categories/Illuminazione per interni/Wake-up Light"
3837406031;"illuminazione/Featured Categories/Illuminazione per interni/Lampadari, lampade a sospensione e plafoniere"
1904582031;"illuminazione/Featured Categories/Illuminazione per interni/Lampadari, lampade a sospensione e plafoniere/Lampadari"
1904584031;"illuminazione/Featured Categories/Illuminazione per interni/Lampadari, lampade a sospensione e plafoniere/Lampade a sospensione"
1904594031;"illuminazione/Featured Categories/Illuminazione per interni/Lampadari, lampade a sospensione e plafoniere/Plafoniere"
1904595031;"illuminazione/Featured Categories/Illuminazione per interni/Lampadari, lampade a sospensione e plafoniere/Plafoniere da ufficio"
1904596031;"illuminazione/Featured Categories/Illuminazione per interni/Lampadari, lampade a sospensione e plafoniere/Sistemi di illuminazione a cavo e su binario"
1904581031;"illuminazione/Featured Categories/Illuminazione per interni/Lampadari, lampade a sospensione e plafoniere/Ventilatori da soffitto con lampada"
1849539031;"illuminazione/Featured Categories/Lampadine"
1904598031;"illuminazione/Featured Categories/Lampadine/Fari da palco"
1904599031;"illuminazione/Featured Categories/Lampadine/Lampadine a incandescenza"
1904600031;"illuminazione/Featured Categories/Lampadine/Lampadine a LED"
1904601031;"illuminazione/Featured Categories/Lampadine/Lampadine a risparmio energetico"
1904602031;"illuminazione/Featured Categories/Lampadine/Lampadine a scarica ad alta intensità"
1904603031;"illuminazione/Featured Categories/Lampadine/Lampadine a scarica ad alta intensità/Lampadine a ioduri metallici"
1904604031;"illuminazione/Featured Categories/Lampadine/Lampadine a scarica ad alta intensità/Lampadine a vapore di mercurio"
1904605031;"illuminazione/Featured Categories/Lampadine/Lampadine a scarica ad alta intensità/Lampadine a vapori di sodio ad alta pressione"
1904606031;"illuminazione/Featured Categories/Lampadine/Lampadine a scarica ad alta intensità/Lampadine allo xeno e al kripton"
1904607031;"illuminazione/Featured Categories/Lampadine/Lampadine alogene"
1904608031;"illuminazione/Featured Categories/Lampadine/Lampadine fluorescenti e al neon"
4108329031;"illuminazione/Featured Categories/Lampadine/Lampadine OLED"
1904609031;"illuminazione/Featured Categories/Lampadine/Lampadine speciali"
1904613031;"illuminazione/Featured Categories/Lampadine/Lampadine spot"
4108347031;"illuminazione/Featured Categories/Lampadine/Lampadine UV"
1849537031;"illuminazione/Featured Categories/Materiale elettrico"
1904615031;"illuminazione/Featured Categories/Materiale elettrico/Attrezzatura elettrica"
1904616031;"illuminazione/Featured Categories/Materiale elettrico/Attrezzatura elettrica/Cavi di corrente"
1904617031;"illuminazione/Featured Categories/Materiale elettrico/Attrezzatura elettrica/Connettori CEE"
1904618031;"illuminazione/Featured Categories/Materiale elettrico/Attrezzatura elettrica/Prese CEE"
1904619031;"illuminazione/Featured Categories/Materiale elettrico/Attrezzatura elettrica/Prolunghe CEE"
1904620031;"illuminazione/Featured Categories/Materiale elettrico/Attrezzatura elettrica/Spine CEE"
1904621031;"illuminazione/Featured Categories/Materiale elettrico/Attrezzi e tester"
1904622031;"illuminazione/Featured Categories/Materiale elettrico/Attrezzi e tester/Amperometri"
1904623031;"illuminazione/Featured Categories/Materiale elettrico/Attrezzi e tester/Attrezzi per inserimento ed estrazione cavi"
1904624031;"illuminazione/Featured Categories/Materiale elettrico/Attrezzi e tester/Multimetri"
1904625031;"illuminazione/Featured Categories/Materiale elettrico/Attrezzi e tester/Ohmetri"
1904626031;"illuminazione/Featured Categories/Materiale elettrico/Attrezzi e tester/Pinze spelafili"
1904627031;"illuminazione/Featured Categories/Materiale elettrico/Attrezzi e tester/Rilevatori di tensione"
473570031;"illuminazione/Featured Categories/Materiale elettrico/Attrezzi e tester/Tester per batterie"
1904629031;"illuminazione/Featured Categories/Materiale elettrico/Attrezzi e tester/Tester per circuiti elettrici"
1904630031;"illuminazione/Featured Categories/Materiale elettrico/Avvolgicavi"
1904637031;"illuminazione/Featured Categories/Materiale elettrico/Cablaggio di superficie"
1904631031;"illuminazione/Featured Categories/Materiale elettrico/Capicorda"
1904632031;"illuminazione/Featured Categories/Materiale elettrico/Cavi"
1904633031;"illuminazione/Featured Categories/Materiale elettrico/Cavi elettrici"
1904634031;"illuminazione/Featured Categories/Materiale elettrico/Citofoni"
1904635031;"illuminazione/Featured Categories/Materiale elettrico/Fascette stringicavo"
1904636031;"illuminazione/Featured Categories/Materiale elettrico/Fusibili"
1904647031;"illuminazione/Featured Categories/Materiale elettrico/Interruttori automatici"
1904648031;"illuminazione/Featured Categories/Materiale elettrico/Interruttori e dimmer"
1904655031;"illuminazione/Featured Categories/Materiale elettrico/Misuratori di corrente"
1904656031;"illuminazione/Featured Categories/Materiale elettrico/Multiprese"
1904657031;"illuminazione/Featured Categories/Materiale elettrico/Placche"
1904658031;"illuminazione/Featured Categories/Materiale elettrico/Placche/Placche cieche"
1904659031;"illuminazione/Featured Categories/Materiale elettrico/Placche/Placche combinate interruttori e prese"
1904660031;"illuminazione/Featured Categories/Materiale elettrico/Placche/Placche per interruttori"
1904661031;"illuminazione/Featured Categories/Materiale elettrico/Placche/Placche per prese"
1904662031;"illuminazione/Featured Categories/Materiale elettrico/Placche autoportanti"
1904668031;"illuminazione/Featured Categories/Materiale elettrico/Prese a muro"
1904671031;"illuminazione/Featured Categories/Materiale elettrico/Quadri elettrici"
1904672031;"illuminazione/Featured Categories/Materiale elettrico/Raccordi per tubi"
1904673031;"illuminazione/Featured Categories/Materiale elettrico/Radiotrasmettitori a parete"
1904674031;"illuminazione/Featured Categories/Materiale elettrico/Salvavita"
1904675031;"illuminazione/Featured Categories/Materiale elettrico/Spine e prese schuko"
1904676031;"illuminazione/Featured Categories/Materiale elettrico/Spine e prese schuko/Prese schuko"
1904677031;"illuminazione/Featured Categories/Materiale elettrico/Spine e prese schuko/Spine schuko"
1904678031;"illuminazione/Featured Categories/Materiale elettrico/Timer"
1904679031;"illuminazione/Featured Categories/Materiale elettrico/Trasformatori"
969755031;"illuminazione/Featured Categories/Torce"
1571294031;"illuminazione/Ricerca avanzata"
