2454164031;"gioielli/Categorie"
3061175031;"gioielli/Categorie/Accessori"
3061200031;"gioielli/Categorie/Accessori/Anelliere"
3061201031;"gioielli/Categorie/Accessori/Cofanetti e scatole"
3061213031;"gioielli/Categorie/Accessori/Cofanetti e scatole/Armadietti"
3061212031;"gioielli/Categorie/Accessori/Cofanetti e scatole/Cofanetti"
3061214031;"gioielli/Categorie/Accessori/Cofanetti e scatole/Rotoli"
3061215031;"gioielli/Categorie/Accessori/Cofanetti e scatole/Scatole"
3061216031;"gioielli/Categorie/Accessori/Cofanetti e scatole/Svuotatasche"
3061217031;"gioielli/Categorie/Accessori/Cofanetti e scatole/Torri"
3061202031;"gioielli/Categorie/Accessori/Cuscini portafedi"
3061203031;"gioielli/Categorie/Accessori/Pulizia e cura"
3061176031;"gioielli/Categorie/Anelli"
3061177031;"gioielli/Categorie/Basi per orecchini"
3061197031;"gioielli/Categorie/Bead"
3061178031;"gioielli/Categorie/Bottoni eleganti per camicie"
3061179031;"gioielli/Categorie/Bracciali"
3061180031;"gioielli/Categorie/Cavigliere"
3061182031;"gioielli/Categorie/Charm e ciondoli per bracciali"
3061181031;"gioielli/Categorie/Chiusure per orecchini"
3061184031;"gioielli/Categorie/Collane"
3061196031;"gioielli/Categorie/Collane con pendente"
3061185031;"gioielli/Categorie/Distanziatori per bead"
3061186031;"gioielli/Categorie/Fedi nuziali"
3061187031;"gioielli/Categorie/Fermacravatte"
3061188031;"gioielli/Categorie/Garanzie"
3061189031;"gioielli/Categorie/Gemelli"
3061190031;"gioielli/Categorie/Gemme"
3061191031;"gioielli/Categorie/Gioielli per capelli"
3061192031;"gioielli/Categorie/Gioielli per il corpo"
3061193031;"gioielli/Categorie/Monete preziose"
3061194031;"gioielli/Categorie/Orecchini"
3061195031;"gioielli/Categorie/Parure"
3061183031;"gioielli/Categorie/Pendenti e ciondoli per collane"
3061198031;"gioielli/Categorie/Spille e fermagli"
3061199031;"gioielli/Categorie/Spilli per cravatta"
2842748031;"gioielli/Featured Categories"
3061175031;"gioielli/Featured Categories/Accessori"
3061200031;"gioielli/Featured Categories/Accessori/Anelliere"
3061201031;"gioielli/Featured Categories/Accessori/Cofanetti e scatole"
3061213031;"gioielli/Featured Categories/Accessori/Cofanetti e scatole/Armadietti"
3061212031;"gioielli/Featured Categories/Accessori/Cofanetti e scatole/Cofanetti"
3061214031;"gioielli/Featured Categories/Accessori/Cofanetti e scatole/Rotoli"
3061215031;"gioielli/Featured Categories/Accessori/Cofanetti e scatole/Scatole"
3061216031;"gioielli/Featured Categories/Accessori/Cofanetti e scatole/Svuotatasche"
3061217031;"gioielli/Featured Categories/Accessori/Cofanetti e scatole/Torri"
3061202031;"gioielli/Featured Categories/Accessori/Cuscini portafedi"
3061203031;"gioielli/Featured Categories/Accessori/Pulizia e cura"
3061176031;"gioielli/Featured Categories/Anelli"
3061177031;"gioielli/Featured Categories/Basi per orecchini"
3061197031;"gioielli/Featured Categories/Bead"
3061178031;"gioielli/Featured Categories/Bottoni eleganti per camicie"
3061179031;"gioielli/Featured Categories/Bracciali"
3061180031;"gioielli/Featured Categories/Cavigliere"
3061182031;"gioielli/Featured Categories/Charm e ciondoli per bracciali"
3061181031;"gioielli/Featured Categories/Chiusure per orecchini"
3061184031;"gioielli/Featured Categories/Collane"
3061196031;"gioielli/Featured Categories/Collane con pendente"
3061185031;"gioielli/Featured Categories/Distanziatori per bead"
3061186031;"gioielli/Featured Categories/Fedi nuziali"
3061187031;"gioielli/Featured Categories/Fermacravatte"
3061188031;"gioielli/Featured Categories/Garanzie"
3061189031;"gioielli/Featured Categories/Gemelli"
3061190031;"gioielli/Featured Categories/Gemme"
3061191031;"gioielli/Featured Categories/Gioielli per capelli"
3061192031;"gioielli/Featured Categories/Gioielli per il corpo"
3061193031;"gioielli/Featured Categories/Monete preziose"
3061194031;"gioielli/Featured Categories/Orecchini"
3061195031;"gioielli/Featured Categories/Parure"
3061183031;"gioielli/Featured Categories/Pendenti e ciondoli per collane"
3061198031;"gioielli/Featured Categories/Spille e fermagli"
3061199031;"gioielli/Featured Categories/Spilli per cravatta"
3065315031;"gioielli/Ricerca avanzata"
