1703496031;"bebe/Categorías"
1862262031;"bebe/Categorías/Actividad y entretenimiento"
1909280031;"bebe/Categorías/Actividad y entretenimiento/Alfombras de juego y gimnasios"
1909282031;"bebe/Categorías/Actividad y entretenimiento/Andadores"
1642124031;"bebe/Categorías/Actividad y entretenimiento/Cajas de música"
1909279031;"bebe/Categorías/Actividad y entretenimiento/Columpios interiores"
1642120031;"bebe/Categorías/Actividad y entretenimiento/Juguetes de baño"
1909594031;"bebe/Categorías/Actividad y entretenimiento/Móviles"
1909281031;"bebe/Categorías/Actividad y entretenimiento/Sillas mecedoras"
1862266031;"bebe/Categorías/Cambio de pañales"
1909456031;"bebe/Categorías/Cambio de pañales/Bolsos cambiadores"
4081311031;"bebe/Categorías/Cambio de pañales/Bolsos cambiadores/Bolsas"
4081310031;"bebe/Categorías/Cambio de pañales/Bolsos cambiadores/Bolsos"
4081309031;"bebe/Categorías/Cambio de pañales/Bolsos cambiadores/Bolsos bandolera"
1909455031;"bebe/Categorías/Cambio de pañales/Bolsos cambiadores/Mochilas para pañales"
1909559031;"bebe/Categorías/Cambio de pañales/Cambiadores"
1909453031;"bebe/Categorías/Cambio de pañales/Colchones y mantas para cambiador"
1909307031;"bebe/Categorías/Cambio de pañales/Cremas lenitivas"
1909458031;"bebe/Categorías/Cambio de pañales/Cubos de basura para pañales y recambios"
1909457031;"bebe/Categorías/Cambio de pañales/Forros para pañales"
1909459031;"bebe/Categorías/Cambio de pañales/Guardapañales"
1909454031;"bebe/Categorías/Cambio de pañales/Kits para cambio de pañales"
1909460031;"bebe/Categorías/Cambio de pañales/Pañales"
1909461031;"bebe/Categorías/Cambio de pañales/Pañales/Pañales de tela"
1909462031;"bebe/Categorías/Cambio de pañales/Pañales/Pañales desechables"
1909463031;"bebe/Categorías/Cambio de pañales/Pañales/Pañales desechables para nadar"
1909464031;"bebe/Categorías/Cambio de pañales/Pañales/Pañales desechables de entrenamiento"
1909465031;"bebe/Categorías/Cambio de pañales/Pañales/Tartas de pañales"
4081299031;"bebe/Categorías/Cambio de pañales/Toallitas y accesorios"
4081300031;"bebe/Categorías/Cambio de pañales/Toallitas y accesorios/Bolas y discos de algodón"
4081303031;"bebe/Categorías/Cambio de pañales/Toallitas y accesorios/Calentadores de toallitas"
4081302031;"bebe/Categorías/Cambio de pañales/Toallitas y accesorios/Estuches y dispensadores para toallitas"
1909313031;"bebe/Categorías/Cambio de pañales/Toallitas y accesorios/Toallitas húmedas"
4081301031;"bebe/Categorías/Cambio de pañales/Toallitas y accesorios/Toallitas secas"
4081304031;"bebe/Categorías/Cambio de pañales/Toallitas y accesorios/Toallitas y repuestos"
1862261031;"bebe/Categorías/Carritos y sillas de paseo"
1909632031;"bebe/Categorías/Carritos y sillas de paseo/Accesorios"
4081307031;"bebe/Categorías/Carritos y sillas de paseo/Accesorios/Adaptadores para sillas de coche"
4081337031;"bebe/Categorías/Carritos y sillas de paseo/Accesorios/Almohadillas eléctricas"
1909638031;"bebe/Categorías/Carritos y sillas de paseo/Accesorios/Bolsas de transporte"
1909456031;"bebe/Categorías/Carritos y sillas de paseo/Accesorios/Bolsos cambiadores"
4081311031;"bebe/Categorías/Carritos y sillas de paseo/Accesorios/Bolsos cambiadores/Bolsas"
4081310031;"bebe/Categorías/Carritos y sillas de paseo/Accesorios/Bolsos cambiadores/Bolsos"
4081309031;"bebe/Categorías/Carritos y sillas de paseo/Accesorios/Bolsos cambiadores/Bolsos bandolera"
1909455031;"bebe/Categorías/Carritos y sillas de paseo/Accesorios/Bolsos cambiadores/Mochilas para pañales"
1909642031;"bebe/Categorías/Carritos y sillas de paseo/Accesorios/Cestas de la compra"
1909646031;"bebe/Categorías/Carritos y sillas de paseo/Accesorios/Chasis"
1642125031;"bebe/Categorías/Carritos y sillas de paseo/Accesorios/Colgantes para cochecitos"
1909636031;"bebe/Categorías/Carritos y sillas de paseo/Accesorios/Mantas contra el sol"
1909639031;"bebe/Categorías/Carritos y sillas de paseo/Accesorios/Mantas y sábanas"
1909641031;"bebe/Categorías/Carritos y sillas de paseo/Accesorios/Mosquiteras"
1909637031;"bebe/Categorías/Carritos y sillas de paseo/Accesorios/Parasoles"
1909640031;"bebe/Categorías/Carritos y sillas de paseo/Accesorios/Plataformas para carritos"
1909644031;"bebe/Categorías/Carritos y sillas de paseo/Accesorios/Protecciones contra agua y viento"
1909634031;"bebe/Categorías/Carritos y sillas de paseo/Accesorios/Reductores de asiento"
1909633031;"bebe/Categorías/Carritos y sillas de paseo/Accesorios/Reposacabezas"
1909643031;"bebe/Categorías/Carritos y sillas de paseo/Accesorios/Sacos de abrigo"
1909645031;"bebe/Categorías/Carritos y sillas de paseo/Accesorios/Sillas"
1909635031;"bebe/Categorías/Carritos y sillas de paseo/Accesorios/Sistemas de bolsillos y soportes"
1909647031;"bebe/Categorías/Carritos y sillas de paseo/Capazos"
1909650031;"bebe/Categorías/Carritos y sillas de paseo/Sillas de paseo"
1909648031;"bebe/Categorías/Carritos y sillas de paseo/Carritos deportivos"
1909649031;"bebe/Categorías/Carritos y sillas de paseo/Carritos con capazo"
1909651031;"bebe/Categorías/Carritos y sillas de paseo/Sistemas de viaje"
1862267031;"bebe/Categorías/Chupetes y mordedores"
1909625031;"bebe/Categorías/Chupetes y mordedores/Cadenas para chupetes"
1909624031;"bebe/Categorías/Chupetes y mordedores/Chupetes"
1909623031;"bebe/Categorías/Chupetes y mordedores/Fundas para chupetes"
1909626031;"bebe/Categorías/Chupetes y mordedores/Mordedores"
1862260031;"bebe/Categorías/Dormitorio"
1909517031;"bebe/Categorías/Dormitorio/Ropa de cama"
1909532031;"bebe/Categorías/Dormitorio/Ropa de cama/Accesorios para camas"
1909534031;"bebe/Categorías/Dormitorio/Ropa de cama/Accesorios para camas/Barandillas para camas"
1909535031;"bebe/Categorías/Dormitorio/Ropa de cama/Accesorios para camas/Doseles"
1909533031;"bebe/Categorías/Dormitorio/Ropa de cama/Accesorios para camas/Juegos de accesorios para camas"
1909536031;"bebe/Categorías/Dormitorio/Ropa de cama/Accesorios para camas/Mosquiteras"
4081313031;"bebe/Categorías/Dormitorio/Ropa de cama/Accesorios para camas/Protectores para cunas y camas de bebé"
4081314031;"bebe/Categorías/Dormitorio/Ropa de cama/Almohadas"
3250013031;"bebe/Categorías/Dormitorio/Ropa de cama/Almohadas de maternidad"
1909518031;"bebe/Categorías/Dormitorio/Ropa de cama/Cojines"
1909519031;"bebe/Categorías/Dormitorio/Ropa de cama/Colchones"
1909523031;"bebe/Categorías/Dormitorio/Ropa de cama/Colchones/Colchones para camas infantiles"
1909520031;"bebe/Categorías/Dormitorio/Ropa de cama/Colchones/Colchones para capazos"
1909521031;"bebe/Categorías/Dormitorio/Ropa de cama/Colchones/Colchones para cunas"
1909522031;"bebe/Categorías/Dormitorio/Ropa de cama/Colchones/Colchones para parques infantiles"
1909547031;"bebe/Categorías/Dormitorio/Ropa de cama/Mantas envolventes"
1909545031;"bebe/Categorías/Dormitorio/Ropa de cama/Mantitas de arrullo"
1909548031;"bebe/Categorías/Dormitorio/Ropa de cama/Ropa de cama infantil"
1909549031;"bebe/Categorías/Dormitorio/Ropa de cama/Ropa de cama infantil/Juegos de sábanas"
1909550031;"bebe/Categorías/Dormitorio/Ropa de cama/Ropa de cama infantil/Mantas"
1909551031;"bebe/Categorías/Dormitorio/Ropa de cama/Ropa de cama infantil/Edredones"
1909552031;"bebe/Categorías/Dormitorio/Ropa de cama/Ropa de cama infantil/Fundas de edredón"
1909553031;"bebe/Categorías/Dormitorio/Ropa de cama/Ropa de cama infantil/Cubrecolchones"
1909554031;"bebe/Categorías/Dormitorio/Ropa de cama/Ropa de cama infantil/Fundas de almohada"
1909555031;"bebe/Categorías/Dormitorio/Ropa de cama/Ropa de cama infantil/Sábanas"
1909524031;"bebe/Categorías/Dormitorio/Ropa de cama/Ropa de cama para capazos"
1909525031;"bebe/Categorías/Dormitorio/Ropa de cama/Ropa de cama para capazos/Juegos de sábanas"
1909526031;"bebe/Categorías/Dormitorio/Ropa de cama/Ropa de cama para capazos/Mantas"
1909527031;"bebe/Categorías/Dormitorio/Ropa de cama/Ropa de cama para capazos/Edredones"
1909528031;"bebe/Categorías/Dormitorio/Ropa de cama/Ropa de cama para capazos/Fundas de edredón"
1909529031;"bebe/Categorías/Dormitorio/Ropa de cama/Ropa de cama para capazos/Cubrecolchones"
1909530031;"bebe/Categorías/Dormitorio/Ropa de cama/Ropa de cama para capazos/Fundas de almohada"
1909531031;"bebe/Categorías/Dormitorio/Ropa de cama/Ropa de cama para capazos/Sábanas"
1909537031;"bebe/Categorías/Dormitorio/Ropa de cama/Ropa de cama para cunas"
1909539031;"bebe/Categorías/Dormitorio/Ropa de cama/Ropa de cama para cunas/Mantas"
1909540031;"bebe/Categorías/Dormitorio/Ropa de cama/Ropa de cama para cunas/Edredones"
1909541031;"bebe/Categorías/Dormitorio/Ropa de cama/Ropa de cama para cunas/Fundas de edredón"
1909542031;"bebe/Categorías/Dormitorio/Ropa de cama/Ropa de cama para cunas/Cubrecolchones"
1909543031;"bebe/Categorías/Dormitorio/Ropa de cama/Ropa de cama para cunas/Fundas de almohada"
1909544031;"bebe/Categorías/Dormitorio/Ropa de cama/Ropa de cama para cunas/Sábanas"
1909546031;"bebe/Categorías/Dormitorio/Ropa de cama/Sacos para dormir"
1909556031;"bebe/Categorías/Dormitorio/Muebles"
1909571031;"bebe/Categorías/Dormitorio/Muebles/Almacenamiento"
1909574031;"bebe/Categorías/Dormitorio/Muebles/Almacenamiento/Baúles para juguetes"
1909572031;"bebe/Categorías/Dormitorio/Muebles/Almacenamiento/Cestas"
1909573031;"bebe/Categorías/Dormitorio/Muebles/Almacenamiento/Organizadores"
1909557031;"bebe/Categorías/Dormitorio/Muebles/Armarios"
1909558031;"bebe/Categorías/Dormitorio/Muebles/Cajoneras"
1909559031;"bebe/Categorías/Dormitorio/Muebles/Cambiadores"
1909561031;"bebe/Categorías/Dormitorio/Muebles/Cunas y camas infantiles"
1909589031;"bebe/Categorías/Dormitorio/Muebles/Cunas y camas infantiles/Camas infantiles"
1909562031;"bebe/Categorías/Dormitorio/Muebles/Cunas y camas infantiles/Capazos"
1909565031;"bebe/Categorías/Dormitorio/Muebles/Cunas y camas infantiles/Cunas"
1909563031;"bebe/Categorías/Dormitorio/Muebles/Cunas y camas infantiles/Cunas adosadas"
1909566031;"bebe/Categorías/Dormitorio/Muebles/Cunas y camas infantiles/Cunas de viaje"
1909564031;"bebe/Categorías/Dormitorio/Muebles/Cunas y camas infantiles/Cunas mecedoras"
1909567031;"bebe/Categorías/Dormitorio/Muebles/Cunas y camas infantiles/Moisés"
1909576031;"bebe/Categorías/Dormitorio/Muebles/Estantes"
1909570031;"bebe/Categorías/Dormitorio/Muebles/Hamacas"
1909568031;"bebe/Categorías/Dormitorio/Muebles/Juegos de muebles"
1909582031;"bebe/Categorías/Dormitorio/Muebles/Muebles para niños pequeños"
1909583031;"bebe/Categorías/Dormitorio/Muebles/Muebles para niños pequeños/Asientos de bolitas"
1909584031;"bebe/Categorías/Dormitorio/Muebles/Muebles para niños pequeños/Sofás"
1909585031;"bebe/Categorías/Dormitorio/Muebles/Muebles para niños pequeños/Sillones"
1909586031;"bebe/Categorías/Dormitorio/Muebles/Muebles para niños pequeños/Juegos de mesas y sillas"
1909587031;"bebe/Categorías/Dormitorio/Muebles/Muebles para niños pequeños/Mesas"
1909588031;"bebe/Categorías/Dormitorio/Muebles/Muebles para niños pequeños/Sillas"
1909589031;"bebe/Categorías/Dormitorio/Muebles/Muebles para niños pequeños/Camas infantiles"
1909575031;"bebe/Categorías/Dormitorio/Muebles/Parques de juegos"
1909560031;"bebe/Categorías/Dormitorio/Muebles/Percheros"
1909569031;"bebe/Categorías/Dormitorio/Muebles/Sillas con reposapiés"
1909577031;"bebe/Categorías/Dormitorio/Muebles/Taburetes"
4081315031;"bebe/Categorías/Dormitorio/Muebles/Tronas y asientos"
1909580031;"bebe/Categorías/Dormitorio/Muebles/Tronas y asientos/Alzadores de asiento"
1909579031;"bebe/Categorías/Dormitorio/Muebles/Tronas y asientos/Cojines para tronas"
1909578031;"bebe/Categorías/Dormitorio/Muebles/Tronas y asientos/Tronas"
1909581031;"bebe/Categorías/Dormitorio/Muebles/Tronas y asientos/Asientos enganchables"
1909590031;"bebe/Categorías/Dormitorio/Decoración"
1909597031;"bebe/Categorías/Dormitorio/Decoración/Alfombras"
5135371031;"bebe/Categorías/Dormitorio/Decoración/Cajas para dientes"
1909591031;"bebe/Categorías/Dormitorio/Decoración/Cenefas decorativas"
1909592031;"bebe/Categorías/Dormitorio/Decoración/Cortinas"
5135386031;"bebe/Categorías/Dormitorio/Decoración/Espejos"
1909593031;"bebe/Categorías/Dormitorio/Decoración/Gráficos de crecimiento"
2844181031;"bebe/Categorías/Dormitorio/Decoración/Iluminación"
4204601031;"bebe/Categorías/Dormitorio/Decoración/Iluminación/Iluminación de ambiente"
4204600031;"bebe/Categorías/Dormitorio/Decoración/Iluminación/Iluminación de pared"
2844183031;"bebe/Categorías/Dormitorio/Decoración/Iluminación/Iluminación de techo"
2844185031;"bebe/Categorías/Dormitorio/Decoración/Iluminación/Iluminación infantil nocturna"
2844184031;"bebe/Categorías/Dormitorio/Decoración/Iluminación/Lámparas de escritorio"
2844182031;"bebe/Categorías/Dormitorio/Decoración/Iluminación/Lámparas de mesa y mesilla de noche"
4204604031;"bebe/Categorías/Dormitorio/Decoración/Iluminación/Lámparas de pie"
2844186031;"bebe/Categorías/Dormitorio/Decoración/Iluminación/Linternas"
4204603031;"bebe/Categorías/Dormitorio/Decoración/Iluminación/Luces-despertador"
1909596031;"bebe/Categorías/Dormitorio/Decoración/Imágenes enmarcadas"
4081327031;"bebe/Categorías/Dormitorio/Decoración/Letras y números para pared"
1909595031;"bebe/Categorías/Dormitorio/Decoración/Marcos de fotos"
1909594031;"bebe/Categorías/Dormitorio/Decoración/Móviles"
1909598031;"bebe/Categorías/Dormitorio/Decoración/Pegatinas de pared"
4081316031;"bebe/Categorías/Dormitorio/Decoración/Relojes para bebés"
1862264031;"bebe/Categorías/Higiene y cuidado"
1909295031;"bebe/Categorías/Higiene y cuidado/Baño"
4081293031;"bebe/Categorías/Higiene y cuidado/Baño/Acondicionadores"
4081292031;"bebe/Categorías/Higiene y cuidado/Baño/Albornoces"
1909413031;"bebe/Categorías/Higiene y cuidado/Baño/Albornoces/Albornoces para niñas"
1909350031;"bebe/Categorías/Higiene y cuidado/Baño/Albornoces/Albornoces para niños"
1909301031;"bebe/Categorías/Higiene y cuidado/Baño/Bañeras y asientos de baño"
1909297031;"bebe/Categorías/Higiene y cuidado/Baño/Champú"
1909303031;"bebe/Categorías/Higiene y cuidado/Baño/Esponjas y guantes de baño"
1909296031;"bebe/Categorías/Higiene y cuidado/Baño/Gel de ducha"
1642120031;"bebe/Categorías/Higiene y cuidado/Baño/Juguetes de baño"
1909302031;"bebe/Categorías/Higiene y cuidado/Baño/Palanganas"
1909298031;"bebe/Categorías/Higiene y cuidado/Baño/Sales de baño"
4081338031;"bebe/Categorías/Higiene y cuidado/Baño/Seguridad y protecciones para cuarto de baño"
4081295031;"bebe/Categorías/Higiene y cuidado/Baño/Sets de baño para viajes"
1909299031;"bebe/Categorías/Higiene y cuidado/Baño/Termómetros de baño"
1909300031;"bebe/Categorías/Higiene y cuidado/Baño/Toallas de baño"
4081294031;"bebe/Categorías/Higiene y cuidado/Baño/Toallas de lavabo"
1909305031;"bebe/Categorías/Higiene y cuidado/Básculas"
1909306031;"bebe/Categorías/Higiene y cuidado/Cuidado de la piel"
1909310031;"bebe/Categorías/Higiene y cuidado/Cuidado de la piel/Aceites"
1909307031;"bebe/Categorías/Higiene y cuidado/Cuidado de la piel/Cremas lenitivas"
1909308031;"bebe/Categorías/Higiene y cuidado/Cuidado de la piel/Lociones"
1909311031;"bebe/Categorías/Higiene y cuidado/Cuidado de la piel/Polvos de talco"
1909309031;"bebe/Categorías/Higiene y cuidado/Cuidado de la piel/Protectores solares"
1909283031;"bebe/Categorías/Higiene y cuidado/Higiene"
1909284031;"bebe/Categorías/Higiene y cuidado/Higiene/Cepillos y peines"
1909288031;"bebe/Categorías/Higiene y cuidado/Higiene/Cuidado de oídos y nariz"
1909289031;"bebe/Categorías/Higiene y cuidado/Higiene/Cuidado de oídos y nariz/Juegos de aspirador nasal y jeringuilla de oídos"
1909290031;"bebe/Categorías/Higiene y cuidado/Higiene/Cuidado de oídos y nariz/Aspiradores nasales"
1909291031;"bebe/Categorías/Higiene y cuidado/Higiene/Cuidado de oídos y nariz/Hidratación nasal y soluciones de irrigación"
1909292031;"bebe/Categorías/Higiene y cuidado/Higiene/Cuidado de oídos y nariz/Pinzas nasales"
1909293031;"bebe/Categorías/Higiene y cuidado/Higiene/Cuidado de oídos y nariz/Jeringuillas de oídos"
1909294031;"bebe/Categorías/Higiene y cuidado/Higiene/Cuidado de oídos y nariz/Bastoncillos de oídos"
1909287031;"bebe/Categorías/Higiene y cuidado/Higiene/Cuidado de uñas"
1909285031;"bebe/Categorías/Higiene y cuidado/Higiene/Cuidado dental"
4081290031;"bebe/Categorías/Higiene y cuidado/Higiene/Cuidado dental/Cepillos de dientes"
1862267031;"bebe/Categorías/Higiene y cuidado/Higiene/Cuidado dental/Chupetes y mordedores"
1909625031;"bebe/Categorías/Higiene y cuidado/Higiene/Cuidado dental/Chupetes y mordedores/Cadenas para chupetes"
1909624031;"bebe/Categorías/Higiene y cuidado/Higiene/Cuidado dental/Chupetes y mordedores/Chupetes"
1909623031;"bebe/Categorías/Higiene y cuidado/Higiene/Cuidado dental/Chupetes y mordedores/Fundas para chupetes"
1909626031;"bebe/Categorías/Higiene y cuidado/Higiene/Cuidado dental/Chupetes y mordedores/Mordedores"
4081291031;"bebe/Categorías/Higiene y cuidado/Higiene/Cuidado dental/Pasta de dientes"
1909286031;"bebe/Categorías/Higiene y cuidado/Higiene/Kits de higiene"
1909312031;"bebe/Categorías/Higiene y cuidado/Termómetros"
4081299031;"bebe/Categorías/Higiene y cuidado/Toallitas y accesorios"
4081300031;"bebe/Categorías/Higiene y cuidado/Toallitas y accesorios/Bolas y discos de algodón"
4081303031;"bebe/Categorías/Higiene y cuidado/Toallitas y accesorios/Calentadores de toallitas"
4081302031;"bebe/Categorías/Higiene y cuidado/Toallitas y accesorios/Estuches y dispensadores para toallitas"
1909313031;"bebe/Categorías/Higiene y cuidado/Toallitas y accesorios/Toallitas húmedas"
4081301031;"bebe/Categorías/Higiene y cuidado/Toallitas y accesorios/Toallitas secas"
4081304031;"bebe/Categorías/Higiene y cuidado/Toallitas y accesorios/Toallitas y repuestos"
1909304031;"bebe/Categorías/Higiene y cuidado/Tratamientos de frío y calor"
1642110031;"bebe/Categorías/Juguetes para primera infancia"
1642111031;"bebe/Categorías/Juguetes para primera infancia/Ábacos"
1642112031;"bebe/Categorías/Juguetes para primera infancia/Bancos con martillo"
1642113031;"bebe/Categorías/Juguetes para primera infancia/Caballitos de madera"
1642114031;"bebe/Categorías/Juguetes para primera infancia/Centros de actividades"
1642115031;"bebe/Categorías/Juguetes para primera infancia/Desarrollo de habilidades motoras"
1642116031;"bebe/Categorías/Juguetes para primera infancia/Estructuras de juego interiores"
1642117031;"bebe/Categorías/Juguetes para primera infancia/Juegos de bloques"
1642118031;"bebe/Categorías/Juguetes para primera infancia/Juguetes blandos"
1642119031;"bebe/Categorías/Juguetes para primera infancia/Juguetes con sonido"
1642120031;"bebe/Categorías/Juguetes para primera infancia/Juguetes de baño"
1642121031;"bebe/Categorías/Juguetes para primera infancia/Juguetes para apilar y encajar"
1642122031;"bebe/Categorías/Juguetes para primera infancia/Juguetes para arrastrar"
1642123031;"bebe/Categorías/Juguetes para primera infancia/Juguetes para Bebés"
1642124031;"bebe/Categorías/Juguetes para primera infancia/Juguetes para Bebés/Cajas de música"
1642125031;"bebe/Categorías/Juguetes para primera infancia/Juguetes para Bebés/Colgantes para cochecitos"
1642126031;"bebe/Categorías/Juguetes para primera infancia/Juguetes para Bebés/Espejos"
1642127031;"bebe/Categorías/Juguetes para primera infancia/Juguetes para Bebés/Pelotas para Bebés"
1642128031;"bebe/Categorías/Juguetes para primera infancia/Juguetes para Bebés/Sonajeros y aros de peluche"
1642129031;"bebe/Categorías/Juguetes para primera infancia/Mecedoras"
1642130031;"bebe/Categorías/Juguetes para primera infancia/Peonzas"
1642131031;"bebe/Categorías/Juguetes para primera infancia/Relojes de aprendizaje"
1862259031;"bebe/Categorías/Lactancia y alimentación"
1909609031;"bebe/Categorías/Lactancia y alimentación/Accesorios para la lactancia"
1909612031;"bebe/Categorías/Lactancia y alimentación/Accesorios para la lactancia/Cojines de lactancia"
4081335031;"bebe/Categorías/Lactancia y alimentación/Accesorios para la lactancia/Crema para pezones"
1909614031;"bebe/Categorías/Lactancia y alimentación/Accesorios para la lactancia/Mantas de lactancia"
1909610031;"bebe/Categorías/Lactancia y alimentación/Accesorios para la lactancia/Protectores de pecho"
1909613031;"bebe/Categorías/Lactancia y alimentación/Accesorios para la lactancia/Recipientes para leche materna"
1909611031;"bebe/Categorías/Lactancia y alimentación/Accesorios para la lactancia/Sacaleches"
1909599031;"bebe/Categorías/Lactancia y alimentación/Baberos"
4081328031;"bebe/Categorías/Lactancia y alimentación/Batidoras, licuadoras y robots de cocina"
4081329031;"bebe/Categorías/Lactancia y alimentación/Batidoras, licuadoras y robots de cocina/Batidoras"
4081330031;"bebe/Categorías/Lactancia y alimentación/Batidoras, licuadoras y robots de cocina/Licuadoras"
4081331031;"bebe/Categorías/Lactancia y alimentación/Batidoras, licuadoras y robots de cocina/Robots de cocina"
1909600031;"bebe/Categorías/Lactancia y alimentación/Biberones y accesorios"
1909605031;"bebe/Categorías/Lactancia y alimentación/Biberones y accesorios/Biberones"
1909607031;"bebe/Categorías/Lactancia y alimentación/Biberones y accesorios/Bolsas térmicas"
1909604031;"bebe/Categorías/Lactancia y alimentación/Biberones y accesorios/Calienta biberones"
1909608031;"bebe/Categorías/Lactancia y alimentación/Biberones y accesorios/Discos para sellar biberones"
4081334031;"bebe/Categorías/Lactancia y alimentación/Biberones y accesorios/Dispensadores de leche en polvo"
4081333031;"bebe/Categorías/Lactancia y alimentación/Biberones y accesorios/Escurrebiberones"
1909606031;"bebe/Categorías/Lactancia y alimentación/Biberones y accesorios/Esterilizadores"
4081332031;"bebe/Categorías/Lactancia y alimentación/Biberones y accesorios/Fundas para biberones"
1909603031;"bebe/Categorías/Lactancia y alimentación/Biberones y accesorios/Kits de biberones"
1909601031;"bebe/Categorías/Lactancia y alimentación/Biberones y accesorios/Limpieza de biberón"
1909602031;"bebe/Categorías/Lactancia y alimentación/Biberones y accesorios/Tetinas para biberón"
1909616031;"bebe/Categorías/Lactancia y alimentación/Calentadores de comida"
1909617031;"bebe/Categorías/Lactancia y alimentación/Paños de muselina"
1909615031;"bebe/Categorías/Lactancia y alimentación/Recipientes para comida"
4081315031;"bebe/Categorías/Lactancia y alimentación/Tronas y asientos"
1909580031;"bebe/Categorías/Lactancia y alimentación/Tronas y asientos/Alzadores de asiento"
1909579031;"bebe/Categorías/Lactancia y alimentación/Tronas y asientos/Cojines para tronas"
1909578031;"bebe/Categorías/Lactancia y alimentación/Tronas y asientos/Tronas"
1909581031;"bebe/Categorías/Lactancia y alimentación/Tronas y asientos/Asientos enganchables"
1909619031;"bebe/Categorías/Lactancia y alimentación/Vajilla y cubiertos"
1909620031;"bebe/Categorías/Lactancia y alimentación/Vajilla y cubiertos/Cubiertos"
1909622031;"bebe/Categorías/Lactancia y alimentación/Vajilla y cubiertos/Juegos de vajilla"
1909621031;"bebe/Categorías/Lactancia y alimentación/Vajilla y cubiertos/Platos"
1909618031;"bebe/Categorías/Lactancia y alimentación/Vasos con boquilla"
1862269031;"bebe/Categorías/Orinales y taburetes"
1909629031;"bebe/Categorías/Orinales y taburetes/Asientos"
1909628031;"bebe/Categorías/Orinales y taburetes/Ayuda para aprender a ir al baño"
1909631031;"bebe/Categorías/Orinales y taburetes/Calzones de entrenamiento reutilizables"
1909377031;"bebe/Categorías/Orinales y taburetes/Calzones de entrenamiento reutilizables/Calzones de entrenamiento para niños"
1909627031;"bebe/Categorías/Orinales y taburetes/Orinales"
1909464031;"bebe/Categorías/Orinales y taburetes/Pañales desechables de entrenamiento"
1909630031;"bebe/Categorías/Orinales y taburetes/Taburetes"
1909313031;"bebe/Categorías/Orinales y taburetes/Toallitas húmedas"
4081301031;"bebe/Categorías/Orinales y taburetes/Toallitas secas"
1862265031;"bebe/Categorías/Portabebés"
1909316031;"bebe/Categorías/Portabebés/Bandoleras portabebé"
1909314031;"bebe/Categorías/Portabebés/Fulares portabebé"
1909317031;"bebe/Categorías/Portabebés/Marsupios portabebé"
1909315031;"bebe/Categorías/Portabebés/Mochilas portabebé"
3737692031;"bebe/Categorías/Regalos para recién nacidos"
3737698031;"bebe/Categorías/Regalos para recién nacidos/Álbumes de fotos"
3737697031;"bebe/Categorías/Regalos para recién nacidos/Álbumes de recuerdos"
1642124031;"bebe/Categorías/Regalos para recién nacidos/Cajas de música"
3737696031;"bebe/Categorías/Regalos para recién nacidos/Cajas de recuerdos para recién nacidos"
3737693031;"bebe/Categorías/Regalos para recién nacidos/Joyería"
1642118031;"bebe/Categorías/Regalos para recién nacidos/Juguetes blandos"
1909595031;"bebe/Categorías/Regalos para recién nacidos/Marcos de fotos"
1909594031;"bebe/Categorías/Regalos para recién nacidos/Móviles"
3737695031;"bebe/Categorías/Regalos para recién nacidos/Recuerdos para bautizos"
1909390031;"bebe/Categorías/Regalos para recién nacidos/Ropa de bautizo para niñas"
1909329031;"bebe/Categorías/Regalos para recién nacidos/Ropa de bautizo para niños"
3737694031;"bebe/Categorías/Regalos para recién nacidos/Sets de modelado e impresión"
3737699031;"bebe/Categorías/Regalos para recién nacidos/Sets de regalos para recién nacidos"
1895733031;"bebe/Categorías/Ropa para bebés"
1909379031;"bebe/Categorías/Ropa para bebés/Niñas de hasta 24 meses"
1909380031;"bebe/Categorías/Ropa para bebés/Niñas de hasta 24 meses/Accesorios"
1909384031;"bebe/Categorías/Ropa para bebés/Niñas de hasta 24 meses/Accesorios/Bufandas"
1909385031;"bebe/Categorías/Ropa para bebés/Niñas de hasta 24 meses/Accesorios/Gafas de sol"
1909381031;"bebe/Categorías/Ropa para bebés/Niñas de hasta 24 meses/Accesorios/Guantes y manoplas"
1909383031;"bebe/Categorías/Ropa para bebés/Niñas de hasta 24 meses/Accesorios/Pañuelos para el cuello"
1909382031;"bebe/Categorías/Ropa para bebés/Niñas de hasta 24 meses/Accesorios/Sombreros y gorras"
1909406031;"bebe/Categorías/Ropa para bebés/Niñas de hasta 24 meses/Bermudas"
1909421031;"bebe/Categorías/Ropa para bebés/Niñas de hasta 24 meses/Calcetines y medias"
1909423031;"bebe/Categorías/Ropa para bebés/Niñas de hasta 24 meses/Calcetines y medias/Calcetines"
1909422031;"bebe/Categorías/Ropa para bebés/Niñas de hasta 24 meses/Calcetines y medias/Calentadores"
1909424031;"bebe/Categorías/Ropa para bebés/Niñas de hasta 24 meses/Calcetines y medias/Medias"
1909404031;"bebe/Categorías/Ropa para bebés/Niñas de hasta 24 meses/Conjuntos"
1909407031;"bebe/Categorías/Ropa para bebés/Niñas de hasta 24 meses/Faldas y faldas pantalón"
1909400031;"bebe/Categorías/Ropa para bebés/Niñas de hasta 24 meses/Leggings"
1909435031;"bebe/Categorías/Ropa para bebés/Niñas de hasta 24 meses/Pantalones"
1909405031;"bebe/Categorías/Ropa para bebés/Niñas de hasta 24 meses/Pantalones de peto"
1909430031;"bebe/Categorías/Ropa para bebés/Niñas de hasta 24 meses/Partes de arriba"
1909431031;"bebe/Categorías/Ropa para bebés/Niñas de hasta 24 meses/Partes de arriba/Blusas"
1909434031;"bebe/Categorías/Ropa para bebés/Niñas de hasta 24 meses/Partes de arriba/Camisetas"
1909433031;"bebe/Categorías/Ropa para bebés/Niñas de hasta 24 meses/Partes de arriba/Camisetas sin mangas"
1909432031;"bebe/Categorías/Ropa para bebés/Niñas de hasta 24 meses/Partes de arriba/Polos"
1909401031;"bebe/Categorías/Ropa para bebés/Niñas de hasta 24 meses/Ropa de abrigo"
1909403031;"bebe/Categorías/Ropa para bebés/Niñas de hasta 24 meses/Ropa de abrigo/Chalecos"
1909418031;"bebe/Categorías/Ropa para bebés/Niñas de hasta 24 meses/Ropa de abrigo/Chaquetas impermeables"
1909402031;"bebe/Categorías/Ropa para bebés/Niñas de hasta 24 meses/Ropa de abrigo/Chaquetas y abrigos"
3074387031;"bebe/Categorías/Ropa para bebés/Niñas de hasta 24 meses/Ropa de abrigo/Trajes de nieve"
1909390031;"bebe/Categorías/Ropa para bebés/Niñas de hasta 24 meses/Ropa de bautizo"
2949305031;"bebe/Categorías/Ropa para bebés/Niñas de hasta 24 meses/Ropa de deporte"
2949310031;"bebe/Categorías/Ropa para bebés/Niñas de hasta 24 meses/Ropa de deporte/Chaquetas deportivas"
2949308031;"bebe/Categorías/Ropa para bebés/Niñas de hasta 24 meses/Ropa de deporte/Conjuntos deportivos"
2949306031;"bebe/Categorías/Ropa para bebés/Niñas de hasta 24 meses/Ropa de deporte/Pantalones de deporte"
2949307031;"bebe/Categorías/Ropa para bebés/Niñas de hasta 24 meses/Ropa de deporte/Sudaderas con capucha"
2949309031;"bebe/Categorías/Ropa para bebés/Niñas de hasta 24 meses/Ropa de deporte/Sudaderas de deporte"
1909416031;"bebe/Categorías/Ropa para bebés/Niñas de hasta 24 meses/Ropa de nieve y lluvia"
1909418031;"bebe/Categorías/Ropa para bebés/Niñas de hasta 24 meses/Ropa de nieve y lluvia/Chaquetas impermeables"
1909417031;"bebe/Categorías/Ropa para bebés/Niñas de hasta 24 meses/Ropa de nieve y lluvia/Pantalones impermeables"
1909419031;"bebe/Categorías/Ropa para bebés/Niñas de hasta 24 meses/Ropa de nieve y lluvia/Pantalones y monos para la nieve"
1909420031;"bebe/Categorías/Ropa para bebés/Niñas de hasta 24 meses/Ropa de nieve y lluvia/Trajes de nieve"
1909399031;"bebe/Categorías/Ropa para bebés/Niñas de hasta 24 meses/Ropa de punto"
1909386031;"bebe/Categorías/Ropa para bebés/Niñas de hasta 24 meses/Ropa de una pieza"
1909387031;"bebe/Categorías/Ropa para bebés/Niñas de hasta 24 meses/Ropa de una pieza/Bodies"
1909389031;"bebe/Categorías/Ropa para bebés/Niñas de hasta 24 meses/Ropa de una pieza/Monos"
1909388031;"bebe/Categorías/Ropa para bebés/Niñas de hasta 24 meses/Ropa de una pieza/Peleles"
1909436031;"bebe/Categorías/Ropa para bebés/Niñas de hasta 24 meses/Ropa interior"
1909408031;"bebe/Categorías/Ropa para bebés/Niñas de hasta 24 meses/Ropa para dormir y batas"
1909413031;"bebe/Categorías/Ropa para bebés/Niñas de hasta 24 meses/Ropa para dormir y batas/Batas y albornoces"
1909412031;"bebe/Categorías/Ropa para bebés/Niñas de hasta 24 meses/Ropa para dormir y batas/Camisas de pijama"
1909409031;"bebe/Categorías/Ropa para bebés/Niñas de hasta 24 meses/Ropa para dormir y batas/Camisones"
1909410031;"bebe/Categorías/Ropa para bebés/Niñas de hasta 24 meses/Ropa para dormir y batas/Pantalones de pijama"
1909415031;"bebe/Categorías/Ropa para bebés/Niñas de hasta 24 meses/Ropa para dormir y batas/Peleles para dormir"
1909411031;"bebe/Categorías/Ropa para bebés/Niñas de hasta 24 meses/Ropa para dormir y batas/Pijamas enteros"
1909414031;"bebe/Categorías/Ropa para bebés/Niñas de hasta 24 meses/Ropa para dormir y batas/Sacos de dormir"
1909425031;"bebe/Categorías/Ropa para bebés/Niñas de hasta 24 meses/Trajes de baño"
1909427031;"bebe/Categorías/Ropa para bebés/Niñas de hasta 24 meses/Trajes de baño/Bañadores"
1909429031;"bebe/Categorías/Ropa para bebés/Niñas de hasta 24 meses/Trajes de baño/Dos piezas"
1909428031;"bebe/Categorías/Ropa para bebés/Niñas de hasta 24 meses/Trajes de baño/Pañales para nadar"
1909426031;"bebe/Categorías/Ropa para bebés/Niñas de hasta 24 meses/Trajes de baño/Túnicas"
1909398031;"bebe/Categorías/Ropa para bebés/Niñas de hasta 24 meses/Vaqueros"
1909391031;"bebe/Categorías/Ropa para bebés/Niñas de hasta 24 meses/Vestidos"
1909318031;"bebe/Categorías/Ropa para bebés/Niños de hasta 24 meses"
1909319031;"bebe/Categorías/Ropa para bebés/Niños de hasta 24 meses/Accesorios"
1909323031;"bebe/Categorías/Ropa para bebés/Niños de hasta 24 meses/Accesorios/Bufandas"
1909324031;"bebe/Categorías/Ropa para bebés/Niños de hasta 24 meses/Accesorios/Gafas de sol"
1909320031;"bebe/Categorías/Ropa para bebés/Niños de hasta 24 meses/Accesorios/Guantes y manoplas"
1909322031;"bebe/Categorías/Ropa para bebés/Niños de hasta 24 meses/Accesorios/Pañuelos para el cuello"
1909321031;"bebe/Categorías/Ropa para bebés/Niños de hasta 24 meses/Accesorios/Sombreros y gorras"
1909345031;"bebe/Categorías/Ropa para bebés/Niños de hasta 24 meses/Bermudas"
1909358031;"bebe/Categorías/Ropa para bebés/Niños de hasta 24 meses/Calcetines y medias"
1909360031;"bebe/Categorías/Ropa para bebés/Niños de hasta 24 meses/Calcetines y medias/Calcetines"
1909359031;"bebe/Categorías/Ropa para bebés/Niños de hasta 24 meses/Calcetines y medias/Calentadores"
1909361031;"bebe/Categorías/Ropa para bebés/Niños de hasta 24 meses/Calcetines y medias/Medias"
1909344031;"bebe/Categorías/Ropa para bebés/Niños de hasta 24 meses/Camisas"
1909342031;"bebe/Categorías/Ropa para bebés/Niños de hasta 24 meses/Conjuntos"
1909338031;"bebe/Categorías/Ropa para bebés/Niños de hasta 24 meses/Leggings"
1909373031;"bebe/Categorías/Ropa para bebés/Niños de hasta 24 meses/Pantalones"
1909343031;"bebe/Categorías/Ropa para bebés/Niños de hasta 24 meses/Pantalones de peto"
1909369031;"bebe/Categorías/Ropa para bebés/Niños de hasta 24 meses/Partes de arriba"
1909372031;"bebe/Categorías/Ropa para bebés/Niños de hasta 24 meses/Partes de arriba/Camisetas"
1909371031;"bebe/Categorías/Ropa para bebés/Niños de hasta 24 meses/Partes de arriba/Camisetas sin mangas"
1909370031;"bebe/Categorías/Ropa para bebés/Niños de hasta 24 meses/Partes de arriba/Polos"
1909337031;"bebe/Categorías/Ropa para bebés/Niños de hasta 24 meses/Punto"
1909339031;"bebe/Categorías/Ropa para bebés/Niños de hasta 24 meses/Ropa de abrigo"
1909341031;"bebe/Categorías/Ropa para bebés/Niños de hasta 24 meses/Ropa de abrigo/Chalecos"
1909355031;"bebe/Categorías/Ropa para bebés/Niños de hasta 24 meses/Ropa de abrigo/Chaquetas impermeables"
1909340031;"bebe/Categorías/Ropa para bebés/Niños de hasta 24 meses/Ropa de abrigo/Chaquetas y abrigos"
3074438031;"bebe/Categorías/Ropa para bebés/Niños de hasta 24 meses/Ropa de abrigo/Trajes de nieve"
1909329031;"bebe/Categorías/Ropa para bebés/Niños de hasta 24 meses/Ropa de bautizo"
2949299031;"bebe/Categorías/Ropa para bebés/Niños de hasta 24 meses/Ropa de deporte"
2949304031;"bebe/Categorías/Ropa para bebés/Niños de hasta 24 meses/Ropa de deporte/Chaquetas deportivas"
2949302031;"bebe/Categorías/Ropa para bebés/Niños de hasta 24 meses/Ropa de deporte/Conjuntos deportivos"
2949300031;"bebe/Categorías/Ropa para bebés/Niños de hasta 24 meses/Ropa de deporte/Pantalones de deporte"
2949301031;"bebe/Categorías/Ropa para bebés/Niños de hasta 24 meses/Ropa de deporte/Sudaderas con capucha"
2949303031;"bebe/Categorías/Ropa para bebés/Niños de hasta 24 meses/Ropa de deporte/Sudaderas de deporte"
1909353031;"bebe/Categorías/Ropa para bebés/Niños de hasta 24 meses/Ropa de nieve y lluvia"
1909355031;"bebe/Categorías/Ropa para bebés/Niños de hasta 24 meses/Ropa de nieve y lluvia/Chaquetas impermeables"
1909354031;"bebe/Categorías/Ropa para bebés/Niños de hasta 24 meses/Ropa de nieve y lluvia/Pantalones impermeables"
1909356031;"bebe/Categorías/Ropa para bebés/Niños de hasta 24 meses/Ropa de nieve y lluvia/Pantalones y monos para la nieve"
1909357031;"bebe/Categorías/Ropa para bebés/Niños de hasta 24 meses/Ropa de nieve y lluvia/Trajes de nieve"
1909325031;"bebe/Categorías/Ropa para bebés/Niños de hasta 24 meses/Ropa de una pieza"
1909326031;"bebe/Categorías/Ropa para bebés/Niños de hasta 24 meses/Ropa de una pieza/Bodies"
1909328031;"bebe/Categorías/Ropa para bebés/Niños de hasta 24 meses/Ropa de una pieza/Monos"
1909327031;"bebe/Categorías/Ropa para bebés/Niños de hasta 24 meses/Ropa de una pieza/Peleles"
1909374031;"bebe/Categorías/Ropa para bebés/Niños de hasta 24 meses/Ropa interior"
1909377031;"bebe/Categorías/Ropa para bebés/Niños de hasta 24 meses/Ropa interior/Calzones de entrenamiento"
1909378031;"bebe/Categorías/Ropa para bebés/Niños de hasta 24 meses/Ropa interior/Camisillas"
1909376031;"bebe/Categorías/Ropa para bebés/Niños de hasta 24 meses/Ropa interior/Conjuntos"
1909375031;"bebe/Categorías/Ropa para bebés/Niños de hasta 24 meses/Ropa interior/Pantis"
1909346031;"bebe/Categorías/Ropa para bebés/Niños de hasta 24 meses/Ropa para dormir y batas"
1909350031;"bebe/Categorías/Ropa para bebés/Niños de hasta 24 meses/Ropa para dormir y batas/Batas y albornoces"
1909349031;"bebe/Categorías/Ropa para bebés/Niños de hasta 24 meses/Ropa para dormir y batas/Camisas de pijama"
1909347031;"bebe/Categorías/Ropa para bebés/Niños de hasta 24 meses/Ropa para dormir y batas/Pantalones de pijama"
1909352031;"bebe/Categorías/Ropa para bebés/Niños de hasta 24 meses/Ropa para dormir y batas/Peleles para dormir"
1909348031;"bebe/Categorías/Ropa para bebés/Niños de hasta 24 meses/Ropa para dormir y batas/Pijamas enteros"
1909351031;"bebe/Categorías/Ropa para bebés/Niños de hasta 24 meses/Ropa para dormir y batas/Sacos de dormir"
1909366031;"bebe/Categorías/Ropa para bebés/Niños de hasta 24 meses/Trajes de baño"
1909367031;"bebe/Categorías/Ropa para bebés/Niños de hasta 24 meses/Trajes de baño/Bermudas y bañadores"
1909368031;"bebe/Categorías/Ropa para bebés/Niños de hasta 24 meses/Trajes de baño/Pañales para nadar"
1909336031;"bebe/Categorías/Ropa para bebés/Niños de hasta 24 meses/Vaqueros"
1895732031;"bebe/Categorías/Ropa premamá"
1909497031;"bebe/Categorías/Ropa premamá/Bermudas"
1909472031;"bebe/Categorías/Ropa premamá/Blusas y camisas"
1909466031;"bebe/Categorías/Ropa premamá/Deporte"
1909474031;"bebe/Categorías/Ropa premamá/Deporte/Sudaderas con capucha de deprote"
1909500031;"bebe/Categorías/Ropa premamá/Deporte/Sudaderas de deporte"
1909498031;"bebe/Categorías/Ropa premamá/Faldas"
1909481031;"bebe/Categorías/Ropa premamá/Leggings"
1909482031;"bebe/Categorías/Ropa premamá/Lencería y ropa interior"
1909484031;"bebe/Categorías/Ropa premamá/Lencería y ropa interior/Braguitas"
4505809031;"bebe/Categorías/Ropa premamá/Lencería y ropa interior/Chalecos"
1909485031;"bebe/Categorías/Ropa premamá/Lencería y ropa interior/Conjuntos de lencería"
1909483031;"bebe/Categorías/Ropa premamá/Lencería y ropa interior/Fajas de embarazo"
1909486031;"bebe/Categorías/Ropa premamá/Lencería y ropa interior/Sujetadores premamá y de lactancia"
1909510031;"bebe/Categorías/Ropa premamá/Medías y calcetines"
1909516031;"bebe/Categorías/Ropa premamá/Pantalones"
1909496031;"bebe/Categorías/Ropa premamá/Pantalones de peto"
1909511031;"bebe/Categorías/Ropa premamá/Partes de arriba"
1909512031;"bebe/Categorías/Ropa premamá/Partes de arriba/Camisetas de manga larga"
1909515031;"bebe/Categorías/Ropa premamá/Partes de arriba/Camisetas de tirantes"
1909513031;"bebe/Categorías/Ropa premamá/Partes de arriba/Polos"
1909476031;"bebe/Categorías/Ropa premamá/Punto"
1909480031;"bebe/Categorías/Ropa premamá/Punto/Camisetas sin mangas"
1909478031;"bebe/Categorías/Ropa premamá/Punto/Chalecos"
1909479031;"bebe/Categorías/Ropa premamá/Punto/Jerseys"
1909477031;"bebe/Categorías/Ropa premamá/Punto/Rebecas"
1909492031;"bebe/Categorías/Ropa premamá/Ropa de abrigo"
1909493031;"bebe/Categorías/Ropa premamá/Ropa de abrigo/Abrigos"
1909494031;"bebe/Categorías/Ropa premamá/Ropa de abrigo/Chalecos"
1909495031;"bebe/Categorías/Ropa premamá/Ropa de abrigo/Chaquetas"
1909487031;"bebe/Categorías/Ropa premamá/Ropa para dormir"
1909500031;"bebe/Categorías/Ropa premamá/Sudaderas"
1909474031;"bebe/Categorías/Ropa premamá/Sudaderas con capucha"
1909501031;"bebe/Categorías/Ropa premamá/Trajes de baño"
1909499031;"bebe/Categorías/Ropa premamá/Trajes y americanas"
1909475031;"bebe/Categorías/Ropa premamá/Vaqueros"
1909473031;"bebe/Categorías/Ropa premamá/Vestidos"
1862258031;"bebe/Categorías/Seguridad"
1909663031;"bebe/Categorías/Seguridad/Arneses de seguridad"
1909653031;"bebe/Categorías/Seguridad/Barreras de puerta y extensiones"
4081339031;"bebe/Categorías/Seguridad/Humidificadores"
1909654031;"bebe/Categorías/Seguridad/Protecciones y cerraduras"
1909656031;"bebe/Categorías/Seguridad/Protecciones y cerraduras/Cierres para armarios"
1909662031;"bebe/Categorías/Seguridad/Protecciones y cerraduras/Cierres para WC"
1909658031;"bebe/Categorías/Seguridad/Protecciones y cerraduras/Cubiertas para cables y enchufes"
1909660031;"bebe/Categorías/Seguridad/Protecciones y cerraduras/Kits de seguridad"
1909655031;"bebe/Categorías/Seguridad/Protecciones y cerraduras/Protecciones para bordes y esquinas"
1909661031;"bebe/Categorías/Seguridad/Protecciones y cerraduras/Protecciones para cocinas"
1909659031;"bebe/Categorías/Seguridad/Protecciones y cerraduras/Protecciones para plantas y flores"
1909657031;"bebe/Categorías/Seguridad/Protecciones y cerraduras/Protección para puertas y ventanas"
4081338031;"bebe/Categorías/Seguridad/Seguridad y protecciones para cuarto de baño"
1909652031;"bebe/Categorías/Seguridad/Vigilabebés"
1862257031;"bebe/Categorías/Sillas de coche y accesorios"
1909441031;"bebe/Categorías/Sillas de coche y accesorios/Accesorios"
4081307031;"bebe/Categorías/Sillas de coche y accesorios/Accesorios/Adaptadores para sillas de coche"
1909450031;"bebe/Categorías/Sillas de coche y accesorios/Accesorios/Almohadillas para cinturón"
1909442031;"bebe/Categorías/Sillas de coche y accesorios/Accesorios/Bases para sillas de coche"
4081308031;"bebe/Categorías/Sillas de coche y accesorios/Accesorios/Cojines reductores"
4081305031;"bebe/Categorías/Sillas de coche y accesorios/Accesorios/Espejos para asientos traseros"
1909445031;"bebe/Categorías/Sillas de coche y accesorios/Accesorios/Fundas para asientos"
1909451031;"bebe/Categorías/Sillas de coche y accesorios/Accesorios/Fundas para sillas de coche"
1909448031;"bebe/Categorías/Sillas de coche y accesorios/Accesorios/Mosquiteras"
1909447031;"bebe/Categorías/Sillas de coche y accesorios/Accesorios/Organizadores para coche"
1909446031;"bebe/Categorías/Sillas de coche y accesorios/Accesorios/Parasoles infantiles"
4081306031;"bebe/Categorías/Sillas de coche y accesorios/Accesorios/Pegatinas de bebé para coches"
1909449031;"bebe/Categorías/Sillas de coche y accesorios/Accesorios/Protectores de lluvia"
1909633031;"bebe/Categorías/Sillas de coche y accesorios/Accesorios/Reposacabezas"
1909444031;"bebe/Categorías/Sillas de coche y accesorios/Accesorios/Reposapiés"
1909443031;"bebe/Categorías/Sillas de coche y accesorios/Accesorios/Sacos de abrigo"
1909452031;"bebe/Categorías/Sillas de coche y accesorios/Sillas de coche"
1909664031;"bebe/Categorías/Zapatos"
1909668031;"bebe/Categorías/Zapatos/Para niñas"
1909669031;"bebe/Categorías/Zapatos/Para niñas/Patucos"
1909670031;"bebe/Categorías/Zapatos/Para niñas/Primeros pasos"
1909665031;"bebe/Categorías/Zapatos/Para niños"
1909666031;"bebe/Categorías/Zapatos/Para niños/Patucos"
1909667031;"bebe/Categorías/Zapatos/Para niños/Primeros pasos"
1703497031;"bebe/Featured Categories"
1862262031;"bebe/Featured Categories/Actividad y entretenimiento"
1909280031;"bebe/Featured Categories/Actividad y entretenimiento/Alfombras de juego y gimnasios"
1909282031;"bebe/Featured Categories/Actividad y entretenimiento/Andadores"
1642124031;"bebe/Featured Categories/Actividad y entretenimiento/Cajas de música"
1909279031;"bebe/Featured Categories/Actividad y entretenimiento/Columpios interiores"
1642120031;"bebe/Featured Categories/Actividad y entretenimiento/Juguetes de baño"
1909594031;"bebe/Featured Categories/Actividad y entretenimiento/Móviles"
1909281031;"bebe/Featured Categories/Actividad y entretenimiento/Sillas mecedoras"
1862266031;"bebe/Featured Categories/Cambio de pañales"
1909456031;"bebe/Featured Categories/Cambio de pañales/Bolsos cambiadores"
4081311031;"bebe/Featured Categories/Cambio de pañales/Bolsos cambiadores/Bolsas"
4081310031;"bebe/Featured Categories/Cambio de pañales/Bolsos cambiadores/Bolsos"
4081309031;"bebe/Featured Categories/Cambio de pañales/Bolsos cambiadores/Bolsos bandolera"
1909455031;"bebe/Featured Categories/Cambio de pañales/Bolsos cambiadores/Mochilas para pañales"
1909559031;"bebe/Featured Categories/Cambio de pañales/Cambiadores"
1909453031;"bebe/Featured Categories/Cambio de pañales/Colchones y mantas para cambiador"
1909307031;"bebe/Featured Categories/Cambio de pañales/Cremas lenitivas"
1909458031;"bebe/Featured Categories/Cambio de pañales/Cubos de basura para pañales y recambios"
1909457031;"bebe/Featured Categories/Cambio de pañales/Forros para pañales"
1909459031;"bebe/Featured Categories/Cambio de pañales/Guardapañales"
1909454031;"bebe/Featured Categories/Cambio de pañales/Kits para cambio de pañales"
1909460031;"bebe/Featured Categories/Cambio de pañales/Pañales"
1909461031;"bebe/Featured Categories/Cambio de pañales/Pañales/Pañales de tela"
1909462031;"bebe/Featured Categories/Cambio de pañales/Pañales/Pañales desechables"
1909463031;"bebe/Featured Categories/Cambio de pañales/Pañales/Pañales desechables para nadar"
1909464031;"bebe/Featured Categories/Cambio de pañales/Pañales/Pañales desechables de entrenamiento"
1909465031;"bebe/Featured Categories/Cambio de pañales/Pañales/Tartas de pañales"
4081299031;"bebe/Featured Categories/Cambio de pañales/Toallitas y accesorios"
4081300031;"bebe/Featured Categories/Cambio de pañales/Toallitas y accesorios/Bolas y discos de algodón"
4081303031;"bebe/Featured Categories/Cambio de pañales/Toallitas y accesorios/Calentadores de toallitas"
4081302031;"bebe/Featured Categories/Cambio de pañales/Toallitas y accesorios/Estuches y dispensadores para toallitas"
1909313031;"bebe/Featured Categories/Cambio de pañales/Toallitas y accesorios/Toallitas húmedas"
4081301031;"bebe/Featured Categories/Cambio de pañales/Toallitas y accesorios/Toallitas secas"
4081304031;"bebe/Featured Categories/Cambio de pañales/Toallitas y accesorios/Toallitas y repuestos"
1862261031;"bebe/Featured Categories/Carritos y sillas de paseo"
1909632031;"bebe/Featured Categories/Carritos y sillas de paseo/Accesorios"
4081307031;"bebe/Featured Categories/Carritos y sillas de paseo/Accesorios/Adaptadores para sillas de coche"
4081337031;"bebe/Featured Categories/Carritos y sillas de paseo/Accesorios/Almohadillas eléctricas"
1909638031;"bebe/Featured Categories/Carritos y sillas de paseo/Accesorios/Bolsas de transporte"
1909456031;"bebe/Featured Categories/Carritos y sillas de paseo/Accesorios/Bolsos cambiadores"
4081311031;"bebe/Featured Categories/Carritos y sillas de paseo/Accesorios/Bolsos cambiadores/Bolsas"
4081310031;"bebe/Featured Categories/Carritos y sillas de paseo/Accesorios/Bolsos cambiadores/Bolsos"
4081309031;"bebe/Featured Categories/Carritos y sillas de paseo/Accesorios/Bolsos cambiadores/Bolsos bandolera"
1909455031;"bebe/Featured Categories/Carritos y sillas de paseo/Accesorios/Bolsos cambiadores/Mochilas para pañales"
1909642031;"bebe/Featured Categories/Carritos y sillas de paseo/Accesorios/Cestas de la compra"
1909646031;"bebe/Featured Categories/Carritos y sillas de paseo/Accesorios/Chasis"
1642125031;"bebe/Featured Categories/Carritos y sillas de paseo/Accesorios/Colgantes para cochecitos"
1909636031;"bebe/Featured Categories/Carritos y sillas de paseo/Accesorios/Mantas contra el sol"
1909639031;"bebe/Featured Categories/Carritos y sillas de paseo/Accesorios/Mantas y sábanas"
1909641031;"bebe/Featured Categories/Carritos y sillas de paseo/Accesorios/Mosquiteras"
1909637031;"bebe/Featured Categories/Carritos y sillas de paseo/Accesorios/Parasoles"
1909640031;"bebe/Featured Categories/Carritos y sillas de paseo/Accesorios/Plataformas para carritos"
1909644031;"bebe/Featured Categories/Carritos y sillas de paseo/Accesorios/Protecciones contra agua y viento"
1909634031;"bebe/Featured Categories/Carritos y sillas de paseo/Accesorios/Reductores de asiento"
1909633031;"bebe/Featured Categories/Carritos y sillas de paseo/Accesorios/Reposacabezas"
1909643031;"bebe/Featured Categories/Carritos y sillas de paseo/Accesorios/Sacos de abrigo"
1909645031;"bebe/Featured Categories/Carritos y sillas de paseo/Accesorios/Sillas"
1909635031;"bebe/Featured Categories/Carritos y sillas de paseo/Accesorios/Sistemas de bolsillos y soportes"
1909647031;"bebe/Featured Categories/Carritos y sillas de paseo/Capazos"
1909650031;"bebe/Featured Categories/Carritos y sillas de paseo/Sillas de paseo"
1909648031;"bebe/Featured Categories/Carritos y sillas de paseo/Carritos deportivos"
1909649031;"bebe/Featured Categories/Carritos y sillas de paseo/Carritos con capazo"
1909651031;"bebe/Featured Categories/Carritos y sillas de paseo/Sistemas de viaje"
1862267031;"bebe/Featured Categories/Chupetes y mordedores"
1909625031;"bebe/Featured Categories/Chupetes y mordedores/Cadenas para chupetes"
1909624031;"bebe/Featured Categories/Chupetes y mordedores/Chupetes"
1909623031;"bebe/Featured Categories/Chupetes y mordedores/Fundas para chupetes"
1909626031;"bebe/Featured Categories/Chupetes y mordedores/Mordedores"
1862260031;"bebe/Featured Categories/Descanso y sueño"
1909517031;"bebe/Featured Categories/Descanso y sueño/Ropa de cama"
1909532031;"bebe/Featured Categories/Descanso y sueño/Ropa de cama/Accesorios para camas"
1909534031;"bebe/Featured Categories/Descanso y sueño/Ropa de cama/Accesorios para camas/Barandillas para camas"
1909535031;"bebe/Featured Categories/Descanso y sueño/Ropa de cama/Accesorios para camas/Doseles"
1909533031;"bebe/Featured Categories/Descanso y sueño/Ropa de cama/Accesorios para camas/Juegos de accesorios para camas"
1909536031;"bebe/Featured Categories/Descanso y sueño/Ropa de cama/Accesorios para camas/Mosquiteras"
4081313031;"bebe/Featured Categories/Descanso y sueño/Ropa de cama/Accesorios para camas/Protectores para cunas y camas de bebé"
4081314031;"bebe/Featured Categories/Descanso y sueño/Ropa de cama/Almohadas"
3250013031;"bebe/Featured Categories/Descanso y sueño/Ropa de cama/Almohadas de maternidad"
1909518031;"bebe/Featured Categories/Descanso y sueño/Ropa de cama/Cojines"
1909519031;"bebe/Featured Categories/Descanso y sueño/Ropa de cama/Colchones"
1909523031;"bebe/Featured Categories/Descanso y sueño/Ropa de cama/Colchones/Colchones para camas infantiles"
1909520031;"bebe/Featured Categories/Descanso y sueño/Ropa de cama/Colchones/Colchones para capazos"
1909521031;"bebe/Featured Categories/Descanso y sueño/Ropa de cama/Colchones/Colchones para cunas"
1909522031;"bebe/Featured Categories/Descanso y sueño/Ropa de cama/Colchones/Colchones para parques infantiles"
1909547031;"bebe/Featured Categories/Descanso y sueño/Ropa de cama/Mantas envolventes"
1909545031;"bebe/Featured Categories/Descanso y sueño/Ropa de cama/Mantitas de arrullo"
1909548031;"bebe/Featured Categories/Descanso y sueño/Ropa de cama/Ropa de cama infantil"
1909549031;"bebe/Featured Categories/Descanso y sueño/Ropa de cama/Ropa de cama infantil/Juegos de sábanas"
1909550031;"bebe/Featured Categories/Descanso y sueño/Ropa de cama/Ropa de cama infantil/Mantas"
1909551031;"bebe/Featured Categories/Descanso y sueño/Ropa de cama/Ropa de cama infantil/Edredones"
1909552031;"bebe/Featured Categories/Descanso y sueño/Ropa de cama/Ropa de cama infantil/Fundas de edredón"
1909553031;"bebe/Featured Categories/Descanso y sueño/Ropa de cama/Ropa de cama infantil/Cubrecolchones"
1909554031;"bebe/Featured Categories/Descanso y sueño/Ropa de cama/Ropa de cama infantil/Fundas de almohada"
1909555031;"bebe/Featured Categories/Descanso y sueño/Ropa de cama/Ropa de cama infantil/Sábanas"
1909524031;"bebe/Featured Categories/Descanso y sueño/Ropa de cama/Ropa de cama para capazos"
1909525031;"bebe/Featured Categories/Descanso y sueño/Ropa de cama/Ropa de cama para capazos/Juegos de sábanas"
1909526031;"bebe/Featured Categories/Descanso y sueño/Ropa de cama/Ropa de cama para capazos/Mantas"
1909527031;"bebe/Featured Categories/Descanso y sueño/Ropa de cama/Ropa de cama para capazos/Edredones"
1909528031;"bebe/Featured Categories/Descanso y sueño/Ropa de cama/Ropa de cama para capazos/Fundas de edredón"
1909529031;"bebe/Featured Categories/Descanso y sueño/Ropa de cama/Ropa de cama para capazos/Cubrecolchones"
1909530031;"bebe/Featured Categories/Descanso y sueño/Ropa de cama/Ropa de cama para capazos/Fundas de almohada"
1909531031;"bebe/Featured Categories/Descanso y sueño/Ropa de cama/Ropa de cama para capazos/Sábanas"
1909537031;"bebe/Featured Categories/Descanso y sueño/Ropa de cama/Ropa de cama para cunas"
1909539031;"bebe/Featured Categories/Descanso y sueño/Ropa de cama/Ropa de cama para cunas/Mantas"
1909540031;"bebe/Featured Categories/Descanso y sueño/Ropa de cama/Ropa de cama para cunas/Edredones"
1909541031;"bebe/Featured Categories/Descanso y sueño/Ropa de cama/Ropa de cama para cunas/Fundas de edredón"
1909542031;"bebe/Featured Categories/Descanso y sueño/Ropa de cama/Ropa de cama para cunas/Cubrecolchones"
1909543031;"bebe/Featured Categories/Descanso y sueño/Ropa de cama/Ropa de cama para cunas/Fundas de almohada"
1909544031;"bebe/Featured Categories/Descanso y sueño/Ropa de cama/Ropa de cama para cunas/Sábanas"
1909546031;"bebe/Featured Categories/Descanso y sueño/Ropa de cama/Sacos para dormir"
1909556031;"bebe/Featured Categories/Descanso y sueño/Muebles"
1909571031;"bebe/Featured Categories/Descanso y sueño/Muebles/Almacenamiento"
1909574031;"bebe/Featured Categories/Descanso y sueño/Muebles/Almacenamiento/Baúles para juguetes"
1909572031;"bebe/Featured Categories/Descanso y sueño/Muebles/Almacenamiento/Cestas"
1909573031;"bebe/Featured Categories/Descanso y sueño/Muebles/Almacenamiento/Organizadores"
1909557031;"bebe/Featured Categories/Descanso y sueño/Muebles/Armarios"
1909558031;"bebe/Featured Categories/Descanso y sueño/Muebles/Cajoneras"
1909559031;"bebe/Featured Categories/Descanso y sueño/Muebles/Cambiadores"
1909561031;"bebe/Featured Categories/Descanso y sueño/Muebles/Cunas y camas infantiles"
1909589031;"bebe/Featured Categories/Descanso y sueño/Muebles/Cunas y camas infantiles/Camas infantiles"
1909562031;"bebe/Featured Categories/Descanso y sueño/Muebles/Cunas y camas infantiles/Capazos"
1909565031;"bebe/Featured Categories/Descanso y sueño/Muebles/Cunas y camas infantiles/Cunas"
1909563031;"bebe/Featured Categories/Descanso y sueño/Muebles/Cunas y camas infantiles/Cunas adosadas"
1909566031;"bebe/Featured Categories/Descanso y sueño/Muebles/Cunas y camas infantiles/Cunas de viaje"
1909564031;"bebe/Featured Categories/Descanso y sueño/Muebles/Cunas y camas infantiles/Cunas mecedoras"
1909567031;"bebe/Featured Categories/Descanso y sueño/Muebles/Cunas y camas infantiles/Moisés"
1909576031;"bebe/Featured Categories/Descanso y sueño/Muebles/Estantes"
1909570031;"bebe/Featured Categories/Descanso y sueño/Muebles/Hamacas"
1909568031;"bebe/Featured Categories/Descanso y sueño/Muebles/Juegos de muebles"
1909582031;"bebe/Featured Categories/Descanso y sueño/Muebles/Muebles para niños pequeños"
1909583031;"bebe/Featured Categories/Descanso y sueño/Muebles/Muebles para niños pequeños/Asientos de bolitas"
1909584031;"bebe/Featured Categories/Descanso y sueño/Muebles/Muebles para niños pequeños/Sofás"
1909585031;"bebe/Featured Categories/Descanso y sueño/Muebles/Muebles para niños pequeños/Sillones"
1909586031;"bebe/Featured Categories/Descanso y sueño/Muebles/Muebles para niños pequeños/Juegos de mesas y sillas"
1909587031;"bebe/Featured Categories/Descanso y sueño/Muebles/Muebles para niños pequeños/Mesas"
1909588031;"bebe/Featured Categories/Descanso y sueño/Muebles/Muebles para niños pequeños/Sillas"
1909589031;"bebe/Featured Categories/Descanso y sueño/Muebles/Muebles para niños pequeños/Camas infantiles"
1909575031;"bebe/Featured Categories/Descanso y sueño/Muebles/Parques de juegos"
1909560031;"bebe/Featured Categories/Descanso y sueño/Muebles/Percheros"
1909569031;"bebe/Featured Categories/Descanso y sueño/Muebles/Sillas con reposapiés"
1909577031;"bebe/Featured Categories/Descanso y sueño/Muebles/Taburetes"
4081315031;"bebe/Featured Categories/Descanso y sueño/Muebles/Tronas y asientos"
1909580031;"bebe/Featured Categories/Descanso y sueño/Muebles/Tronas y asientos/Alzadores de asiento"
1909579031;"bebe/Featured Categories/Descanso y sueño/Muebles/Tronas y asientos/Cojines para tronas"
1909578031;"bebe/Featured Categories/Descanso y sueño/Muebles/Tronas y asientos/Tronas"
1909581031;"bebe/Featured Categories/Descanso y sueño/Muebles/Tronas y asientos/Asientos enganchables"
1909590031;"bebe/Featured Categories/Descanso y sueño/Decoración"
1909597031;"bebe/Featured Categories/Descanso y sueño/Decoración/Alfombras"
5135371031;"bebe/Featured Categories/Descanso y sueño/Decoración/Cajas para dientes"
1909591031;"bebe/Featured Categories/Descanso y sueño/Decoración/Cenefas decorativas"
1909592031;"bebe/Featured Categories/Descanso y sueño/Decoración/Cortinas"
5135386031;"bebe/Featured Categories/Descanso y sueño/Decoración/Espejos"
1909593031;"bebe/Featured Categories/Descanso y sueño/Decoración/Gráficos de crecimiento"
2844181031;"bebe/Featured Categories/Descanso y sueño/Decoración/Iluminación"
4204601031;"bebe/Featured Categories/Descanso y sueño/Decoración/Iluminación/Iluminación de ambiente"
4204600031;"bebe/Featured Categories/Descanso y sueño/Decoración/Iluminación/Iluminación de pared"
2844183031;"bebe/Featured Categories/Descanso y sueño/Decoración/Iluminación/Iluminación de techo"
2844185031;"bebe/Featured Categories/Descanso y sueño/Decoración/Iluminación/Iluminación infantil nocturna"
2844184031;"bebe/Featured Categories/Descanso y sueño/Decoración/Iluminación/Lámparas de escritorio"
2844182031;"bebe/Featured Categories/Descanso y sueño/Decoración/Iluminación/Lámparas de mesa y mesilla de noche"
4204604031;"bebe/Featured Categories/Descanso y sueño/Decoración/Iluminación/Lámparas de pie"
2844186031;"bebe/Featured Categories/Descanso y sueño/Decoración/Iluminación/Linternas"
4204603031;"bebe/Featured Categories/Descanso y sueño/Decoración/Iluminación/Luces-despertador"
1909596031;"bebe/Featured Categories/Descanso y sueño/Decoración/Imágenes enmarcadas"
4081327031;"bebe/Featured Categories/Descanso y sueño/Decoración/Letras y números para pared"
1909595031;"bebe/Featured Categories/Descanso y sueño/Decoración/Marcos de fotos"
1909594031;"bebe/Featured Categories/Descanso y sueño/Decoración/Móviles"
1909598031;"bebe/Featured Categories/Descanso y sueño/Decoración/Pegatinas de pared"
4081316031;"bebe/Featured Categories/Descanso y sueño/Decoración/Relojes para bebés"
1862264031;"bebe/Featured Categories/Higiene y cuidado"
1909295031;"bebe/Featured Categories/Higiene y cuidado/Baño"
4081293031;"bebe/Featured Categories/Higiene y cuidado/Baño/Acondicionadores"
4081292031;"bebe/Featured Categories/Higiene y cuidado/Baño/Albornoces"
1909413031;"bebe/Featured Categories/Higiene y cuidado/Baño/Albornoces/Albornoces para niñas"
1909350031;"bebe/Featured Categories/Higiene y cuidado/Baño/Albornoces/Albornoces para niños"
1909301031;"bebe/Featured Categories/Higiene y cuidado/Baño/Bañeras y asientos de baño"
1909297031;"bebe/Featured Categories/Higiene y cuidado/Baño/Champú"
1909303031;"bebe/Featured Categories/Higiene y cuidado/Baño/Esponjas y guantes de baño"
1909296031;"bebe/Featured Categories/Higiene y cuidado/Baño/Gel de ducha"
1642120031;"bebe/Featured Categories/Higiene y cuidado/Baño/Juguetes de baño"
1909302031;"bebe/Featured Categories/Higiene y cuidado/Baño/Palanganas"
1909298031;"bebe/Featured Categories/Higiene y cuidado/Baño/Sales de baño"
4081338031;"bebe/Featured Categories/Higiene y cuidado/Baño/Seguridad y protecciones para cuarto de baño"
4081295031;"bebe/Featured Categories/Higiene y cuidado/Baño/Sets de baño para viajes"
1909299031;"bebe/Featured Categories/Higiene y cuidado/Baño/Termómetros de baño"
1909300031;"bebe/Featured Categories/Higiene y cuidado/Baño/Toallas de baño"
4081294031;"bebe/Featured Categories/Higiene y cuidado/Baño/Toallas de lavabo"
1909305031;"bebe/Featured Categories/Higiene y cuidado/Básculas"
1909306031;"bebe/Featured Categories/Higiene y cuidado/Cuidado de la piel"
1909310031;"bebe/Featured Categories/Higiene y cuidado/Cuidado de la piel/Aceites"
1909307031;"bebe/Featured Categories/Higiene y cuidado/Cuidado de la piel/Cremas lenitivas"
1909308031;"bebe/Featured Categories/Higiene y cuidado/Cuidado de la piel/Lociones"
1909311031;"bebe/Featured Categories/Higiene y cuidado/Cuidado de la piel/Polvos de talco"
1909309031;"bebe/Featured Categories/Higiene y cuidado/Cuidado de la piel/Protectores solares"
1909283031;"bebe/Featured Categories/Higiene y cuidado/Higiene"
1909284031;"bebe/Featured Categories/Higiene y cuidado/Higiene/Cepillos y peines"
1909288031;"bebe/Featured Categories/Higiene y cuidado/Higiene/Cuidado de oídos y nariz"
1909289031;"bebe/Featured Categories/Higiene y cuidado/Higiene/Cuidado de oídos y nariz/Juegos de aspirador nasal y jeringuilla de oídos"
1909290031;"bebe/Featured Categories/Higiene y cuidado/Higiene/Cuidado de oídos y nariz/Aspiradores nasales"
1909291031;"bebe/Featured Categories/Higiene y cuidado/Higiene/Cuidado de oídos y nariz/Hidratación nasal y soluciones de irrigación"
1909292031;"bebe/Featured Categories/Higiene y cuidado/Higiene/Cuidado de oídos y nariz/Pinzas nasales"
1909293031;"bebe/Featured Categories/Higiene y cuidado/Higiene/Cuidado de oídos y nariz/Jeringuillas de oídos"
1909294031;"bebe/Featured Categories/Higiene y cuidado/Higiene/Cuidado de oídos y nariz/Bastoncillos de oídos"
1909287031;"bebe/Featured Categories/Higiene y cuidado/Higiene/Cuidado de uñas"
1909285031;"bebe/Featured Categories/Higiene y cuidado/Higiene/Cuidado dental"
4081290031;"bebe/Featured Categories/Higiene y cuidado/Higiene/Cuidado dental/Cepillos de dientes"
1862267031;"bebe/Featured Categories/Higiene y cuidado/Higiene/Cuidado dental/Chupetes y mordedores"
1909625031;"bebe/Featured Categories/Higiene y cuidado/Higiene/Cuidado dental/Chupetes y mordedores/Cadenas para chupetes"
1909624031;"bebe/Featured Categories/Higiene y cuidado/Higiene/Cuidado dental/Chupetes y mordedores/Chupetes"
1909623031;"bebe/Featured Categories/Higiene y cuidado/Higiene/Cuidado dental/Chupetes y mordedores/Fundas para chupetes"
1909626031;"bebe/Featured Categories/Higiene y cuidado/Higiene/Cuidado dental/Chupetes y mordedores/Mordedores"
4081291031;"bebe/Featured Categories/Higiene y cuidado/Higiene/Cuidado dental/Pasta de dientes"
1909286031;"bebe/Featured Categories/Higiene y cuidado/Higiene/Kits de higiene"
1909312031;"bebe/Featured Categories/Higiene y cuidado/Termómetros"
4081299031;"bebe/Featured Categories/Higiene y cuidado/Toallitas y accesorios"
4081300031;"bebe/Featured Categories/Higiene y cuidado/Toallitas y accesorios/Bolas y discos de algodón"
4081303031;"bebe/Featured Categories/Higiene y cuidado/Toallitas y accesorios/Calentadores de toallitas"
4081302031;"bebe/Featured Categories/Higiene y cuidado/Toallitas y accesorios/Estuches y dispensadores para toallitas"
1909313031;"bebe/Featured Categories/Higiene y cuidado/Toallitas y accesorios/Toallitas húmedas"
4081301031;"bebe/Featured Categories/Higiene y cuidado/Toallitas y accesorios/Toallitas secas"
4081304031;"bebe/Featured Categories/Higiene y cuidado/Toallitas y accesorios/Toallitas y repuestos"
1909304031;"bebe/Featured Categories/Higiene y cuidado/Tratamientos de frío y calor"
1862259031;"bebe/Featured Categories/Lactancia y alimentación"
1909609031;"bebe/Featured Categories/Lactancia y alimentación/Accesorios para la lactancia"
1909612031;"bebe/Featured Categories/Lactancia y alimentación/Accesorios para la lactancia/Cojines de lactancia"
4081335031;"bebe/Featured Categories/Lactancia y alimentación/Accesorios para la lactancia/Crema para pezones"
1909614031;"bebe/Featured Categories/Lactancia y alimentación/Accesorios para la lactancia/Mantas de lactancia"
1909610031;"bebe/Featured Categories/Lactancia y alimentación/Accesorios para la lactancia/Protectores de pecho"
1909613031;"bebe/Featured Categories/Lactancia y alimentación/Accesorios para la lactancia/Recipientes para leche materna"
1909611031;"bebe/Featured Categories/Lactancia y alimentación/Accesorios para la lactancia/Sacaleches"
1909599031;"bebe/Featured Categories/Lactancia y alimentación/Baberos"
4081328031;"bebe/Featured Categories/Lactancia y alimentación/Batidoras, licuadoras y robots de cocina"
4081329031;"bebe/Featured Categories/Lactancia y alimentación/Batidoras, licuadoras y robots de cocina/Batidoras"
4081330031;"bebe/Featured Categories/Lactancia y alimentación/Batidoras, licuadoras y robots de cocina/Licuadoras"
4081331031;"bebe/Featured Categories/Lactancia y alimentación/Batidoras, licuadoras y robots de cocina/Robots de cocina"
1909600031;"bebe/Featured Categories/Lactancia y alimentación/Biberones y accesorios"
1909605031;"bebe/Featured Categories/Lactancia y alimentación/Biberones y accesorios/Biberones"
1909607031;"bebe/Featured Categories/Lactancia y alimentación/Biberones y accesorios/Bolsas térmicas"
1909604031;"bebe/Featured Categories/Lactancia y alimentación/Biberones y accesorios/Calienta biberones"
1909608031;"bebe/Featured Categories/Lactancia y alimentación/Biberones y accesorios/Discos para sellar biberones"
4081334031;"bebe/Featured Categories/Lactancia y alimentación/Biberones y accesorios/Dispensadores de leche en polvo"
4081333031;"bebe/Featured Categories/Lactancia y alimentación/Biberones y accesorios/Escurrebiberones"
1909606031;"bebe/Featured Categories/Lactancia y alimentación/Biberones y accesorios/Esterilizadores"
4081332031;"bebe/Featured Categories/Lactancia y alimentación/Biberones y accesorios/Fundas para biberones"
1909603031;"bebe/Featured Categories/Lactancia y alimentación/Biberones y accesorios/Kits de biberones"
1909601031;"bebe/Featured Categories/Lactancia y alimentación/Biberones y accesorios/Limpieza de biberón"
1909602031;"bebe/Featured Categories/Lactancia y alimentación/Biberones y accesorios/Tetinas para biberón"
1909616031;"bebe/Featured Categories/Lactancia y alimentación/Calentadores de comida"
1909617031;"bebe/Featured Categories/Lactancia y alimentación/Paños de muselina"
1909615031;"bebe/Featured Categories/Lactancia y alimentación/Recipientes para comida"
4081315031;"bebe/Featured Categories/Lactancia y alimentación/Tronas y asientos"
1909580031;"bebe/Featured Categories/Lactancia y alimentación/Tronas y asientos/Alzadores de asiento"
1909579031;"bebe/Featured Categories/Lactancia y alimentación/Tronas y asientos/Cojines para tronas"
1909578031;"bebe/Featured Categories/Lactancia y alimentación/Tronas y asientos/Tronas"
1909581031;"bebe/Featured Categories/Lactancia y alimentación/Tronas y asientos/Asientos enganchables"
1909619031;"bebe/Featured Categories/Lactancia y alimentación/Vajilla y cubiertos"
1909620031;"bebe/Featured Categories/Lactancia y alimentación/Vajilla y cubiertos/Cubiertos"
1909622031;"bebe/Featured Categories/Lactancia y alimentación/Vajilla y cubiertos/Juegos de vajilla"
1909621031;"bebe/Featured Categories/Lactancia y alimentación/Vajilla y cubiertos/Platos"
1909618031;"bebe/Featured Categories/Lactancia y alimentación/Vasos con boquilla"
1862269031;"bebe/Featured Categories/Orinales y taburetes"
1909629031;"bebe/Featured Categories/Orinales y taburetes/Asientos"
1909628031;"bebe/Featured Categories/Orinales y taburetes/Ayuda para aprender a ir al baño"
1909631031;"bebe/Featured Categories/Orinales y taburetes/Calzones de entrenamiento reutilizables"
1909377031;"bebe/Featured Categories/Orinales y taburetes/Calzones de entrenamiento reutilizables/Calzones de entrenamiento para niños"
1909627031;"bebe/Featured Categories/Orinales y taburetes/Orinales"
1909464031;"bebe/Featured Categories/Orinales y taburetes/Pañales desechables de entrenamiento"
1909630031;"bebe/Featured Categories/Orinales y taburetes/Taburetes"
1909313031;"bebe/Featured Categories/Orinales y taburetes/Toallitas húmedas"
4081301031;"bebe/Featured Categories/Orinales y taburetes/Toallitas secas"
1862265031;"bebe/Featured Categories/Paseo"
1909316031;"bebe/Featured Categories/Paseo/Bandoleras portabebé"
1909314031;"bebe/Featured Categories/Paseo/Fulares portabebé"
1909317031;"bebe/Featured Categories/Paseo/Marsupios portabebé"
1909315031;"bebe/Featured Categories/Paseo/Mochilas portabebé"
3737692031;"bebe/Featured Categories/Regalos para recién nacidos"
3737698031;"bebe/Featured Categories/Regalos para recién nacidos/Álbumes de fotos"
3737697031;"bebe/Featured Categories/Regalos para recién nacidos/Álbumes de recuerdos"
1642124031;"bebe/Featured Categories/Regalos para recién nacidos/Cajas de música"
3737696031;"bebe/Featured Categories/Regalos para recién nacidos/Cajas de recuerdos para recién nacidos"
3737693031;"bebe/Featured Categories/Regalos para recién nacidos/Joyería"
1642118031;"bebe/Featured Categories/Regalos para recién nacidos/Juguetes blandos"
1909595031;"bebe/Featured Categories/Regalos para recién nacidos/Marcos de fotos"
1909594031;"bebe/Featured Categories/Regalos para recién nacidos/Móviles"
3737695031;"bebe/Featured Categories/Regalos para recién nacidos/Recuerdos para bautizos"
1909390031;"bebe/Featured Categories/Regalos para recién nacidos/Ropa de bautizo para niñas"
1909329031;"bebe/Featured Categories/Regalos para recién nacidos/Ropa de bautizo para niños"
3737694031;"bebe/Featured Categories/Regalos para recién nacidos/Sets de modelado e impresión"
3737699031;"bebe/Featured Categories/Regalos para recién nacidos/Sets de regalos para recién nacidos"
1895733031;"bebe/Featured Categories/Ropa para bebés"
1909379031;"bebe/Featured Categories/Ropa para bebés/Niñas de hasta 24 meses"
1909380031;"bebe/Featured Categories/Ropa para bebés/Niñas de hasta 24 meses/Accesorios"
1909384031;"bebe/Featured Categories/Ropa para bebés/Niñas de hasta 24 meses/Accesorios/Bufandas"
1909385031;"bebe/Featured Categories/Ropa para bebés/Niñas de hasta 24 meses/Accesorios/Gafas de sol"
1909381031;"bebe/Featured Categories/Ropa para bebés/Niñas de hasta 24 meses/Accesorios/Guantes y manoplas"
1909383031;"bebe/Featured Categories/Ropa para bebés/Niñas de hasta 24 meses/Accesorios/Pañuelos para el cuello"
1909382031;"bebe/Featured Categories/Ropa para bebés/Niñas de hasta 24 meses/Accesorios/Sombreros y gorras"
1909406031;"bebe/Featured Categories/Ropa para bebés/Niñas de hasta 24 meses/Bermudas"
1909421031;"bebe/Featured Categories/Ropa para bebés/Niñas de hasta 24 meses/Calcetines y medias"
1909423031;"bebe/Featured Categories/Ropa para bebés/Niñas de hasta 24 meses/Calcetines y medias/Calcetines"
1909422031;"bebe/Featured Categories/Ropa para bebés/Niñas de hasta 24 meses/Calcetines y medias/Calentadores"
1909424031;"bebe/Featured Categories/Ropa para bebés/Niñas de hasta 24 meses/Calcetines y medias/Medias"
1909404031;"bebe/Featured Categories/Ropa para bebés/Niñas de hasta 24 meses/Conjuntos"
1909407031;"bebe/Featured Categories/Ropa para bebés/Niñas de hasta 24 meses/Faldas y faldas pantalón"
1909400031;"bebe/Featured Categories/Ropa para bebés/Niñas de hasta 24 meses/Leggings"
1909435031;"bebe/Featured Categories/Ropa para bebés/Niñas de hasta 24 meses/Pantalones"
1909405031;"bebe/Featured Categories/Ropa para bebés/Niñas de hasta 24 meses/Pantalones de peto"
1909430031;"bebe/Featured Categories/Ropa para bebés/Niñas de hasta 24 meses/Partes de arriba"
1909431031;"bebe/Featured Categories/Ropa para bebés/Niñas de hasta 24 meses/Partes de arriba/Blusas"
1909434031;"bebe/Featured Categories/Ropa para bebés/Niñas de hasta 24 meses/Partes de arriba/Camisetas"
1909433031;"bebe/Featured Categories/Ropa para bebés/Niñas de hasta 24 meses/Partes de arriba/Camisetas sin mangas"
1909432031;"bebe/Featured Categories/Ropa para bebés/Niñas de hasta 24 meses/Partes de arriba/Polos"
1909401031;"bebe/Featured Categories/Ropa para bebés/Niñas de hasta 24 meses/Ropa de abrigo"
1909403031;"bebe/Featured Categories/Ropa para bebés/Niñas de hasta 24 meses/Ropa de abrigo/Chalecos"
1909418031;"bebe/Featured Categories/Ropa para bebés/Niñas de hasta 24 meses/Ropa de abrigo/Chaquetas impermeables"
1909402031;"bebe/Featured Categories/Ropa para bebés/Niñas de hasta 24 meses/Ropa de abrigo/Chaquetas y abrigos"
3074387031;"bebe/Featured Categories/Ropa para bebés/Niñas de hasta 24 meses/Ropa de abrigo/Trajes de nieve"
1909390031;"bebe/Featured Categories/Ropa para bebés/Niñas de hasta 24 meses/Ropa de bautizo"
2949305031;"bebe/Featured Categories/Ropa para bebés/Niñas de hasta 24 meses/Ropa de deporte"
2949310031;"bebe/Featured Categories/Ropa para bebés/Niñas de hasta 24 meses/Ropa de deporte/Chaquetas deportivas"
2949308031;"bebe/Featured Categories/Ropa para bebés/Niñas de hasta 24 meses/Ropa de deporte/Conjuntos deportivos"
2949306031;"bebe/Featured Categories/Ropa para bebés/Niñas de hasta 24 meses/Ropa de deporte/Pantalones de deporte"
2949307031;"bebe/Featured Categories/Ropa para bebés/Niñas de hasta 24 meses/Ropa de deporte/Sudaderas con capucha"
2949309031;"bebe/Featured Categories/Ropa para bebés/Niñas de hasta 24 meses/Ropa de deporte/Sudaderas de deporte"
1909416031;"bebe/Featured Categories/Ropa para bebés/Niñas de hasta 24 meses/Ropa de nieve y lluvia"
1909418031;"bebe/Featured Categories/Ropa para bebés/Niñas de hasta 24 meses/Ropa de nieve y lluvia/Chaquetas impermeables"
1909417031;"bebe/Featured Categories/Ropa para bebés/Niñas de hasta 24 meses/Ropa de nieve y lluvia/Pantalones impermeables"
1909419031;"bebe/Featured Categories/Ropa para bebés/Niñas de hasta 24 meses/Ropa de nieve y lluvia/Pantalones y monos para la nieve"
1909420031;"bebe/Featured Categories/Ropa para bebés/Niñas de hasta 24 meses/Ropa de nieve y lluvia/Trajes de nieve"
1909399031;"bebe/Featured Categories/Ropa para bebés/Niñas de hasta 24 meses/Ropa de punto"
1909386031;"bebe/Featured Categories/Ropa para bebés/Niñas de hasta 24 meses/Ropa de una pieza"
1909387031;"bebe/Featured Categories/Ropa para bebés/Niñas de hasta 24 meses/Ropa de una pieza/Bodies"
1909389031;"bebe/Featured Categories/Ropa para bebés/Niñas de hasta 24 meses/Ropa de una pieza/Monos"
1909388031;"bebe/Featured Categories/Ropa para bebés/Niñas de hasta 24 meses/Ropa de una pieza/Peleles"
1909436031;"bebe/Featured Categories/Ropa para bebés/Niñas de hasta 24 meses/Ropa interior"
1909408031;"bebe/Featured Categories/Ropa para bebés/Niñas de hasta 24 meses/Ropa para dormir y batas"
1909413031;"bebe/Featured Categories/Ropa para bebés/Niñas de hasta 24 meses/Ropa para dormir y batas/Batas y albornoces"
1909412031;"bebe/Featured Categories/Ropa para bebés/Niñas de hasta 24 meses/Ropa para dormir y batas/Camisas de pijama"
1909409031;"bebe/Featured Categories/Ropa para bebés/Niñas de hasta 24 meses/Ropa para dormir y batas/Camisones"
1909410031;"bebe/Featured Categories/Ropa para bebés/Niñas de hasta 24 meses/Ropa para dormir y batas/Pantalones de pijama"
1909415031;"bebe/Featured Categories/Ropa para bebés/Niñas de hasta 24 meses/Ropa para dormir y batas/Peleles para dormir"
1909411031;"bebe/Featured Categories/Ropa para bebés/Niñas de hasta 24 meses/Ropa para dormir y batas/Pijamas enteros"
1909414031;"bebe/Featured Categories/Ropa para bebés/Niñas de hasta 24 meses/Ropa para dormir y batas/Sacos de dormir"
1909425031;"bebe/Featured Categories/Ropa para bebés/Niñas de hasta 24 meses/Trajes de baño"
1909427031;"bebe/Featured Categories/Ropa para bebés/Niñas de hasta 24 meses/Trajes de baño/Bañadores"
1909429031;"bebe/Featured Categories/Ropa para bebés/Niñas de hasta 24 meses/Trajes de baño/Dos piezas"
1909428031;"bebe/Featured Categories/Ropa para bebés/Niñas de hasta 24 meses/Trajes de baño/Pañales para nadar"
1909426031;"bebe/Featured Categories/Ropa para bebés/Niñas de hasta 24 meses/Trajes de baño/Túnicas"
1909398031;"bebe/Featured Categories/Ropa para bebés/Niñas de hasta 24 meses/Vaqueros"
1909391031;"bebe/Featured Categories/Ropa para bebés/Niñas de hasta 24 meses/Vestidos"
1909318031;"bebe/Featured Categories/Ropa para bebés/Niños de hasta 24 meses"
1909319031;"bebe/Featured Categories/Ropa para bebés/Niños de hasta 24 meses/Accesorios"
1909323031;"bebe/Featured Categories/Ropa para bebés/Niños de hasta 24 meses/Accesorios/Bufandas"
1909324031;"bebe/Featured Categories/Ropa para bebés/Niños de hasta 24 meses/Accesorios/Gafas de sol"
1909320031;"bebe/Featured Categories/Ropa para bebés/Niños de hasta 24 meses/Accesorios/Guantes y manoplas"
1909322031;"bebe/Featured Categories/Ropa para bebés/Niños de hasta 24 meses/Accesorios/Pañuelos para el cuello"
1909321031;"bebe/Featured Categories/Ropa para bebés/Niños de hasta 24 meses/Accesorios/Sombreros y gorras"
1909345031;"bebe/Featured Categories/Ropa para bebés/Niños de hasta 24 meses/Bermudas"
1909358031;"bebe/Featured Categories/Ropa para bebés/Niños de hasta 24 meses/Calcetines y medias"
1909360031;"bebe/Featured Categories/Ropa para bebés/Niños de hasta 24 meses/Calcetines y medias/Calcetines"
1909359031;"bebe/Featured Categories/Ropa para bebés/Niños de hasta 24 meses/Calcetines y medias/Calentadores"
1909361031;"bebe/Featured Categories/Ropa para bebés/Niños de hasta 24 meses/Calcetines y medias/Medias"
1909344031;"bebe/Featured Categories/Ropa para bebés/Niños de hasta 24 meses/Camisas"
1909342031;"bebe/Featured Categories/Ropa para bebés/Niños de hasta 24 meses/Conjuntos"
1909338031;"bebe/Featured Categories/Ropa para bebés/Niños de hasta 24 meses/Leggings"
1909373031;"bebe/Featured Categories/Ropa para bebés/Niños de hasta 24 meses/Pantalones"
1909343031;"bebe/Featured Categories/Ropa para bebés/Niños de hasta 24 meses/Pantalones de peto"
1909369031;"bebe/Featured Categories/Ropa para bebés/Niños de hasta 24 meses/Partes de arriba"
1909372031;"bebe/Featured Categories/Ropa para bebés/Niños de hasta 24 meses/Partes de arriba/Camisetas"
1909371031;"bebe/Featured Categories/Ropa para bebés/Niños de hasta 24 meses/Partes de arriba/Camisetas sin mangas"
1909370031;"bebe/Featured Categories/Ropa para bebés/Niños de hasta 24 meses/Partes de arriba/Polos"
1909337031;"bebe/Featured Categories/Ropa para bebés/Niños de hasta 24 meses/Punto"
1909339031;"bebe/Featured Categories/Ropa para bebés/Niños de hasta 24 meses/Ropa de abrigo"
1909341031;"bebe/Featured Categories/Ropa para bebés/Niños de hasta 24 meses/Ropa de abrigo/Chalecos"
1909355031;"bebe/Featured Categories/Ropa para bebés/Niños de hasta 24 meses/Ropa de abrigo/Chaquetas impermeables"
1909340031;"bebe/Featured Categories/Ropa para bebés/Niños de hasta 24 meses/Ropa de abrigo/Chaquetas y abrigos"
3074438031;"bebe/Featured Categories/Ropa para bebés/Niños de hasta 24 meses/Ropa de abrigo/Trajes de nieve"
1909329031;"bebe/Featured Categories/Ropa para bebés/Niños de hasta 24 meses/Ropa de bautizo"
2949299031;"bebe/Featured Categories/Ropa para bebés/Niños de hasta 24 meses/Ropa de deporte"
2949304031;"bebe/Featured Categories/Ropa para bebés/Niños de hasta 24 meses/Ropa de deporte/Chaquetas deportivas"
2949302031;"bebe/Featured Categories/Ropa para bebés/Niños de hasta 24 meses/Ropa de deporte/Conjuntos deportivos"
2949300031;"bebe/Featured Categories/Ropa para bebés/Niños de hasta 24 meses/Ropa de deporte/Pantalones de deporte"
2949301031;"bebe/Featured Categories/Ropa para bebés/Niños de hasta 24 meses/Ropa de deporte/Sudaderas con capucha"
2949303031;"bebe/Featured Categories/Ropa para bebés/Niños de hasta 24 meses/Ropa de deporte/Sudaderas de deporte"
1909353031;"bebe/Featured Categories/Ropa para bebés/Niños de hasta 24 meses/Ropa de nieve y lluvia"
1909355031;"bebe/Featured Categories/Ropa para bebés/Niños de hasta 24 meses/Ropa de nieve y lluvia/Chaquetas impermeables"
1909354031;"bebe/Featured Categories/Ropa para bebés/Niños de hasta 24 meses/Ropa de nieve y lluvia/Pantalones impermeables"
1909356031;"bebe/Featured Categories/Ropa para bebés/Niños de hasta 24 meses/Ropa de nieve y lluvia/Pantalones y monos para la nieve"
1909357031;"bebe/Featured Categories/Ropa para bebés/Niños de hasta 24 meses/Ropa de nieve y lluvia/Trajes de nieve"
1909325031;"bebe/Featured Categories/Ropa para bebés/Niños de hasta 24 meses/Ropa de una pieza"
1909326031;"bebe/Featured Categories/Ropa para bebés/Niños de hasta 24 meses/Ropa de una pieza/Bodies"
1909328031;"bebe/Featured Categories/Ropa para bebés/Niños de hasta 24 meses/Ropa de una pieza/Monos"
1909327031;"bebe/Featured Categories/Ropa para bebés/Niños de hasta 24 meses/Ropa de una pieza/Peleles"
1909374031;"bebe/Featured Categories/Ropa para bebés/Niños de hasta 24 meses/Ropa interior"
1909377031;"bebe/Featured Categories/Ropa para bebés/Niños de hasta 24 meses/Ropa interior/Calzones de entrenamiento"
1909378031;"bebe/Featured Categories/Ropa para bebés/Niños de hasta 24 meses/Ropa interior/Camisillas"
1909376031;"bebe/Featured Categories/Ropa para bebés/Niños de hasta 24 meses/Ropa interior/Conjuntos"
1909375031;"bebe/Featured Categories/Ropa para bebés/Niños de hasta 24 meses/Ropa interior/Pantis"
1909346031;"bebe/Featured Categories/Ropa para bebés/Niños de hasta 24 meses/Ropa para dormir y batas"
1909350031;"bebe/Featured Categories/Ropa para bebés/Niños de hasta 24 meses/Ropa para dormir y batas/Batas y albornoces"
1909349031;"bebe/Featured Categories/Ropa para bebés/Niños de hasta 24 meses/Ropa para dormir y batas/Camisas de pijama"
1909347031;"bebe/Featured Categories/Ropa para bebés/Niños de hasta 24 meses/Ropa para dormir y batas/Pantalones de pijama"
1909352031;"bebe/Featured Categories/Ropa para bebés/Niños de hasta 24 meses/Ropa para dormir y batas/Peleles para dormir"
1909348031;"bebe/Featured Categories/Ropa para bebés/Niños de hasta 24 meses/Ropa para dormir y batas/Pijamas enteros"
1909351031;"bebe/Featured Categories/Ropa para bebés/Niños de hasta 24 meses/Ropa para dormir y batas/Sacos de dormir"
1909366031;"bebe/Featured Categories/Ropa para bebés/Niños de hasta 24 meses/Trajes de baño"
1909367031;"bebe/Featured Categories/Ropa para bebés/Niños de hasta 24 meses/Trajes de baño/Bermudas y bañadores"
1909368031;"bebe/Featured Categories/Ropa para bebés/Niños de hasta 24 meses/Trajes de baño/Pañales para nadar"
1909336031;"bebe/Featured Categories/Ropa para bebés/Niños de hasta 24 meses/Vaqueros"
1895732031;"bebe/Featured Categories/Ropa premamá"
1909497031;"bebe/Featured Categories/Ropa premamá/Bermudas"
1909472031;"bebe/Featured Categories/Ropa premamá/Blusas y camisas"
1909466031;"bebe/Featured Categories/Ropa premamá/Deporte"
1909474031;"bebe/Featured Categories/Ropa premamá/Deporte/Sudaderas con capucha de deprote"
1909500031;"bebe/Featured Categories/Ropa premamá/Deporte/Sudaderas de deporte"
1909498031;"bebe/Featured Categories/Ropa premamá/Faldas"
1909481031;"bebe/Featured Categories/Ropa premamá/Leggings"
1909482031;"bebe/Featured Categories/Ropa premamá/Lencería y ropa interior"
1909484031;"bebe/Featured Categories/Ropa premamá/Lencería y ropa interior/Braguitas"
4505809031;"bebe/Featured Categories/Ropa premamá/Lencería y ropa interior/Chalecos"
1909485031;"bebe/Featured Categories/Ropa premamá/Lencería y ropa interior/Conjuntos de lencería"
1909483031;"bebe/Featured Categories/Ropa premamá/Lencería y ropa interior/Fajas de embarazo"
1909486031;"bebe/Featured Categories/Ropa premamá/Lencería y ropa interior/Sujetadores premamá y de lactancia"
1909510031;"bebe/Featured Categories/Ropa premamá/Medías y calcetines"
1909516031;"bebe/Featured Categories/Ropa premamá/Pantalones"
1909496031;"bebe/Featured Categories/Ropa premamá/Pantalones de peto"
1909511031;"bebe/Featured Categories/Ropa premamá/Partes de arriba"
1909512031;"bebe/Featured Categories/Ropa premamá/Partes de arriba/Camisetas de manga larga"
1909515031;"bebe/Featured Categories/Ropa premamá/Partes de arriba/Camisetas de tirantes"
1909513031;"bebe/Featured Categories/Ropa premamá/Partes de arriba/Polos"
1909476031;"bebe/Featured Categories/Ropa premamá/Punto"
1909480031;"bebe/Featured Categories/Ropa premamá/Punto/Camisetas sin mangas"
1909478031;"bebe/Featured Categories/Ropa premamá/Punto/Chalecos"
1909479031;"bebe/Featured Categories/Ropa premamá/Punto/Jerseys"
1909477031;"bebe/Featured Categories/Ropa premamá/Punto/Rebecas"
1909492031;"bebe/Featured Categories/Ropa premamá/Ropa de abrigo"
1909493031;"bebe/Featured Categories/Ropa premamá/Ropa de abrigo/Abrigos"
1909494031;"bebe/Featured Categories/Ropa premamá/Ropa de abrigo/Chalecos"
1909495031;"bebe/Featured Categories/Ropa premamá/Ropa de abrigo/Chaquetas"
1909487031;"bebe/Featured Categories/Ropa premamá/Ropa para dormir"
1909500031;"bebe/Featured Categories/Ropa premamá/Sudaderas"
1909474031;"bebe/Featured Categories/Ropa premamá/Sudaderas con capucha"
1909501031;"bebe/Featured Categories/Ropa premamá/Trajes de baño"
1909499031;"bebe/Featured Categories/Ropa premamá/Trajes y americanas"
1909475031;"bebe/Featured Categories/Ropa premamá/Vaqueros"
1909473031;"bebe/Featured Categories/Ropa premamá/Vestidos"
1862258031;"bebe/Featured Categories/Seguridad"
1909663031;"bebe/Featured Categories/Seguridad/Arneses de seguridad"
1909653031;"bebe/Featured Categories/Seguridad/Barreras de puerta y extensiones"
4081339031;"bebe/Featured Categories/Seguridad/Humidificadores"
1909654031;"bebe/Featured Categories/Seguridad/Protecciones y cerraduras"
1909656031;"bebe/Featured Categories/Seguridad/Protecciones y cerraduras/Cierres para armarios"
1909662031;"bebe/Featured Categories/Seguridad/Protecciones y cerraduras/Cierres para WC"
1909658031;"bebe/Featured Categories/Seguridad/Protecciones y cerraduras/Cubiertas para cables y enchufes"
1909660031;"bebe/Featured Categories/Seguridad/Protecciones y cerraduras/Kits de seguridad"
1909655031;"bebe/Featured Categories/Seguridad/Protecciones y cerraduras/Protecciones para bordes y esquinas"
1909661031;"bebe/Featured Categories/Seguridad/Protecciones y cerraduras/Protecciones para cocinas"
1909659031;"bebe/Featured Categories/Seguridad/Protecciones y cerraduras/Protecciones para plantas y flores"
1909657031;"bebe/Featured Categories/Seguridad/Protecciones y cerraduras/Protección para puertas y ventanas"
4081338031;"bebe/Featured Categories/Seguridad/Seguridad y protecciones para cuarto de baño"
1909652031;"bebe/Featured Categories/Seguridad/Vigilabebés"
1862257031;"bebe/Featured Categories/Sillas de coche y accesorios"
1909441031;"bebe/Featured Categories/Sillas de coche y accesorios/Accesorios"
4081307031;"bebe/Featured Categories/Sillas de coche y accesorios/Accesorios/Adaptadores para sillas de coche"
1909450031;"bebe/Featured Categories/Sillas de coche y accesorios/Accesorios/Almohadillas para cinturón"
1909442031;"bebe/Featured Categories/Sillas de coche y accesorios/Accesorios/Bases para sillas de coche"
4081308031;"bebe/Featured Categories/Sillas de coche y accesorios/Accesorios/Cojines reductores"
4081305031;"bebe/Featured Categories/Sillas de coche y accesorios/Accesorios/Espejos para asientos traseros"
1909445031;"bebe/Featured Categories/Sillas de coche y accesorios/Accesorios/Fundas para asientos"
1909451031;"bebe/Featured Categories/Sillas de coche y accesorios/Accesorios/Fundas para sillas de coche"
1909448031;"bebe/Featured Categories/Sillas de coche y accesorios/Accesorios/Mosquiteras"
1909447031;"bebe/Featured Categories/Sillas de coche y accesorios/Accesorios/Organizadores para coche"
1909446031;"bebe/Featured Categories/Sillas de coche y accesorios/Accesorios/Parasoles infantiles"
4081306031;"bebe/Featured Categories/Sillas de coche y accesorios/Accesorios/Pegatinas de bebé para coches"
1909449031;"bebe/Featured Categories/Sillas de coche y accesorios/Accesorios/Protectores de lluvia"
1909633031;"bebe/Featured Categories/Sillas de coche y accesorios/Accesorios/Reposacabezas"
1909444031;"bebe/Featured Categories/Sillas de coche y accesorios/Accesorios/Reposapiés"
1909443031;"bebe/Featured Categories/Sillas de coche y accesorios/Accesorios/Sacos de abrigo"
1909452031;"bebe/Featured Categories/Sillas de coche y accesorios/Sillas de coche"
1909664031;"bebe/Featured Categories/Zapatos"
1909668031;"bebe/Featured Categories/Zapatos/Para niñas"
1909669031;"bebe/Featured Categories/Zapatos/Para niñas/Patucos"
1909670031;"bebe/Featured Categories/Zapatos/Para niñas/Primeros pasos"
1909665031;"bebe/Featured Categories/Zapatos/Para niños"
1909666031;"bebe/Featured Categories/Zapatos/Para niños/Patucos"
1909667031;"bebe/Featured Categories/Zapatos/Para niños/Primeros pasos"
1897463031;"bebe/Búsqueda avanzada"
