Automotive;1
Baby;1
Beauty;1
Electronics;1
Miscellaneous;1
Grocery;1
HealthPersonalCare;1
Home & Kitchen;1
Jewelry;1
Luggage & Bags;1
MusicalInstruments;1
OfficeProducts;1
Garden;1
PetSupplies;1
SportingGoods;1
HomeImprovement;1
Toys;1
Watches;1
