450911031;"haustier/Erweiterte Suche"
427727031;"haustier/Featured Categories"
445313031;"haustier/Featured Categories/Fische"
470573031;"haustier/Featured Categories/Fische/Aquarien & Zubehör"
470574031;"haustier/Featured Categories/Fische/Aquarien & Zubehör/Abdeckungen"
470575031;"haustier/Featured Categories/Fische/Aquarien & Zubehör/Aquarien"
470576031;"haustier/Featured Categories/Fische/Aquarien & Zubehör/Automatisierte Futterspender"
470577031;"haustier/Featured Categories/Fische/Aquarien & Zubehör/Beleuchtung"
470578031;"haustier/Featured Categories/Fische/Aquarien & Zubehör/Dekor"
470579031;"haustier/Featured Categories/Fische/Aquarien & Zubehör/Dekor/Hintergründe"
470580031;"haustier/Featured Categories/Fische/Aquarien & Zubehör/Dekor/Holz"
470581031;"haustier/Featured Categories/Fische/Aquarien & Zubehör/Dekor/Korallen"
470582031;"haustier/Featured Categories/Fische/Aquarien & Zubehör/Dekor/Ornamente"
470583031;"haustier/Featured Categories/Fische/Aquarien & Zubehör/Dekor/Plastikpflanzen"
470584031;"haustier/Featured Categories/Fische/Aquarien & Zubehör/Dekor/Steine"
470585031;"haustier/Featured Categories/Fische/Aquarien & Zubehör/Dekor/Trennwände"
2497147031;"haustier/Featured Categories/Fische/Aquarien & Zubehör/Dekor/Wasserpflanzen"
470586031;"haustier/Featured Categories/Fische/Aquarien & Zubehör/Einsteigersets"
470587031;"haustier/Featured Categories/Fische/Aquarien & Zubehör/Fischgläser"
470589031;"haustier/Featured Categories/Fische/Aquarien & Zubehör/Heizvorrichtungen"
470590031;"haustier/Featured Categories/Fische/Aquarien & Zubehör/Hydrometer & Thermometer"
470591031;"haustier/Featured Categories/Fische/Aquarien & Zubehör/Kies & Sand"
470593031;"haustier/Featured Categories/Fische/Aquarien & Zubehör/Pumpen & Filter"
470594031;"haustier/Featured Categories/Fische/Aquarien & Zubehör/Pumpen & Filter/Filter"
470595031;"haustier/Featured Categories/Fische/Aquarien & Zubehör/Pumpen & Filter/Filterzubehör"
470596031;"haustier/Featured Categories/Fische/Aquarien & Zubehör/Pumpen & Filter/Luftpumpen"
470597031;"haustier/Featured Categories/Fische/Aquarien & Zubehör/Pumpen & Filter/Luftpumpenzubehör"
470598031;"haustier/Featured Categories/Fische/Aquarien & Zubehör/Pumpen & Filter/Wasserpumpen"
470599031;"haustier/Featured Categories/Fische/Aquarien & Zubehör/Pumpen & Filter/Wasserpumpenzubehör"
470600031;"haustier/Featured Categories/Fische/Aquarien & Zubehör/Reinigungsmittel"
470588031;"haustier/Featured Categories/Fische/Aquarien & Zubehör/Reinigungsmittel/Glasreiniger"
470592031;"haustier/Featured Categories/Fische/Aquarien & Zubehör/Reinigungsmittel/Netze"
470603031;"haustier/Featured Categories/Fische/Aquarien & Zubehör/Reinigungsmittel/Wasseraustauschgeräte"
470601031;"haustier/Featured Categories/Fische/Aquarien & Zubehör/Aquarienmöbel"
470602031;"haustier/Featured Categories/Fische/Aquarien & Zubehör/Wasseraufbereitung & Wassertestsets"
470604031;"haustier/Featured Categories/Fische/Aquarien & Zubehör/Zuchttanks"
470605031;"haustier/Featured Categories/Fische/Futter"
470606031;"haustier/Featured Categories/Fische/Gesundheit"
445314031;"haustier/Featured Categories/Hunde"
470607031;"haustier/Featured Categories/Hunde/Barrieren, Klappen & Rampen"
470608031;"haustier/Featured Categories/Hunde/Barrieren, Klappen & Rampen/Barrieren"
470609031;"haustier/Featured Categories/Hunde/Barrieren, Klappen & Rampen/Hundeklappen"
470610031;"haustier/Featured Categories/Hunde/Barrieren, Klappen & Rampen/Sicherheitsrampen"
470611031;"haustier/Featured Categories/Hunde/Barrieren, Klappen & Rampen/Türglocken"
470612031;"haustier/Featured Categories/Hunde/Bekleidung & Zubehör"
470613031;"haustier/Featured Categories/Hunde/Bekleidung & Zubehör/Charms"
470614031;"haustier/Featured Categories/Hunde/Bekleidung & Zubehör/Haaraccessoires"
470615031;"haustier/Featured Categories/Hunde/Bekleidung & Zubehör/Halsketten"
470616031;"haustier/Featured Categories/Hunde/Bekleidung & Zubehör/Hüte"
470617031;"haustier/Featured Categories/Hunde/Bekleidung & Zubehör/Kleider"
470618031;"haustier/Featured Categories/Hunde/Bekleidung & Zubehör/Kopftücher"
470619031;"haustier/Featured Categories/Hunde/Bekleidung & Zubehör/Pfotenschutz"
470620031;"haustier/Featured Categories/Hunde/Bekleidung & Zubehör/Regenjacken"
5382528031;"haustier/Featured Categories/Hunde/Bekleidung & Zubehör/Rettungswesten"
470621031;"haustier/Featured Categories/Hunde/Bekleidung & Zubehör/Rucksäcke"
470622031;"haustier/Featured Categories/Hunde/Bekleidung & Zubehör/Shirts, Sweater & Hoodies"
470623031;"haustier/Featured Categories/Hunde/Bekleidung & Zubehör/Sonnenbrillen"
470624031;"haustier/Featured Categories/Hunde/Bekleidung & Zubehör/Verkleidungen & Kostüme"
5382529031;"haustier/Featured Categories/Hunde/Bekleidung & Zubehör/Winterjacken & -mäntel"
470626031;"haustier/Featured Categories/Hunde/Erziehungshilfen"
470627031;"haustier/Featured Categories/Hunde/Erziehungshilfen/Agility-Ausrüstung"
470628031;"haustier/Featured Categories/Hunde/Erziehungshilfen/Anbindezubehör"
470629031;"haustier/Featured Categories/Hunde/Erziehungshilfen/Anti-Bell-Mittel"
3550334031;"haustier/Featured Categories/Hunde/Erziehungshilfen/Beißschutz"
470630031;"haustier/Featured Categories/Hunde/Erziehungshilfen/Drahtloser Auslauf"
470631031;"haustier/Featured Categories/Hunde/Erziehungshilfen/Erziehungshalsbänder"
470632031;"haustier/Featured Categories/Hunde/Erziehungshilfen/Fernhaltemittel"
470633031;"haustier/Featured Categories/Hunde/Erziehungshilfen/Hundepfeifen"
470634031;"haustier/Featured Categories/Hunde/Erziehungshilfen/Klicker"
2497124031;"haustier/Featured Categories/Hunde/Erziehungshilfen/Training Dummies"
470635031;"haustier/Featured Categories/Hunde/Erziehungshilfen/Übungsleinen"
470636031;"haustier/Featured Categories/Hunde/Fell- & Krallenpflege"
470637031;"haustier/Featured Categories/Hunde/Fell- & Krallenpflege/Badezubehör"
470638031;"haustier/Featured Categories/Hunde/Fell- & Krallenpflege/Blutstillende Gels & Puder"
470639031;"haustier/Featured Categories/Hunde/Fell- & Krallenpflege/Bürsten"
470640031;"haustier/Featured Categories/Hunde/Fell- & Krallenpflege/Deodorants"
470641031;"haustier/Featured Categories/Hunde/Fell- & Krallenpflege/Entfilzungsmesser & Unterwollbürsten"
470642031;"haustier/Featured Categories/Hunde/Fell- & Krallenpflege/Fellsprays"
470643031;"haustier/Featured Categories/Hunde/Fell- & Krallenpflege/Haarroller"
470644031;"haustier/Featured Categories/Hunde/Fell- & Krallenpflege/Kämme"
470645031;"haustier/Featured Categories/Hunde/Fell- & Krallenpflege/Krallenpflege"
470646031;"haustier/Featured Categories/Hunde/Fell- & Krallenpflege/Scheren & Schermaschinen"
470647031;"haustier/Featured Categories/Hunde/Fell- & Krallenpflege/Shampoos & Conditioner"
470648031;"haustier/Featured Categories/Hunde/Fell- & Krallenpflege/Shampoos & Conditioner/Conditioner"
470649031;"haustier/Featured Categories/Hunde/Fell- & Krallenpflege/Shampoos & Conditioner/Pflegetücher"
470650031;"haustier/Featured Categories/Hunde/Fell- & Krallenpflege/Shampoos & Conditioner/Shampoos"
470651031;"haustier/Featured Categories/Hunde/Futter"
470652031;"haustier/Featured Categories/Hunde/Futter/Nassfutter"
470653031;"haustier/Featured Categories/Hunde/Futter/Trockenfutter"
470654031;"haustier/Featured Categories/Hunde/Gedenksteine"
470655031;"haustier/Featured Categories/Hunde/Geschirre, Halsbänder & Leinen"
470631031;"haustier/Featured Categories/Hunde/Geschirre, Halsbänder & Leinen/Erziehungshalsbänder"
470656031;"haustier/Featured Categories/Hunde/Geschirre, Halsbänder & Leinen/Geschirre"
2497417031;"haustier/Featured Categories/Hunde/Geschirre, Halsbänder & Leinen/Geschirre/Brustgeschirre"
2497415031;"haustier/Featured Categories/Hunde/Geschirre, Halsbänder & Leinen/Geschirre/Laufgeschirre"
2497416031;"haustier/Featured Categories/Hunde/Geschirre, Halsbänder & Leinen/Geschirre/Sicherheitsgeschirre"
470657031;"haustier/Featured Categories/Hunde/Geschirre, Halsbänder & Leinen/Hundemarken"
470658031;"haustier/Featured Categories/Hunde/Geschirre, Halsbänder & Leinen/Klassische Halsbänder"
470659031;"haustier/Featured Categories/Hunde/Geschirre, Halsbänder & Leinen/Leinen"
470660031;"haustier/Featured Categories/Hunde/Geschirre, Halsbänder & Leinen/Maulkörbe"
470661031;"haustier/Featured Categories/Hunde/Geschirre, Halsbänder & Leinen/Sicherheitshalsbänder"
470635031;"haustier/Featured Categories/Hunde/Geschirre, Halsbänder & Leinen/Übungsleinen"
470662031;"haustier/Featured Categories/Hunde/Gesundheit"
470663031;"haustier/Featured Categories/Hunde/Gesundheit/Augenpflege"
470664031;"haustier/Featured Categories/Hunde/Gesundheit/Entspannungs- & Anti-Stress-Mittel"
470665031;"haustier/Featured Categories/Hunde/Gesundheit/Ersatzmilch"
470666031;"haustier/Featured Categories/Hunde/Gesundheit/Fliegen- & Mosquitosprays"
470667031;"haustier/Featured Categories/Hunde/Gesundheit/Halskrausen"
470668031;"haustier/Featured Categories/Hunde/Gesundheit/Homöopathische Kuren"
470669031;"haustier/Featured Categories/Hunde/Gesundheit/Juckreizmittel"
470670031;"haustier/Featured Categories/Hunde/Gesundheit/Nahrungsergänzungen & Vitamine"
2111697031;"haustier/Featured Categories/Hunde/Gesundheit/Nahrungsergänzungen & Vitamine/Aminosäuren"
2111698031;"haustier/Featured Categories/Hunde/Gesundheit/Nahrungsergänzungen & Vitamine/Antioxidantien"
2111699031;"haustier/Featured Categories/Hunde/Gesundheit/Nahrungsergänzungen & Vitamine/Gelenk- und Knochenschutz"
2111700031;"haustier/Featured Categories/Hunde/Gesundheit/Nahrungsergänzungen & Vitamine/Fischöl"
2111701031;"haustier/Featured Categories/Hunde/Gesundheit/Nahrungsergänzungen & Vitamine/Kräuter"
2111702031;"haustier/Featured Categories/Hunde/Gesundheit/Nahrungsergänzungen & Vitamine/Vitamine"
2111703031;"haustier/Featured Categories/Hunde/Gesundheit/Nahrungsergänzungen & Vitamine/Probiotika"
470671031;"haustier/Featured Categories/Hunde/Gesundheit/Ohrenpflege"
470672031;"haustier/Featured Categories/Hunde/Gesundheit/Thermometer"
470673031;"haustier/Featured Categories/Hunde/Gesundheit/Ungezieferschutz"
470674031;"haustier/Featured Categories/Hunde/Gesundheit/Ungezieferschutz/Floh-, Läuse-, & Zeckensprays"
470676031;"haustier/Featured Categories/Hunde/Gesundheit/Ungezieferschutz/Halsbänder"
470677031;"haustier/Featured Categories/Hunde/Gesundheit/Ungezieferschutz/Teppichsprays"
470678031;"haustier/Featured Categories/Hunde/Gesundheit/Ungezieferschutz/Tropfen"
470675031;"haustier/Featured Categories/Hunde/Gesundheit/Ungezieferschutz/Ungezieferkämme"
470679031;"haustier/Featured Categories/Hunde/Gesundheit/Ungezieferschutz/Zeckenentfernung"
470680031;"haustier/Featured Categories/Hunde/Gesundheit/Verdauungshilfen"
470681031;"haustier/Featured Categories/Hunde/Gesundheit/Wurmkuren"
470682031;"haustier/Featured Categories/Hunde/Gesundheit/Zahnpflege"
470683031;"haustier/Featured Categories/Hunde/Gesundheit/Zahnpflege/Zahnbürsten"
470684031;"haustier/Featured Categories/Hunde/Gesundheit/Zahnpflege/Zahnpasta"
470685031;"haustier/Featured Categories/Hunde/Hütten & Zwinger"
470686031;"haustier/Featured Categories/Hunde/Hütten & Zwinger/Hundehütten"
470687031;"haustier/Featured Categories/Hunde/Hütten & Zwinger/Hundekisten & Zwinger"
470688031;"haustier/Featured Categories/Hunde/Hütten & Zwinger/Laufställe"
470689031;"haustier/Featured Categories/Hunde/Hütten & Zwinger/Zwingerabdeckungen"
470690031;"haustier/Featured Categories/Hunde/Hundeleckerli & Snacks"
470691031;"haustier/Featured Categories/Hunde/Hundeleckerli & Snacks/Dörrfleisch"
470692031;"haustier/Featured Categories/Hunde/Hundeleckerli & Snacks/Hufe"
470693031;"haustier/Featured Categories/Hunde/Hundeleckerli & Snacks/Hundekuchen, Kekse & Kausnacks"
2111708031;"haustier/Featured Categories/Hunde/Hundeleckerli & Snacks/Hundekuchen, Kekse & Kausnacks/Hundekuchen"
2111709031;"haustier/Featured Categories/Hunde/Hundeleckerli & Snacks/Hundekuchen, Kekse & Kausnacks/Hundekekse"
2111710031;"haustier/Featured Categories/Hunde/Hundeleckerli & Snacks/Hundekuchen, Kekse & Kausnacks/Kausnacks"
470694031;"haustier/Featured Categories/Hunde/Hundeleckerli & Snacks/Knochen"
470696031;"haustier/Featured Categories/Hunde/Hundeleckerli & Snacks/Rohleder"
2111711031;"haustier/Featured Categories/Hunde/Hundeleckerli & Snacks/Rohleder/Knochen"
2111712031;"haustier/Featured Categories/Hunde/Hundeleckerli & Snacks/Rohleder/Chips"
2111713031;"haustier/Featured Categories/Hunde/Hundeleckerli & Snacks/Rohleder/Rollen"
2111714031;"haustier/Featured Categories/Hunde/Hundeleckerli & Snacks/Rohleder/Stangen"
2111704031;"haustier/Featured Categories/Hunde/Hundeleckerli & Snacks/Tierohren"
2111706031;"haustier/Featured Categories/Hunde/Hundeleckerli & Snacks/Tierohren/Lammohren"
2111705031;"haustier/Featured Categories/Hunde/Hundeleckerli & Snacks/Tierohren/Rinderohren"
2111707031;"haustier/Featured Categories/Hunde/Hundeleckerli & Snacks/Tierohren/Schweineohren"
470697031;"haustier/Featured Categories/Hunde/Näpfe, Tränken & Zubehör"
470698031;"haustier/Featured Categories/Hunde/Näpfe, Tränken & Zubehör/Aufzuchthilfen"
470699031;"haustier/Featured Categories/Hunde/Näpfe, Tränken & Zubehör/Automatisierte Futterspender"
470700031;"haustier/Featured Categories/Hunde/Näpfe, Tränken & Zubehör/Futteraufbewahrung"
3550337031;"haustier/Featured Categories/Hunde/Näpfe, Tränken & Zubehör/Futtermatten"
470701031;"haustier/Featured Categories/Hunde/Näpfe, Tränken & Zubehör/Hundebars & Napfständer"
470702031;"haustier/Featured Categories/Hunde/Näpfe, Tränken & Zubehör/Näpfe & Reisenäpfe"
470703031;"haustier/Featured Categories/Hunde/Näpfe, Tränken & Zubehör/Trinkbrunnen"
470704031;"haustier/Featured Categories/Hunde/Näpfe, Tränken & Zubehör/Wasserflaschen"
470705031;"haustier/Featured Categories/Hunde/Reise & Transport"
470706031;"haustier/Featured Categories/Hunde/Reise & Transport/Autozubehör"
82554031;"haustier/Featured Categories/Hunde/Reise & Transport/Autozubehör/Hunderampen"
82555031;"haustier/Featured Categories/Hunde/Reise & Transport/Autozubehör/Netze & Gitter"
82556031;"haustier/Featured Categories/Hunde/Reise & Transport/Autozubehör/Schondecken"
2497416031;"haustier/Featured Categories/Hunde/Reise & Transport/Autozubehör/Sicherheitsgeschirre"
470707031;"haustier/Featured Categories/Hunde/Reise & Transport/Boxen & Tragetaschen"
470708031;"haustier/Featured Categories/Hunde/Reise & Transport/Fahrradkörbe & -anhänger"
470709031;"haustier/Featured Categories/Hunde/Reise & Transport/Rucksäcke & Tragetücher"
470710031;"haustier/Featured Categories/Hunde/Reise & Transport/Wagen"
470711031;"haustier/Featured Categories/Hunde/Sauberkeitserziehung"
470712031;"haustier/Featured Categories/Hunde/Sauberkeitserziehung/Bodenschutz & Unterlagen"
470713031;"haustier/Featured Categories/Hunde/Sauberkeitserziehung/Flecken- & Geruchsentferner"
470714031;"haustier/Featured Categories/Hunde/Sauberkeitserziehung/Hundetoiletten"
470715031;"haustier/Featured Categories/Hunde/Sauberkeitserziehung/Kotschaufeln & Tüten"
470716031;"haustier/Featured Categories/Hunde/Sauberkeitserziehung/Toiletteneinlagen"
470717031;"haustier/Featured Categories/Hunde/Sauberkeitserziehung/Windeln"
470718031;"haustier/Featured Categories/Hunde/Schlafplätze & Möbel"
470719031;"haustier/Featured Categories/Hunde/Schlafplätze & Möbel/Betten"
470720031;"haustier/Featured Categories/Hunde/Schlafplätze & Möbel/Bezüge"
470721031;"haustier/Featured Categories/Hunde/Schlafplätze & Möbel/Kissen & Decken"
470722031;"haustier/Featured Categories/Hunde/Schlafplätze & Möbel/Matten"
470723031;"haustier/Featured Categories/Hunde/Schlafplätze & Möbel/Sessel & Sofas"
470724031;"haustier/Featured Categories/Hunde/Schlafplätze & Möbel/Treppen & Stufen"
470725031;"haustier/Featured Categories/Hunde/Spielzeug"
470627031;"haustier/Featured Categories/Hunde/Spielzeug/Agility -Ausrüstung"
470726031;"haustier/Featured Categories/Hunde/Spielzeug/Apportierspielzeug"
470727031;"haustier/Featured Categories/Hunde/Spielzeug/Bälle"
4254579031;"haustier/Featured Categories/Hunde/Spielzeug/Hundepools"
3550336031;"haustier/Featured Categories/Hunde/Spielzeug/Interaktives Spielzeug"
470728031;"haustier/Featured Categories/Hunde/Spielzeug/Kauspielzeug"
470729031;"haustier/Featured Categories/Hunde/Spielzeug/Licht- & Laserspielzeug"
3550335031;"haustier/Featured Categories/Hunde/Spielzeug/Plüschspielzeug"
470730031;"haustier/Featured Categories/Hunde/Spielzeug/Quietschspielzeug"
4254577031;"haustier/Featured Categories/Hunde/Spielzeug/Schwimmspielzeug"
470731031;"haustier/Featured Categories/Hunde/Spielzeug/Seile"
4254578031;"haustier/Featured Categories/Hunde/Spielzeug/Welpenspielzeug"
470732031;"haustier/Featured Categories/Insekten"
470734031;"haustier/Featured Categories/Insekten/Futter"
470735031;"haustier/Featured Categories/Insekten/Gesundheit"
470733031;"haustier/Featured Categories/Insekten/Terrarien & Zubehör"
445315031;"haustier/Featured Categories/Katzen"
470737031;"haustier/Featured Categories/Katzen/Bekleidung"
470739031;"haustier/Featured Categories/Katzen/Fell- & Krallenpflege"
470740031;"haustier/Featured Categories/Katzen/Fell- & Krallenpflege/Blutstillende Gels & Puder"
470741031;"haustier/Featured Categories/Katzen/Fell- & Krallenpflege/Bürsten"
470742031;"haustier/Featured Categories/Katzen/Fell- & Krallenpflege/Haarroller"
470743031;"haustier/Featured Categories/Katzen/Fell- & Krallenpflege/Kämme"
470744031;"haustier/Featured Categories/Katzen/Fell- & Krallenpflege/Krallenpflege"
470745031;"haustier/Featured Categories/Katzen/Fell- & Krallenpflege/Scheren & Schermaschinen"
470746031;"haustier/Featured Categories/Katzen/Fell- & Krallenpflege/Shampoos & Conditioner"
470747031;"haustier/Featured Categories/Katzen/Fernhaltemittel"
470748031;"haustier/Featured Categories/Katzen/Futter"
470749031;"haustier/Featured Categories/Katzen/Futter/Nassfutter"
470750031;"haustier/Featured Categories/Katzen/Futter/Trockenfutter"
470751031;"haustier/Featured Categories/Katzen/Gedenksteine"
470752031;"haustier/Featured Categories/Katzen/Geschirre, Halsbänder & Leinen"
470753031;"haustier/Featured Categories/Katzen/Geschirre, Halsbänder & Leinen/Geschirre"
470754031;"haustier/Featured Categories/Katzen/Geschirre, Halsbänder & Leinen/Halsbänder"
470755031;"haustier/Featured Categories/Katzen/Geschirre, Halsbänder & Leinen/Katzenmarken"
470756031;"haustier/Featured Categories/Katzen/Geschirre, Halsbänder & Leinen/Leinen"
470757031;"haustier/Featured Categories/Katzen/Gesundheit"
470758031;"haustier/Featured Categories/Katzen/Gesundheit/Augen- & Ohrenpflege"
470759031;"haustier/Featured Categories/Katzen/Gesundheit/Entspannungs- & Anti-Stress-Mittel"
470760031;"haustier/Featured Categories/Katzen/Gesundheit/Ersatzmilch"
470761031;"haustier/Featured Categories/Katzen/Gesundheit/Fliegen- & Mosquitosprays"
470762031;"haustier/Featured Categories/Katzen/Gesundheit/Haarballenmittel"
470763031;"haustier/Featured Categories/Katzen/Gesundheit/Halskrausen"
470764031;"haustier/Featured Categories/Katzen/Gesundheit/Homöopathische Kuren"
470765031;"haustier/Featured Categories/Katzen/Gesundheit/Juckreizmittel"
470766031;"haustier/Featured Categories/Katzen/Gesundheit/Nahrungsergänzungen & Vitamine"
2111690031;"haustier/Featured Categories/Katzen/Gesundheit/Nahrungsergänzungen & Vitamine/Aminosäuren"
2111691031;"haustier/Featured Categories/Katzen/Gesundheit/Nahrungsergänzungen & Vitamine/Antioxidantien"
2111692031;"haustier/Featured Categories/Katzen/Gesundheit/Nahrungsergänzungen & Vitamine/Gelenk- & Knochenschutz"
2111693031;"haustier/Featured Categories/Katzen/Gesundheit/Nahrungsergänzungen & Vitamine/Fischöl"
2111694031;"haustier/Featured Categories/Katzen/Gesundheit/Nahrungsergänzungen & Vitamine/Kräuter"
2111695031;"haustier/Featured Categories/Katzen/Gesundheit/Nahrungsergänzungen & Vitamine/Vitamine"
2111696031;"haustier/Featured Categories/Katzen/Gesundheit/Nahrungsergänzungen & Vitamine/Probiotika"
470767031;"haustier/Featured Categories/Katzen/Gesundheit/Ungezieferschutz"
470768031;"haustier/Featured Categories/Katzen/Gesundheit/Ungezieferschutz/Floh-, Läuse-, & Zeckensprays"
470769031;"haustier/Featured Categories/Katzen/Gesundheit/Ungezieferschutz/Flohshampoos"
470770031;"haustier/Featured Categories/Katzen/Gesundheit/Ungezieferschutz/Halsbänder & Tropfen"
470772031;"haustier/Featured Categories/Katzen/Gesundheit/Ungezieferschutz/Puder"
470771031;"haustier/Featured Categories/Katzen/Gesundheit/Ungezieferschutz/Ungezieferkämme"
470773031;"haustier/Featured Categories/Katzen/Gesundheit/Ungezieferschutz/Zeckenentfernung"
470774031;"haustier/Featured Categories/Katzen/Gesundheit/Verdauungshilfen"
470775031;"haustier/Featured Categories/Katzen/Gesundheit/Wurmkuren"
470776031;"haustier/Featured Categories/Katzen/Gesundheit/Zahnpflege"
470777031;"haustier/Featured Categories/Katzen/Katzenklappen & Außennetze"
470784031;"haustier/Featured Categories/Katzen/Katzensnacks"
470785031;"haustier/Featured Categories/Katzen/Katzensnacks/Katzenminze"
4254588031;"haustier/Featured Categories/Katzen/Katzensnacks/Katzentabs"
4254587031;"haustier/Featured Categories/Katzen/Katzensnacks/Kausticks"
4254586031;"haustier/Featured Categories/Katzen/Katzensnacks/Knuspersnacks"
4254585031;"haustier/Featured Categories/Katzen/Katzensnacks/Pasten & Cremes"
470786031;"haustier/Featured Categories/Katzen/Katzensnacks/Snacks"
470778031;"haustier/Featured Categories/Katzen/Katzentoiletten & Zubehör"
470779031;"haustier/Featured Categories/Katzen/Katzentoiletten & Zubehör/Flecken- & Geruchsentferner"
470780031;"haustier/Featured Categories/Katzen/Katzentoiletten & Zubehör/Katzentoiletten"
470781031;"haustier/Featured Categories/Katzen/Katzentoiletten & Zubehör/Reinigungsmittel"
470782031;"haustier/Featured Categories/Katzen/Katzentoiletten & Zubehör/Streu"
470783031;"haustier/Featured Categories/Katzen/Katzentoiletten & Zubehör/Streuschaufeln"
470738031;"haustier/Featured Categories/Katzen/Käfige & Transportboxen für Katzen"
470787031;"haustier/Featured Categories/Katzen/Näpfe, Tränken & Zubehör"
470788031;"haustier/Featured Categories/Katzen/Näpfe, Tränken & Zubehör/Aufzuchthilfen"
470789031;"haustier/Featured Categories/Katzen/Näpfe, Tränken & Zubehör/Automatisierte Futterspender"
470790031;"haustier/Featured Categories/Katzen/Näpfe, Tränken & Zubehör/Futteraufbewahrung"
3550340031;"haustier/Featured Categories/Katzen/Näpfe, Tränken & Zubehör/Futtermatten"
470791031;"haustier/Featured Categories/Katzen/Näpfe, Tränken & Zubehör/Näpfe"
470792031;"haustier/Featured Categories/Katzen/Näpfe, Tränken & Zubehör/Trinkbrunnen"
470793031;"haustier/Featured Categories/Katzen/Schlafplätze & Möbel"
470794031;"haustier/Featured Categories/Katzen/Schlafplätze & Möbel/Betten & Sofas"
470795031;"haustier/Featured Categories/Katzen/Schlafplätze & Möbel/Decken, Kissen & Matten"
470796031;"haustier/Featured Categories/Katzen/Schlafplätze & Möbel/Fensterplätze"
470797031;"haustier/Featured Categories/Katzen/Schlafplätze & Möbel/Höhlen & Häuser"
470798031;"haustier/Featured Categories/Katzen/Schlafplätze & Möbel/Kratzbäume & -matten"
470799031;"haustier/Featured Categories/Katzen/Schlafplätze & Möbel/Kratzmöbel"
470800031;"haustier/Featured Categories/Katzen/Spielzeug"
470801031;"haustier/Featured Categories/Katzen/Spielzeug/Bälle"
470802031;"haustier/Featured Categories/Katzen/Spielzeug/Federspielzeug"
3550339031;"haustier/Featured Categories/Katzen/Spielzeug/Interaktives Spielzeug"
470803031;"haustier/Featured Categories/Katzen/Spielzeug/Licht- & Laserspielzeug"
3550338031;"haustier/Featured Categories/Katzen/Spielzeug/Plüschspielzeug"
470804031;"haustier/Featured Categories/Katzen/Spielzeug/Spielzeug mit Katzenminze"
470805031;"haustier/Featured Categories/Katzen/Spielzeug/Spielzeugmäuse"
4254580031;"haustier/Featured Categories/Katzen/Spielzeug/Katzenangeln"
4254581031;"haustier/Featured Categories/Katzen/Spielzeug/Kratzspielzeug"
4254582031;"haustier/Featured Categories/Katzen/Spielzeug/Tunnel"
470736031;"haustier/Featured Categories/Katzen/Tragetaschen & Wagen"
445316031;"haustier/Featured Categories/Kleintiere"
470806031;"haustier/Featured Categories/Kleintiere/Fell- & Krallenpflege"
470807031;"haustier/Featured Categories/Kleintiere/Fell- & Krallenpflege/Bürsten"
470808031;"haustier/Featured Categories/Kleintiere/Fell- & Krallenpflege/Deodorants"
470809031;"haustier/Featured Categories/Kleintiere/Fell- & Krallenpflege/Kämme"
470810031;"haustier/Featured Categories/Kleintiere/Fell- & Krallenpflege/Krallenpflege"
2111718031;"haustier/Featured Categories/Kleintiere/Futter"
470812031;"haustier/Featured Categories/Kleintiere/Geruchs- & Fleckenentferner"
470813031;"haustier/Featured Categories/Kleintiere/Geschirre, Halsbänder & Leinen"
470814031;"haustier/Featured Categories/Kleintiere/Gesundheit"
470815031;"haustier/Featured Categories/Kleintiere/Käfige, Hütten & Höhlen"
470816031;"haustier/Featured Categories/Kleintiere/Käfige, Hütten & Höhlen/Dekor"
470817031;"haustier/Featured Categories/Kleintiere/Käfige, Hütten & Höhlen/Käfige & Laufställe"
470818031;"haustier/Featured Categories/Kleintiere/Käfige, Hütten & Höhlen/Streu & Substrate"
2111719031;"haustier/Featured Categories/Kleintiere/Leckereien & Futterergänzung"
470819031;"haustier/Featured Categories/Kleintiere/Näpfe, Tränken & Zubehör"
470820031;"haustier/Featured Categories/Kleintiere/Näpfe, Tränken & Zubehör/Automatisierte Futterspender"
470821031;"haustier/Featured Categories/Kleintiere/Näpfe, Tränken & Zubehör/Näpfe"
470822031;"haustier/Featured Categories/Kleintiere/Näpfe, Tränken & Zubehör/Wasserflaschen"
470823031;"haustier/Featured Categories/Kleintiere/Räder & Röhren"
470824031;"haustier/Featured Categories/Kleintiere/Spielzeug"
470825031;"haustier/Featured Categories/Kleintiere/Tragetaschen & Transportzubehör"
470829031;"haustier/Featured Categories/Nutztiere"
4546048031;"haustier/Featured Categories/Nutztiere/Bauten & Zubehör"
4546052031;"haustier/Featured Categories/Nutztiere/Bauten & Zubehör/Futteraufbewahrung"
4546049031;"haustier/Featured Categories/Nutztiere/Bauten & Zubehör/Scheunen"
4546050031;"haustier/Featured Categories/Nutztiere/Bauten & Zubehör/Tore & Türen"
4546051031;"haustier/Featured Categories/Nutztiere/Bauten & Zubehör/Zäune"
470830031;"haustier/Featured Categories/Nutztiere/Bienen"
4546006031;"haustier/Featured Categories/Nutztiere/Bienen/Bienenhäuser"
4546012031;"haustier/Featured Categories/Nutztiere/Bienen/Futtergeräte & Futter"
4546014031;"haustier/Featured Categories/Nutztiere/Bienen/Futtergeräte & Futter/Futtergeräte"
4546015031;"haustier/Featured Categories/Nutztiere/Bienen/Futtergeräte & Futter/Futtersirup"
4546017031;"haustier/Featured Categories/Nutztiere/Bienen/Honigernte & -verarbeitung"
4546018031;"haustier/Featured Categories/Nutztiere/Bienen/Honigernte & -verarbeitung/Abfüllgeräte"
4546019031;"haustier/Featured Categories/Nutztiere/Bienen/Honigernte & -verarbeitung/Gläser & Etiketten"
4546020031;"haustier/Featured Categories/Nutztiere/Bienen/Honigernte & -verarbeitung/Schleudern"
4546023031;"haustier/Featured Categories/Nutztiere/Bienen/Königinnenzucht"
4546016031;"haustier/Featured Categories/Nutztiere/Bienen/Magazinbeuten"
4546011031;"haustier/Featured Categories/Nutztiere/Bienen/Magazinbeuten/Abdeckungen"
4546010031;"haustier/Featured Categories/Nutztiere/Bienen/Magazinbeuten/Bienenstocksets"
4546007031;"haustier/Featured Categories/Nutztiere/Bienen/Magazinbeuten/Bodenplatten"
4546009031;"haustier/Featured Categories/Nutztiere/Bienen/Magazinbeuten/Rähmchen"
4546008031;"haustier/Featured Categories/Nutztiere/Bienen/Magazinbeuten/Sockel"
4546022031;"haustier/Featured Categories/Nutztiere/Bienen/Schutzbekleidung"
4546021031;"haustier/Featured Categories/Nutztiere/Bienen/Schädlingsschutz"
4546024031;"haustier/Featured Categories/Nutztiere/Bienen/Werkzeuge & Zubehör"
470831031;"haustier/Featured Categories/Nutztiere/Geflügel"
4546035031;"haustier/Featured Categories/Nutztiere/Geflügel/Brutzubehör"
4732209031;"haustier/Featured Categories/Nutztiere/Geflügel/Brutzubehör/Eierkartons & -paletten"
4546036031;"haustier/Featured Categories/Nutztiere/Geflügel/Brutzubehör/Eierwender"
4546037031;"haustier/Featured Categories/Nutztiere/Geflügel/Brutzubehör/Inkubatoren"
4546038031;"haustier/Featured Categories/Nutztiere/Geflügel/Fütterungsgeräte & Tränken"
4546039031;"haustier/Featured Categories/Nutztiere/Geflügel/Fütterungsgeräte & Tränken/Futter"
4546041031;"haustier/Featured Categories/Nutztiere/Geflügel/Fütterungsgeräte & Tränken/Tränken & Tränkanlagen"
4546040031;"haustier/Featured Categories/Nutztiere/Geflügel/Fütterungsgeräte & Tränken/Tröge & Automaten"
4546047031;"haustier/Featured Categories/Nutztiere/Geflügel/Gesundheit"
4546042031;"haustier/Featured Categories/Nutztiere/Geflügel/Ställe & Zubehör"
4546044031;"haustier/Featured Categories/Nutztiere/Geflügel/Ställe & Zubehör/Beleuchtung"
4546043031;"haustier/Featured Categories/Nutztiere/Geflügel/Ställe & Zubehör/Heizungen"
4546046031;"haustier/Featured Categories/Nutztiere/Geflügel/Ställe & Zubehör/Netze"
4546045031;"haustier/Featured Categories/Nutztiere/Geflügel/Ställe & Zubehör/Ställe & Käfige"
2496970031;"haustier/Featured Categories/Nutztiere/Kühe & Rinder"
4546031031;"haustier/Featured Categories/Nutztiere/Kühe & Rinder/Fell- & Hufpflege"
4546028031;"haustier/Featured Categories/Nutztiere/Kühe & Rinder/Fütterungsgeräte & Tränken"
4546029031;"haustier/Featured Categories/Nutztiere/Kühe & Rinder/Fütterungsgeräte & Tränken/Fütterungsgeräte"
4546030031;"haustier/Featured Categories/Nutztiere/Kühe & Rinder/Fütterungsgeräte & Tränken/Tränken"
4546033031;"haustier/Featured Categories/Nutztiere/Kühe & Rinder/Gesundheit"
4546032031;"haustier/Featured Categories/Nutztiere/Kühe & Rinder/Handhabungsbedarf"
4546027031;"haustier/Featured Categories/Nutztiere/Kühe & Rinder/Schlafbedarf"
4546034031;"haustier/Featured Categories/Nutztiere/Kühe & Rinder/Stallbedarf"
470832031;"haustier/Featured Categories/Nutztiere/Schafe"
470833031;"haustier/Featured Categories/Nutztiere/Schweine"
445317031;"haustier/Featured Categories/Pferde"
470834031;"haustier/Featured Categories/Pferde/Decken"
470835031;"haustier/Featured Categories/Pferde/Fell- & Hufpflege"
470836031;"haustier/Featured Categories/Pferde/Fell- & Hufpflege/Bürsten"
470837031;"haustier/Featured Categories/Pferde/Fell- & Hufpflege/Hufpflege"
4551483031;"haustier/Featured Categories/Pferde/Fell- & Hufpflege/Quartermarker"
470838031;"haustier/Featured Categories/Pferde/Fell- & Hufpflege/Schermaschinen"
470839031;"haustier/Featured Categories/Pferde/Fell- & Hufpflege/Striegel"
470840031;"haustier/Featured Categories/Pferde/Futter"
248973011;"haustier/Featured Categories/Pferde/Gamaschen & Schützer"
470841031;"haustier/Featured Categories/Pferde/Gesundheit"
470842031;"haustier/Featured Categories/Pferde/Gesundheit/Einreibemittel"
470843031;"haustier/Featured Categories/Pferde/Gesundheit/Fliegen- & Mosquitosprays"
470844031;"haustier/Featured Categories/Pferde/Gesundheit/Nahrungsergänzungen & Vitamine"
470845031;"haustier/Featured Categories/Pferde/Gesundheit/Wurmkuren"
470846031;"haustier/Featured Categories/Pferde/Leckereien"
470848031;"haustier/Featured Categories/Pferde/Schuhe"
4254583031;"haustier/Featured Categories/Pferde/Stall-& Weidebedarf"
470847031;"haustier/Featured Categories/Pferde/Tröge, Tränken & Zubehör"
445318031;"haustier/Featured Categories/Terraristik"
470849031;"haustier/Featured Categories/Terraristik/Futter & Leckereien"
470850031;"haustier/Featured Categories/Terraristik/Gesundheit"
470851031;"haustier/Featured Categories/Terraristik/Terrarien & Zubehör"
470852031;"haustier/Featured Categories/Terraristik/Terrarien & Zubehör/Abdeckungen"
4254574031;"haustier/Featured Categories/Terraristik/Terrarien & Zubehör/Befeuchtung & Belüftung"
470853031;"haustier/Featured Categories/Terraristik/Terrarien & Zubehör/Beleuchtung"
3550332031;"haustier/Featured Categories/Terraristik/Terrarien & Zubehör/Beleuchtung/LED-Beleuchtung"
3550330031;"haustier/Featured Categories/Terraristik/Terrarien & Zubehör/Beleuchtung/Leuchtstoffröhren"
3550329031;"haustier/Featured Categories/Terraristik/Terrarien & Zubehör/Beleuchtung/Metalldampflampen"
3550331031;"haustier/Featured Categories/Terraristik/Terrarien & Zubehör/Beleuchtung/Strahler"
3550320031;"haustier/Featured Categories/Terraristik/Terrarien & Zubehör/Brutapparate"
470854031;"haustier/Featured Categories/Terraristik/Terrarien & Zubehör/Dekor"
470855031;"haustier/Featured Categories/Terraristik/Terrarien & Zubehör/Dekor/Bäume, Äste & Hölzer"
470856031;"haustier/Featured Categories/Terraristik/Terrarien & Zubehör/Dekor/Höhlen & Verstecke"
470857031;"haustier/Featured Categories/Terraristik/Terrarien & Zubehör/Dekor/Pflanzen & Kletterpflanzen"
3550328031;"haustier/Featured Categories/Terraristik/Terrarien & Zubehör/Dekor/Rückwände"
470858031;"haustier/Featured Categories/Terraristik/Terrarien & Zubehör/Dekor/Steine & Wasserfälle"
3550327031;"haustier/Featured Categories/Terraristik/Terrarien & Zubehör/Filter & Pumpen"
3550326031;"haustier/Featured Categories/Terraristik/Terrarien & Zubehör/Fütterungshilfen"
470863031;"haustier/Featured Categories/Terraristik/Terrarien & Zubehör/Heizer, Wärmelampen & -matten"
3550325031;"haustier/Featured Categories/Terraristik/Terrarien & Zubehör/Hygrometer"
3550323031;"haustier/Featured Categories/Terraristik/Terrarien & Zubehör/Hygrostate"
4254576031;"haustier/Featured Categories/Terraristik/Terrarien & Zubehör/Möbel"
470860031;"haustier/Featured Categories/Terraristik/Terrarien & Zubehör/Näpfe"
3550321031;"haustier/Featured Categories/Terraristik/Terrarien & Zubehör/Reinigung"
470861031;"haustier/Featured Categories/Terraristik/Terrarien & Zubehör/Streu & Substrate"
470862031;"haustier/Featured Categories/Terraristik/Terrarien & Zubehör/Terrarien"
3550324031;"haustier/Featured Categories/Terraristik/Terrarien & Zubehör/Thermometer"
3550322031;"haustier/Featured Categories/Terraristik/Terrarien & Zubehör/Thermostate"
4254575031;"haustier/Featured Categories/Terraristik/Terrarien & Zubehör/Werkzeug & Zubehör"
3550319031;"haustier/Featured Categories/Terraristik/Terrarien & Zubehör/Zeitschaltuhren und Steuerungssysteme"
2497161031;"haustier/Featured Categories/Terraristik/Transportboxen"
445319031;"haustier/Featured Categories/Vögel"
470865031;"haustier/Featured Categories/Vögel/Gesundheit"
470866031;"haustier/Featured Categories/Vögel/Käfige & Zubehör"
470867031;"haustier/Featured Categories/Vögel/Käfige & Zubehör/Käfigabdeckungen"
470868031;"haustier/Featured Categories/Vögel/Käfige & Zubehör/Käfige"
470869031;"haustier/Featured Categories/Vögel/Käfige & Zubehör/Käfigständer"
470870031;"haustier/Featured Categories/Vögel/Käfige & Zubehör/Leitern"
470871031;"haustier/Featured Categories/Vögel/Käfige & Zubehör/Nester"
470872031;"haustier/Featured Categories/Vögel/Käfige & Zubehör/Sand & Streu"
470873031;"haustier/Featured Categories/Vögel/Käfige & Zubehör/Schaukeln"
470874031;"haustier/Featured Categories/Vögel/Käfige & Zubehör/Schmutzblenden"
470875031;"haustier/Featured Categories/Vögel/Käfige & Zubehör/Sitzstangen"
470876031;"haustier/Featured Categories/Vögel/Käfige & Zubehör/Vogelbäder"
3550333031;"haustier/Featured Categories/Vögel/Käfige & Zubehör/Beleuchtung"
470877031;"haustier/Featured Categories/Vögel/Näpfe, Tränken & Zubehör"
470878031;"haustier/Featured Categories/Vögel/Näpfe, Tränken & Zubehör/Handfütterung"
470879031;"haustier/Featured Categories/Vögel/Näpfe, Tränken & Zubehör/Näpfe"
470880031;"haustier/Featured Categories/Vögel/Näpfe, Tränken & Zubehör/Tränken"
2111689031;"haustier/Featured Categories/Vögel/Snacks & Kräcker"
470881031;"haustier/Featured Categories/Vögel/Spielzeug"
470882031;"haustier/Featured Categories/Vögel/Transportbehälter"
2111688031;"haustier/Featured Categories/Vögel/Vogelfutter"
470883031;"haustier/Featured Categories/Wildtiere"
4380825031;"haustier/Featured Categories/Wildtiere/Eichhörnchen"
4380826031;"haustier/Featured Categories/Wildtiere/Eichhörnchen/Futter"
470885031;"haustier/Featured Categories/Wildtiere/Eichhörnchen/Futterstationen für Eichhörnchen"
4380827031;"haustier/Featured Categories/Wildtiere/Eichhörnchen/Kobel"
4380811031;"haustier/Featured Categories/Wildtiere/Fledermäuse"
4380812031;"haustier/Featured Categories/Wildtiere/Fledermäuse/Futterspender"
4380813031;"haustier/Featured Categories/Wildtiere/Fledermäuse/Fledermauskästen"
4699944031;"haustier/Featured Categories/Wildtiere/Igelhäuser"
4254584031;"haustier/Featured Categories/Wildtiere/Insektenhotels"
4380822031;"haustier/Featured Categories/Wildtiere/Schmetterlinge"
4380823031;"haustier/Featured Categories/Wildtiere/Schmetterlinge/Futter"
470886031;"haustier/Featured Categories/Wildtiere/Schmetterlinge/Futterstationen für Schmetterlinge"
4380824031;"haustier/Featured Categories/Wildtiere/Schmetterlinge/Häuser"
4380814031;"haustier/Featured Categories/Wildtiere/Wildvögel"
470892031;"haustier/Featured Categories/Wildtiere/Wildvögel/Futterstationen"
4380819031;"haustier/Featured Categories/Wildtiere/Wildvögel/Futterstationszubehör"
4380817031;"haustier/Featured Categories/Wildtiere/Wildvögel/Nistkastenzubehör"
470887031;"haustier/Featured Categories/Wildtiere/Wildvögel/Nistkästen"
470888031;"haustier/Featured Categories/Wildtiere/Wildvögel/Vogelfutter"
470889031;"haustier/Featured Categories/Wildtiere/Wildvögel/Vogelfutter/Kolibrifutter"
470890031;"haustier/Featured Categories/Wildtiere/Wildvögel/Vogelfutter/Körnerfutter"
470891031;"haustier/Featured Categories/Wildtiere/Wildvögel/Vogelfutter/Meisenknödel"
2111687031;"haustier/Featured Categories/Wildtiere/Wildvögel/Vogelfutter/Mehlwürmer"
4380816031;"haustier/Featured Categories/Wildtiere/Wildvögel/Vogeltränken"
4380815031;"haustier/Featured Categories/Wildtiere/Wildvögel/Vogeltränkenzubehör"
340853031;"haustier/Kategorien"
445313031;"haustier/Kategorien/Aquaristik"
470573031;"haustier/Kategorien/Aquaristik/Aquarien & Zubehör"
470574031;"haustier/Kategorien/Aquaristik/Aquarien & Zubehör/Abdeckungen"
470575031;"haustier/Kategorien/Aquaristik/Aquarien & Zubehör/Aquarien"
470576031;"haustier/Kategorien/Aquaristik/Aquarien & Zubehör/Automatisierte Futterspender"
470577031;"haustier/Kategorien/Aquaristik/Aquarien & Zubehör/Beleuchtung"
470578031;"haustier/Kategorien/Aquaristik/Aquarien & Zubehör/Dekor"
470579031;"haustier/Kategorien/Aquaristik/Aquarien & Zubehör/Dekor/Hintergründe"
470580031;"haustier/Kategorien/Aquaristik/Aquarien & Zubehör/Dekor/Holz"
470581031;"haustier/Kategorien/Aquaristik/Aquarien & Zubehör/Dekor/Korallen"
470582031;"haustier/Kategorien/Aquaristik/Aquarien & Zubehör/Dekor/Ornamente"
470583031;"haustier/Kategorien/Aquaristik/Aquarien & Zubehör/Dekor/Plastikpflanzen"
470584031;"haustier/Kategorien/Aquaristik/Aquarien & Zubehör/Dekor/Steine"
470585031;"haustier/Kategorien/Aquaristik/Aquarien & Zubehör/Dekor/Trennwände"
2497147031;"haustier/Kategorien/Aquaristik/Aquarien & Zubehör/Dekor/Wasserpflanzen"
470586031;"haustier/Kategorien/Aquaristik/Aquarien & Zubehör/Einsteigersets"
470587031;"haustier/Kategorien/Aquaristik/Aquarien & Zubehör/Fischgläser"
470589031;"haustier/Kategorien/Aquaristik/Aquarien & Zubehör/Heizvorrichtungen"
470590031;"haustier/Kategorien/Aquaristik/Aquarien & Zubehör/Hydrometer & Thermometer"
470591031;"haustier/Kategorien/Aquaristik/Aquarien & Zubehör/Kies & Sand"
470593031;"haustier/Kategorien/Aquaristik/Aquarien & Zubehör/Pumpen & Filter"
470594031;"haustier/Kategorien/Aquaristik/Aquarien & Zubehör/Pumpen & Filter/Filter"
470595031;"haustier/Kategorien/Aquaristik/Aquarien & Zubehör/Pumpen & Filter/Filterzubehör"
470596031;"haustier/Kategorien/Aquaristik/Aquarien & Zubehör/Pumpen & Filter/Luftpumpen"
470597031;"haustier/Kategorien/Aquaristik/Aquarien & Zubehör/Pumpen & Filter/Luftpumpenzubehör"
470598031;"haustier/Kategorien/Aquaristik/Aquarien & Zubehör/Pumpen & Filter/Wasserpumpen"
470599031;"haustier/Kategorien/Aquaristik/Aquarien & Zubehör/Pumpen & Filter/Wasserpumpenzubehör"
470600031;"haustier/Kategorien/Aquaristik/Aquarien & Zubehör/Reinigungsmittel"
470588031;"haustier/Kategorien/Aquaristik/Aquarien & Zubehör/Reinigungsmittel/Glasreiniger"
470592031;"haustier/Kategorien/Aquaristik/Aquarien & Zubehör/Reinigungsmittel/Netze"
470603031;"haustier/Kategorien/Aquaristik/Aquarien & Zubehör/Reinigungsmittel/Wasseraustauschgeräte"
470601031;"haustier/Kategorien/Aquaristik/Aquarien & Zubehör/Aquarienmöbel"
470602031;"haustier/Kategorien/Aquaristik/Aquarien & Zubehör/Wasseraufbereitung & Wassertestsets"
470604031;"haustier/Kategorien/Aquaristik/Aquarien & Zubehör/Zuchttanks"
470605031;"haustier/Kategorien/Aquaristik/Futter"
470606031;"haustier/Kategorien/Aquaristik/Gesundheit"
445314031;"haustier/Kategorien/Hunde"
470607031;"haustier/Kategorien/Hunde/Barrieren, Klappen & Rampen"
470608031;"haustier/Kategorien/Hunde/Barrieren, Klappen & Rampen/Barrieren"
470609031;"haustier/Kategorien/Hunde/Barrieren, Klappen & Rampen/Hundeklappen"
470610031;"haustier/Kategorien/Hunde/Barrieren, Klappen & Rampen/Sicherheitsrampen"
470611031;"haustier/Kategorien/Hunde/Barrieren, Klappen & Rampen/Türglocken"
470612031;"haustier/Kategorien/Hunde/Bekleidung & Zubehör"
470613031;"haustier/Kategorien/Hunde/Bekleidung & Zubehör/Charms"
470614031;"haustier/Kategorien/Hunde/Bekleidung & Zubehör/Haaraccessoires"
470615031;"haustier/Kategorien/Hunde/Bekleidung & Zubehör/Halsketten"
470616031;"haustier/Kategorien/Hunde/Bekleidung & Zubehör/Hüte"
470617031;"haustier/Kategorien/Hunde/Bekleidung & Zubehör/Kleider"
470618031;"haustier/Kategorien/Hunde/Bekleidung & Zubehör/Kopftücher"
470619031;"haustier/Kategorien/Hunde/Bekleidung & Zubehör/Pfotenschutz"
470620031;"haustier/Kategorien/Hunde/Bekleidung & Zubehör/Regenjacken"
5382528031;"haustier/Kategorien/Hunde/Bekleidung & Zubehör/Rettungswesten"
470621031;"haustier/Kategorien/Hunde/Bekleidung & Zubehör/Rucksäcke"
470622031;"haustier/Kategorien/Hunde/Bekleidung & Zubehör/Shirts, Sweater & Hoodies"
470623031;"haustier/Kategorien/Hunde/Bekleidung & Zubehör/Sonnenbrillen"
470624031;"haustier/Kategorien/Hunde/Bekleidung & Zubehör/Verkleidungen & Kostüme"
5382529031;"haustier/Kategorien/Hunde/Bekleidung & Zubehör/Winterjacken & -mäntel"
470626031;"haustier/Kategorien/Hunde/Erziehungshilfen"
470627031;"haustier/Kategorien/Hunde/Erziehungshilfen/Agility-Ausrüstung"
470628031;"haustier/Kategorien/Hunde/Erziehungshilfen/Anbindezubehör"
470629031;"haustier/Kategorien/Hunde/Erziehungshilfen/Anti-Bell-Mittel"
3550334031;"haustier/Kategorien/Hunde/Erziehungshilfen/Beißschutz"
470630031;"haustier/Kategorien/Hunde/Erziehungshilfen/Drahtloser Auslauf"
470631031;"haustier/Kategorien/Hunde/Erziehungshilfen/Erziehungshalsbänder"
470632031;"haustier/Kategorien/Hunde/Erziehungshilfen/Fernhaltemittel"
470633031;"haustier/Kategorien/Hunde/Erziehungshilfen/Hundepfeifen"
470634031;"haustier/Kategorien/Hunde/Erziehungshilfen/Klicker"
2497124031;"haustier/Kategorien/Hunde/Erziehungshilfen/Training Dummies"
470635031;"haustier/Kategorien/Hunde/Erziehungshilfen/Übungsleinen"
470636031;"haustier/Kategorien/Hunde/Fell- & Krallenpflege"
470637031;"haustier/Kategorien/Hunde/Fell- & Krallenpflege/Badezubehör"
470638031;"haustier/Kategorien/Hunde/Fell- & Krallenpflege/Blutstillende Gels & Puder"
470639031;"haustier/Kategorien/Hunde/Fell- & Krallenpflege/Bürsten"
470640031;"haustier/Kategorien/Hunde/Fell- & Krallenpflege/Deodorants"
470641031;"haustier/Kategorien/Hunde/Fell- & Krallenpflege/Entfilzungsmesser & Unterwollbürsten"
470642031;"haustier/Kategorien/Hunde/Fell- & Krallenpflege/Fellsprays"
470643031;"haustier/Kategorien/Hunde/Fell- & Krallenpflege/Haarroller"
470644031;"haustier/Kategorien/Hunde/Fell- & Krallenpflege/Kämme"
470645031;"haustier/Kategorien/Hunde/Fell- & Krallenpflege/Krallenpflege"
470646031;"haustier/Kategorien/Hunde/Fell- & Krallenpflege/Scheren & Schermaschinen"
470647031;"haustier/Kategorien/Hunde/Fell- & Krallenpflege/Shampoos & Conditioner"
470648031;"haustier/Kategorien/Hunde/Fell- & Krallenpflege/Shampoos & Conditioner/Conditioner"
470649031;"haustier/Kategorien/Hunde/Fell- & Krallenpflege/Shampoos & Conditioner/Pflegetücher"
470650031;"haustier/Kategorien/Hunde/Fell- & Krallenpflege/Shampoos & Conditioner/Shampoos"
470651031;"haustier/Kategorien/Hunde/Futter"
470652031;"haustier/Kategorien/Hunde/Futter/Nassfutter"
470653031;"haustier/Kategorien/Hunde/Futter/Trockenfutter"
470654031;"haustier/Kategorien/Hunde/Gedenksteine"
470655031;"haustier/Kategorien/Hunde/Geschirre, Halsbänder & Leinen"
470631031;"haustier/Kategorien/Hunde/Geschirre, Halsbänder & Leinen/Erziehungshalsbänder"
470656031;"haustier/Kategorien/Hunde/Geschirre, Halsbänder & Leinen/Geschirre"
2497417031;"haustier/Kategorien/Hunde/Geschirre, Halsbänder & Leinen/Geschirre/Brustgeschirre"
2497415031;"haustier/Kategorien/Hunde/Geschirre, Halsbänder & Leinen/Geschirre/Laufgeschirre"
2497416031;"haustier/Kategorien/Hunde/Geschirre, Halsbänder & Leinen/Geschirre/Sicherheitsgeschirre"
470657031;"haustier/Kategorien/Hunde/Geschirre, Halsbänder & Leinen/Hundemarken"
470658031;"haustier/Kategorien/Hunde/Geschirre, Halsbänder & Leinen/Klassische Halsbänder"
470659031;"haustier/Kategorien/Hunde/Geschirre, Halsbänder & Leinen/Leinen"
470660031;"haustier/Kategorien/Hunde/Geschirre, Halsbänder & Leinen/Maulkörbe"
470661031;"haustier/Kategorien/Hunde/Geschirre, Halsbänder & Leinen/Sicherheitshalsbänder"
470635031;"haustier/Kategorien/Hunde/Geschirre, Halsbänder & Leinen/Übungsleinen"
470662031;"haustier/Kategorien/Hunde/Gesundheit"
470663031;"haustier/Kategorien/Hunde/Gesundheit/Augenpflege"
470664031;"haustier/Kategorien/Hunde/Gesundheit/Entspannungs- & Anti-Stress-Mittel"
470665031;"haustier/Kategorien/Hunde/Gesundheit/Ersatzmilch"
470666031;"haustier/Kategorien/Hunde/Gesundheit/Fliegen- & Mosquitosprays"
470667031;"haustier/Kategorien/Hunde/Gesundheit/Halskrausen"
470668031;"haustier/Kategorien/Hunde/Gesundheit/Homöopathische Kuren"
470669031;"haustier/Kategorien/Hunde/Gesundheit/Juckreizmittel"
470670031;"haustier/Kategorien/Hunde/Gesundheit/Nahrungsergänzungen & Vitamine"
2111697031;"haustier/Kategorien/Hunde/Gesundheit/Nahrungsergänzungen & Vitamine/Aminosäuren"
2111698031;"haustier/Kategorien/Hunde/Gesundheit/Nahrungsergänzungen & Vitamine/Antioxidantien"
2111699031;"haustier/Kategorien/Hunde/Gesundheit/Nahrungsergänzungen & Vitamine/Gelenk- und Knochenschutz"
2111700031;"haustier/Kategorien/Hunde/Gesundheit/Nahrungsergänzungen & Vitamine/Fischöl"
2111701031;"haustier/Kategorien/Hunde/Gesundheit/Nahrungsergänzungen & Vitamine/Kräuter"
2111702031;"haustier/Kategorien/Hunde/Gesundheit/Nahrungsergänzungen & Vitamine/Vitamine"
2111703031;"haustier/Kategorien/Hunde/Gesundheit/Nahrungsergänzungen & Vitamine/Probiotika"
470671031;"haustier/Kategorien/Hunde/Gesundheit/Ohrenpflege"
470672031;"haustier/Kategorien/Hunde/Gesundheit/Thermometer"
470673031;"haustier/Kategorien/Hunde/Gesundheit/Ungezieferschutz"
470674031;"haustier/Kategorien/Hunde/Gesundheit/Ungezieferschutz/Floh-, Läuse-, & Zeckensprays"
470676031;"haustier/Kategorien/Hunde/Gesundheit/Ungezieferschutz/Halsbänder"
470677031;"haustier/Kategorien/Hunde/Gesundheit/Ungezieferschutz/Teppichsprays"
470678031;"haustier/Kategorien/Hunde/Gesundheit/Ungezieferschutz/Tropfen"
470675031;"haustier/Kategorien/Hunde/Gesundheit/Ungezieferschutz/Ungezieferkämme"
470679031;"haustier/Kategorien/Hunde/Gesundheit/Ungezieferschutz/Zeckenentfernung"
470680031;"haustier/Kategorien/Hunde/Gesundheit/Verdauungshilfen"
470681031;"haustier/Kategorien/Hunde/Gesundheit/Wurmkuren"
470682031;"haustier/Kategorien/Hunde/Gesundheit/Zahnpflege"
470683031;"haustier/Kategorien/Hunde/Gesundheit/Zahnpflege/Zahnbürsten"
470684031;"haustier/Kategorien/Hunde/Gesundheit/Zahnpflege/Zahnpasta"
470685031;"haustier/Kategorien/Hunde/Hütten & Zwinger"
470686031;"haustier/Kategorien/Hunde/Hütten & Zwinger/Hundehütten"
470687031;"haustier/Kategorien/Hunde/Hütten & Zwinger/Hundekisten & Zwinger"
470688031;"haustier/Kategorien/Hunde/Hütten & Zwinger/Laufställe"
470689031;"haustier/Kategorien/Hunde/Hütten & Zwinger/Zwingerabdeckungen"
470690031;"haustier/Kategorien/Hunde/Hundeleckerli & Snacks"
470691031;"haustier/Kategorien/Hunde/Hundeleckerli & Snacks/Dörrfleisch"
470692031;"haustier/Kategorien/Hunde/Hundeleckerli & Snacks/Hufe"
470693031;"haustier/Kategorien/Hunde/Hundeleckerli & Snacks/Hundekuchen, Kekse & Kausnacks"
2111708031;"haustier/Kategorien/Hunde/Hundeleckerli & Snacks/Hundekuchen, Kekse & Kausnacks/Hundekuchen"
2111709031;"haustier/Kategorien/Hunde/Hundeleckerli & Snacks/Hundekuchen, Kekse & Kausnacks/Hundekekse"
2111710031;"haustier/Kategorien/Hunde/Hundeleckerli & Snacks/Hundekuchen, Kekse & Kausnacks/Kausnacks"
470694031;"haustier/Kategorien/Hunde/Hundeleckerli & Snacks/Knochen"
470696031;"haustier/Kategorien/Hunde/Hundeleckerli & Snacks/Rohleder"
2111711031;"haustier/Kategorien/Hunde/Hundeleckerli & Snacks/Rohleder/Knochen"
2111712031;"haustier/Kategorien/Hunde/Hundeleckerli & Snacks/Rohleder/Chips"
2111713031;"haustier/Kategorien/Hunde/Hundeleckerli & Snacks/Rohleder/Rollen"
2111714031;"haustier/Kategorien/Hunde/Hundeleckerli & Snacks/Rohleder/Stangen"
2111704031;"haustier/Kategorien/Hunde/Hundeleckerli & Snacks/Tierohren"
2111706031;"haustier/Kategorien/Hunde/Hundeleckerli & Snacks/Tierohren/Lammohren"
2111705031;"haustier/Kategorien/Hunde/Hundeleckerli & Snacks/Tierohren/Rinderohren"
2111707031;"haustier/Kategorien/Hunde/Hundeleckerli & Snacks/Tierohren/Schweineohren"
470697031;"haustier/Kategorien/Hunde/Näpfe, Tränken & Zubehör"
470698031;"haustier/Kategorien/Hunde/Näpfe, Tränken & Zubehör/Aufzuchthilfen"
470699031;"haustier/Kategorien/Hunde/Näpfe, Tränken & Zubehör/Automatisierte Futterspender"
470700031;"haustier/Kategorien/Hunde/Näpfe, Tränken & Zubehör/Futteraufbewahrung"
3550337031;"haustier/Kategorien/Hunde/Näpfe, Tränken & Zubehör/Futtermatten"
470701031;"haustier/Kategorien/Hunde/Näpfe, Tränken & Zubehör/Hundebars & Napfständer"
470702031;"haustier/Kategorien/Hunde/Näpfe, Tränken & Zubehör/Näpfe & Reisenäpfe"
470703031;"haustier/Kategorien/Hunde/Näpfe, Tränken & Zubehör/Trinkbrunnen"
470704031;"haustier/Kategorien/Hunde/Näpfe, Tränken & Zubehör/Wasserflaschen"
470705031;"haustier/Kategorien/Hunde/Reise & Transport"
470706031;"haustier/Kategorien/Hunde/Reise & Transport/Autozubehör"
82554031;"haustier/Kategorien/Hunde/Reise & Transport/Autozubehör/Hunderampen"
82555031;"haustier/Kategorien/Hunde/Reise & Transport/Autozubehör/Netze & Gitter"
82556031;"haustier/Kategorien/Hunde/Reise & Transport/Autozubehör/Schondecken"
2497416031;"haustier/Kategorien/Hunde/Reise & Transport/Autozubehör/Sicherheitsgeschirre"
470707031;"haustier/Kategorien/Hunde/Reise & Transport/Boxen & Tragetaschen"
470708031;"haustier/Kategorien/Hunde/Reise & Transport/Fahrradkörbe & -anhänger"
470709031;"haustier/Kategorien/Hunde/Reise & Transport/Rucksäcke & Tragetücher"
470710031;"haustier/Kategorien/Hunde/Reise & Transport/Wagen"
470711031;"haustier/Kategorien/Hunde/Sauberkeitserziehung"
470712031;"haustier/Kategorien/Hunde/Sauberkeitserziehung/Bodenschutz & Unterlagen"
470713031;"haustier/Kategorien/Hunde/Sauberkeitserziehung/Flecken- & Geruchsentferner"
470714031;"haustier/Kategorien/Hunde/Sauberkeitserziehung/Hundetoiletten"
470715031;"haustier/Kategorien/Hunde/Sauberkeitserziehung/Kotschaufeln & Tüten"
470716031;"haustier/Kategorien/Hunde/Sauberkeitserziehung/Toiletteneinlagen"
470717031;"haustier/Kategorien/Hunde/Sauberkeitserziehung/Windeln"
470718031;"haustier/Kategorien/Hunde/Schlafplätze & Möbel"
470719031;"haustier/Kategorien/Hunde/Schlafplätze & Möbel/Betten"
470720031;"haustier/Kategorien/Hunde/Schlafplätze & Möbel/Bezüge"
470721031;"haustier/Kategorien/Hunde/Schlafplätze & Möbel/Kissen & Decken"
470722031;"haustier/Kategorien/Hunde/Schlafplätze & Möbel/Matten"
470723031;"haustier/Kategorien/Hunde/Schlafplätze & Möbel/Sessel & Sofas"
470724031;"haustier/Kategorien/Hunde/Schlafplätze & Möbel/Treppen & Stufen"
470725031;"haustier/Kategorien/Hunde/Spielzeug"
470627031;"haustier/Kategorien/Hunde/Spielzeug/Agility -Ausrüstung"
470726031;"haustier/Kategorien/Hunde/Spielzeug/Apportierspielzeug"
470727031;"haustier/Kategorien/Hunde/Spielzeug/Bälle"
4254579031;"haustier/Kategorien/Hunde/Spielzeug/Hundepools"
3550336031;"haustier/Kategorien/Hunde/Spielzeug/Interaktives Spielzeug"
470728031;"haustier/Kategorien/Hunde/Spielzeug/Kauspielzeug"
470729031;"haustier/Kategorien/Hunde/Spielzeug/Licht- & Laserspielzeug"
3550335031;"haustier/Kategorien/Hunde/Spielzeug/Plüschspielzeug"
470730031;"haustier/Kategorien/Hunde/Spielzeug/Quietschspielzeug"
4254577031;"haustier/Kategorien/Hunde/Spielzeug/Schwimmspielzeug"
470731031;"haustier/Kategorien/Hunde/Spielzeug/Seile"
4254578031;"haustier/Kategorien/Hunde/Spielzeug/Welpenspielzeug"
470732031;"haustier/Kategorien/Insekten"
470734031;"haustier/Kategorien/Insekten/Futter"
470735031;"haustier/Kategorien/Insekten/Gesundheit"
470733031;"haustier/Kategorien/Insekten/Terrarien & Zubehör"
445315031;"haustier/Kategorien/Katzen"
470737031;"haustier/Kategorien/Katzen/Bekleidung"
470739031;"haustier/Kategorien/Katzen/Fell- & Krallenpflege"
470740031;"haustier/Kategorien/Katzen/Fell- & Krallenpflege/Blutstillende Gels & Puder"
470741031;"haustier/Kategorien/Katzen/Fell- & Krallenpflege/Bürsten"
470742031;"haustier/Kategorien/Katzen/Fell- & Krallenpflege/Haarroller"
470743031;"haustier/Kategorien/Katzen/Fell- & Krallenpflege/Kämme"
470744031;"haustier/Kategorien/Katzen/Fell- & Krallenpflege/Krallenpflege"
470745031;"haustier/Kategorien/Katzen/Fell- & Krallenpflege/Scheren & Schermaschinen"
470746031;"haustier/Kategorien/Katzen/Fell- & Krallenpflege/Shampoos & Conditioner"
470747031;"haustier/Kategorien/Katzen/Fernhaltemittel"
470748031;"haustier/Kategorien/Katzen/Futter"
470749031;"haustier/Kategorien/Katzen/Futter/Nassfutter"
470750031;"haustier/Kategorien/Katzen/Futter/Trockenfutter"
470751031;"haustier/Kategorien/Katzen/Gedenksteine"
470752031;"haustier/Kategorien/Katzen/Geschirre, Halsbänder & Leinen"
470753031;"haustier/Kategorien/Katzen/Geschirre, Halsbänder & Leinen/Geschirre"
470754031;"haustier/Kategorien/Katzen/Geschirre, Halsbänder & Leinen/Halsbänder"
470755031;"haustier/Kategorien/Katzen/Geschirre, Halsbänder & Leinen/Katzenmarken"
470756031;"haustier/Kategorien/Katzen/Geschirre, Halsbänder & Leinen/Leinen"
470757031;"haustier/Kategorien/Katzen/Gesundheit"
470758031;"haustier/Kategorien/Katzen/Gesundheit/Augen- & Ohrenpflege"
470759031;"haustier/Kategorien/Katzen/Gesundheit/Entspannungs- & Anti-Stress-Mittel"
470760031;"haustier/Kategorien/Katzen/Gesundheit/Ersatzmilch"
470761031;"haustier/Kategorien/Katzen/Gesundheit/Fliegen- & Mosquitosprays"
470762031;"haustier/Kategorien/Katzen/Gesundheit/Haarballenmittel"
470763031;"haustier/Kategorien/Katzen/Gesundheit/Halskrausen"
470764031;"haustier/Kategorien/Katzen/Gesundheit/Homöopathische Kuren"
470765031;"haustier/Kategorien/Katzen/Gesundheit/Juckreizmittel"
470766031;"haustier/Kategorien/Katzen/Gesundheit/Nahrungsergänzungen & Vitamine"
2111690031;"haustier/Kategorien/Katzen/Gesundheit/Nahrungsergänzungen & Vitamine/Aminosäuren"
2111691031;"haustier/Kategorien/Katzen/Gesundheit/Nahrungsergänzungen & Vitamine/Antioxidantien"
2111692031;"haustier/Kategorien/Katzen/Gesundheit/Nahrungsergänzungen & Vitamine/Gelenk- & Knochenschutz"
2111693031;"haustier/Kategorien/Katzen/Gesundheit/Nahrungsergänzungen & Vitamine/Fischöl"
2111694031;"haustier/Kategorien/Katzen/Gesundheit/Nahrungsergänzungen & Vitamine/Kräuter"
2111695031;"haustier/Kategorien/Katzen/Gesundheit/Nahrungsergänzungen & Vitamine/Vitamine"
2111696031;"haustier/Kategorien/Katzen/Gesundheit/Nahrungsergänzungen & Vitamine/Probiotika"
470767031;"haustier/Kategorien/Katzen/Gesundheit/Ungezieferschutz"
470768031;"haustier/Kategorien/Katzen/Gesundheit/Ungezieferschutz/Floh-, Läuse-, & Zeckensprays"
470769031;"haustier/Kategorien/Katzen/Gesundheit/Ungezieferschutz/Flohshampoos"
470770031;"haustier/Kategorien/Katzen/Gesundheit/Ungezieferschutz/Halsbänder & Tropfen"
470772031;"haustier/Kategorien/Katzen/Gesundheit/Ungezieferschutz/Puder"
470771031;"haustier/Kategorien/Katzen/Gesundheit/Ungezieferschutz/Ungezieferkämme"
470773031;"haustier/Kategorien/Katzen/Gesundheit/Ungezieferschutz/Zeckenentfernung"
470774031;"haustier/Kategorien/Katzen/Gesundheit/Verdauungshilfen"
470775031;"haustier/Kategorien/Katzen/Gesundheit/Wurmkuren"
470776031;"haustier/Kategorien/Katzen/Gesundheit/Zahnpflege"
470777031;"haustier/Kategorien/Katzen/Katzenklappen & Außennetze"
470784031;"haustier/Kategorien/Katzen/Katzensnacks"
470785031;"haustier/Kategorien/Katzen/Katzensnacks/Katzenminze"
4254588031;"haustier/Kategorien/Katzen/Katzensnacks/Katzentabs"
4254587031;"haustier/Kategorien/Katzen/Katzensnacks/Kausticks"
4254586031;"haustier/Kategorien/Katzen/Katzensnacks/Knuspersnacks"
4254585031;"haustier/Kategorien/Katzen/Katzensnacks/Pasten & Cremes"
470786031;"haustier/Kategorien/Katzen/Katzensnacks/Snacks"
470778031;"haustier/Kategorien/Katzen/Katzentoiletten & Zubehör"
470779031;"haustier/Kategorien/Katzen/Katzentoiletten & Zubehör/Flecken- & Geruchsentferner"
470780031;"haustier/Kategorien/Katzen/Katzentoiletten & Zubehör/Katzentoiletten"
470781031;"haustier/Kategorien/Katzen/Katzentoiletten & Zubehör/Reinigungsmittel"
470782031;"haustier/Kategorien/Katzen/Katzentoiletten & Zubehör/Streu"
470783031;"haustier/Kategorien/Katzen/Katzentoiletten & Zubehör/Streuschaufeln"
470738031;"haustier/Kategorien/Katzen/Käfige & Transportboxen für Katzen"
470787031;"haustier/Kategorien/Katzen/Näpfe, Tränken & Zubehör"
470788031;"haustier/Kategorien/Katzen/Näpfe, Tränken & Zubehör/Aufzuchthilfen"
470789031;"haustier/Kategorien/Katzen/Näpfe, Tränken & Zubehör/Automatisierte Futterspender"
470790031;"haustier/Kategorien/Katzen/Näpfe, Tränken & Zubehör/Futteraufbewahrung"
3550340031;"haustier/Kategorien/Katzen/Näpfe, Tränken & Zubehör/Futtermatten"
470791031;"haustier/Kategorien/Katzen/Näpfe, Tränken & Zubehör/Näpfe"
470792031;"haustier/Kategorien/Katzen/Näpfe, Tränken & Zubehör/Trinkbrunnen"
470793031;"haustier/Kategorien/Katzen/Schlafplätze & Möbel"
470794031;"haustier/Kategorien/Katzen/Schlafplätze & Möbel/Betten & Sofas"
470795031;"haustier/Kategorien/Katzen/Schlafplätze & Möbel/Decken, Kissen & Matten"
470796031;"haustier/Kategorien/Katzen/Schlafplätze & Möbel/Fensterplätze"
470797031;"haustier/Kategorien/Katzen/Schlafplätze & Möbel/Höhlen & Häuser"
470798031;"haustier/Kategorien/Katzen/Schlafplätze & Möbel/Kratzbäume & -matten"
470799031;"haustier/Kategorien/Katzen/Schlafplätze & Möbel/Kratzmöbel"
470800031;"haustier/Kategorien/Katzen/Spielzeug"
470801031;"haustier/Kategorien/Katzen/Spielzeug/Bälle"
470802031;"haustier/Kategorien/Katzen/Spielzeug/Federspielzeug"
3550339031;"haustier/Kategorien/Katzen/Spielzeug/Interaktives Spielzeug"
470803031;"haustier/Kategorien/Katzen/Spielzeug/Licht- & Laserspielzeug"
3550338031;"haustier/Kategorien/Katzen/Spielzeug/Plüschspielzeug"
470804031;"haustier/Kategorien/Katzen/Spielzeug/Spielzeug mit Katzenminze"
470805031;"haustier/Kategorien/Katzen/Spielzeug/Spielzeugmäuse"
4254580031;"haustier/Kategorien/Katzen/Spielzeug/Katzenangeln"
4254581031;"haustier/Kategorien/Katzen/Spielzeug/Kratzspielzeug"
4254582031;"haustier/Kategorien/Katzen/Spielzeug/Tunnel"
470736031;"haustier/Kategorien/Katzen/Tragetaschen & Wagen"
445316031;"haustier/Kategorien/Kleintiere"
470806031;"haustier/Kategorien/Kleintiere/Fell- & Krallenpflege"
470807031;"haustier/Kategorien/Kleintiere/Fell- & Krallenpflege/Bürsten"
470808031;"haustier/Kategorien/Kleintiere/Fell- & Krallenpflege/Deodorants"
470809031;"haustier/Kategorien/Kleintiere/Fell- & Krallenpflege/Kämme"
470810031;"haustier/Kategorien/Kleintiere/Fell- & Krallenpflege/Krallenpflege"
2111718031;"haustier/Kategorien/Kleintiere/Futter"
470812031;"haustier/Kategorien/Kleintiere/Geruchs- & Fleckenentferner"
470813031;"haustier/Kategorien/Kleintiere/Geschirre, Halsbänder & Leinen"
470814031;"haustier/Kategorien/Kleintiere/Gesundheit"
470815031;"haustier/Kategorien/Kleintiere/Käfige, Hütten & Höhlen"
470816031;"haustier/Kategorien/Kleintiere/Käfige, Hütten & Höhlen/Dekor"
470817031;"haustier/Kategorien/Kleintiere/Käfige, Hütten & Höhlen/Käfige & Laufställe"
470818031;"haustier/Kategorien/Kleintiere/Käfige, Hütten & Höhlen/Streu & Substrate"
2111719031;"haustier/Kategorien/Kleintiere/Leckereien & Futterergänzung"
470819031;"haustier/Kategorien/Kleintiere/Näpfe, Tränken & Zubehör"
470820031;"haustier/Kategorien/Kleintiere/Näpfe, Tränken & Zubehör/Automatisierte Futterspender"
470821031;"haustier/Kategorien/Kleintiere/Näpfe, Tränken & Zubehör/Näpfe"
470822031;"haustier/Kategorien/Kleintiere/Näpfe, Tränken & Zubehör/Wasserflaschen"
470823031;"haustier/Kategorien/Kleintiere/Räder & Röhren"
470824031;"haustier/Kategorien/Kleintiere/Spielzeug"
470825031;"haustier/Kategorien/Kleintiere/Tragetaschen & Transportzubehör"
470829031;"haustier/Kategorien/Nutztiere"
4546048031;"haustier/Kategorien/Nutztiere/Bauten & Zubehör"
4546052031;"haustier/Kategorien/Nutztiere/Bauten & Zubehör/Futteraufbewahrung"
4546049031;"haustier/Kategorien/Nutztiere/Bauten & Zubehör/Scheunen"
4546050031;"haustier/Kategorien/Nutztiere/Bauten & Zubehör/Tore & Türen"
4546051031;"haustier/Kategorien/Nutztiere/Bauten & Zubehör/Zäune"
470830031;"haustier/Kategorien/Nutztiere/Bienen"
4546006031;"haustier/Kategorien/Nutztiere/Bienen/Bienenhäuser"
4546012031;"haustier/Kategorien/Nutztiere/Bienen/Futtergeräte & Futter"
4546014031;"haustier/Kategorien/Nutztiere/Bienen/Futtergeräte & Futter/Futtergeräte"
4546015031;"haustier/Kategorien/Nutztiere/Bienen/Futtergeräte & Futter/Futtersirup"
4546017031;"haustier/Kategorien/Nutztiere/Bienen/Honigernte & -verarbeitung"
4546018031;"haustier/Kategorien/Nutztiere/Bienen/Honigernte & -verarbeitung/Abfüllgeräte"
4546019031;"haustier/Kategorien/Nutztiere/Bienen/Honigernte & -verarbeitung/Gläser & Etiketten"
4546020031;"haustier/Kategorien/Nutztiere/Bienen/Honigernte & -verarbeitung/Schleudern"
4546023031;"haustier/Kategorien/Nutztiere/Bienen/Königinnenzucht"
4546016031;"haustier/Kategorien/Nutztiere/Bienen/Magazinbeuten"
4546011031;"haustier/Kategorien/Nutztiere/Bienen/Magazinbeuten/Abdeckungen"
4546010031;"haustier/Kategorien/Nutztiere/Bienen/Magazinbeuten/Bienenstocksets"
4546007031;"haustier/Kategorien/Nutztiere/Bienen/Magazinbeuten/Bodenplatten"
4546009031;"haustier/Kategorien/Nutztiere/Bienen/Magazinbeuten/Rähmchen"
4546008031;"haustier/Kategorien/Nutztiere/Bienen/Magazinbeuten/Sockel"
4546022031;"haustier/Kategorien/Nutztiere/Bienen/Schutzbekleidung"
4546021031;"haustier/Kategorien/Nutztiere/Bienen/Schädlingsschutz"
4546024031;"haustier/Kategorien/Nutztiere/Bienen/Werkzeuge & Zubehör"
470831031;"haustier/Kategorien/Nutztiere/Geflügel"
4546035031;"haustier/Kategorien/Nutztiere/Geflügel/Brutzubehör"
4732209031;"haustier/Kategorien/Nutztiere/Geflügel/Brutzubehör/Eierkartons & -paletten"
4546036031;"haustier/Kategorien/Nutztiere/Geflügel/Brutzubehör/Eierwender"
4546037031;"haustier/Kategorien/Nutztiere/Geflügel/Brutzubehör/Inkubatoren"
4546038031;"haustier/Kategorien/Nutztiere/Geflügel/Fütterungsgeräte & Tränken"
4546039031;"haustier/Kategorien/Nutztiere/Geflügel/Fütterungsgeräte & Tränken/Futter"
4546041031;"haustier/Kategorien/Nutztiere/Geflügel/Fütterungsgeräte & Tränken/Tränken & Tränkanlagen"
4546040031;"haustier/Kategorien/Nutztiere/Geflügel/Fütterungsgeräte & Tränken/Tröge & Automaten"
4546047031;"haustier/Kategorien/Nutztiere/Geflügel/Gesundheit"
4546042031;"haustier/Kategorien/Nutztiere/Geflügel/Ställe & Zubehör"
4546044031;"haustier/Kategorien/Nutztiere/Geflügel/Ställe & Zubehör/Beleuchtung"
4546043031;"haustier/Kategorien/Nutztiere/Geflügel/Ställe & Zubehör/Heizungen"
4546046031;"haustier/Kategorien/Nutztiere/Geflügel/Ställe & Zubehör/Netze"
4546045031;"haustier/Kategorien/Nutztiere/Geflügel/Ställe & Zubehör/Ställe & Käfige"
2496970031;"haustier/Kategorien/Nutztiere/Kühe & Rinder"
4546031031;"haustier/Kategorien/Nutztiere/Kühe & Rinder/Fell- & Hufpflege"
4546028031;"haustier/Kategorien/Nutztiere/Kühe & Rinder/Fütterungsgeräte & Tränken"
4546029031;"haustier/Kategorien/Nutztiere/Kühe & Rinder/Fütterungsgeräte & Tränken/Fütterungsgeräte"
4546030031;"haustier/Kategorien/Nutztiere/Kühe & Rinder/Fütterungsgeräte & Tränken/Tränken"
4546033031;"haustier/Kategorien/Nutztiere/Kühe & Rinder/Gesundheit"
4546032031;"haustier/Kategorien/Nutztiere/Kühe & Rinder/Handhabungsbedarf"
4546027031;"haustier/Kategorien/Nutztiere/Kühe & Rinder/Schlafbedarf"
4546034031;"haustier/Kategorien/Nutztiere/Kühe & Rinder/Stallbedarf"
470832031;"haustier/Kategorien/Nutztiere/Schafe"
470833031;"haustier/Kategorien/Nutztiere/Schweine"
445317031;"haustier/Kategorien/Pferde"
470834031;"haustier/Kategorien/Pferde/Decken"
470835031;"haustier/Kategorien/Pferde/Fell- & Hufpflege"
470836031;"haustier/Kategorien/Pferde/Fell- & Hufpflege/Bürsten"
470837031;"haustier/Kategorien/Pferde/Fell- & Hufpflege/Hufpflege"
4551483031;"haustier/Kategorien/Pferde/Fell- & Hufpflege/Quartermarker"
470838031;"haustier/Kategorien/Pferde/Fell- & Hufpflege/Schermaschinen"
470839031;"haustier/Kategorien/Pferde/Fell- & Hufpflege/Striegel"
470840031;"haustier/Kategorien/Pferde/Futter"
248973011;"haustier/Kategorien/Pferde/Gamaschen & Schützer"
470841031;"haustier/Kategorien/Pferde/Gesundheit"
470842031;"haustier/Kategorien/Pferde/Gesundheit/Einreibemittel"
470843031;"haustier/Kategorien/Pferde/Gesundheit/Fliegen- & Mosquitosprays"
470844031;"haustier/Kategorien/Pferde/Gesundheit/Nahrungsergänzungen & Vitamine"
470845031;"haustier/Kategorien/Pferde/Gesundheit/Wurmkuren"
470846031;"haustier/Kategorien/Pferde/Leckereien"
470848031;"haustier/Kategorien/Pferde/Schuhe"
4254583031;"haustier/Kategorien/Pferde/Stall-& Weidebedarf"
470847031;"haustier/Kategorien/Pferde/Tröge, Tränken & Zubehör"
445318031;"haustier/Kategorien/Terraristik"
470849031;"haustier/Kategorien/Terraristik/Futter & Leckereien"
470850031;"haustier/Kategorien/Terraristik/Gesundheit"
470851031;"haustier/Kategorien/Terraristik/Terrarien & Zubehör"
470852031;"haustier/Kategorien/Terraristik/Terrarien & Zubehör/Abdeckungen"
4254574031;"haustier/Kategorien/Terraristik/Terrarien & Zubehör/Befeuchtung & Belüftung"
470853031;"haustier/Kategorien/Terraristik/Terrarien & Zubehör/Beleuchtung"
3550332031;"haustier/Kategorien/Terraristik/Terrarien & Zubehör/Beleuchtung/LED-Beleuchtung"
3550330031;"haustier/Kategorien/Terraristik/Terrarien & Zubehör/Beleuchtung/Leuchtstoffröhren"
3550329031;"haustier/Kategorien/Terraristik/Terrarien & Zubehör/Beleuchtung/Metalldampflampen"
3550331031;"haustier/Kategorien/Terraristik/Terrarien & Zubehör/Beleuchtung/Strahler"
3550320031;"haustier/Kategorien/Terraristik/Terrarien & Zubehör/Brutapparate"
470854031;"haustier/Kategorien/Terraristik/Terrarien & Zubehör/Dekor"
470855031;"haustier/Kategorien/Terraristik/Terrarien & Zubehör/Dekor/Bäume, Äste & Hölzer"
470856031;"haustier/Kategorien/Terraristik/Terrarien & Zubehör/Dekor/Höhlen & Verstecke"
470857031;"haustier/Kategorien/Terraristik/Terrarien & Zubehör/Dekor/Pflanzen & Kletterpflanzen"
3550328031;"haustier/Kategorien/Terraristik/Terrarien & Zubehör/Dekor/Rückwände"
470858031;"haustier/Kategorien/Terraristik/Terrarien & Zubehör/Dekor/Steine & Wasserfälle"
3550327031;"haustier/Kategorien/Terraristik/Terrarien & Zubehör/Filter & Pumpen"
3550326031;"haustier/Kategorien/Terraristik/Terrarien & Zubehör/Fütterungshilfen"
470863031;"haustier/Kategorien/Terraristik/Terrarien & Zubehör/Heizer, Wärmelampen & -matten"
3550325031;"haustier/Kategorien/Terraristik/Terrarien & Zubehör/Hygrometer"
3550323031;"haustier/Kategorien/Terraristik/Terrarien & Zubehör/Hygrostate"
4254576031;"haustier/Kategorien/Terraristik/Terrarien & Zubehör/Möbel"
470860031;"haustier/Kategorien/Terraristik/Terrarien & Zubehör/Näpfe"
3550321031;"haustier/Kategorien/Terraristik/Terrarien & Zubehör/Reinigung"
470861031;"haustier/Kategorien/Terraristik/Terrarien & Zubehör/Streu & Substrate"
470862031;"haustier/Kategorien/Terraristik/Terrarien & Zubehör/Terrarien"
3550324031;"haustier/Kategorien/Terraristik/Terrarien & Zubehör/Thermometer"
3550322031;"haustier/Kategorien/Terraristik/Terrarien & Zubehör/Thermostate"
4254575031;"haustier/Kategorien/Terraristik/Terrarien & Zubehör/Werkzeug & Zubehör"
3550319031;"haustier/Kategorien/Terraristik/Terrarien & Zubehör/Zeitschaltuhren und Steuerungssysteme"
2497161031;"haustier/Kategorien/Terraristik/Transportboxen"
445319031;"haustier/Kategorien/Vögel"
470865031;"haustier/Kategorien/Vögel/Gesundheit"
470866031;"haustier/Kategorien/Vögel/Käfige & Zubehör"
470867031;"haustier/Kategorien/Vögel/Käfige & Zubehör/Käfigabdeckungen"
470868031;"haustier/Kategorien/Vögel/Käfige & Zubehör/Käfige"
470869031;"haustier/Kategorien/Vögel/Käfige & Zubehör/Käfigständer"
470870031;"haustier/Kategorien/Vögel/Käfige & Zubehör/Leitern"
470871031;"haustier/Kategorien/Vögel/Käfige & Zubehör/Nester"
470872031;"haustier/Kategorien/Vögel/Käfige & Zubehör/Sand & Streu"
470873031;"haustier/Kategorien/Vögel/Käfige & Zubehör/Schaukeln"
470874031;"haustier/Kategorien/Vögel/Käfige & Zubehör/Schmutzblenden"
470875031;"haustier/Kategorien/Vögel/Käfige & Zubehör/Sitzstangen"
470876031;"haustier/Kategorien/Vögel/Käfige & Zubehör/Vogelbäder"
3550333031;"haustier/Kategorien/Vögel/Käfige & Zubehör/Beleuchtung"
470877031;"haustier/Kategorien/Vögel/Näpfe, Tränken & Zubehör"
470878031;"haustier/Kategorien/Vögel/Näpfe, Tränken & Zubehör/Handfütterung"
470879031;"haustier/Kategorien/Vögel/Näpfe, Tränken & Zubehör/Näpfe"
470880031;"haustier/Kategorien/Vögel/Näpfe, Tränken & Zubehör/Tränken"
2111689031;"haustier/Kategorien/Vögel/Snacks & Kräcker"
470881031;"haustier/Kategorien/Vögel/Spielzeug"
470882031;"haustier/Kategorien/Vögel/Transportbehälter"
2111688031;"haustier/Kategorien/Vögel/Vogelfutter"
470883031;"haustier/Kategorien/Wildtiere"
4380825031;"haustier/Kategorien/Wildtiere/Eichhörnchen"
4380826031;"haustier/Kategorien/Wildtiere/Eichhörnchen/Futter"
470885031;"haustier/Kategorien/Wildtiere/Eichhörnchen/Futterstationen für Eichhörnchen"
4380827031;"haustier/Kategorien/Wildtiere/Eichhörnchen/Kobel"
4380811031;"haustier/Kategorien/Wildtiere/Fledermäuse"
4380812031;"haustier/Kategorien/Wildtiere/Fledermäuse/Futterspender"
4380813031;"haustier/Kategorien/Wildtiere/Fledermäuse/Fledermauskästen"
4699944031;"haustier/Kategorien/Wildtiere/Igelhäuser"
4254584031;"haustier/Kategorien/Wildtiere/Insektenhotels"
4380822031;"haustier/Kategorien/Wildtiere/Schmetterlinge"
4380823031;"haustier/Kategorien/Wildtiere/Schmetterlinge/Futter"
470886031;"haustier/Kategorien/Wildtiere/Schmetterlinge/Futterstationen für Schmetterlinge"
4380824031;"haustier/Kategorien/Wildtiere/Schmetterlinge/Häuser"
4380814031;"haustier/Kategorien/Wildtiere/Wildvögel"
470892031;"haustier/Kategorien/Wildtiere/Wildvögel/Futterstationen"
4380819031;"haustier/Kategorien/Wildtiere/Wildvögel/Futterstationszubehör"
4380817031;"haustier/Kategorien/Wildtiere/Wildvögel/Nistkastenzubehör"
470887031;"haustier/Kategorien/Wildtiere/Wildvögel/Nistkästen"
470888031;"haustier/Kategorien/Wildtiere/Wildvögel/Vogelfutter"
470889031;"haustier/Kategorien/Wildtiere/Wildvögel/Vogelfutter/Kolibrifutter"
470890031;"haustier/Kategorien/Wildtiere/Wildvögel/Vogelfutter/Körnerfutter"
470891031;"haustier/Kategorien/Wildtiere/Wildvögel/Vogelfutter/Meisenknödel"
2111687031;"haustier/Kategorien/Wildtiere/Wildvögel/Vogelfutter/Mehlwürmer"
4380816031;"haustier/Kategorien/Wildtiere/Wildvögel/Vogeltränken"
4380815031;"haustier/Kategorien/Wildtiere/Wildvögel/Vogeltränkenzubehör"
450912031;"haustier/Marken"
