908799031;"large_appliances/Categories"
1391003031;"large_appliances/Categories/Beer Keg Refrigerators"
1391004031;"large_appliances/Categories/Beverage Refrigerators"
1391051031;"large_appliances/Categories/Built-in Coffee Machines"
1391013031;"large_appliances/Categories/Combined Ovens & Hobs"
1391005031;"large_appliances/Categories/Compact Kitchens"
10706491;"large_appliances/Categories/Dishwashers"
1391006031;"large_appliances/Categories/Electric Composters"
10706351;"large_appliances/Categories/Freezers"
10706361;"large_appliances/Categories/Fridge-freezers"
10706341;"large_appliances/Categories/Fridges"
1391010031;"large_appliances/Categories/Hobs"
1391007031;"large_appliances/Categories/Ice Makers"
1391008031;"large_appliances/Categories/Installed Ovens"
11716911;"large_appliances/Categories/Microwaves"
368206031;"large_appliances/Categories/Microwaves/Combi Microwaves (grill and oven)"
368205031;"large_appliances/Categories/Microwaves/Grill Microwaves"
3538315031;"large_appliances/Categories/Microwaves/Microwaves with Steam"
11716921;"large_appliances/Categories/Microwaves/Solo Microwaves"
1391009031;"large_appliances/Categories/Mini Freezers"
10706381;"large_appliances/Categories/Mini Fridges"
1391050031;"large_appliances/Categories/Mini Ovens"
1391012031;"large_appliances/Categories/Ovens"
1350562031;"large_appliances/Categories/Parts & Accessories"
1350569031;"large_appliances/Categories/Parts & Accessories/Cooker Parts & Accessories"
1350563031;"large_appliances/Categories/Parts & Accessories/Dishwasher Parts & Accessories"
1350564031;"large_appliances/Categories/Parts & Accessories/Dryer Parts & Accessories"
1350565031;"large_appliances/Categories/Parts & Accessories/Freezer Parts & Accessories"
1350590031;"large_appliances/Categories/Parts & Accessories/Freezer Parts & Accessories/Doors"
1350591031;"large_appliances/Categories/Parts & Accessories/Freezer Parts & Accessories/Drawers"
1350592031;"large_appliances/Categories/Parts & Accessories/Freezer Parts & Accessories/Handles"
1350593031;"large_appliances/Categories/Parts & Accessories/Freezer Parts & Accessories/Ice Maker Parts"
1350594031;"large_appliances/Categories/Parts & Accessories/Freezer Parts & Accessories/Installation Kits"
1350595031;"large_appliances/Categories/Parts & Accessories/Freezer Parts & Accessories/Shelves"
1350596031;"large_appliances/Categories/Parts & Accessories/Freezer Parts & Accessories/Trays"
1350570031;"large_appliances/Categories/Parts & Accessories/Fridge Parts & Accessories"
1350649031;"large_appliances/Categories/Parts & Accessories/Fridge Parts & Accessories/Bins"
1350650031;"large_appliances/Categories/Parts & Accessories/Fridge Parts & Accessories/Cartridges"
1350651031;"large_appliances/Categories/Parts & Accessories/Fridge Parts & Accessories/Doors"
1350652031;"large_appliances/Categories/Parts & Accessories/Fridge Parts & Accessories/Drawers"
1350653031;"large_appliances/Categories/Parts & Accessories/Fridge Parts & Accessories/Egg Trays"
1391723031;"large_appliances/Categories/Parts & Accessories/Fridge Parts & Accessories/Grills"
1350654031;"large_appliances/Categories/Parts & Accessories/Fridge Parts & Accessories/Handles"
1350655031;"large_appliances/Categories/Parts & Accessories/Fridge Parts & Accessories/Ice Makers"
1350656031;"large_appliances/Categories/Parts & Accessories/Fridge Parts & Accessories/Ice Scrapers"
1350657031;"large_appliances/Categories/Parts & Accessories/Fridge Parts & Accessories/Installation Kits"
1350658031;"large_appliances/Categories/Parts & Accessories/Fridge Parts & Accessories/Lighting"
1350659031;"large_appliances/Categories/Parts & Accessories/Fridge Parts & Accessories/Motors"
1350660031;"large_appliances/Categories/Parts & Accessories/Fridge Parts & Accessories/Shelves"
1640049031;"large_appliances/Categories/Parts & Accessories/Fridge Parts & Accessories/Thermometers"
1350661031;"large_appliances/Categories/Parts & Accessories/Fridge Parts & Accessories/Trays"
1350663031;"large_appliances/Categories/Parts & Accessories/Fridge Parts & Accessories/Water Filters"
900397031;"large_appliances/Categories/Parts & Accessories/Microwave Accessories"
1350600031;"large_appliances/Categories/Parts & Accessories/Microwave Accessories/Dishes"
1350602031;"large_appliances/Categories/Parts & Accessories/Microwave Accessories/Installation Kits"
1350567031;"large_appliances/Categories/Parts & Accessories/Power Cords"
1350568031;"large_appliances/Categories/Parts & Accessories/Vent Hood Parts & Accessories"
1350572031;"large_appliances/Categories/Parts & Accessories/Washing Machine Parts & Accessories"
1350571031;"large_appliances/Categories/Parts & Accessories/Waste Compactor Parts & Accessories"
1350573031;"large_appliances/Categories/Parts & Accessories/Wine Cellar Parts & Accessories"
5382562031;"large_appliances/Categories/Range Cookers"
5382563031;"large_appliances/Categories/Range Cooktops"
1391014031;"large_appliances/Categories/Steam Ovens"
1391011031;"large_appliances/Categories/Vent Hoods"
1391016031;"large_appliances/Categories/Warming Drawers"
11712521;"large_appliances/Categories/Washing Machines & Tumble Dryers"
1391019031;"large_appliances/Categories/Washing Machines & Tumble Dryers/Dryers"
11712541;"large_appliances/Categories/Washing Machines & Tumble Dryers/Dryers/Condenser Dryers"
10706321;"large_appliances/Categories/Washing Machines & Tumble Dryers/Dryers/Vented Dryers"
10706311;"large_appliances/Categories/Washing Machines & Tumble Dryers/Spin Dryers"
1391020031;"large_appliances/Categories/Washing Machines & Tumble Dryers/Stacked Washers & Dryers"
11712551;"large_appliances/Categories/Washing Machines & Tumble Dryers/Washer-Dryers"
3618681;"large_appliances/Categories/Washing Machines & Tumble Dryers/Washing Machines"
1391015031;"large_appliances/Categories/Waste Compactors"
10706371;"large_appliances/Categories/Wine Fridges"
908800031;"large_appliances/Special Features"
925160031;"large_appliances/Advanced Search"
925161031;"large_appliances/Featured Categories"
1391003031;"large_appliances/Featured Categories/Beer Keg Refrigerators"
1391004031;"large_appliances/Featured Categories/Beverage Refrigerators"
1391012031;"large_appliances/Featured Categories/Cooker Ovens"
1391013031;"large_appliances/Featured Categories/Cookers"
1391010031;"large_appliances/Featured Categories/Cooktops"
10706491;"large_appliances/Featured Categories/Dishwashers"
10706351;"large_appliances/Featured Categories/Freezers"
10706361;"large_appliances/Featured Categories/Fridge-freezers"
10706341;"large_appliances/Featured Categories/Fridges"
1391011031;"large_appliances/Featured Categories/Hoods"
1391007031;"large_appliances/Featured Categories/Ice Makers"
1391008031;"large_appliances/Featured Categories/Installed Ovens"
11716911;"large_appliances/Featured Categories/Microwaves"
368206031;"large_appliances/Featured Categories/Microwaves/Combi Microwaves (grill and oven)"
368205031;"large_appliances/Featured Categories/Microwaves/Grill Microwaves"
3538315031;"large_appliances/Featured Categories/Microwaves/Microwaves with Steam"
11716921;"large_appliances/Featured Categories/Microwaves/Solo Microwaves"
1391009031;"large_appliances/Featured Categories/Mini Freezers"
10706381;"large_appliances/Featured Categories/Mini Fridges"
1391014031;"large_appliances/Featured Categories/Steam Ovens"
1391016031;"large_appliances/Featured Categories/Warming Drawers"
11712521;"large_appliances/Featured Categories/Washing Machines & Tumble Dryers"
1391019031;"large_appliances/Featured Categories/Washing Machines & Tumble Dryers/Dryers"
11712541;"large_appliances/Featured Categories/Washing Machines & Tumble Dryers/Dryers/Condenser Dryers"
10706321;"large_appliances/Featured Categories/Washing Machines & Tumble Dryers/Dryers/Vented Dryers"
10706311;"large_appliances/Featured Categories/Washing Machines & Tumble Dryers/Spin Dryers"
1391020031;"large_appliances/Featured Categories/Washing Machines & Tumble Dryers/Stacked Washers & Dryers"
11712551;"large_appliances/Featured Categories/Washing Machines & Tumble Dryers/Washer-Dryers"
3618681;"large_appliances/Featured Categories/Washing Machines & Tumble Dryers/Washing Machines"
10706371;"large_appliances/Featured Categories/Wine Cellars"
