121528031;"beauty/Brands"
117333031;"beauty/Categories"
74129031;"beauty/Categories/Bath & Body"
3091964031;"beauty/Categories/Bath & Body/Bath Additives"
344276031;"beauty/Categories/Bath & Body/Bath Additives/Bath Bombs"
3091965031;"beauty/Categories/Bath & Body/Bath Additives/Bath Pearls & Flakes"
344277031;"beauty/Categories/Bath & Body/Bath Additives/Bubble Bath"
344278031;"beauty/Categories/Bath & Body/Bath Additives/Minerals & Salts"
344279031;"beauty/Categories/Bath & Body/Bath Additives/Oils"
3091966031;"beauty/Categories/Bath & Body/Bath Additives/Tub Tea"
3091967031;"beauty/Categories/Bath & Body/Bathing Accessories"
344281031;"beauty/Categories/Bath & Body/Bathing Accessories/Bath Pillows"
3094409031;"beauty/Categories/Bath & Body/Bathing Accessories/Bath Trays"
344280031;"beauty/Categories/Bath & Body/Bathing Accessories/Body Brushes"
118472031;"beauty/Categories/Bath & Body/Bathing Accessories/Exfoliating Mitts & Gloves"
11712731;"beauty/Categories/Bath & Body/Bathing Accessories/Flannels, Wash Mitts & Gloves"
3091968031;"beauty/Categories/Bath & Body/Bathing Accessories/Loofahs"
3091969031;"beauty/Categories/Bath & Body/Bathing Accessories/Poufs"
344284031;"beauty/Categories/Bath & Body/Bathing Accessories/Shower Caps"
3091970031;"beauty/Categories/Bath & Body/Bathing Accessories/Sponges"
3091971031;"beauty/Categories/Bath & Body/Cleansers"
344285031;"beauty/Categories/Bath & Body/Cleansers/Shower Gels"
3091972031;"beauty/Categories/Bath & Body/Cleansers/Shower Oils"
3091973031;"beauty/Categories/Bath & Body/Cleansers/Soaps & Hand Wash"
74128031;"beauty/Categories/Bath & Body/Deodorants & Anti-Perspirants"
3091974031;"beauty/Categories/Bath & Body/Scrubs & Body Treatments"
344270031;"beauty/Categories/Bath & Body/Scrubs & Body Treatments/Body Butters"
344273031;"beauty/Categories/Bath & Body/Scrubs & Body Treatments/Body Creams"
344274031;"beauty/Categories/Bath & Body/Scrubs & Body Treatments/Body Firmers & Shapers"
344271031;"beauty/Categories/Bath & Body/Scrubs & Body Treatments/Body Lotions"
2790135031;"beauty/Categories/Bath & Body/Scrubs & Body Treatments/Body Mists"
2805273031;"beauty/Categories/Bath & Body/Scrubs & Body Treatments/Body Mousse & Souffles"
2805274031;"beauty/Categories/Bath & Body/Scrubs & Body Treatments/Body Muds"
344272031;"beauty/Categories/Bath & Body/Scrubs & Body Treatments/Body Oils"
344282031;"beauty/Categories/Bath & Body/Scrubs & Body Treatments/Body Scrubs"
2805275031;"beauty/Categories/Bath & Body/Scrubs & Body Treatments/Talcum Powders"
3091975031;"beauty/Categories/Bath & Body/Sets"
118457031;"beauty/Categories/Fragrances"
2799758031;"beauty/Categories/Fragrances/Atomisers"
4694833031;"beauty/Categories/Fragrances/Candles & Home Scents"
2790126031;"beauty/Categories/Fragrances/Children"
2790127031;"beauty/Categories/Fragrances/Men"
74087031;"beauty/Categories/Fragrances/Men/Aftershaves"
2790128031;"beauty/Categories/Fragrances/Men/Eau de Cologne"
2790129031;"beauty/Categories/Fragrances/Men/Eau de Perfume"
2790130031;"beauty/Categories/Fragrances/Men/Eau de Toilette"
2790131031;"beauty/Categories/Fragrances/Men/Perfume"
2790132031;"beauty/Categories/Fragrances/Men/Sets"
118463031;"beauty/Categories/Fragrances/Sets"
2790132031;"beauty/Categories/Fragrances/Sets/Men"
2790141031;"beauty/Categories/Fragrances/Sets/Women"
2790134031;"beauty/Categories/Fragrances/Women"
2790135031;"beauty/Categories/Fragrances/Women/Body Sprays"
2790136031;"beauty/Categories/Fragrances/Women/Eau de Cologne"
2790137031;"beauty/Categories/Fragrances/Women/Eau de Perfume"
2790138031;"beauty/Categories/Fragrances/Women/Eau de Toilette"
2790139031;"beauty/Categories/Fragrances/Women/Perfume"
2790140031;"beauty/Categories/Fragrances/Women/Perfume Oils"
2790141031;"beauty/Categories/Fragrances/Women/Sets"
66469031;"beauty/Categories/Hair Care"
2867975031;"beauty/Categories/Hair Care/Hair Care Products"
2867976031;"beauty/Categories/Hair Care/Hair Care Products/Conditioners"
2867977031;"beauty/Categories/Hair Care/Hair Care Products/Deep Conditioners & Treatments"
2867978031;"beauty/Categories/Hair Care/Hair Care Products/Dry Shampoos"
4769963031;"beauty/Categories/Hair Care/Hair Care Products/Gift Sets"
2867979031;"beauty/Categories/Hair Care/Hair Care Products/Hair Loss Products"
2867980031;"beauty/Categories/Hair Care/Hair Care Products/Hair Mascaras"
2867981031;"beauty/Categories/Hair Care/Hair Care Products/Hair Oils"
2867982031;"beauty/Categories/Hair Care/Hair Care Products/Hair Perms & Texturisers"
2867983031;"beauty/Categories/Hair Care/Hair Care Products/Hair Relaxers"
2867984031;"beauty/Categories/Hair Care/Hair Care Products/Hair Tonic"
2867985031;"beauty/Categories/Hair Care/Hair Care Products/Shampoo & Conditioner Sets"
74094031;"beauty/Categories/Hair Care/Hair Care Products/Shampoos"
74093031;"beauty/Categories/Hair Care/Hair Colour"
2867986031;"beauty/Categories/Hair Care/Hair Colour/Colour Accessories"
3520913031;"beauty/Categories/Hair Care/Hair Colour/Colour Removers"
2867987031;"beauty/Categories/Hair Care/Hair Colour/Permanent Colour"
2867988031;"beauty/Categories/Hair Care/Hair Colour/Semi-Permanent Colour"
2867989031;"beauty/Categories/Hair Care/Hair Styling Accessories"
3520911031;"beauty/Categories/Hair Care/Hair Styling Accessories/Bun Shapers"
2867991031;"beauty/Categories/Hair Care/Hair Styling Accessories/Claws"
2867992031;"beauty/Categories/Hair Care/Hair Styling Accessories/Clips & Barrettes"
3520910031;"beauty/Categories/Hair Care/Hair Styling Accessories/Hair Comb Slides"
2867993031;"beauty/Categories/Hair Care/Hair Styling Accessories/Hair Extensions, Wigs & Accessories"
306690031;"beauty/Categories/Hair Care/Hair Styling Accessories/Hair Extensions, Wigs & Accessories/Hair Extensions"
2867994031;"beauty/Categories/Hair Care/Hair Styling Accessories/Hair Extensions, Wigs & Accessories/Hairpieces"
2867995031;"beauty/Categories/Hair Care/Hair Styling Accessories/Hair Extensions, Wigs & Accessories/Polystyrene Heads"
306691031;"beauty/Categories/Hair Care/Hair Styling Accessories/Hair Extensions, Wigs & Accessories/Wigs"
2867996031;"beauty/Categories/Hair Care/Hair Styling Accessories/Hair Pins"
2867997031;"beauty/Categories/Hair Care/Hair Styling Accessories/Headbands"
2867998031;"beauty/Categories/Hair Care/Hair Styling Accessories/Ponytail Holders"
2867999031;"beauty/Categories/Hair Care/Hairdresser Furnishings"
2868000031;"beauty/Categories/Hair Care/Hairdresser Furnishings/Barber Chairs"
2868001031;"beauty/Categories/Hair Care/Hairdresser Furnishings/Brooms & Brushes"
2868002031;"beauty/Categories/Hair Care/Hairdresser Furnishings/Capes"
2868003031;"beauty/Categories/Hair Care/Hairdresser Furnishings/Cutting Stools"
74124031;"beauty/Categories/Hair Care/Hairdresser Furnishings/Drying Hoods"
2868004031;"beauty/Categories/Hair Care/Hairdresser Furnishings/Hand Mirrors"
2868005031;"beauty/Categories/Hair Care/Hairdresser Furnishings/Maintenance Carts"
2868006031;"beauty/Categories/Hair Care/Hairdresser Furnishings/Neck Brushes"
2868007031;"beauty/Categories/Hair Care/Hairdresser Furnishings/Shampoo Sinks"
2868008031;"beauty/Categories/Hair Care/Hairdresser Furnishings/Spray Flasks"
2868009031;"beauty/Categories/Hair Care/Hairdresser Furnishings/Toolbags & Toolboxes"
2868010031;"beauty/Categories/Hair Care/Hairdresser Furnishings/Training Heads"
2826606031;"beauty/Categories/Hair Care/Lice Treatments"
2826607031;"beauty/Categories/Hair Care/Lice Treatments/Lice Combs"
2826608031;"beauty/Categories/Hair Care/Lice Treatments/Shampoos & Rinses"
2826609031;"beauty/Categories/Hair Care/Lice Treatments/Sprays"
2826610031;"beauty/Categories/Hair Care/Lice Treatments/Treatment Packages"
2868011031;"beauty/Categories/Hair Care/Styling Products"
2868012031;"beauty/Categories/Hair Care/Styling Products/Gels"
2868013031;"beauty/Categories/Hair Care/Styling Products/Hair Sprays"
74102031;"beauty/Categories/Hair Care/Styling Products/Mousses & Foams"
74103031;"beauty/Categories/Hair Care/Styling Products/Putty, Clay & Wax"
3520912031;"beauty/Categories/Hair Care/Styling Products/Serums"
2868014031;"beauty/Categories/Hair Care/Styling Products/Thermal Protector Sprays"
74099031;"beauty/Categories/Hair Care/Styling Tools"
2868091031;"beauty/Categories/Hair Care/Styling Tools/Combs"
3520909031;"beauty/Categories/Hair Care/Styling Tools/Crimpers"
74112031;"beauty/Categories/Hair Care/Styling Tools/Curling Tongs"
74124031;"beauty/Categories/Hair Care/Styling Tools/Drying Hoods"
3082239031;"beauty/Categories/Hair Care/Styling Tools/Hair Clippers"
2868092031;"beauty/Categories/Hair Care/Styling Tools/Hair Dryers & Accessories"
74109031;"beauty/Categories/Hair Care/Styling Tools/Hair Straighteners"
2868093031;"beauty/Categories/Hair Care/Styling Tools/Hairbrushes"
74117031;"beauty/Categories/Hair Care/Styling Tools/Hot Air Stylers"
74116031;"beauty/Categories/Hair Care/Styling Tools/Multi Stylers"
2868094031;"beauty/Categories/Hair Care/Styling Tools/Rollers"
74107031;"beauty/Categories/Hair Care/Styling Tools/Scissors"
74114031;"beauty/Categories/Hair Care/Styling Tools/Wavers"
118423031;"beauty/Categories/Make-up"
118443031;"beauty/Categories/Make-up/Body"
3014153031;"beauty/Categories/Make-up/Body/Body Glitter"
3014154031;"beauty/Categories/Make-up/Body/Body Paint"
3014165031;"beauty/Categories/Make-up/Body/Bronzers & Highlighters"
3014155031;"beauty/Categories/Make-up/Body/Concealers"
3014156031;"beauty/Categories/Make-up/Body/Henna"
3014157031;"beauty/Categories/Make-up/Body/Temporary Tattoos"
118424031;"beauty/Categories/Make-up/Eyes"
3014158031;"beauty/Categories/Make-up/Eyes/Concealers"
118426031;"beauty/Categories/Make-up/Eyes/Eyebrow Colours"
3014159031;"beauty/Categories/Make-up/Eyes/Eyelash Treatments"
118425031;"beauty/Categories/Make-up/Eyes/Eyeliners"
3014160031;"beauty/Categories/Make-up/Eyes/Eyeshadow Bases"
118427031;"beauty/Categories/Make-up/Eyes/Eyeshadows"
118429031;"beauty/Categories/Make-up/Eyes/False Lashes"
3014161031;"beauty/Categories/Make-up/Eyes/Glitter & Shimmer"
3014162031;"beauty/Categories/Make-up/Eyes/Kohl Pencils"
3014163031;"beauty/Categories/Make-up/Eyes/Liner & Shadow Combinations"
118428031;"beauty/Categories/Make-up/Eyes/Mascaras"
118430031;"beauty/Categories/Make-up/Face"
3014164031;"beauty/Categories/Make-up/Face/BB & CC Creams"
118434031;"beauty/Categories/Make-up/Face/Blushes"
3014165031;"beauty/Categories/Make-up/Face/Bronzers & Highlighters"
118432031;"beauty/Categories/Make-up/Face/Concealers & Correctors"
118431031;"beauty/Categories/Make-up/Face/Foundations"
3014166031;"beauty/Categories/Make-up/Face/Illuminators & Luminisers"
3014167031;"beauty/Categories/Make-up/Face/Make-up Finishers"
118433031;"beauty/Categories/Make-up/Face/Powders"
3100499031;"beauty/Categories/Make-up/Face/Primers"
118436031;"beauty/Categories/Make-up/Lips"
118437031;"beauty/Categories/Make-up/Lips/Lip Glosses"
118438031;"beauty/Categories/Make-up/Lips/Lip Liners"
118440031;"beauty/Categories/Make-up/Lips/Lip Stains & Tints"
118441031;"beauty/Categories/Make-up/Lips/Lipstick Primers"
118439031;"beauty/Categories/Make-up/Lips/Lipsticks"
3014168031;"beauty/Categories/Make-up/Make-up Palettes"
3014169031;"beauty/Categories/Make-up/Make-up Removers"
2805277031;"beauty/Categories/Make-up/Make-up Removers/Eye Make-up Removers"
118469031;"beauty/Categories/Make-up/Make-up Removers/Face Make-up Removers"
3014170031;"beauty/Categories/Make-up/Make-up Sets"
118444031;"beauty/Categories/Make-up/Make-up Tools & Accessories"
118445031;"beauty/Categories/Make-up/Make-up Tools & Accessories/Brushes"
3091703031;"beauty/Categories/Make-up/Make-up Tools & Accessories/Brushes/Brush Sets"
118447031;"beauty/Categories/Make-up/Make-up Tools & Accessories/Brushes/Eye Brushes"
118448031;"beauty/Categories/Make-up/Make-up Tools & Accessories/Brushes/Face Brushes"
118446031;"beauty/Categories/Make-up/Make-up Tools & Accessories/Brushes/Lip Brushes"
118450031;"beauty/Categories/Make-up/Make-up Tools & Accessories/Compact Mirrors"
3099618031;"beauty/Categories/Make-up/Make-up Tools & Accessories/Eyes"
3099621031;"beauty/Categories/Make-up/Make-up Tools & Accessories/Eyes/Applicators"
3099622031;"beauty/Categories/Make-up/Make-up Tools & Accessories/Eyes/Brow Groomers & Lash Combs"
118447031;"beauty/Categories/Make-up/Make-up Tools & Accessories/Eyes/Brushes"
5521664031;"beauty/Categories/Make-up/Make-up Tools & Accessories/Eyes/Eyelid Tape"
118429031;"beauty/Categories/Make-up/Make-up Tools & Accessories/Eyes/False Lashes"
3099623031;"beauty/Categories/Make-up/Make-up Tools & Accessories/Eyes/Lash Curlers"
3099619031;"beauty/Categories/Make-up/Make-up Tools & Accessories/Face"
118449031;"beauty/Categories/Make-up/Make-up Tools & Accessories/Face/Blotting Paper"
118448031;"beauty/Categories/Make-up/Make-up Tools & Accessories/Face/Brushes"
118453031;"beauty/Categories/Make-up/Make-up Tools & Accessories/Face/Powder Puffs"
118454031;"beauty/Categories/Make-up/Make-up Tools & Accessories/Face/Sponges"
3099640031;"beauty/Categories/Make-up/Make-up Tools & Accessories/Make-up Bags"
3099641031;"beauty/Categories/Make-up/Make-up Tools & Accessories/Make-up Bags/Cases & Holders"
1769588031;"beauty/Categories/Make-up/Make-up Tools & Accessories/Make-up Bags/Luggage Cosmetic Cases"
1722528031;"beauty/Categories/Make-up/Make-up Tools & Accessories/Make-up Bags/Make-up Pouches"
3099620031;"beauty/Categories/Make-up/Make-up Tools & Accessories/Sets & Kits"
118452031;"beauty/Categories/Make-up/Make-up Tools & Accessories/Sharpeners"
118456031;"beauty/Categories/Make-up/Make-up Tools & Accessories/Tweezers"
118476031;"beauty/Categories/Manicure & Pedicure"
4655564031;"beauty/Categories/Manicure & Pedicure/Hand & Feet Care"
2909179031;"beauty/Categories/Manicure & Pedicure/Hand & Feet Care/Chairs & Stools"
2805298031;"beauty/Categories/Manicure & Pedicure/Hand & Feet Care/Foot Creams"
2805299031;"beauty/Categories/Manicure & Pedicure/Hand & Feet Care/Foot Soaks"
2805300031;"beauty/Categories/Manicure & Pedicure/Hand & Feet Care/Hand & Nail Creams"
2805301031;"beauty/Categories/Manicure & Pedicure/Hand & Feet Care/Moisturising Gloves"
2805302031;"beauty/Categories/Manicure & Pedicure/Hand & Feet Care/Moisturising Socks"
2805303031;"beauty/Categories/Manicure & Pedicure/Hand & Feet Care/Paraffin Baths"
2805304031;"beauty/Categories/Manicure & Pedicure/Hand & Feet Care/Scrubs"
2805300031;"beauty/Categories/Manicure & Pedicure/Hand & Nail Creams &nbsp;"
2909180031;"beauty/Categories/Manicure & Pedicure/Nail Design"
2909181031;"beauty/Categories/Manicure & Pedicure/Nail Design/Base & Top Coat"
118477031;"beauty/Categories/Manicure & Pedicure/Nail Design/False Nails & Accessories"
2909182031;"beauty/Categories/Manicure & Pedicure/Nail Design/False Nails & Accessories/Acrylic Powders & Liquids"
2909183031;"beauty/Categories/Manicure & Pedicure/Nail Design/False Nails & Accessories/Fiberglass & Silk"
2909184031;"beauty/Categories/Manicure & Pedicure/Nail Design/False Nails & Accessories/Gel"
2909185031;"beauty/Categories/Manicure & Pedicure/Nail Design/False Nails & Accessories/Nail Forms"
2909186031;"beauty/Categories/Manicure & Pedicure/Nail Design/False Nails & Accessories/Nail Glue"
2909187031;"beauty/Categories/Manicure & Pedicure/Nail Design/False Nails & Accessories/Nail Tips"
2909188031;"beauty/Categories/Manicure & Pedicure/Nail Design/Nail Art Accessories"
3520914031;"beauty/Categories/Manicure & Pedicure/Nail Design/Nail Art Accessories/Fimo"
2909190031;"beauty/Categories/Manicure & Pedicure/Nail Design/Nail Art Accessories/Glitters"
2909191031;"beauty/Categories/Manicure & Pedicure/Nail Design/Nail Art Accessories/Jewellery"
2909189031;"beauty/Categories/Manicure & Pedicure/Nail Design/Nail Art Accessories/Nail Art Sets"
2909192031;"beauty/Categories/Manicure & Pedicure/Nail Design/Nail Art Accessories/Rhinestones"
2909193031;"beauty/Categories/Manicure & Pedicure/Nail Design/Nail Art Accessories/Stickers & Decals"
2909194031;"beauty/Categories/Manicure & Pedicure/Nail Design/Nail Art Accessories/Wraps"
118490031;"beauty/Categories/Manicure & Pedicure/Nail Design/Nail Salon Sets"
118483031;"beauty/Categories/Manicure & Pedicure/Nail Design/Polish"
118484031;"beauty/Categories/Manicure & Pedicure/Nail Design/Polish Remover"
2909196031;"beauty/Categories/Manicure & Pedicure/Nail Design/Tools"
2909197031;"beauty/Categories/Manicure & Pedicure/Nail Design/Tools/Dotting Tools"
2909198031;"beauty/Categories/Manicure & Pedicure/Nail Design/Tools/Hand Rests"
2909199031;"beauty/Categories/Manicure & Pedicure/Nail Design/Tools/Nail Art Pens"
2909200031;"beauty/Categories/Manicure & Pedicure/Nail Design/Tools/Nail Brushes"
2909201031;"beauty/Categories/Manicure & Pedicure/Nail Design/Tools/Nail Dryers"
2909202031;"beauty/Categories/Manicure & Pedicure/Nail Design/Tools/Polish Correctors"
2909203031;"beauty/Categories/Manicure & Pedicure/Nail Design/Tools/Practice Hands & Fingers"
2909204031;"beauty/Categories/Manicure & Pedicure/Nail Design/Tools/Spa Slippers"
2909205031;"beauty/Categories/Manicure & Pedicure/Nail Design/Tools/Stampers & Scrapers"
2909206031;"beauty/Categories/Manicure & Pedicure/Nail Design/Tools/Templates"
2909207031;"beauty/Categories/Manicure & Pedicure/Nail Design/Tools/Toe Separators"
118483031;"beauty/Categories/Manicure & Pedicure/Nail Polish"
118484031;"beauty/Categories/Manicure & Pedicure/Nail Polish Remover"
2909208031;"beauty/Categories/Manicure & Pedicure/Nail Treatments"
2909209031;"beauty/Categories/Manicure & Pedicure/Nail Treatments/Cuticle Care"
2805296031;"beauty/Categories/Manicure & Pedicure/Nail Treatments/Cuticle Care/Creams"
2936965031;"beauty/Categories/Manicure & Pedicure/Nail Treatments/Cuticle Care/Oils"
2805297031;"beauty/Categories/Manicure & Pedicure/Nail Treatments/Cuticle Care/Removers"
2909213031;"beauty/Categories/Manicure & Pedicure/Nail Treatments/Growth Formula"
2909214031;"beauty/Categories/Manicure & Pedicure/Nail Treatments/Repair"
2909215031;"beauty/Categories/Manicure & Pedicure/Nail Treatments/Ridge Filler"
118486031;"beauty/Categories/Manicure & Pedicure/Nail Treatments/Strengthener"
2909216031;"beauty/Categories/Manicure & Pedicure/Nail Treatments/Whitening"
2909217031;"beauty/Categories/Manicure & Pedicure/Tools & Accessories"
118480031;"beauty/Categories/Manicure & Pedicure/Tools & Accessories/Buffers"
2826584031;"beauty/Categories/Manicure & Pedicure/Tools & Accessories/Callus Shavers"
2909218031;"beauty/Categories/Manicure & Pedicure/Tools & Accessories/Cuticle Pushers"
2909219031;"beauty/Categories/Manicure & Pedicure/Tools & Accessories/Cuticle Scissors"
118487031;"beauty/Categories/Manicure & Pedicure/Tools & Accessories/Electric Manicure Drills & Accessories"
2826586031;"beauty/Categories/Manicure & Pedicure/Tools & Accessories/Foot Rasps"
2909222031;"beauty/Categories/Manicure & Pedicure/Tools & Accessories/Manicure & Pedicure Sets"
2909188031;"beauty/Categories/Manicure & Pedicure/Tools & Accessories/Nail Art Accessories"
3520914031;"beauty/Categories/Manicure & Pedicure/Tools & Accessories/Nail Art Accessories/Fimo"
2909190031;"beauty/Categories/Manicure & Pedicure/Tools & Accessories/Nail Art Accessories/Glitters"
2909191031;"beauty/Categories/Manicure & Pedicure/Tools & Accessories/Nail Art Accessories/Jewellery"
2909189031;"beauty/Categories/Manicure & Pedicure/Tools & Accessories/Nail Art Accessories/Nail Art Sets"
2909192031;"beauty/Categories/Manicure & Pedicure/Tools & Accessories/Nail Art Accessories/Rhinestones"
2909193031;"beauty/Categories/Manicure & Pedicure/Tools & Accessories/Nail Art Accessories/Stickers & Decals"
2909194031;"beauty/Categories/Manicure & Pedicure/Tools & Accessories/Nail Art Accessories/Wraps"
2909189031;"beauty/Categories/Manicure & Pedicure/Tools & Accessories/Nail Art Sets"
2909196031;"beauty/Categories/Manicure & Pedicure/Tools & Accessories/Nail Art Tools"
2909197031;"beauty/Categories/Manicure & Pedicure/Tools & Accessories/Nail Art Tools/Dotting Tools"
2909198031;"beauty/Categories/Manicure & Pedicure/Tools & Accessories/Nail Art Tools/Hand Rests"
2909199031;"beauty/Categories/Manicure & Pedicure/Tools & Accessories/Nail Art Tools/Nail Art Pens"
2909200031;"beauty/Categories/Manicure & Pedicure/Tools & Accessories/Nail Art Tools/Nail Brushes"
2909201031;"beauty/Categories/Manicure & Pedicure/Tools & Accessories/Nail Art Tools/Nail Dryers"
2909202031;"beauty/Categories/Manicure & Pedicure/Tools & Accessories/Nail Art Tools/Polish Correctors"
2909203031;"beauty/Categories/Manicure & Pedicure/Tools & Accessories/Nail Art Tools/Practice Hands & Fingers"
2909204031;"beauty/Categories/Manicure & Pedicure/Tools & Accessories/Nail Art Tools/Spa Slippers"
2909205031;"beauty/Categories/Manicure & Pedicure/Tools & Accessories/Nail Art Tools/Stampers & Scrapers"
2909206031;"beauty/Categories/Manicure & Pedicure/Tools & Accessories/Nail Art Tools/Templates"
2909207031;"beauty/Categories/Manicure & Pedicure/Tools & Accessories/Nail Art Tools/Toe Separators"
118481031;"beauty/Categories/Manicure & Pedicure/Tools & Accessories/Nail Clippers"
118482031;"beauty/Categories/Manicure & Pedicure/Tools & Accessories/Nail Files"
2909221031;"beauty/Categories/Manicure & Pedicure/Tools & Accessories/Nail Nippers"
118485031;"beauty/Categories/Manicure & Pedicure/Tools & Accessories/Nail Scissors"
2826585031;"beauty/Categories/Manicure & Pedicure/Tools & Accessories/Pumice Stones &nbsp;"
2909223031;"beauty/Categories/Manicure & Pedicure/Tools & Accessories/Tip Cutters"
66465031;"beauty/Categories/Shaving & Hair Removal"
3082180031;"beauty/Categories/Shaving & Hair Removal/Accessories"
3082181031;"beauty/Categories/Shaving & Hair Removal/Accessories/Cleaning"
3082182031;"beauty/Categories/Shaving & Hair Removal/Accessories/Cleaning/Brushes"
3082183031;"beauty/Categories/Shaving & Hair Removal/Accessories/Cleaning/Cartridges"
3082184031;"beauty/Categories/Shaving & Hair Removal/Accessories/Cleaning/Fluids & Sprays"
3082186031;"beauty/Categories/Shaving & Hair Removal/Accessories/Electric Shaver Chargers & Power Supplies"
3082213031;"beauty/Categories/Shaving & Hair Removal/Accessories/Men's Razor Blades"
3082187031;"beauty/Categories/Shaving & Hair Removal/Accessories/Replacement Foils"
3082197031;"beauty/Categories/Shaving & Hair Removal/Accessories/Replacement IPL Cartridges"
3082188031;"beauty/Categories/Shaving & Hair Removal/Accessories/Replacement Rotary Blades"
74091031;"beauty/Categories/Shaving & Hair Removal/Accessories/Shaving Brushes"
3082210031;"beauty/Categories/Shaving & Hair Removal/Accessories/Shaving Soap Bowls"
3082211031;"beauty/Categories/Shaving & Hair Removal/Accessories/Shaving Stands"
3082203031;"beauty/Categories/Shaving & Hair Removal/Accessories/Spatulas"
3082241031;"beauty/Categories/Shaving & Hair Removal/Accessories/Trimmer & Clipper Combs"
3082242031;"beauty/Categories/Shaving & Hair Removal/Accessories/Trimmer & Clipper Oil"
3082207031;"beauty/Categories/Shaving & Hair Removal/Accessories/Wax Warmers"
3082217031;"beauty/Categories/Shaving & Hair Removal/Accessories/Women's Razor Blades"
74083031;"beauty/Categories/Shaving & Hair Removal/Electric Shavers"
3082185031;"beauty/Categories/Shaving & Hair Removal/Electric Shavers/Accessories"
3082186031;"beauty/Categories/Shaving & Hair Removal/Electric Shavers/Accessories/Chargers & Power Supplies"
3082187031;"beauty/Categories/Shaving & Hair Removal/Electric Shavers/Accessories/Replacement Foils"
3082188031;"beauty/Categories/Shaving & Hair Removal/Electric Shavers/Accessories/Replacement Rotary Blades"
3082189031;"beauty/Categories/Shaving & Hair Removal/Electric Shavers/Men's"
3082190031;"beauty/Categories/Shaving & Hair Removal/Electric Shavers/Men's/Foil Shavers"
3082191031;"beauty/Categories/Shaving & Hair Removal/Electric Shavers/Men's/Rotary Shavers"
3082192031;"beauty/Categories/Shaving & Hair Removal/Electric Shavers/Women's"
3082193031;"beauty/Categories/Shaving & Hair Removal/Hair Removal"
3082194031;"beauty/Categories/Shaving & Hair Removal/Hair Removal/Bleaching"
3082195031;"beauty/Categories/Shaving & Hair Removal/Hair Removal/Depilatories"
74082031;"beauty/Categories/Shaving & Hair Removal/Hair Removal/Electrolysis Systems"
74080031;"beauty/Categories/Shaving & Hair Removal/Hair Removal/Epilators & Accessories"
3082196031;"beauty/Categories/Shaving & Hair Removal/Hair Removal/IPL"
3082197031;"beauty/Categories/Shaving & Hair Removal/Hair Removal/IPL/Replacement Cartridges"
3082198031;"beauty/Categories/Shaving & Hair Removal/Hair Removal/IPL/Systems"
74081031;"beauty/Categories/Shaving & Hair Removal/Hair Removal/Laser Systems"
74079031;"beauty/Categories/Shaving & Hair Removal/Hair Removal/Pads"
3082199031;"beauty/Categories/Shaving & Hair Removal/Hair Removal/Threading Tools"
3082200031;"beauty/Categories/Shaving & Hair Removal/Hair Removal/Tweezers"
74084031;"beauty/Categories/Shaving & Hair Removal/Hair Removal/Waxing"
3082201031;"beauty/Categories/Shaving & Hair Removal/Hair Removal/Waxing/Kits"
3082202031;"beauty/Categories/Shaving & Hair Removal/Hair Removal/Waxing/Roll-Ons"
3082203031;"beauty/Categories/Shaving & Hair Removal/Hair Removal/Waxing/Spatulas"
3082204031;"beauty/Categories/Shaving & Hair Removal/Hair Removal/Waxing/Strips"
3082205031;"beauty/Categories/Shaving & Hair Removal/Hair Removal/Waxing/Sugar Paste"
2805275031;"beauty/Categories/Shaving & Hair Removal/Hair Removal/Waxing/Talcum Powders"
3082206031;"beauty/Categories/Shaving & Hair Removal/Hair Removal/Waxing/Wax"
3082207031;"beauty/Categories/Shaving & Hair Removal/Hair Removal/Waxing/Wax Warmers"
3082208031;"beauty/Categories/Shaving & Hair Removal/Manual Shaving"
3082209031;"beauty/Categories/Shaving & Hair Removal/Manual Shaving/Accessories"
74091031;"beauty/Categories/Shaving & Hair Removal/Manual Shaving/Accessories/Shaving Brushes"
3082210031;"beauty/Categories/Shaving & Hair Removal/Manual Shaving/Accessories/Shaving Soap Bowls"
3082211031;"beauty/Categories/Shaving & Hair Removal/Manual Shaving/Accessories/Shaving Stands"
3082212031;"beauty/Categories/Shaving & Hair Removal/Manual Shaving/Men's"
3082213031;"beauty/Categories/Shaving & Hair Removal/Manual Shaving/Men's/Razor Blades"
3082214031;"beauty/Categories/Shaving & Hair Removal/Manual Shaving/Men's/Razors"
3082215031;"beauty/Categories/Shaving & Hair Removal/Manual Shaving/Men's/Sets"
3082216031;"beauty/Categories/Shaving & Hair Removal/Manual Shaving/Women's"
3082217031;"beauty/Categories/Shaving & Hair Removal/Manual Shaving/Women's/Razor Blades"
3082218031;"beauty/Categories/Shaving & Hair Removal/Manual Shaving/Women's/Razors"
3082219031;"beauty/Categories/Shaving & Hair Removal/Post-Treatments"
74087031;"beauty/Categories/Shaving & Hair Removal/Post-Treatments/Aftershaves"
3082220031;"beauty/Categories/Shaving & Hair Removal/Post-Treatments/Astringents"
3082221031;"beauty/Categories/Shaving & Hair Removal/Post-Treatments/Balms"
118472031;"beauty/Categories/Shaving & Hair Removal/Post-Treatments/Exfoliating Mitts & Gloves"
3082222031;"beauty/Categories/Shaving & Hair Removal/Post-Treatments/Gels"
74088031;"beauty/Categories/Shaving & Hair Removal/Post-Treatments/Ingrown Hair Treatments"
3082223031;"beauty/Categories/Shaving & Hair Removal/Post-Treatments/Kits"
3082224031;"beauty/Categories/Shaving & Hair Removal/Post-Treatments/Lotions & Fluids"
3082225031;"beauty/Categories/Shaving & Hair Removal/Pre-Treatments"
3082226031;"beauty/Categories/Shaving & Hair Removal/Pre-Treatments/Creams"
118472031;"beauty/Categories/Shaving & Hair Removal/Pre-Treatments/Exfoliating Mitts & Gloves"
3082227031;"beauty/Categories/Shaving & Hair Removal/Pre-Treatments/Foams"
3082228031;"beauty/Categories/Shaving & Hair Removal/Pre-Treatments/Gels"
3082229031;"beauty/Categories/Shaving & Hair Removal/Pre-Treatments/Kits"
3082230031;"beauty/Categories/Shaving & Hair Removal/Pre-Treatments/Lotions"
3082231031;"beauty/Categories/Shaving & Hair Removal/Pre-Treatments/Oils"
3082232031;"beauty/Categories/Shaving & Hair Removal/Pre-Treatments/Soaps"
3082233031;"beauty/Categories/Shaving & Hair Removal/Scissors"
74107031;"beauty/Categories/Shaving & Hair Removal/Scissors/Hair"
3082234031;"beauty/Categories/Shaving & Hair Removal/Scissors/Moustache & Beard"
3082235031;"beauty/Categories/Shaving & Hair Removal/Scissors/Nose & Ear"
3082236031;"beauty/Categories/Shaving & Hair Removal/Trimmers, Clippers & Body Groomers"
3082237031;"beauty/Categories/Shaving & Hair Removal/Trimmers, Clippers & Body Groomers/Body Groomers"
3082238031;"beauty/Categories/Shaving & Hair Removal/Trimmers, Clippers & Body Groomers/Facial Trimmers"
3082239031;"beauty/Categories/Shaving & Hair Removal/Trimmers, Clippers & Body Groomers/Hair Clippers"
3082240031;"beauty/Categories/Shaving & Hair Removal/Trimmers, Clippers & Body Groomers/Sets & Kits"
3082241031;"beauty/Categories/Shaving & Hair Removal/Trimmers, Clippers & Body Groomers/Trimmer & Clipper Combs"
3082242031;"beauty/Categories/Shaving & Hair Removal/Trimmers, Clippers & Body Groomers/Trimmer & Clipper Oil"
3082243031;"beauty/Categories/Shaving & Hair Removal/Trimmers, Clippers & Body Groomers/Women’s Trimmers"
118464031;"beauty/Categories/Skin Care"
344269031;"beauty/Categories/Skin Care/Body"
344274031;"beauty/Categories/Skin Care/Body/Firmers & Shapers"
2805272031;"beauty/Categories/Skin Care/Body/Moisturisers"
248559031;"beauty/Categories/Skin Care/Body/Moisturisers/After Sun Lotions"
344270031;"beauty/Categories/Skin Care/Body/Moisturisers/Butters"
344273031;"beauty/Categories/Skin Care/Body/Moisturisers/Creams"
344271031;"beauty/Categories/Skin Care/Body/Moisturisers/Lotions"
2805273031;"beauty/Categories/Skin Care/Body/Moisturisers/Mousse"
344272031;"beauty/Categories/Skin Care/Body/Moisturisers/Oils"
2805274031;"beauty/Categories/Skin Care/Body/Muds"
344282031;"beauty/Categories/Skin Care/Body/Scrubs"
2805367031;"beauty/Categories/Skin Care/Body/Self-Tanners"
2805369031;"beauty/Categories/Skin Care/Body/Sunscreens"
2805275031;"beauty/Categories/Skin Care/Body/Talcum Powders"
3520915031;"beauty/Categories/Skin Care/Body/Toning Devices"
118465031;"beauty/Categories/Skin Care/Eyes"
2805276031;"beauty/Categories/Skin Care/Eyes/Cooling Masks"
344259031;"beauty/Categories/Skin Care/Eyes/Creams"
344258031;"beauty/Categories/Skin Care/Eyes/Gels"
2805277031;"beauty/Categories/Skin Care/Eyes/Make-up Removers"
2805278031;"beauty/Categories/Skin Care/Eyes/Patches"
344257031;"beauty/Categories/Skin Care/Eyes/Serums & Fluids"
118466031;"beauty/Categories/Skin Care/Face"
344265031;"beauty/Categories/Skin Care/Face/Cleansers & Exfoliators"
2805279031;"beauty/Categories/Skin Care/Face/Cleansers & Exfoliators/Cleansing Appliances & Brushes"
2805280031;"beauty/Categories/Skin Care/Face/Cleansers & Exfoliators/Cloths & Wipes"
344261031;"beauty/Categories/Skin Care/Face/Cleansers & Exfoliators/Creams & Milks"
2805288031;"beauty/Categories/Skin Care/Face/Cleansers & Exfoliators/Exfoliating & Cleansing Masks"
344260031;"beauty/Categories/Skin Care/Face/Cleansers & Exfoliators/Gels & Foams"
118469031;"beauty/Categories/Skin Care/Face/Cleansers & Exfoliators/Make-up Removers"
344262031;"beauty/Categories/Skin Care/Face/Cleansers & Exfoliators/Pads"
2805283031;"beauty/Categories/Skin Care/Face/Cleansers & Exfoliators/Polishes"
2805284031;"beauty/Categories/Skin Care/Face/Cleansers & Exfoliators/Scrubs"
2805285031;"beauty/Categories/Skin Care/Face/Cleansers & Exfoliators/Soaps"
2805286031;"beauty/Categories/Skin Care/Face/Cleansers & Exfoliators/Spot Treatments"
2805287031;"beauty/Categories/Skin Care/Face/Cleansers & Exfoliators/Strips"
344268031;"beauty/Categories/Skin Care/Face/Masks"
2805288031;"beauty/Categories/Skin Care/Face/Masks/Exfoliating & Cleansing Masks"
2805289031;"beauty/Categories/Skin Care/Face/Masks/Moisturising & Rejuvenating Masks"
2805290031;"beauty/Categories/Skin Care/Face/Masks/Wellness & Anti-Stress Masks"
2805291031;"beauty/Categories/Skin Care/Face/Moisturisers"
3014164031;"beauty/Categories/Skin Care/Face/Moisturisers/BB & CC Creams"
344263031;"beauty/Categories/Skin Care/Face/Moisturisers/Day Care"
2805293031;"beauty/Categories/Skin Care/Face/Moisturisers/Day Care/Creams"
2805294031;"beauty/Categories/Skin Care/Face/Moisturisers/Day Care/Gels"
344266031;"beauty/Categories/Skin Care/Face/Moisturisers/Day Care/Serums & Fluids"
344264031;"beauty/Categories/Skin Care/Face/Moisturisers/Night Care"
2832001031;"beauty/Categories/Skin Care/Face/Moisturisers/Night Care/Creams"
2832002031;"beauty/Categories/Skin Care/Face/Moisturisers/Night Care/Gels"
2832003031;"beauty/Categories/Skin Care/Face/Moisturisers/Night Care/Serums & Fluids"
2805292031;"beauty/Categories/Skin Care/Face/Moisturisers/Sprays & Mists"
2805368031;"beauty/Categories/Skin Care/Face/Self-Tanners"
2805370031;"beauty/Categories/Skin Care/Face/Sunscreens"
344267031;"beauty/Categories/Skin Care/Face/Toners"
3520916031;"beauty/Categories/Skin Care/Face/Toning Devices"
118475031;"beauty/Categories/Skin Care/Gift Sets"
2805295031;"beauty/Categories/Skin Care/Hands & Feet"
2826580031;"beauty/Categories/Skin Care/Hands & Feet/Corn & Callus Cushions"
2826581031;"beauty/Categories/Skin Care/Hands & Feet/Corn & Callus Ointments"
2826582031;"beauty/Categories/Skin Care/Hands & Feet/Crack & Fissure Treatments"
2805296031;"beauty/Categories/Skin Care/Hands & Feet/Cuticle Care & Repair Creams"
2936965031;"beauty/Categories/Skin Care/Hands & Feet/Cuticle Care Oils"
2805297031;"beauty/Categories/Skin Care/Hands & Feet/Cuticle Removing Fluids"
2826583031;"beauty/Categories/Skin Care/Hands & Feet/Foot Care Utensils"
2826584031;"beauty/Categories/Skin Care/Hands & Feet/Foot Care Utensils/Cutters & Accessories"
2826585031;"beauty/Categories/Skin Care/Hands & Feet/Foot Care Utensils/Pumice Stones"
2826586031;"beauty/Categories/Skin Care/Hands & Feet/Foot Care Utensils/Foot Files"
2805298031;"beauty/Categories/Skin Care/Hands & Feet/Foot Creams"
2826588031;"beauty/Categories/Skin Care/Hands & Feet/Foot Odour Treatments & Remedies"
2805299031;"beauty/Categories/Skin Care/Hands & Feet/Foot Soaks"
2805300031;"beauty/Categories/Skin Care/Hands & Feet/Hand & Nail Creams"
2805301031;"beauty/Categories/Skin Care/Hands & Feet/Moisturising Gloves"
2805302031;"beauty/Categories/Skin Care/Hands & Feet/Moisturising Socks"
2805303031;"beauty/Categories/Skin Care/Hands & Feet/Paraffin Baths"
2805304031;"beauty/Categories/Skin Care/Hands & Feet/Scrubs"
118467031;"beauty/Categories/Skin Care/Lips"
2805305031;"beauty/Categories/Skin Care/Lips/Balms"
2805306031;"beauty/Categories/Skin Care/Lips/Scrubs"
2805371031;"beauty/Categories/Skin Care/Lips/Suncreens"
2805307031;"beauty/Categories/Skin Care/Neck & Decollete"
74133031;"beauty/Categories/Skin Care/Sun Care & Tanning"
248559031;"beauty/Categories/Skin Care/Sun Care & Tanning/After Sun"
118470031;"beauty/Categories/Skin Care/Sun Care & Tanning/Self-Tanners"
2805367031;"beauty/Categories/Skin Care/Sun Care & Tanning/Self-Tanners/Body"
2805368031;"beauty/Categories/Skin Care/Sun Care & Tanning/Self-Tanners/Face"
248558031;"beauty/Categories/Skin Care/Sun Care & Tanning/Sunscreens"
2805369031;"beauty/Categories/Skin Care/Sun Care & Tanning/Sunscreens/Body"
2805370031;"beauty/Categories/Skin Care/Sun Care & Tanning/Sunscreens/Face"
2805371031;"beauty/Categories/Skin Care/Sun Care & Tanning/Sunscreens/Lips"
2805372031;"beauty/Categories/Skin Care/Sun Care & Tanning/Tan Enhancers & Accelerators"
3360502031;"beauty/Categories/Skin Care/Sun Care & Tanning/Tanning Lamps"
3474291031;"beauty/Categories/Tools & Accessories"
118491031;"beauty/Categories/Tools & Accessories/Bags & Cases"
2799758031;"beauty/Categories/Tools & Accessories/Bags & Cases/Atomisers"
3099640031;"beauty/Categories/Tools & Accessories/Bags & Cases/Make-up Bags"
3099641031;"beauty/Categories/Tools & Accessories/Bags & Cases/Make-up Bags/Cases & Holders"
1769588031;"beauty/Categories/Tools & Accessories/Bags & Cases/Make-up Bags/Luggage Cosmetic Cases"
1722528031;"beauty/Categories/Tools & Accessories/Bags & Cases/Make-up Bags/Make-up Pouches"
1722529031;"beauty/Categories/Tools & Accessories/Bags & Cases/Toiletry Bags"
2991676031;"beauty/Categories/Tools & Accessories/Cotton Balls & Pads"
118444031;"beauty/Categories/Tools & Accessories/Make-up Tools & Accessories"
118445031;"beauty/Categories/Tools & Accessories/Make-up Tools & Accessories/Brushes"
3091703031;"beauty/Categories/Tools & Accessories/Make-up Tools & Accessories/Brushes/Brush Sets"
118447031;"beauty/Categories/Tools & Accessories/Make-up Tools & Accessories/Brushes/Eye Brushes"
118448031;"beauty/Categories/Tools & Accessories/Make-up Tools & Accessories/Brushes/Face Brushes"
118446031;"beauty/Categories/Tools & Accessories/Make-up Tools & Accessories/Brushes/Lip Brushes"
118450031;"beauty/Categories/Tools & Accessories/Make-up Tools & Accessories/Compact Mirrors"
3099618031;"beauty/Categories/Tools & Accessories/Make-up Tools & Accessories/Eyes"
3099621031;"beauty/Categories/Tools & Accessories/Make-up Tools & Accessories/Eyes/Applicators"
3099622031;"beauty/Categories/Tools & Accessories/Make-up Tools & Accessories/Eyes/Brow Groomers & Lash Combs"
118447031;"beauty/Categories/Tools & Accessories/Make-up Tools & Accessories/Eyes/Brushes"
5521664031;"beauty/Categories/Tools & Accessories/Make-up Tools & Accessories/Eyes/Eyelid Tape"
118429031;"beauty/Categories/Tools & Accessories/Make-up Tools & Accessories/Eyes/False Lashes"
3099623031;"beauty/Categories/Tools & Accessories/Make-up Tools & Accessories/Eyes/Lash Curlers"
3099619031;"beauty/Categories/Tools & Accessories/Make-up Tools & Accessories/Face"
118449031;"beauty/Categories/Tools & Accessories/Make-up Tools & Accessories/Face/Blotting Paper"
118448031;"beauty/Categories/Tools & Accessories/Make-up Tools & Accessories/Face/Brushes"
118453031;"beauty/Categories/Tools & Accessories/Make-up Tools & Accessories/Face/Powder Puffs"
118454031;"beauty/Categories/Tools & Accessories/Make-up Tools & Accessories/Face/Sponges"
3099640031;"beauty/Categories/Tools & Accessories/Make-up Tools & Accessories/Make-up Bags"
3099641031;"beauty/Categories/Tools & Accessories/Make-up Tools & Accessories/Make-up Bags/Cases & Holders"
1769588031;"beauty/Categories/Tools & Accessories/Make-up Tools & Accessories/Make-up Bags/Luggage Cosmetic Cases"
1722528031;"beauty/Categories/Tools & Accessories/Make-up Tools & Accessories/Make-up Bags/Make-up Pouches"
3099620031;"beauty/Categories/Tools & Accessories/Make-up Tools & Accessories/Sets & Kits"
118452031;"beauty/Categories/Tools & Accessories/Make-up Tools & Accessories/Sharpeners"
118456031;"beauty/Categories/Tools & Accessories/Make-up Tools & Accessories/Tweezers"
118455031;"beauty/Categories/Tools & Accessories/Tissues"
117338031;"beauty/Featured Categories"
118491031;"beauty/Featured Categories/Bags & Cases"
2799758031;"beauty/Featured Categories/Bags & Cases/Atomisers"
3099640031;"beauty/Featured Categories/Bags & Cases/Make-up Bags"
3099641031;"beauty/Featured Categories/Bags & Cases/Make-up Bags/Cases & Holders"
1769588031;"beauty/Featured Categories/Bags & Cases/Make-up Bags/Luggage Cosmetic Cases"
1722528031;"beauty/Featured Categories/Bags & Cases/Make-up Bags/Make-up Pouches"
1722529031;"beauty/Featured Categories/Bags & Cases/Toiletry Bags"
74129031;"beauty/Featured Categories/Bath & Body"
3091964031;"beauty/Featured Categories/Bath & Body/Bath Additives"
344276031;"beauty/Featured Categories/Bath & Body/Bath Additives/Bath Bombs"
3091965031;"beauty/Featured Categories/Bath & Body/Bath Additives/Bath Pearls & Flakes"
344277031;"beauty/Featured Categories/Bath & Body/Bath Additives/Bubble Bath"
344278031;"beauty/Featured Categories/Bath & Body/Bath Additives/Minerals & Salts"
344279031;"beauty/Featured Categories/Bath & Body/Bath Additives/Oils"
3091966031;"beauty/Featured Categories/Bath & Body/Bath Additives/Tub Tea"
3091967031;"beauty/Featured Categories/Bath & Body/Bathing Accessories"
344281031;"beauty/Featured Categories/Bath & Body/Bathing Accessories/Bath Pillows"
3094409031;"beauty/Featured Categories/Bath & Body/Bathing Accessories/Bath Trays"
344280031;"beauty/Featured Categories/Bath & Body/Bathing Accessories/Body Brushes"
118472031;"beauty/Featured Categories/Bath & Body/Bathing Accessories/Exfoliating Mitts & Gloves"
11712731;"beauty/Featured Categories/Bath & Body/Bathing Accessories/Flannels, Wash Mitts & Gloves"
3091968031;"beauty/Featured Categories/Bath & Body/Bathing Accessories/Loofahs"
3091969031;"beauty/Featured Categories/Bath & Body/Bathing Accessories/Poufs"
344284031;"beauty/Featured Categories/Bath & Body/Bathing Accessories/Shower Caps"
3091970031;"beauty/Featured Categories/Bath & Body/Bathing Accessories/Sponges"
3091971031;"beauty/Featured Categories/Bath & Body/Cleansers"
344285031;"beauty/Featured Categories/Bath & Body/Cleansers/Shower Gels"
3091972031;"beauty/Featured Categories/Bath & Body/Cleansers/Shower Oils"
3091973031;"beauty/Featured Categories/Bath & Body/Cleansers/Soaps & Hand Wash"
74128031;"beauty/Featured Categories/Bath & Body/Deodorants & Anti-Perspirants"
3091974031;"beauty/Featured Categories/Bath & Body/Scrubs & Body Treatments"
344270031;"beauty/Featured Categories/Bath & Body/Scrubs & Body Treatments/Body Butters"
344273031;"beauty/Featured Categories/Bath & Body/Scrubs & Body Treatments/Body Creams"
344274031;"beauty/Featured Categories/Bath & Body/Scrubs & Body Treatments/Body Firmers & Shapers"
344271031;"beauty/Featured Categories/Bath & Body/Scrubs & Body Treatments/Body Lotions"
2790135031;"beauty/Featured Categories/Bath & Body/Scrubs & Body Treatments/Body Mists"
2805273031;"beauty/Featured Categories/Bath & Body/Scrubs & Body Treatments/Body Mousse & Souffles"
2805274031;"beauty/Featured Categories/Bath & Body/Scrubs & Body Treatments/Body Muds"
344272031;"beauty/Featured Categories/Bath & Body/Scrubs & Body Treatments/Body Oils"
344282031;"beauty/Featured Categories/Bath & Body/Scrubs & Body Treatments/Body Scrubs"
2805275031;"beauty/Featured Categories/Bath & Body/Scrubs & Body Treatments/Talcum Powders"
3091975031;"beauty/Featured Categories/Bath & Body/Sets"
118457031;"beauty/Featured Categories/Fragrances"
2799758031;"beauty/Featured Categories/Fragrances/Atomisers"
4694833031;"beauty/Featured Categories/Fragrances/Candles & Home Scents"
2790126031;"beauty/Featured Categories/Fragrances/Children"
2790127031;"beauty/Featured Categories/Fragrances/Men"
74087031;"beauty/Featured Categories/Fragrances/Men/Aftershaves"
2790128031;"beauty/Featured Categories/Fragrances/Men/Eau de Cologne"
2790129031;"beauty/Featured Categories/Fragrances/Men/Eau de Perfume"
2790130031;"beauty/Featured Categories/Fragrances/Men/Eau de Toilette"
2790131031;"beauty/Featured Categories/Fragrances/Men/Perfume"
2790132031;"beauty/Featured Categories/Fragrances/Men/Sets"
118463031;"beauty/Featured Categories/Fragrances/Sets"
2790132031;"beauty/Featured Categories/Fragrances/Sets/Men"
2790141031;"beauty/Featured Categories/Fragrances/Sets/Women"
2790134031;"beauty/Featured Categories/Fragrances/Women"
2790135031;"beauty/Featured Categories/Fragrances/Women/Body Sprays"
2790136031;"beauty/Featured Categories/Fragrances/Women/Eau de Cologne"
2790137031;"beauty/Featured Categories/Fragrances/Women/Eau de Perfume"
2790138031;"beauty/Featured Categories/Fragrances/Women/Eau de Toilette"
2790139031;"beauty/Featured Categories/Fragrances/Women/Perfume"
2790140031;"beauty/Featured Categories/Fragrances/Women/Perfume Oils"
2790141031;"beauty/Featured Categories/Fragrances/Women/Sets"
66469031;"beauty/Featured Categories/Hair Care"
2867975031;"beauty/Featured Categories/Hair Care/Hair Care Products"
2867976031;"beauty/Featured Categories/Hair Care/Hair Care Products/Conditioners"
2867977031;"beauty/Featured Categories/Hair Care/Hair Care Products/Deep Conditioners & Treatments"
2867978031;"beauty/Featured Categories/Hair Care/Hair Care Products/Dry Shampoos"
4769963031;"beauty/Featured Categories/Hair Care/Hair Care Products/Gift Sets"
2867979031;"beauty/Featured Categories/Hair Care/Hair Care Products/Hair Loss Products"
2867980031;"beauty/Featured Categories/Hair Care/Hair Care Products/Hair Mascaras"
2867981031;"beauty/Featured Categories/Hair Care/Hair Care Products/Hair Oils"
2867982031;"beauty/Featured Categories/Hair Care/Hair Care Products/Hair Perms & Texturisers"
2867983031;"beauty/Featured Categories/Hair Care/Hair Care Products/Hair Relaxers"
2867984031;"beauty/Featured Categories/Hair Care/Hair Care Products/Hair Tonic"
2867985031;"beauty/Featured Categories/Hair Care/Hair Care Products/Shampoo & Conditioner Sets"
74094031;"beauty/Featured Categories/Hair Care/Hair Care Products/Shampoos"
74093031;"beauty/Featured Categories/Hair Care/Hair Colour"
2867986031;"beauty/Featured Categories/Hair Care/Hair Colour/Colour Accessories"
3520913031;"beauty/Featured Categories/Hair Care/Hair Colour/Colour Removers"
2867987031;"beauty/Featured Categories/Hair Care/Hair Colour/Permanent Colour"
2867988031;"beauty/Featured Categories/Hair Care/Hair Colour/Semi-Permanent Colour"
2867989031;"beauty/Featured Categories/Hair Care/Hair Styling Accessories"
3520911031;"beauty/Featured Categories/Hair Care/Hair Styling Accessories/Bun Shapers"
2867991031;"beauty/Featured Categories/Hair Care/Hair Styling Accessories/Claws"
2867992031;"beauty/Featured Categories/Hair Care/Hair Styling Accessories/Clips & Barrettes"
3520910031;"beauty/Featured Categories/Hair Care/Hair Styling Accessories/Hair Comb Slides"
2867993031;"beauty/Featured Categories/Hair Care/Hair Styling Accessories/Hair Extensions, Wigs & Accessories"
306690031;"beauty/Featured Categories/Hair Care/Hair Styling Accessories/Hair Extensions, Wigs & Accessories/Hair Extensions"
2867994031;"beauty/Featured Categories/Hair Care/Hair Styling Accessories/Hair Extensions, Wigs & Accessories/Hairpieces"
2867995031;"beauty/Featured Categories/Hair Care/Hair Styling Accessories/Hair Extensions, Wigs & Accessories/Polystyrene Heads"
306691031;"beauty/Featured Categories/Hair Care/Hair Styling Accessories/Hair Extensions, Wigs & Accessories/Wigs"
2867996031;"beauty/Featured Categories/Hair Care/Hair Styling Accessories/Hair Pins"
2867997031;"beauty/Featured Categories/Hair Care/Hair Styling Accessories/Headbands"
2867998031;"beauty/Featured Categories/Hair Care/Hair Styling Accessories/Ponytail Holders"
2867999031;"beauty/Featured Categories/Hair Care/Hairdresser Furnishings"
2868000031;"beauty/Featured Categories/Hair Care/Hairdresser Furnishings/Barber Chairs"
2868001031;"beauty/Featured Categories/Hair Care/Hairdresser Furnishings/Brooms & Brushes"
2868002031;"beauty/Featured Categories/Hair Care/Hairdresser Furnishings/Capes"
2868003031;"beauty/Featured Categories/Hair Care/Hairdresser Furnishings/Cutting Stools"
74124031;"beauty/Featured Categories/Hair Care/Hairdresser Furnishings/Drying Hoods"
2868004031;"beauty/Featured Categories/Hair Care/Hairdresser Furnishings/Hand Mirrors"
2868005031;"beauty/Featured Categories/Hair Care/Hairdresser Furnishings/Maintenance Carts"
2868006031;"beauty/Featured Categories/Hair Care/Hairdresser Furnishings/Neck Brushes"
2868007031;"beauty/Featured Categories/Hair Care/Hairdresser Furnishings/Shampoo Sinks"
2868008031;"beauty/Featured Categories/Hair Care/Hairdresser Furnishings/Spray Flasks"
2868009031;"beauty/Featured Categories/Hair Care/Hairdresser Furnishings/Toolbags & Toolboxes"
2868010031;"beauty/Featured Categories/Hair Care/Hairdresser Furnishings/Training Heads"
2826606031;"beauty/Featured Categories/Hair Care/Lice Treatments"
2826607031;"beauty/Featured Categories/Hair Care/Lice Treatments/Lice Combs"
2826608031;"beauty/Featured Categories/Hair Care/Lice Treatments/Shampoos & Rinses"
2826609031;"beauty/Featured Categories/Hair Care/Lice Treatments/Sprays"
2826610031;"beauty/Featured Categories/Hair Care/Lice Treatments/Treatment Packages"
2868011031;"beauty/Featured Categories/Hair Care/Styling Products"
2868012031;"beauty/Featured Categories/Hair Care/Styling Products/Gels"
2868013031;"beauty/Featured Categories/Hair Care/Styling Products/Hair Sprays"
74102031;"beauty/Featured Categories/Hair Care/Styling Products/Mousses & Foams"
74103031;"beauty/Featured Categories/Hair Care/Styling Products/Putty, Clay & Wax"
3520912031;"beauty/Featured Categories/Hair Care/Styling Products/Serums"
2868014031;"beauty/Featured Categories/Hair Care/Styling Products/Thermal Protector Sprays"
74099031;"beauty/Featured Categories/Hair Care/Styling Tools"
2868091031;"beauty/Featured Categories/Hair Care/Styling Tools/Combs"
3520909031;"beauty/Featured Categories/Hair Care/Styling Tools/Crimpers"
74112031;"beauty/Featured Categories/Hair Care/Styling Tools/Curling Tongs"
74124031;"beauty/Featured Categories/Hair Care/Styling Tools/Drying Hoods"
3082239031;"beauty/Featured Categories/Hair Care/Styling Tools/Hair Clippers"
2868092031;"beauty/Featured Categories/Hair Care/Styling Tools/Hair Dryers & Accessories"
74109031;"beauty/Featured Categories/Hair Care/Styling Tools/Hair Straighteners"
2868093031;"beauty/Featured Categories/Hair Care/Styling Tools/Hairbrushes"
74117031;"beauty/Featured Categories/Hair Care/Styling Tools/Hot Air Stylers"
74116031;"beauty/Featured Categories/Hair Care/Styling Tools/Multi Stylers"
2868094031;"beauty/Featured Categories/Hair Care/Styling Tools/Rollers"
74107031;"beauty/Featured Categories/Hair Care/Styling Tools/Scissors"
74114031;"beauty/Featured Categories/Hair Care/Styling Tools/Wavers"
118423031;"beauty/Featured Categories/Make-up"
118443031;"beauty/Featured Categories/Make-up/Body"
3014153031;"beauty/Featured Categories/Make-up/Body/Body Glitter"
3014154031;"beauty/Featured Categories/Make-up/Body/Body Paint"
3014165031;"beauty/Featured Categories/Make-up/Body/Bronzers & Highlighters"
3014155031;"beauty/Featured Categories/Make-up/Body/Concealers"
3014156031;"beauty/Featured Categories/Make-up/Body/Henna"
3014157031;"beauty/Featured Categories/Make-up/Body/Temporary Tattoos"
118424031;"beauty/Featured Categories/Make-up/Eyes"
3014158031;"beauty/Featured Categories/Make-up/Eyes/Concealers"
118426031;"beauty/Featured Categories/Make-up/Eyes/Eyebrow Colours"
3014159031;"beauty/Featured Categories/Make-up/Eyes/Eyelash Treatments"
118425031;"beauty/Featured Categories/Make-up/Eyes/Eyeliners"
3014160031;"beauty/Featured Categories/Make-up/Eyes/Eyeshadow Bases"
118427031;"beauty/Featured Categories/Make-up/Eyes/Eyeshadows"
118429031;"beauty/Featured Categories/Make-up/Eyes/False Lashes"
3014161031;"beauty/Featured Categories/Make-up/Eyes/Glitter & Shimmer"
3014162031;"beauty/Featured Categories/Make-up/Eyes/Kohl Pencils"
3014163031;"beauty/Featured Categories/Make-up/Eyes/Liner & Shadow Combinations"
118428031;"beauty/Featured Categories/Make-up/Eyes/Mascaras"
118430031;"beauty/Featured Categories/Make-up/Face"
3014164031;"beauty/Featured Categories/Make-up/Face/BB & CC Creams"
118434031;"beauty/Featured Categories/Make-up/Face/Blushes"
3014165031;"beauty/Featured Categories/Make-up/Face/Bronzers & Highlighters"
118432031;"beauty/Featured Categories/Make-up/Face/Concealers & Correctors"
118431031;"beauty/Featured Categories/Make-up/Face/Foundations"
3014166031;"beauty/Featured Categories/Make-up/Face/Illuminators & Luminisers"
3014167031;"beauty/Featured Categories/Make-up/Face/Make-up Finishers"
118433031;"beauty/Featured Categories/Make-up/Face/Powders"
3100499031;"beauty/Featured Categories/Make-up/Face/Primers"
118436031;"beauty/Featured Categories/Make-up/Lips"
118437031;"beauty/Featured Categories/Make-up/Lips/Lip Glosses"
118438031;"beauty/Featured Categories/Make-up/Lips/Lip Liners"
118440031;"beauty/Featured Categories/Make-up/Lips/Lip Stains & Tints"
118441031;"beauty/Featured Categories/Make-up/Lips/Lipstick Primers"
118439031;"beauty/Featured Categories/Make-up/Lips/Lipsticks"
3014168031;"beauty/Featured Categories/Make-up/Make-up Palettes"
3014169031;"beauty/Featured Categories/Make-up/Make-up Removers"
2805277031;"beauty/Featured Categories/Make-up/Make-up Removers/Eye Make-up Removers"
118469031;"beauty/Featured Categories/Make-up/Make-up Removers/Face Make-up Removers"
3014170031;"beauty/Featured Categories/Make-up/Make-up Sets"
118444031;"beauty/Featured Categories/Make-up/Make-up Tools & Accessories"
118445031;"beauty/Featured Categories/Make-up/Make-up Tools & Accessories/Brushes"
3091703031;"beauty/Featured Categories/Make-up/Make-up Tools & Accessories/Brushes/Brush Sets"
118447031;"beauty/Featured Categories/Make-up/Make-up Tools & Accessories/Brushes/Eye Brushes"
118448031;"beauty/Featured Categories/Make-up/Make-up Tools & Accessories/Brushes/Face Brushes"
118446031;"beauty/Featured Categories/Make-up/Make-up Tools & Accessories/Brushes/Lip Brushes"
118450031;"beauty/Featured Categories/Make-up/Make-up Tools & Accessories/Compact Mirrors"
3099618031;"beauty/Featured Categories/Make-up/Make-up Tools & Accessories/Eyes"
3099621031;"beauty/Featured Categories/Make-up/Make-up Tools & Accessories/Eyes/Applicators"
3099622031;"beauty/Featured Categories/Make-up/Make-up Tools & Accessories/Eyes/Brow Groomers & Lash Combs"
118447031;"beauty/Featured Categories/Make-up/Make-up Tools & Accessories/Eyes/Brushes"
5521664031;"beauty/Featured Categories/Make-up/Make-up Tools & Accessories/Eyes/Eyelid Tape"
118429031;"beauty/Featured Categories/Make-up/Make-up Tools & Accessories/Eyes/False Lashes"
3099623031;"beauty/Featured Categories/Make-up/Make-up Tools & Accessories/Eyes/Lash Curlers"
3099619031;"beauty/Featured Categories/Make-up/Make-up Tools & Accessories/Face"
118449031;"beauty/Featured Categories/Make-up/Make-up Tools & Accessories/Face/Blotting Paper"
118448031;"beauty/Featured Categories/Make-up/Make-up Tools & Accessories/Face/Brushes"
118453031;"beauty/Featured Categories/Make-up/Make-up Tools & Accessories/Face/Powder Puffs"
118454031;"beauty/Featured Categories/Make-up/Make-up Tools & Accessories/Face/Sponges"
3099640031;"beauty/Featured Categories/Make-up/Make-up Tools & Accessories/Make-up Bags"
3099641031;"beauty/Featured Categories/Make-up/Make-up Tools & Accessories/Make-up Bags/Cases & Holders"
1769588031;"beauty/Featured Categories/Make-up/Make-up Tools & Accessories/Make-up Bags/Luggage Cosmetic Cases"
1722528031;"beauty/Featured Categories/Make-up/Make-up Tools & Accessories/Make-up Bags/Make-up Pouches"
3099620031;"beauty/Featured Categories/Make-up/Make-up Tools & Accessories/Sets & Kits"
118452031;"beauty/Featured Categories/Make-up/Make-up Tools & Accessories/Sharpeners"
118456031;"beauty/Featured Categories/Make-up/Make-up Tools & Accessories/Tweezers"
118476031;"beauty/Featured Categories/Manicure & Pedicure"
4655564031;"beauty/Featured Categories/Manicure & Pedicure/Hand & Feet Care"
2909179031;"beauty/Featured Categories/Manicure & Pedicure/Hand & Feet Care/Chairs & Stools"
2805298031;"beauty/Featured Categories/Manicure & Pedicure/Hand & Feet Care/Foot Creams"
2805299031;"beauty/Featured Categories/Manicure & Pedicure/Hand & Feet Care/Foot Soaks"
2805300031;"beauty/Featured Categories/Manicure & Pedicure/Hand & Feet Care/Hand & Nail Creams"
2805301031;"beauty/Featured Categories/Manicure & Pedicure/Hand & Feet Care/Moisturising Gloves"
2805302031;"beauty/Featured Categories/Manicure & Pedicure/Hand & Feet Care/Moisturising Socks"
2805303031;"beauty/Featured Categories/Manicure & Pedicure/Hand & Feet Care/Paraffin Baths"
2805304031;"beauty/Featured Categories/Manicure & Pedicure/Hand & Feet Care/Scrubs"
2805300031;"beauty/Featured Categories/Manicure & Pedicure/Hand & Nail Creams &nbsp;"
2909180031;"beauty/Featured Categories/Manicure & Pedicure/Nail Design"
2909181031;"beauty/Featured Categories/Manicure & Pedicure/Nail Design/Base & Top Coat"
118477031;"beauty/Featured Categories/Manicure & Pedicure/Nail Design/False Nails & Accessories"
2909182031;"beauty/Featured Categories/Manicure & Pedicure/Nail Design/False Nails & Accessories/Acrylic Powders & Liquids"
2909183031;"beauty/Featured Categories/Manicure & Pedicure/Nail Design/False Nails & Accessories/Fiberglass & Silk"
2909184031;"beauty/Featured Categories/Manicure & Pedicure/Nail Design/False Nails & Accessories/Gel"
2909185031;"beauty/Featured Categories/Manicure & Pedicure/Nail Design/False Nails & Accessories/Nail Forms"
2909186031;"beauty/Featured Categories/Manicure & Pedicure/Nail Design/False Nails & Accessories/Nail Glue"
2909187031;"beauty/Featured Categories/Manicure & Pedicure/Nail Design/False Nails & Accessories/Nail Tips"
2909188031;"beauty/Featured Categories/Manicure & Pedicure/Nail Design/Nail Art Accessories"
3520914031;"beauty/Featured Categories/Manicure & Pedicure/Nail Design/Nail Art Accessories/Fimo"
2909190031;"beauty/Featured Categories/Manicure & Pedicure/Nail Design/Nail Art Accessories/Glitters"
2909191031;"beauty/Featured Categories/Manicure & Pedicure/Nail Design/Nail Art Accessories/Jewellery"
2909189031;"beauty/Featured Categories/Manicure & Pedicure/Nail Design/Nail Art Accessories/Nail Art Sets"
2909192031;"beauty/Featured Categories/Manicure & Pedicure/Nail Design/Nail Art Accessories/Rhinestones"
2909193031;"beauty/Featured Categories/Manicure & Pedicure/Nail Design/Nail Art Accessories/Stickers & Decals"
2909194031;"beauty/Featured Categories/Manicure & Pedicure/Nail Design/Nail Art Accessories/Wraps"
118490031;"beauty/Featured Categories/Manicure & Pedicure/Nail Design/Nail Salon Sets"
118483031;"beauty/Featured Categories/Manicure & Pedicure/Nail Design/Polish"
118484031;"beauty/Featured Categories/Manicure & Pedicure/Nail Design/Polish Remover"
2909196031;"beauty/Featured Categories/Manicure & Pedicure/Nail Design/Tools"
2909197031;"beauty/Featured Categories/Manicure & Pedicure/Nail Design/Tools/Dotting Tools"
2909198031;"beauty/Featured Categories/Manicure & Pedicure/Nail Design/Tools/Hand Rests"
2909199031;"beauty/Featured Categories/Manicure & Pedicure/Nail Design/Tools/Nail Art Pens"
2909200031;"beauty/Featured Categories/Manicure & Pedicure/Nail Design/Tools/Nail Brushes"
2909201031;"beauty/Featured Categories/Manicure & Pedicure/Nail Design/Tools/Nail Dryers"
2909202031;"beauty/Featured Categories/Manicure & Pedicure/Nail Design/Tools/Polish Correctors"
2909203031;"beauty/Featured Categories/Manicure & Pedicure/Nail Design/Tools/Practice Hands & Fingers"
2909204031;"beauty/Featured Categories/Manicure & Pedicure/Nail Design/Tools/Spa Slippers"
2909205031;"beauty/Featured Categories/Manicure & Pedicure/Nail Design/Tools/Stampers & Scrapers"
2909206031;"beauty/Featured Categories/Manicure & Pedicure/Nail Design/Tools/Templates"
2909207031;"beauty/Featured Categories/Manicure & Pedicure/Nail Design/Tools/Toe Separators"
118483031;"beauty/Featured Categories/Manicure & Pedicure/Nail Polish"
118484031;"beauty/Featured Categories/Manicure & Pedicure/Nail Polish Remover"
2909208031;"beauty/Featured Categories/Manicure & Pedicure/Nail Treatments"
2909209031;"beauty/Featured Categories/Manicure & Pedicure/Nail Treatments/Cuticle Care"
2805296031;"beauty/Featured Categories/Manicure & Pedicure/Nail Treatments/Cuticle Care/Creams"
2936965031;"beauty/Featured Categories/Manicure & Pedicure/Nail Treatments/Cuticle Care/Oils"
2805297031;"beauty/Featured Categories/Manicure & Pedicure/Nail Treatments/Cuticle Care/Removers"
2909213031;"beauty/Featured Categories/Manicure & Pedicure/Nail Treatments/Growth Formula"
2909214031;"beauty/Featured Categories/Manicure & Pedicure/Nail Treatments/Repair"
2909215031;"beauty/Featured Categories/Manicure & Pedicure/Nail Treatments/Ridge Filler"
118486031;"beauty/Featured Categories/Manicure & Pedicure/Nail Treatments/Strengthener"
2909216031;"beauty/Featured Categories/Manicure & Pedicure/Nail Treatments/Whitening"
2909217031;"beauty/Featured Categories/Manicure & Pedicure/Tools & Accessories"
118480031;"beauty/Featured Categories/Manicure & Pedicure/Tools & Accessories/Buffers"
2826584031;"beauty/Featured Categories/Manicure & Pedicure/Tools & Accessories/Callus Shavers"
2909218031;"beauty/Featured Categories/Manicure & Pedicure/Tools & Accessories/Cuticle Pushers"
2909219031;"beauty/Featured Categories/Manicure & Pedicure/Tools & Accessories/Cuticle Scissors"
118487031;"beauty/Featured Categories/Manicure & Pedicure/Tools & Accessories/Electric Manicure Drills & Accessories"
2826586031;"beauty/Featured Categories/Manicure & Pedicure/Tools & Accessories/Foot Rasps"
2909222031;"beauty/Featured Categories/Manicure & Pedicure/Tools & Accessories/Manicure & Pedicure Sets"
2909188031;"beauty/Featured Categories/Manicure & Pedicure/Tools & Accessories/Nail Art Accessories"
3520914031;"beauty/Featured Categories/Manicure & Pedicure/Tools & Accessories/Nail Art Accessories/Fimo"
2909190031;"beauty/Featured Categories/Manicure & Pedicure/Tools & Accessories/Nail Art Accessories/Glitters"
2909191031;"beauty/Featured Categories/Manicure & Pedicure/Tools & Accessories/Nail Art Accessories/Jewellery"
2909189031;"beauty/Featured Categories/Manicure & Pedicure/Tools & Accessories/Nail Art Accessories/Nail Art Sets"
2909192031;"beauty/Featured Categories/Manicure & Pedicure/Tools & Accessories/Nail Art Accessories/Rhinestones"
2909193031;"beauty/Featured Categories/Manicure & Pedicure/Tools & Accessories/Nail Art Accessories/Stickers & Decals"
2909194031;"beauty/Featured Categories/Manicure & Pedicure/Tools & Accessories/Nail Art Accessories/Wraps"
2909189031;"beauty/Featured Categories/Manicure & Pedicure/Tools & Accessories/Nail Art Sets"
2909196031;"beauty/Featured Categories/Manicure & Pedicure/Tools & Accessories/Nail Art Tools"
2909197031;"beauty/Featured Categories/Manicure & Pedicure/Tools & Accessories/Nail Art Tools/Dotting Tools"
2909198031;"beauty/Featured Categories/Manicure & Pedicure/Tools & Accessories/Nail Art Tools/Hand Rests"
2909199031;"beauty/Featured Categories/Manicure & Pedicure/Tools & Accessories/Nail Art Tools/Nail Art Pens"
2909200031;"beauty/Featured Categories/Manicure & Pedicure/Tools & Accessories/Nail Art Tools/Nail Brushes"
2909201031;"beauty/Featured Categories/Manicure & Pedicure/Tools & Accessories/Nail Art Tools/Nail Dryers"
2909202031;"beauty/Featured Categories/Manicure & Pedicure/Tools & Accessories/Nail Art Tools/Polish Correctors"
2909203031;"beauty/Featured Categories/Manicure & Pedicure/Tools & Accessories/Nail Art Tools/Practice Hands & Fingers"
2909204031;"beauty/Featured Categories/Manicure & Pedicure/Tools & Accessories/Nail Art Tools/Spa Slippers"
2909205031;"beauty/Featured Categories/Manicure & Pedicure/Tools & Accessories/Nail Art Tools/Stampers & Scrapers"
2909206031;"beauty/Featured Categories/Manicure & Pedicure/Tools & Accessories/Nail Art Tools/Templates"
2909207031;"beauty/Featured Categories/Manicure & Pedicure/Tools & Accessories/Nail Art Tools/Toe Separators"
118481031;"beauty/Featured Categories/Manicure & Pedicure/Tools & Accessories/Nail Clippers"
118482031;"beauty/Featured Categories/Manicure & Pedicure/Tools & Accessories/Nail Files"
2909221031;"beauty/Featured Categories/Manicure & Pedicure/Tools & Accessories/Nail Nippers"
118485031;"beauty/Featured Categories/Manicure & Pedicure/Tools & Accessories/Nail Scissors"
2826585031;"beauty/Featured Categories/Manicure & Pedicure/Tools & Accessories/Pumice Stones &nbsp;"
2909223031;"beauty/Featured Categories/Manicure & Pedicure/Tools & Accessories/Tip Cutters"
66465031;"beauty/Featured Categories/Shaving & Hair Removal"
3082180031;"beauty/Featured Categories/Shaving & Hair Removal/Accessories"
3082181031;"beauty/Featured Categories/Shaving & Hair Removal/Accessories/Cleaning"
3082182031;"beauty/Featured Categories/Shaving & Hair Removal/Accessories/Cleaning/Brushes"
3082183031;"beauty/Featured Categories/Shaving & Hair Removal/Accessories/Cleaning/Cartridges"
3082184031;"beauty/Featured Categories/Shaving & Hair Removal/Accessories/Cleaning/Fluids & Sprays"
3082186031;"beauty/Featured Categories/Shaving & Hair Removal/Accessories/Electric Shaver Chargers & Power Supplies"
3082213031;"beauty/Featured Categories/Shaving & Hair Removal/Accessories/Men's Razor Blades"
3082187031;"beauty/Featured Categories/Shaving & Hair Removal/Accessories/Replacement Foils"
3082197031;"beauty/Featured Categories/Shaving & Hair Removal/Accessories/Replacement IPL Cartridges"
3082188031;"beauty/Featured Categories/Shaving & Hair Removal/Accessories/Replacement Rotary Blades"
74091031;"beauty/Featured Categories/Shaving & Hair Removal/Accessories/Shaving Brushes"
3082210031;"beauty/Featured Categories/Shaving & Hair Removal/Accessories/Shaving Soap Bowls"
3082211031;"beauty/Featured Categories/Shaving & Hair Removal/Accessories/Shaving Stands"
3082203031;"beauty/Featured Categories/Shaving & Hair Removal/Accessories/Spatulas"
3082241031;"beauty/Featured Categories/Shaving & Hair Removal/Accessories/Trimmer & Clipper Combs"
3082242031;"beauty/Featured Categories/Shaving & Hair Removal/Accessories/Trimmer & Clipper Oil"
3082207031;"beauty/Featured Categories/Shaving & Hair Removal/Accessories/Wax Warmers"
3082217031;"beauty/Featured Categories/Shaving & Hair Removal/Accessories/Women's Razor Blades"
74083031;"beauty/Featured Categories/Shaving & Hair Removal/Electric Shavers"
3082185031;"beauty/Featured Categories/Shaving & Hair Removal/Electric Shavers/Accessories"
3082186031;"beauty/Featured Categories/Shaving & Hair Removal/Electric Shavers/Accessories/Chargers & Power Supplies"
3082187031;"beauty/Featured Categories/Shaving & Hair Removal/Electric Shavers/Accessories/Replacement Foils"
3082188031;"beauty/Featured Categories/Shaving & Hair Removal/Electric Shavers/Accessories/Replacement Rotary Blades"
3082189031;"beauty/Featured Categories/Shaving & Hair Removal/Electric Shavers/Men's"
3082190031;"beauty/Featured Categories/Shaving & Hair Removal/Electric Shavers/Men's/Foil Shavers"
3082191031;"beauty/Featured Categories/Shaving & Hair Removal/Electric Shavers/Men's/Rotary Shavers"
3082192031;"beauty/Featured Categories/Shaving & Hair Removal/Electric Shavers/Women's"
3082193031;"beauty/Featured Categories/Shaving & Hair Removal/Hair Removal"
3082194031;"beauty/Featured Categories/Shaving & Hair Removal/Hair Removal/Bleaching"
3082195031;"beauty/Featured Categories/Shaving & Hair Removal/Hair Removal/Depilatories"
74082031;"beauty/Featured Categories/Shaving & Hair Removal/Hair Removal/Electrolysis Systems"
74080031;"beauty/Featured Categories/Shaving & Hair Removal/Hair Removal/Epilators & Accessories"
3082196031;"beauty/Featured Categories/Shaving & Hair Removal/Hair Removal/IPL"
3082197031;"beauty/Featured Categories/Shaving & Hair Removal/Hair Removal/IPL/Replacement Cartridges"
3082198031;"beauty/Featured Categories/Shaving & Hair Removal/Hair Removal/IPL/Systems"
74081031;"beauty/Featured Categories/Shaving & Hair Removal/Hair Removal/Laser Systems"
74079031;"beauty/Featured Categories/Shaving & Hair Removal/Hair Removal/Pads"
3082199031;"beauty/Featured Categories/Shaving & Hair Removal/Hair Removal/Threading Tools"
3082200031;"beauty/Featured Categories/Shaving & Hair Removal/Hair Removal/Tweezers"
74084031;"beauty/Featured Categories/Shaving & Hair Removal/Hair Removal/Waxing"
3082201031;"beauty/Featured Categories/Shaving & Hair Removal/Hair Removal/Waxing/Kits"
3082202031;"beauty/Featured Categories/Shaving & Hair Removal/Hair Removal/Waxing/Roll-Ons"
3082203031;"beauty/Featured Categories/Shaving & Hair Removal/Hair Removal/Waxing/Spatulas"
3082204031;"beauty/Featured Categories/Shaving & Hair Removal/Hair Removal/Waxing/Strips"
3082205031;"beauty/Featured Categories/Shaving & Hair Removal/Hair Removal/Waxing/Sugar Paste"
2805275031;"beauty/Featured Categories/Shaving & Hair Removal/Hair Removal/Waxing/Talcum Powders"
3082206031;"beauty/Featured Categories/Shaving & Hair Removal/Hair Removal/Waxing/Wax"
3082207031;"beauty/Featured Categories/Shaving & Hair Removal/Hair Removal/Waxing/Wax Warmers"
3082208031;"beauty/Featured Categories/Shaving & Hair Removal/Manual Shaving"
3082209031;"beauty/Featured Categories/Shaving & Hair Removal/Manual Shaving/Accessories"
74091031;"beauty/Featured Categories/Shaving & Hair Removal/Manual Shaving/Accessories/Shaving Brushes"
3082210031;"beauty/Featured Categories/Shaving & Hair Removal/Manual Shaving/Accessories/Shaving Soap Bowls"
3082211031;"beauty/Featured Categories/Shaving & Hair Removal/Manual Shaving/Accessories/Shaving Stands"
3082212031;"beauty/Featured Categories/Shaving & Hair Removal/Manual Shaving/Men's"
3082213031;"beauty/Featured Categories/Shaving & Hair Removal/Manual Shaving/Men's/Razor Blades"
3082214031;"beauty/Featured Categories/Shaving & Hair Removal/Manual Shaving/Men's/Razors"
3082215031;"beauty/Featured Categories/Shaving & Hair Removal/Manual Shaving/Men's/Sets"
3082216031;"beauty/Featured Categories/Shaving & Hair Removal/Manual Shaving/Women's"
3082217031;"beauty/Featured Categories/Shaving & Hair Removal/Manual Shaving/Women's/Razor Blades"
3082218031;"beauty/Featured Categories/Shaving & Hair Removal/Manual Shaving/Women's/Razors"
3082219031;"beauty/Featured Categories/Shaving & Hair Removal/Post-Treatments"
74087031;"beauty/Featured Categories/Shaving & Hair Removal/Post-Treatments/Aftershaves"
3082220031;"beauty/Featured Categories/Shaving & Hair Removal/Post-Treatments/Astringents"
3082221031;"beauty/Featured Categories/Shaving & Hair Removal/Post-Treatments/Balms"
118472031;"beauty/Featured Categories/Shaving & Hair Removal/Post-Treatments/Exfoliating Mitts & Gloves"
3082222031;"beauty/Featured Categories/Shaving & Hair Removal/Post-Treatments/Gels"
74088031;"beauty/Featured Categories/Shaving & Hair Removal/Post-Treatments/Ingrown Hair Treatments"
3082223031;"beauty/Featured Categories/Shaving & Hair Removal/Post-Treatments/Kits"
3082224031;"beauty/Featured Categories/Shaving & Hair Removal/Post-Treatments/Lotions & Fluids"
3082225031;"beauty/Featured Categories/Shaving & Hair Removal/Pre-Treatments"
3082226031;"beauty/Featured Categories/Shaving & Hair Removal/Pre-Treatments/Creams"
118472031;"beauty/Featured Categories/Shaving & Hair Removal/Pre-Treatments/Exfoliating Mitts & Gloves"
3082227031;"beauty/Featured Categories/Shaving & Hair Removal/Pre-Treatments/Foams"
3082228031;"beauty/Featured Categories/Shaving & Hair Removal/Pre-Treatments/Gels"
3082229031;"beauty/Featured Categories/Shaving & Hair Removal/Pre-Treatments/Kits"
3082230031;"beauty/Featured Categories/Shaving & Hair Removal/Pre-Treatments/Lotions"
3082231031;"beauty/Featured Categories/Shaving & Hair Removal/Pre-Treatments/Oils"
3082232031;"beauty/Featured Categories/Shaving & Hair Removal/Pre-Treatments/Soaps"
3082233031;"beauty/Featured Categories/Shaving & Hair Removal/Scissors"
74107031;"beauty/Featured Categories/Shaving & Hair Removal/Scissors/Hair"
3082234031;"beauty/Featured Categories/Shaving & Hair Removal/Scissors/Moustache & Beard"
3082235031;"beauty/Featured Categories/Shaving & Hair Removal/Scissors/Nose & Ear"
3082236031;"beauty/Featured Categories/Shaving & Hair Removal/Trimmers, Clippers & Body Groomers"
3082237031;"beauty/Featured Categories/Shaving & Hair Removal/Trimmers, Clippers & Body Groomers/Body Groomers"
3082238031;"beauty/Featured Categories/Shaving & Hair Removal/Trimmers, Clippers & Body Groomers/Facial Trimmers"
3082239031;"beauty/Featured Categories/Shaving & Hair Removal/Trimmers, Clippers & Body Groomers/Hair Clippers"
3082240031;"beauty/Featured Categories/Shaving & Hair Removal/Trimmers, Clippers & Body Groomers/Sets & Kits"
3082241031;"beauty/Featured Categories/Shaving & Hair Removal/Trimmers, Clippers & Body Groomers/Trimmer & Clipper Combs"
3082242031;"beauty/Featured Categories/Shaving & Hair Removal/Trimmers, Clippers & Body Groomers/Trimmer & Clipper Oil"
3082243031;"beauty/Featured Categories/Shaving & Hair Removal/Trimmers, Clippers & Body Groomers/Women’s Trimmers"
118464031;"beauty/Featured Categories/Skin Care"
344269031;"beauty/Featured Categories/Skin Care/Body"
344274031;"beauty/Featured Categories/Skin Care/Body/Firmers & Shapers"
2805272031;"beauty/Featured Categories/Skin Care/Body/Moisturisers"
248559031;"beauty/Featured Categories/Skin Care/Body/Moisturisers/After Sun Lotions"
344270031;"beauty/Featured Categories/Skin Care/Body/Moisturisers/Butters"
344273031;"beauty/Featured Categories/Skin Care/Body/Moisturisers/Creams"
344271031;"beauty/Featured Categories/Skin Care/Body/Moisturisers/Lotions"
2805273031;"beauty/Featured Categories/Skin Care/Body/Moisturisers/Mousse"
344272031;"beauty/Featured Categories/Skin Care/Body/Moisturisers/Oils"
2805274031;"beauty/Featured Categories/Skin Care/Body/Muds"
344282031;"beauty/Featured Categories/Skin Care/Body/Scrubs"
2805367031;"beauty/Featured Categories/Skin Care/Body/Self-Tanners"
2805369031;"beauty/Featured Categories/Skin Care/Body/Sunscreens"
2805275031;"beauty/Featured Categories/Skin Care/Body/Talcum Powders"
3520915031;"beauty/Featured Categories/Skin Care/Body/Toning Devices"
118465031;"beauty/Featured Categories/Skin Care/Eyes"
2805276031;"beauty/Featured Categories/Skin Care/Eyes/Cooling Masks"
344259031;"beauty/Featured Categories/Skin Care/Eyes/Creams"
344258031;"beauty/Featured Categories/Skin Care/Eyes/Gels"
2805277031;"beauty/Featured Categories/Skin Care/Eyes/Make-up Removers"
2805278031;"beauty/Featured Categories/Skin Care/Eyes/Patches"
344257031;"beauty/Featured Categories/Skin Care/Eyes/Serums & Fluids"
118466031;"beauty/Featured Categories/Skin Care/Face"
344265031;"beauty/Featured Categories/Skin Care/Face/Cleansers & Exfoliators"
2805279031;"beauty/Featured Categories/Skin Care/Face/Cleansers & Exfoliators/Cleansing Appliances & Brushes"
2805280031;"beauty/Featured Categories/Skin Care/Face/Cleansers & Exfoliators/Cloths & Wipes"
344261031;"beauty/Featured Categories/Skin Care/Face/Cleansers & Exfoliators/Creams & Milks"
2805288031;"beauty/Featured Categories/Skin Care/Face/Cleansers & Exfoliators/Exfoliating & Cleansing Masks"
344260031;"beauty/Featured Categories/Skin Care/Face/Cleansers & Exfoliators/Gels & Foams"
118469031;"beauty/Featured Categories/Skin Care/Face/Cleansers & Exfoliators/Make-up Removers"
344262031;"beauty/Featured Categories/Skin Care/Face/Cleansers & Exfoliators/Pads"
2805283031;"beauty/Featured Categories/Skin Care/Face/Cleansers & Exfoliators/Polishes"
2805284031;"beauty/Featured Categories/Skin Care/Face/Cleansers & Exfoliators/Scrubs"
2805285031;"beauty/Featured Categories/Skin Care/Face/Cleansers & Exfoliators/Soaps"
2805286031;"beauty/Featured Categories/Skin Care/Face/Cleansers & Exfoliators/Spot Treatments"
2805287031;"beauty/Featured Categories/Skin Care/Face/Cleansers & Exfoliators/Strips"
344268031;"beauty/Featured Categories/Skin Care/Face/Masks"
2805288031;"beauty/Featured Categories/Skin Care/Face/Masks/Exfoliating & Cleansing Masks"
2805289031;"beauty/Featured Categories/Skin Care/Face/Masks/Moisturising & Rejuvenating Masks"
2805290031;"beauty/Featured Categories/Skin Care/Face/Masks/Wellness & Anti-Stress Masks"
2805291031;"beauty/Featured Categories/Skin Care/Face/Moisturisers"
3014164031;"beauty/Featured Categories/Skin Care/Face/Moisturisers/BB & CC Creams"
344263031;"beauty/Featured Categories/Skin Care/Face/Moisturisers/Day Care"
2805293031;"beauty/Featured Categories/Skin Care/Face/Moisturisers/Day Care/Creams"
2805294031;"beauty/Featured Categories/Skin Care/Face/Moisturisers/Day Care/Gels"
344266031;"beauty/Featured Categories/Skin Care/Face/Moisturisers/Day Care/Serums & Fluids"
344264031;"beauty/Featured Categories/Skin Care/Face/Moisturisers/Night Care"
2832001031;"beauty/Featured Categories/Skin Care/Face/Moisturisers/Night Care/Creams"
2832002031;"beauty/Featured Categories/Skin Care/Face/Moisturisers/Night Care/Gels"
2832003031;"beauty/Featured Categories/Skin Care/Face/Moisturisers/Night Care/Serums & Fluids"
2805292031;"beauty/Featured Categories/Skin Care/Face/Moisturisers/Sprays & Mists"
2805368031;"beauty/Featured Categories/Skin Care/Face/Self-Tanners"
2805370031;"beauty/Featured Categories/Skin Care/Face/Sunscreens"
344267031;"beauty/Featured Categories/Skin Care/Face/Toners"
3520916031;"beauty/Featured Categories/Skin Care/Face/Toning Devices"
118475031;"beauty/Featured Categories/Skin Care/Gift Sets"
2805295031;"beauty/Featured Categories/Skin Care/Hands & Feet"
2826580031;"beauty/Featured Categories/Skin Care/Hands & Feet/Corn & Callus Cushions"
2826581031;"beauty/Featured Categories/Skin Care/Hands & Feet/Corn & Callus Ointments"
2826582031;"beauty/Featured Categories/Skin Care/Hands & Feet/Crack & Fissure Treatments"
2805296031;"beauty/Featured Categories/Skin Care/Hands & Feet/Cuticle Care & Repair Creams"
2936965031;"beauty/Featured Categories/Skin Care/Hands & Feet/Cuticle Care Oils"
2805297031;"beauty/Featured Categories/Skin Care/Hands & Feet/Cuticle Removing Fluids"
2826583031;"beauty/Featured Categories/Skin Care/Hands & Feet/Foot Care Utensils"
2826584031;"beauty/Featured Categories/Skin Care/Hands & Feet/Foot Care Utensils/Cutters & Accessories"
2826585031;"beauty/Featured Categories/Skin Care/Hands & Feet/Foot Care Utensils/Pumice Stones"
2826586031;"beauty/Featured Categories/Skin Care/Hands & Feet/Foot Care Utensils/Foot Files"
2805298031;"beauty/Featured Categories/Skin Care/Hands & Feet/Foot Creams"
2826588031;"beauty/Featured Categories/Skin Care/Hands & Feet/Foot Odour Treatments & Remedies"
2805299031;"beauty/Featured Categories/Skin Care/Hands & Feet/Foot Soaks"
2805300031;"beauty/Featured Categories/Skin Care/Hands & Feet/Hand & Nail Creams"
2805301031;"beauty/Featured Categories/Skin Care/Hands & Feet/Moisturising Gloves"
2805302031;"beauty/Featured Categories/Skin Care/Hands & Feet/Moisturising Socks"
2805303031;"beauty/Featured Categories/Skin Care/Hands & Feet/Paraffin Baths"
2805304031;"beauty/Featured Categories/Skin Care/Hands & Feet/Scrubs"
118467031;"beauty/Featured Categories/Skin Care/Lips"
2805305031;"beauty/Featured Categories/Skin Care/Lips/Balms"
2805306031;"beauty/Featured Categories/Skin Care/Lips/Scrubs"
2805371031;"beauty/Featured Categories/Skin Care/Lips/Suncreens"
2805307031;"beauty/Featured Categories/Skin Care/Neck & Decollete"
74133031;"beauty/Featured Categories/Skin Care/Sun Care & Tanning"
248559031;"beauty/Featured Categories/Skin Care/Sun Care & Tanning/After Sun"
118470031;"beauty/Featured Categories/Skin Care/Sun Care & Tanning/Self-Tanners"
2805367031;"beauty/Featured Categories/Skin Care/Sun Care & Tanning/Self-Tanners/Body"
2805368031;"beauty/Featured Categories/Skin Care/Sun Care & Tanning/Self-Tanners/Face"
248558031;"beauty/Featured Categories/Skin Care/Sun Care & Tanning/Sunscreens"
2805369031;"beauty/Featured Categories/Skin Care/Sun Care & Tanning/Sunscreens/Body"
2805370031;"beauty/Featured Categories/Skin Care/Sun Care & Tanning/Sunscreens/Face"
2805371031;"beauty/Featured Categories/Skin Care/Sun Care & Tanning/Sunscreens/Lips"
2805372031;"beauty/Featured Categories/Skin Care/Sun Care & Tanning/Tan Enhancers & Accelerators"
3360502031;"beauty/Featured Categories/Skin Care/Sun Care & Tanning/Tanning Lamps"
117337031;"beauty/Power Search"
1732761031;"beauty/TEST"
