193385031;"stationery_and_office_supplies/Brands"
192414031;"stationery_and_office_supplies/Categories"
197745031;"stationery_and_office_supplies/Categories/Office Paper Products"
200999031;"stationery_and_office_supplies/Categories/Office Paper Products/Cards & Card Stock"
201000031;"stationery_and_office_supplies/Categories/Office Paper Products/Cards & Card Stock/Business Cards"
3063755031;"stationery_and_office_supplies/Categories/Office Paper Products/Cards & Card Stock/Card Stock"
217147031;"stationery_and_office_supplies/Categories/Office Paper Products/Cards & Card Stock/Greeting Cards"
332143031;"stationery_and_office_supplies/Categories/Office Paper Products/Cards & Card Stock/Greeting Cards/Acceptance & Regret"
332144031;"stationery_and_office_supplies/Categories/Office Paper Products/Cards & Card Stock/Greeting Cards/Anniversary"
332145031;"stationery_and_office_supplies/Categories/Office Paper Products/Cards & Card Stock/Greeting Cards/Baby"
332146031;"stationery_and_office_supplies/Categories/Office Paper Products/Cards & Card Stock/Greeting Cards/Birthday"
332147031;"stationery_and_office_supplies/Categories/Office Paper Products/Cards & Card Stock/Greeting Cards/Blank"
332148031;"stationery_and_office_supplies/Categories/Office Paper Products/Cards & Card Stock/Greeting Cards/Christening & Communion"
332149031;"stationery_and_office_supplies/Categories/Office Paper Products/Cards & Card Stock/Greeting Cards/Seasonal"
332150031;"stationery_and_office_supplies/Categories/Office Paper Products/Cards & Card Stock/Greeting Cards/Engagement"
332153031;"stationery_and_office_supplies/Categories/Office Paper Products/Cards & Card Stock/Greeting Cards/Get Well"
332152031;"stationery_and_office_supplies/Categories/Office Paper Products/Cards & Card Stock/Greeting Cards/Good Luck & Congratulations"
332154031;"stationery_and_office_supplies/Categories/Office Paper Products/Cards & Card Stock/Greeting Cards/Sorry & Miscellaneous"
332155031;"stationery_and_office_supplies/Categories/Office Paper Products/Cards & Card Stock/Greeting Cards/Sympathy"
332156031;"stationery_and_office_supplies/Categories/Office Paper Products/Cards & Card Stock/Greeting Cards/Thank you"
332157031;"stationery_and_office_supplies/Categories/Office Paper Products/Cards & Card Stock/Greeting Cards/Wedding"
201002031;"stationery_and_office_supplies/Categories/Office Paper Products/Cards & Card Stock/Index Cards"
201003031;"stationery_and_office_supplies/Categories/Office Paper Products/Cards & Card Stock/Postcards"
201004031;"stationery_and_office_supplies/Categories/Office Paper Products/Notebooks, Writing Pads & Diaries"
201005031;"stationery_and_office_supplies/Categories/Office Paper Products/Notebooks, Writing Pads & Diaries/Composition Notebooks"
578294;"stationery_and_office_supplies/Categories/Office Paper Products/Notebooks, Writing Pads & Diaries/Diaries"
201006031;"stationery_and_office_supplies/Categories/Office Paper Products/Notebooks, Writing Pads & Diaries/Graph & Data Pads"
201007031;"stationery_and_office_supplies/Categories/Office Paper Products/Notebooks, Writing Pads & Diaries/Laboratory Notebooks"
201008031;"stationery_and_office_supplies/Categories/Office Paper Products/Notebooks, Writing Pads & Diaries/Letter & Legal Ruled Pads"
201009031;"stationery_and_office_supplies/Categories/Office Paper Products/Notebooks, Writing Pads & Diaries/Memo Books"
201010031;"stationery_and_office_supplies/Categories/Office Paper Products/Notebooks, Writing Pads & Diaries/Message Pads"
201011031;"stationery_and_office_supplies/Categories/Office Paper Products/Notebooks, Writing Pads & Diaries/Scratch Pads"
201012031;"stationery_and_office_supplies/Categories/Office Paper Products/Notebooks, Writing Pads & Diaries/Self-Stick Notes"
201013031;"stationery_and_office_supplies/Categories/Office Paper Products/Notebooks, Writing Pads & Diaries/Steno Notebooks"
201014031;"stationery_and_office_supplies/Categories/Office Paper Products/Notebooks, Writing Pads & Diaries/Wirebound Notebooks"
201015031;"stationery_and_office_supplies/Categories/Office Paper Products/Paper"
201016031;"stationery_and_office_supplies/Categories/Office Paper Products/Paper/Art Paper Rolls"
201017031;"stationery_and_office_supplies/Categories/Office Paper Products/Paper/Art Tissue & Crepe Paper"
200998031;"stationery_and_office_supplies/Categories/Office Paper Products/Paper/Carbon & Carbonless Copy Paper"
201018031;"stationery_and_office_supplies/Categories/Office Paper Products/Paper/Chart Paper"
201019031;"stationery_and_office_supplies/Categories/Office Paper Products/Paper/Coloured Paper"
201020031;"stationery_and_office_supplies/Categories/Office Paper Products/Paper/Computer Paper"
201021031;"stationery_and_office_supplies/Categories/Office Paper Products/Paper/Construction Paper"
201022031;"stationery_and_office_supplies/Categories/Office Paper Products/Paper/Copy & Multipurpose Paper"
201023031;"stationery_and_office_supplies/Categories/Office Paper Products/Paper/Drawing Paper"
201024031;"stationery_and_office_supplies/Categories/Office Paper Products/Paper/Easel Pads"
201033031;"stationery_and_office_supplies/Categories/Office Paper Products/Paper/Gift-wrapping Paper"
13987101;"stationery_and_office_supplies/Categories/Office Paper Products/Paper/Inkjet Printer Paper"
201025031;"stationery_and_office_supplies/Categories/Office Paper Products/Paper/Kraft Paper"
201026031;"stationery_and_office_supplies/Categories/Office Paper Products/Paper/Laser Printer Paper"
201027031;"stationery_and_office_supplies/Categories/Office Paper Products/Paper/Machine Rolls"
201028031;"stationery_and_office_supplies/Categories/Office Paper Products/Paper/Origami Paper"
201029031;"stationery_and_office_supplies/Categories/Office Paper Products/Paper/Parchment Paper"
13987041;"stationery_and_office_supplies/Categories/Office Paper Products/Paper/Photo Paper"
13987211;"stationery_and_office_supplies/Categories/Office Paper Products/Paper/Photo Paper/10 x 15 cm"
13987201;"stationery_and_office_supplies/Categories/Office Paper Products/Paper/Photo Paper/A3"
13987191;"stationery_and_office_supplies/Categories/Office Paper Products/Paper/Photo Paper/A4"
13987171;"stationery_and_office_supplies/Categories/Office Paper Products/Paper/Photo Paper/Glossy"
13987181;"stationery_and_office_supplies/Categories/Office Paper Products/Paper/Photo Paper/Matt"
201030031;"stationery_and_office_supplies/Categories/Office Paper Products/Paper/Stationery"
201031031;"stationery_and_office_supplies/Categories/Office Paper Products/Paper/Transfer Paper"
201032031;"stationery_and_office_supplies/Categories/Office Paper Products/Paper/Watercolour Paper"
197750031;"stationery_and_office_supplies/Categories/Calendars, Planners & Personal Organisers"
507850;"stationery_and_office_supplies/Categories/Calendars, Planners & Personal Organisers/Address Books"
201092031;"stationery_and_office_supplies/Categories/Calendars, Planners & Personal Organisers/Appointment Book & Planner Refills"
201093031;"stationery_and_office_supplies/Categories/Calendars, Planners & Personal Organisers/Appointment Books & Planners"
201094031;"stationery_and_office_supplies/Categories/Calendars, Planners & Personal Organisers/Desktop Calendars & Supplies"
201095031;"stationery_and_office_supplies/Categories/Calendars, Planners & Personal Organisers/Personal Organisers"
201096031;"stationery_and_office_supplies/Categories/Calendars, Planners & Personal Organisers/Planner Covers, Boards & Pads"
201097031;"stationery_and_office_supplies/Categories/Calendars, Planners & Personal Organisers/Wall Calendars"
197749031;"stationery_and_office_supplies/Categories/Envelopes & Mailing Supplies"
201082031;"stationery_and_office_supplies/Categories/Envelopes & Mailing Supplies/Envelopes"
201083031;"stationery_and_office_supplies/Categories/Envelopes & Mailing Supplies/Letter Openers"
201084031;"stationery_and_office_supplies/Categories/Envelopes & Mailing Supplies/Mail Sorters"
201085031;"stationery_and_office_supplies/Categories/Envelopes & Mailing Supplies/Mailers"
201086031;"stationery_and_office_supplies/Categories/Envelopes & Mailing Supplies/Mailers/Box Mailers"
201087031;"stationery_and_office_supplies/Categories/Envelopes & Mailing Supplies/Mailers/Envelope Mailers"
201088031;"stationery_and_office_supplies/Categories/Envelopes & Mailing Supplies/Mailers/Tube Mailers"
201089031;"stationery_and_office_supplies/Categories/Envelopes & Mailing Supplies/Packing Materials"
197746031;"stationery_and_office_supplies/Categories/Office Electronics"
3011275031;"stationery_and_office_supplies/Categories/Office Electronics/3D Printers"
13017221;"stationery_and_office_supplies/Categories/Office Electronics/Barcode Scanners"
201034031;"stationery_and_office_supplies/Categories/Office Electronics/Calculators"
201035031;"stationery_and_office_supplies/Categories/Office Electronics/Calculators/Financial & Business"
201036031;"stationery_and_office_supplies/Categories/Office Electronics/Calculators/Graphing"
201037031;"stationery_and_office_supplies/Categories/Office Electronics/Calculators/Printing"
201038031;"stationery_and_office_supplies/Categories/Office Electronics/Calculators/Scientific"
201039031;"stationery_and_office_supplies/Categories/Office Electronics/Cash Registers"
265977031;"stationery_and_office_supplies/Categories/Office Electronics/Electronic Dictionaries, Thesauri & Translators"
201041031;"stationery_and_office_supplies/Categories/Office Electronics/Fax & Multifunction Devices"
201045031;"stationery_and_office_supplies/Categories/Office Electronics/Folding Machines"
428653031;"stationery_and_office_supplies/Categories/Office Electronics/Ink & Laser Printers"
430585031;"stationery_and_office_supplies/Categories/Office Electronics/Ink & Laser Printers/All-In-One Printers"
430586031;"stationery_and_office_supplies/Categories/Office Electronics/Ink & Laser Printers/Ink Printers"
430587031;"stationery_and_office_supplies/Categories/Office Electronics/Ink & Laser Printers/Laser Printers"
430588031;"stationery_and_office_supplies/Categories/Office Electronics/Ink & Laser Printers/Matrix Printers"
430589031;"stationery_and_office_supplies/Categories/Office Electronics/Ink & Laser Printers/Photo Printers"
430590031;"stationery_and_office_supplies/Categories/Office Electronics/Ink & Laser Printers/Plotters"
198173031;"stationery_and_office_supplies/Categories/Office Electronics/Ink Cartridges & Toners"
430492031;"stationery_and_office_supplies/Categories/Office Electronics/Ink Cartridges & Toners/Ink Cartridges"
430494031;"stationery_and_office_supplies/Categories/Office Electronics/Ink Cartridges & Toners/Toner Cartridges"
201042031;"stationery_and_office_supplies/Categories/Office Electronics/Label Makers"
201044031;"stationery_and_office_supplies/Categories/Office Electronics/Laminators"
201040031;"stationery_and_office_supplies/Categories/Office Electronics/Office Copiers"
262765011;"stationery_and_office_supplies/Categories/Office Electronics/Office Telephones"
201043031;"stationery_and_office_supplies/Categories/Office Electronics/Postal Scales"
10392531;"stationery_and_office_supplies/Categories/Office Electronics/Projectors"
429890031;"stationery_and_office_supplies/Categories/Office Electronics/Scanners"
487652031;"stationery_and_office_supplies/Categories/Office Electronics/Scanners/Business Card Scanners"
487653031;"stationery_and_office_supplies/Categories/Office Electronics/Scanners/Document Scanners"
430591031;"stationery_and_office_supplies/Categories/Office Electronics/Scanners/Film Scanners"
430592031;"stationery_and_office_supplies/Categories/Office Electronics/Scanners/Flatbed Scanners"
262763011;"stationery_and_office_supplies/Categories/Office Electronics/Shredders"
560902;"stationery_and_office_supplies/Categories/Office Electronics/Voice Recorders & Accessories"
197743031;"stationery_and_office_supplies/Categories/Office Supplies"
200824031;"stationery_and_office_supplies/Categories/Office Supplies/Binders & Binder Accessories"
200825031;"stationery_and_office_supplies/Categories/Office Supplies/Binders & Binder Accessories/Binder Dividers"
200826031;"stationery_and_office_supplies/Categories/Office Supplies/Binders & Binder Accessories/Binder Pockets"
200827031;"stationery_and_office_supplies/Categories/Office Supplies/Binders & Binder Accessories/Binders"
200828031;"stationery_and_office_supplies/Categories/Office Supplies/Binders & Binder Accessories/Binders/Data Binders"
200829031;"stationery_and_office_supplies/Categories/Office Supplies/Binders & Binder Accessories/Binders/Post Binders"
200830031;"stationery_and_office_supplies/Categories/Office Supplies/Binders & Binder Accessories/Binders/Presentation Books"
200831031;"stationery_and_office_supplies/Categories/Office Supplies/Binders & Binder Accessories/Binders/Ring Binders"
200832031;"stationery_and_office_supplies/Categories/Office Supplies/Binders & Binder Accessories/Binding Covers & Paper"
200833031;"stationery_and_office_supplies/Categories/Office Supplies/Binders & Binder Accessories/Sheet & Hole Reinforcements"
200834031;"stationery_and_office_supplies/Categories/Office Supplies/Binders & Binder Accessories/Sheet Protectors"
200835031;"stationery_and_office_supplies/Categories/Office Supplies/Binding Machines & Accessories"
200836031;"stationery_and_office_supplies/Categories/Office Supplies/Binding Machines & Accessories/Binding Machine Coils & Springs"
200837031;"stationery_and_office_supplies/Categories/Office Supplies/Binding Machines & Accessories/Binding Machine Combs"
200838031;"stationery_and_office_supplies/Categories/Office Supplies/Binding Machines & Accessories/Binding Machines"
200839031;"stationery_and_office_supplies/Categories/Office Supplies/Desk Accessories & Storage Products"
200840031;"stationery_and_office_supplies/Categories/Office Supplies/Desk Accessories & Storage Products/Book Racks"
200841031;"stationery_and_office_supplies/Categories/Office Supplies/Desk Accessories & Storage Products/Bookends"
200842031;"stationery_and_office_supplies/Categories/Office Supplies/Desk Accessories & Storage Products/Card Files"
200843031;"stationery_and_office_supplies/Categories/Office Supplies/Desk Accessories & Storage Products/Catalogue & Reference Racks"
200844031;"stationery_and_office_supplies/Categories/Office Supplies/Desk Accessories & Storage Products/Copyholders"
200845031;"stationery_and_office_supplies/Categories/Office Supplies/Desk Accessories & Storage Products/Desk Pads & Blotters"
200846031;"stationery_and_office_supplies/Categories/Office Supplies/Desk Accessories & Storage Products/Desk Supplies Organisers & Dispensers"
200847031;"stationery_and_office_supplies/Categories/Office Supplies/Desk Accessories & Storage Products/Desk Supplies Organisers & Dispensers/Desk Supplies Organisers"
200848031;"stationery_and_office_supplies/Categories/Office Supplies/Desk Accessories & Storage Products/Desk Supplies Organisers & Dispensers/Desktop Notepad Holders"
200849031;"stationery_and_office_supplies/Categories/Office Supplies/Desk Accessories & Storage Products/Desk Supplies Organisers & Dispensers/Paper Clip Holders"
200850031;"stationery_and_office_supplies/Categories/Office Supplies/Desk Accessories & Storage Products/Desk Supplies Organisers & Dispensers/Pencil Holders"
200851031;"stationery_and_office_supplies/Categories/Office Supplies/Desk Accessories & Storage Products/Drawer Organisers"
200852031;"stationery_and_office_supplies/Categories/Office Supplies/Desk Accessories & Storage Products/Finger Pads & Moisteners"
200853031;"stationery_and_office_supplies/Categories/Office Supplies/Desk Accessories & Storage Products/Hanging Wall Files"
200854031;"stationery_and_office_supplies/Categories/Office Supplies/Desk Accessories & Storage Products/Hooks & Hangers"
200856031;"stationery_and_office_supplies/Categories/Office Supplies/Desk Accessories & Storage Products/Letter Trays & Stacking Supports"
200857031;"stationery_and_office_supplies/Categories/Office Supplies/Desk Accessories & Storage Products/Memo Holders"
430476031;"stationery_and_office_supplies/Categories/Office Supplies/Desk Accessories & Storage Products/Mouse Pads"
200858031;"stationery_and_office_supplies/Categories/Office Supplies/Desk Accessories & Storage Products/Notepad Carrying Cases"
200859031;"stationery_and_office_supplies/Categories/Office Supplies/Desk Accessories & Storage Products/Reading Magnifiers"
200860031;"stationery_and_office_supplies/Categories/Office Supplies/Desk Accessories & Storage Products/Storage Bins"
200861031;"stationery_and_office_supplies/Categories/Office Supplies/Desk Accessories & Storage Products/Storage Boxes"
200862031;"stationery_and_office_supplies/Categories/Office Supplies/Desk Accessories & Storage Products/Travel Portfolios"
200863031;"stationery_and_office_supplies/Categories/Office Supplies/Desk Accessories & Storage Products/Wire & Cable Organisers"
430477031;"stationery_and_office_supplies/Categories/Office Supplies/Desk Accessories & Storage Products/Wrist Rests"
200864031;"stationery_and_office_supplies/Categories/Office Supplies/Filing Products"
200865031;"stationery_and_office_supplies/Categories/Office Supplies/Filing Products/File & Folder Accessories"
200866031;"stationery_and_office_supplies/Categories/Office Supplies/Filing Products/File & Folder Accessories/File Folder Frames"
200867031;"stationery_and_office_supplies/Categories/Office Supplies/Filing Products/File & Folder Accessories/File Folder Inserts"
200868031;"stationery_and_office_supplies/Categories/Office Supplies/Filing Products/File & Folder Accessories/File Guides"
200869031;"stationery_and_office_supplies/Categories/Office Supplies/Filing Products/File & Folder Accessories/File Jackets & File Pockets"
200870031;"stationery_and_office_supplies/Categories/Office Supplies/Filing Products/File & Folder Accessories/Hanging Folder Bars & Frames"
200871031;"stationery_and_office_supplies/Categories/Office Supplies/Filing Products/File Sorters"
200872031;"stationery_and_office_supplies/Categories/Office Supplies/Filing Products/Folders"
200873031;"stationery_and_office_supplies/Categories/Office Supplies/Filing Products/Folders/File Folders"
200874031;"stationery_and_office_supplies/Categories/Office Supplies/Filing Products/Folders/Hanging Folders & Interior Folders"
200875031;"stationery_and_office_supplies/Categories/Office Supplies/Filing Products/Folders/Project Folders"
200876031;"stationery_and_office_supplies/Categories/Office Supplies/Filing Products/Folders/Expanding Files"
200877031;"stationery_and_office_supplies/Categories/Office Supplies/Filing Products/Folders/Expanding Wallets"
200878031;"stationery_and_office_supplies/Categories/Office Supplies/Filing Products/Folders/Magazine Files"
200879031;"stationery_and_office_supplies/Categories/Office Supplies/Filing Products/Index & Business Card Files"
200880031;"stationery_and_office_supplies/Categories/Office Supplies/Filing Products/Index & Business Card Guides"
200882031;"stationery_and_office_supplies/Categories/Office Supplies/Filing Products/Clipboards & Forms Holders"
213644031;"stationery_and_office_supplies/Categories/Office Supplies/Filing Products/Lever Arch Files"
200881031;"stationery_and_office_supplies/Categories/Office Supplies/Forms & Recordkeeping"
200884031;"stationery_and_office_supplies/Categories/Office Supplies/Forms & Recordkeeping/Account Books & Journals"
200885031;"stationery_and_office_supplies/Categories/Office Supplies/Forms & Recordkeeping/Award & Certificate Supplies"
200886031;"stationery_and_office_supplies/Categories/Office Supplies/Forms & Recordkeeping/Columnar Books & Pads"
200887031;"stationery_and_office_supplies/Categories/Office Supplies/Forms & Recordkeeping/Human Resources Forms"
200888031;"stationery_and_office_supplies/Categories/Office Supplies/Forms & Recordkeeping/Ledger Sheets"
200889031;"stationery_and_office_supplies/Categories/Office Supplies/Forms & Recordkeeping/Money & Rent Receipts"
200890031;"stationery_and_office_supplies/Categories/Office Supplies/Forms & Recordkeeping/Requisitions & Purchase Orders"
200891031;"stationery_and_office_supplies/Categories/Office Supplies/Forms & Recordkeeping/Sales & Invoice Forms"
200892031;"stationery_and_office_supplies/Categories/Office Supplies/Identification Badges & Supplies"
200893031;"stationery_and_office_supplies/Categories/Office Supplies/Identification Badges & Supplies/Badge Holders"
200894031;"stationery_and_office_supplies/Categories/Office Supplies/Identification Badges & Supplies/Badge Inserts"
200895031;"stationery_and_office_supplies/Categories/Office Supplies/Identification Badges & Supplies/Identification Badges"
200896031;"stationery_and_office_supplies/Categories/Office Supplies/Labels, Index Dividers & Stamps"
200897031;"stationery_and_office_supplies/Categories/Office Supplies/Labels, Index Dividers & Stamps/Bookmarks"
200898031;"stationery_and_office_supplies/Categories/Office Supplies/Labels, Index Dividers & Stamps/Index Dividers"
200899031;"stationery_and_office_supplies/Categories/Office Supplies/Labels, Index Dividers & Stamps/Index Tabs & Tab Inserts"
200900031;"stationery_and_office_supplies/Categories/Office Supplies/Labels, Index Dividers & Stamps/Labels & Stickers"
200901031;"stationery_and_office_supplies/Categories/Office Supplies/Labels, Index Dividers & Stamps/Labels & Stickers/Address Labels"
200902031;"stationery_and_office_supplies/Categories/Office Supplies/Labels, Index Dividers & Stamps/Labels & Stickers/All-Purpose Labels"
200903031;"stationery_and_office_supplies/Categories/Office Supplies/Labels, Index Dividers & Stamps/Labels & Stickers/Color-coding Labels"
200904031;"stationery_and_office_supplies/Categories/Office Supplies/Labels, Index Dividers & Stamps/Labels & Stickers/File Folder Labels"
200905031;"stationery_and_office_supplies/Categories/Office Supplies/Labels, Index Dividers & Stamps/Labels & Stickers/Label Holders"
200906031;"stationery_and_office_supplies/Categories/Office Supplies/Labels, Index Dividers & Stamps/Labels & Stickers/Media Labels"
200907031;"stationery_and_office_supplies/Categories/Office Supplies/Labels, Index Dividers & Stamps/Labels & Stickers/Pricemarker Labels"
200908031;"stationery_and_office_supplies/Categories/Office Supplies/Labels, Index Dividers & Stamps/Labels & Stickers/Printer Labels: Laser & Inkjet"
200909031;"stationery_and_office_supplies/Categories/Office Supplies/Labels, Index Dividers & Stamps/Labels & Stickers/Removable Labels"
200910031;"stationery_and_office_supplies/Categories/Office Supplies/Labels, Index Dividers & Stamps/Labels & Stickers/Seals & Stickers"
200911031;"stationery_and_office_supplies/Categories/Office Supplies/Labels, Index Dividers & Stamps/Labels & Stickers/Shipping Labels"
200912031;"stationery_and_office_supplies/Categories/Office Supplies/Labels, Index Dividers & Stamps/Labels & Stickers/Label Tapes"
200913031;"stationery_and_office_supplies/Categories/Office Supplies/Labels, Index Dividers & Stamps/Sign & Poster Kits"
200914031;"stationery_and_office_supplies/Categories/Office Supplies/Labels, Index Dividers & Stamps/Stamps & Stamp Supplies"
200915031;"stationery_and_office_supplies/Categories/Office Supplies/Labels, Index Dividers & Stamps/Stamps & Stamp Supplies/Stamp Pads & Refills"
200916031;"stationery_and_office_supplies/Categories/Office Supplies/Labels, Index Dividers & Stamps/Stamps & Stamp Supplies/Stamps & Stamp Pads"
200917031;"stationery_and_office_supplies/Categories/Office Supplies/Labels, Index Dividers & Stamps/Tags & Tickets"
200918031;"stationery_and_office_supplies/Categories/Office Supplies/Labels, Index Dividers & Stamps/Tape Flag Dispensers"
200919031;"stationery_and_office_supplies/Categories/Office Supplies/Labels, Index Dividers & Stamps/Tape Flags"
511954031;"stationery_and_office_supplies/Categories/Office Supplies/Laminating Pouches"
200920031;"stationery_and_office_supplies/Categories/Office Supplies/Money Handling Products"
200921031;"stationery_and_office_supplies/Categories/Office Supplies/Money Handling Products/Cash & Check Boxes"
200922031;"stationery_and_office_supplies/Categories/Office Supplies/Money Handling Products/Cash Bags"
200923031;"stationery_and_office_supplies/Categories/Office Supplies/Money Handling Products/Coin Roll Wrappers"
200924031;"stationery_and_office_supplies/Categories/Office Supplies/Office Equipment Cleaners"
200925031;"stationery_and_office_supplies/Categories/Office Supplies/Office Equipment Cleaners/Computer Vacuums"
200926031;"stationery_and_office_supplies/Categories/Office Supplies/Office Equipment Cleaners/Electronics Cleaning Wipes & Swabs"
200927031;"stationery_and_office_supplies/Categories/Office Supplies/Office Equipment Cleaners/Electronics Compressed Air Dusters"
200930031;"stationery_and_office_supplies/Categories/Office Supplies/Paper Trimmers"
3084942031;"stationery_and_office_supplies/Categories/Office Supplies/Paper Trimmers/Stack & Guillotine Trimmers"
3084943031;"stationery_and_office_supplies/Categories/Office Supplies/Paper Trimmers/Trimmer Blades"
200932031;"stationery_and_office_supplies/Categories/Office Supplies/Presentation Supplies"
200933031;"stationery_and_office_supplies/Categories/Office Supplies/Presentation Supplies/Bulletin Boards"
200934031;"stationery_and_office_supplies/Categories/Office Supplies/Presentation Supplies/Chalkboards"
200935031;"stationery_and_office_supplies/Categories/Office Supplies/Presentation Supplies/Combination Boards"
200936031;"stationery_and_office_supplies/Categories/Office Supplies/Presentation Supplies/Dry Erase Boards"
200937031;"stationery_and_office_supplies/Categories/Office Supplies/Presentation Supplies/Foam Boards"
200938031;"stationery_and_office_supplies/Categories/Office Supplies/Presentation Supplies/Message Boards & Signs"
200939031;"stationery_and_office_supplies/Categories/Office Supplies/Presentation Supplies/Overhead Projectors & Transparencies"
200940031;"stationery_and_office_supplies/Categories/Office Supplies/Presentation Supplies/Flipcharts"
200941031;"stationery_and_office_supplies/Categories/Office Supplies/Rulers & Measuring Tape"
200942031;"stationery_and_office_supplies/Categories/Office Supplies/Staplers & Punches"
200943031;"stationery_and_office_supplies/Categories/Office Supplies/Staplers & Punches/Electric & Battery Operated Staplers"
200944031;"stationery_and_office_supplies/Categories/Office Supplies/Staplers & Punches/Manual Staplers"
200946031;"stationery_and_office_supplies/Categories/Office Supplies/Staplers & Punches/Staple Removers"
200947031;"stationery_and_office_supplies/Categories/Office Supplies/Staplers & Punches/Staples"
200945031;"stationery_and_office_supplies/Categories/Office Supplies/Staplers & Punches/Punches"
200948031;"stationery_and_office_supplies/Categories/Office Supplies/Tape, Adhesives & Fasteners"
200949031;"stationery_and_office_supplies/Categories/Office Supplies/Tape, Adhesives & Fasteners/Adhesives & Glue"
200950031;"stationery_and_office_supplies/Categories/Office Supplies/Tape, Adhesives & Fasteners/Adhesives & Glue/Glue Sticks & Pens"
200951031;"stationery_and_office_supplies/Categories/Office Supplies/Tape, Adhesives & Fasteners/Adhesives & Glue/Liquid White Glues"
1938382031;"stationery_and_office_supplies/Categories/Office Supplies/Tape, Adhesives & Fasteners/Adhesives & Glue/Super Glue"
200952031;"stationery_and_office_supplies/Categories/Office Supplies/Tape, Adhesives & Fasteners/Clips, Clamps & Rings"
200953031;"stationery_and_office_supplies/Categories/Office Supplies/Tape, Adhesives & Fasteners/Paper Fasteners"
200954031;"stationery_and_office_supplies/Categories/Office Supplies/Tape, Adhesives & Fasteners/Pins & Tacks"
200955031;"stationery_and_office_supplies/Categories/Office Supplies/Tape, Adhesives & Fasteners/Rubber Bands"
200956031;"stationery_and_office_supplies/Categories/Office Supplies/Tape, Adhesives & Fasteners/String & Twine"
200957031;"stationery_and_office_supplies/Categories/Office Supplies/Tape, Adhesives & Fasteners/Tape Dispensers"
200958031;"stationery_and_office_supplies/Categories/Office Supplies/Tape, Adhesives & Fasteners/Tape"
200959031;"stationery_and_office_supplies/Categories/Office Supplies/Tape, Adhesives & Fasteners/Tape/Packaging Tape"
200960031;"stationery_and_office_supplies/Categories/Office Supplies/Tape, Adhesives & Fasteners/Tape/Transparent Tape"
200961031;"stationery_and_office_supplies/Categories/Office Supplies/Tape, Adhesives & Fasteners/Tape/Mounting Tape"
197748031;"stationery_and_office_supplies/Categories/Pens, Pencils & Writing Supplies"
201055031;"stationery_and_office_supplies/Categories/Pens, Pencils & Writing Supplies/Chalk"
201056031;"stationery_and_office_supplies/Categories/Pens, Pencils & Writing Supplies/Crayons"
201057031;"stationery_and_office_supplies/Categories/Pens, Pencils & Writing Supplies/Erasers & Correction Supplies"
201058031;"stationery_and_office_supplies/Categories/Pens, Pencils & Writing Supplies/Erasers & Correction Supplies/Correction Fluid"
201059031;"stationery_and_office_supplies/Categories/Pens, Pencils & Writing Supplies/Erasers & Correction Supplies/Correction Pens"
201060031;"stationery_and_office_supplies/Categories/Pens, Pencils & Writing Supplies/Erasers & Correction Supplies/Correction Tape"
201061031;"stationery_and_office_supplies/Categories/Pens, Pencils & Writing Supplies/Erasers & Correction Supplies/Erasers"
201062031;"stationery_and_office_supplies/Categories/Pens, Pencils & Writing Supplies/Markers & Highlighters"
201063031;"stationery_and_office_supplies/Categories/Pens, Pencils & Writing Supplies/Markers & Highlighters/Art Markers"
201064031;"stationery_and_office_supplies/Categories/Pens, Pencils & Writing Supplies/Markers & Highlighters/Dry Erase & Wet Erase Markers"
201065031;"stationery_and_office_supplies/Categories/Pens, Pencils & Writing Supplies/Markers & Highlighters/Permanent Markers & Marker Pens"
201066031;"stationery_and_office_supplies/Categories/Pens, Pencils & Writing Supplies/Markers & Highlighters/Transparency Markers"
213648031;"stationery_and_office_supplies/Categories/Pens, Pencils & Writing Supplies/Markers & Highlighters/Highlighters"
201068031;"stationery_and_office_supplies/Categories/Pens, Pencils & Writing Supplies/Pencils"
213646031;"stationery_and_office_supplies/Categories/Pens, Pencils & Writing Supplies/Pencils/Coloured Pencils"
201069031;"stationery_and_office_supplies/Categories/Pens, Pencils & Writing Supplies/Pencils/Mechanical Pencil Leads"
201070031;"stationery_and_office_supplies/Categories/Pens, Pencils & Writing Supplies/Pencils/Mechanical Pencils"
201071031;"stationery_and_office_supplies/Categories/Pens, Pencils & Writing Supplies/Pencils/Woodcase Pencils"
201072031;"stationery_and_office_supplies/Categories/Pens, Pencils & Writing Supplies/Pens & Refills"
201073031;"stationery_and_office_supplies/Categories/Pens, Pencils & Writing Supplies/Pens & Refills/Calligraphy Pens"
201074031;"stationery_and_office_supplies/Categories/Pens, Pencils & Writing Supplies/Pens & Refills/Fountain Pens"
201075031;"stationery_and_office_supplies/Categories/Pens, Pencils & Writing Supplies/Pens & Refills/Gel Ink Rollerball Pens"
201076031;"stationery_and_office_supplies/Categories/Pens, Pencils & Writing Supplies/Pens & Refills/Liquid Ink Rollerball Pens"
201077031;"stationery_and_office_supplies/Categories/Pens, Pencils & Writing Supplies/Pens & Refills/Pen Refills"
201078031;"stationery_and_office_supplies/Categories/Pens, Pencils & Writing Supplies/Pens & Refills/Porous-Point Pens"
201079031;"stationery_and_office_supplies/Categories/Pens, Pencils & Writing Supplies/Pens & Refills/Retractable Ballpoint Pens"
201080031;"stationery_and_office_supplies/Categories/Pens, Pencils & Writing Supplies/Pens & Refills/Stick Ballpoint Pens"
201081031;"stationery_and_office_supplies/Categories/Pens, Pencils & Writing Supplies/Technical Drawing Supplies"
197747031;"stationery_and_office_supplies/Categories/School & Educational Supplies"
201046031;"stationery_and_office_supplies/Categories/School & Educational Supplies/Class Records & Lesson Books"
201047031;"stationery_and_office_supplies/Categories/School & Educational Supplies/Classroom Decorations"
201048031;"stationery_and_office_supplies/Categories/School & Educational Supplies/Early Childhood Education Materials"
201049031;"stationery_and_office_supplies/Categories/School & Educational Supplies/Geometry Sets"
201050031;"stationery_and_office_supplies/Categories/School & Educational Supplies/Globes"
201051031;"stationery_and_office_supplies/Categories/School & Educational Supplies/Maps"
1083938;"stationery_and_office_supplies/Categories/School & Educational Supplies/Microscopes"
213645031;"stationery_and_office_supplies/Categories/School & Educational Supplies/Notebook Covers"
201052031;"stationery_and_office_supplies/Categories/School & Educational Supplies/Scales"
201053031;"stationery_and_office_supplies/Categories/School & Educational Supplies/Students Scissors"
201054031;"stationery_and_office_supplies/Categories/School & Educational Supplies/Teaching Materials"
1083940;"stationery_and_office_supplies/Categories/School & Educational Supplies/Telescopes"
197744031;"stationery_and_office_supplies/Categories/Furniture & Lighting"
200962031;"stationery_and_office_supplies/Categories/Furniture & Lighting/Cabinets, Racks & Shelves"
200963031;"stationery_and_office_supplies/Categories/Furniture & Lighting/Cabinets, Racks & Shelves/Bookcases"
675691031;"stationery_and_office_supplies/Categories/Furniture & Lighting/Cabinets, Racks & Shelves/Cupboards"
675693031;"stationery_and_office_supplies/Categories/Furniture & Lighting/Cabinets, Racks & Shelves/Drawers"
262758011;"stationery_and_office_supplies/Categories/Furniture & Lighting/Cabinets, Racks & Shelves/File Cabinets"
200967031;"stationery_and_office_supplies/Categories/Furniture & Lighting/Cabinets, Racks & Shelves/Key Cabinets"
200964031;"stationery_and_office_supplies/Categories/Furniture & Lighting/Cabinets, Racks & Shelves/Literature Organisers"
675694031;"stationery_and_office_supplies/Categories/Furniture & Lighting/Cabinets, Racks & Shelves/Pedestals"
200965031;"stationery_and_office_supplies/Categories/Furniture & Lighting/Cabinets, Racks & Shelves/Racks & Displays"
200966031;"stationery_and_office_supplies/Categories/Furniture & Lighting/Cabinets, Racks & Shelves/Shelving & Storage"
200968031;"stationery_and_office_supplies/Categories/Furniture & Lighting/Carts"
200969031;"stationery_and_office_supplies/Categories/Furniture & Lighting/Chairs & Sofas"
200970031;"stationery_and_office_supplies/Categories/Furniture & Lighting/Chairs & Sofas/Desk Chairs"
675690031;"stationery_and_office_supplies/Categories/Furniture & Lighting/Chairs & Sofas/Reception Chairs"
200971031;"stationery_and_office_supplies/Categories/Furniture & Lighting/Chairs & Sofas/Sofas"
200972031;"stationery_and_office_supplies/Categories/Furniture & Lighting/Chairs & Sofas/Stools"
200973031;"stationery_and_office_supplies/Categories/Furniture & Lighting/Desks & Workstations"
200974031;"stationery_and_office_supplies/Categories/Furniture & Lighting/Desks & Workstations/Computer Armoires"
262757011;"stationery_and_office_supplies/Categories/Furniture & Lighting/Desks & Workstations/Computer Workstations"
200975031;"stationery_and_office_supplies/Categories/Furniture & Lighting/Desks & Workstations/Desks"
200976031;"stationery_and_office_supplies/Categories/Furniture & Lighting/Desks & Workstations/Hutches"
200977031;"stationery_and_office_supplies/Categories/Furniture & Lighting/Furniture Accessories"
200978031;"stationery_and_office_supplies/Categories/Furniture & Lighting/Furniture Accessories/Back & Seat Cushions"
200979031;"stationery_and_office_supplies/Categories/Furniture & Lighting/Furniture Accessories/Casters"
200980031;"stationery_and_office_supplies/Categories/Furniture & Lighting/Furniture Accessories/Chair Mats"
200982031;"stationery_and_office_supplies/Categories/Furniture & Lighting/Furniture Accessories/Footrests"
200983031;"stationery_and_office_supplies/Categories/Furniture & Lighting/Furniture Accessories/Furniture Locks"
200984031;"stationery_and_office_supplies/Categories/Furniture & Lighting/Furniture Accessories/Partitions"
200985031;"stationery_and_office_supplies/Categories/Furniture & Lighting/Furniture Sets"
200986031;"stationery_and_office_supplies/Categories/Furniture & Lighting/Lecterns & Podiums"
200987031;"stationery_and_office_supplies/Categories/Furniture & Lighting/Office Lighting"
200988031;"stationery_and_office_supplies/Categories/Furniture & Lighting/Office Lighting/Desk Lamps"
10709381;"stationery_and_office_supplies/Categories/Furniture & Lighting/Office Lighting/Floor Lamps"
248560031;"stationery_and_office_supplies/Categories/Furniture & Lighting/Office Lighting/Office Ceiling Lights"
200990031;"stationery_and_office_supplies/Categories/Furniture & Lighting/Office Lighting/Task Lamps"
200991031;"stationery_and_office_supplies/Categories/Furniture & Lighting/Platforms & Stands"
200992031;"stationery_and_office_supplies/Categories/Furniture & Lighting/Platforms & Stands/Keyboard Drawers & Platforms"
200993031;"stationery_and_office_supplies/Categories/Furniture & Lighting/Platforms & Stands/Notebook Computer Stands"
200994031;"stationery_and_office_supplies/Categories/Furniture & Lighting/Platforms & Stands/Printer Desktop Stands"
296770011;"stationery_and_office_supplies/Categories/Furniture & Lighting/Platforms & Stands/Monitor Arms & Stands"
430923031;"stationery_and_office_supplies/Categories/Furniture & Lighting/Platforms & Stands/Lapdesks"
200995031;"stationery_and_office_supplies/Categories/Furniture & Lighting/Tables"
403699011;"stationery_and_office_supplies/Categories/Furniture & Lighting/Tables/Conference Room Tables"
403700011;"stationery_and_office_supplies/Categories/Furniture & Lighting/Tables/Drafting Tables"
200996031;"stationery_and_office_supplies/Categories/Furniture & Lighting/Tables/Table & Chair Sets"
200997031;"stationery_and_office_supplies/Categories/Furniture & Lighting/Tables/Utility Tables"
212770031;"stationery_and_office_supplies/Categories/Furniture & Lighting/Wastebaskets"
193386031;"stationery_and_office_supplies/Featured Categories"
197745031;"stationery_and_office_supplies/Featured Categories/Office Paper Products"
200999031;"stationery_and_office_supplies/Featured Categories/Office Paper Products/Cards & Card Stock"
201000031;"stationery_and_office_supplies/Featured Categories/Office Paper Products/Cards & Card Stock/Business Cards"
3063755031;"stationery_and_office_supplies/Featured Categories/Office Paper Products/Cards & Card Stock/Card Stock"
217147031;"stationery_and_office_supplies/Featured Categories/Office Paper Products/Cards & Card Stock/Greeting Cards"
332143031;"stationery_and_office_supplies/Featured Categories/Office Paper Products/Cards & Card Stock/Greeting Cards/Acceptance & Regret"
332144031;"stationery_and_office_supplies/Featured Categories/Office Paper Products/Cards & Card Stock/Greeting Cards/Anniversary"
332145031;"stationery_and_office_supplies/Featured Categories/Office Paper Products/Cards & Card Stock/Greeting Cards/Baby"
332146031;"stationery_and_office_supplies/Featured Categories/Office Paper Products/Cards & Card Stock/Greeting Cards/Birthday"
332147031;"stationery_and_office_supplies/Featured Categories/Office Paper Products/Cards & Card Stock/Greeting Cards/Blank"
332148031;"stationery_and_office_supplies/Featured Categories/Office Paper Products/Cards & Card Stock/Greeting Cards/Christening & Communion"
332149031;"stationery_and_office_supplies/Featured Categories/Office Paper Products/Cards & Card Stock/Greeting Cards/Seasonal"
332150031;"stationery_and_office_supplies/Featured Categories/Office Paper Products/Cards & Card Stock/Greeting Cards/Engagement"
332153031;"stationery_and_office_supplies/Featured Categories/Office Paper Products/Cards & Card Stock/Greeting Cards/Get Well"
332152031;"stationery_and_office_supplies/Featured Categories/Office Paper Products/Cards & Card Stock/Greeting Cards/Good Luck & Congratulations"
332154031;"stationery_and_office_supplies/Featured Categories/Office Paper Products/Cards & Card Stock/Greeting Cards/Sorry & Miscellaneous"
332155031;"stationery_and_office_supplies/Featured Categories/Office Paper Products/Cards & Card Stock/Greeting Cards/Sympathy"
332156031;"stationery_and_office_supplies/Featured Categories/Office Paper Products/Cards & Card Stock/Greeting Cards/Thank you"
332157031;"stationery_and_office_supplies/Featured Categories/Office Paper Products/Cards & Card Stock/Greeting Cards/Wedding"
201002031;"stationery_and_office_supplies/Featured Categories/Office Paper Products/Cards & Card Stock/Index Cards"
201003031;"stationery_and_office_supplies/Featured Categories/Office Paper Products/Cards & Card Stock/Postcards"
201004031;"stationery_and_office_supplies/Featured Categories/Office Paper Products/Notebooks, Writing Pads & Diaries"
201005031;"stationery_and_office_supplies/Featured Categories/Office Paper Products/Notebooks, Writing Pads & Diaries/Composition Notebooks"
578294;"stationery_and_office_supplies/Featured Categories/Office Paper Products/Notebooks, Writing Pads & Diaries/Diaries"
201006031;"stationery_and_office_supplies/Featured Categories/Office Paper Products/Notebooks, Writing Pads & Diaries/Graph & Data Pads"
201007031;"stationery_and_office_supplies/Featured Categories/Office Paper Products/Notebooks, Writing Pads & Diaries/Laboratory Notebooks"
201008031;"stationery_and_office_supplies/Featured Categories/Office Paper Products/Notebooks, Writing Pads & Diaries/Letter & Legal Ruled Pads"
201009031;"stationery_and_office_supplies/Featured Categories/Office Paper Products/Notebooks, Writing Pads & Diaries/Memo Books"
201010031;"stationery_and_office_supplies/Featured Categories/Office Paper Products/Notebooks, Writing Pads & Diaries/Message Pads"
201011031;"stationery_and_office_supplies/Featured Categories/Office Paper Products/Notebooks, Writing Pads & Diaries/Scratch Pads"
201012031;"stationery_and_office_supplies/Featured Categories/Office Paper Products/Notebooks, Writing Pads & Diaries/Self-Stick Notes"
201013031;"stationery_and_office_supplies/Featured Categories/Office Paper Products/Notebooks, Writing Pads & Diaries/Steno Notebooks"
201014031;"stationery_and_office_supplies/Featured Categories/Office Paper Products/Notebooks, Writing Pads & Diaries/Wirebound Notebooks"
201015031;"stationery_and_office_supplies/Featured Categories/Office Paper Products/Paper"
201016031;"stationery_and_office_supplies/Featured Categories/Office Paper Products/Paper/Art Paper Rolls"
201017031;"stationery_and_office_supplies/Featured Categories/Office Paper Products/Paper/Art Tissue & Crepe Paper"
200998031;"stationery_and_office_supplies/Featured Categories/Office Paper Products/Paper/Carbon & Carbonless Copy Paper"
201018031;"stationery_and_office_supplies/Featured Categories/Office Paper Products/Paper/Chart Paper"
201019031;"stationery_and_office_supplies/Featured Categories/Office Paper Products/Paper/Coloured Paper"
201020031;"stationery_and_office_supplies/Featured Categories/Office Paper Products/Paper/Computer Paper"
201021031;"stationery_and_office_supplies/Featured Categories/Office Paper Products/Paper/Construction Paper"
201022031;"stationery_and_office_supplies/Featured Categories/Office Paper Products/Paper/Copy & Multipurpose Paper"
201023031;"stationery_and_office_supplies/Featured Categories/Office Paper Products/Paper/Drawing Paper"
201024031;"stationery_and_office_supplies/Featured Categories/Office Paper Products/Paper/Easel Pads"
201033031;"stationery_and_office_supplies/Featured Categories/Office Paper Products/Paper/Gift-wrapping Paper"
13987101;"stationery_and_office_supplies/Featured Categories/Office Paper Products/Paper/Inkjet Printer Paper"
201025031;"stationery_and_office_supplies/Featured Categories/Office Paper Products/Paper/Kraft Paper"
201026031;"stationery_and_office_supplies/Featured Categories/Office Paper Products/Paper/Laser Printer Paper"
201027031;"stationery_and_office_supplies/Featured Categories/Office Paper Products/Paper/Machine Rolls"
201028031;"stationery_and_office_supplies/Featured Categories/Office Paper Products/Paper/Origami Paper"
201029031;"stationery_and_office_supplies/Featured Categories/Office Paper Products/Paper/Parchment Paper"
13987041;"stationery_and_office_supplies/Featured Categories/Office Paper Products/Paper/Photo Paper"
13987211;"stationery_and_office_supplies/Featured Categories/Office Paper Products/Paper/Photo Paper/10 x 15 cm"
13987201;"stationery_and_office_supplies/Featured Categories/Office Paper Products/Paper/Photo Paper/A3"
13987191;"stationery_and_office_supplies/Featured Categories/Office Paper Products/Paper/Photo Paper/A4"
13987171;"stationery_and_office_supplies/Featured Categories/Office Paper Products/Paper/Photo Paper/Glossy"
13987181;"stationery_and_office_supplies/Featured Categories/Office Paper Products/Paper/Photo Paper/Matt"
201030031;"stationery_and_office_supplies/Featured Categories/Office Paper Products/Paper/Stationery"
201031031;"stationery_and_office_supplies/Featured Categories/Office Paper Products/Paper/Transfer Paper"
201032031;"stationery_and_office_supplies/Featured Categories/Office Paper Products/Paper/Watercolour Paper"
197750031;"stationery_and_office_supplies/Featured Categories/Calenders, Planners & Personal Organizers"
507850;"stationery_and_office_supplies/Featured Categories/Calenders, Planners & Personal Organizers/Address Books"
201092031;"stationery_and_office_supplies/Featured Categories/Calenders, Planners & Personal Organizers/Appointment Book & Planner Refills"
201093031;"stationery_and_office_supplies/Featured Categories/Calenders, Planners & Personal Organizers/Appointment Books & Planners"
201094031;"stationery_and_office_supplies/Featured Categories/Calenders, Planners & Personal Organizers/Desktop Calendars & Supplies"
201095031;"stationery_and_office_supplies/Featured Categories/Calenders, Planners & Personal Organizers/Personal Organisers"
201096031;"stationery_and_office_supplies/Featured Categories/Calenders, Planners & Personal Organizers/Planner Covers, Boards & Pads"
201097031;"stationery_and_office_supplies/Featured Categories/Calenders, Planners & Personal Organizers/Wall Calendars"
197749031;"stationery_and_office_supplies/Featured Categories/Envelopes & Mailing Supplies"
201082031;"stationery_and_office_supplies/Featured Categories/Envelopes & Mailing Supplies/Envelopes"
201083031;"stationery_and_office_supplies/Featured Categories/Envelopes & Mailing Supplies/Letter Openers"
201084031;"stationery_and_office_supplies/Featured Categories/Envelopes & Mailing Supplies/Mail Sorters"
201085031;"stationery_and_office_supplies/Featured Categories/Envelopes & Mailing Supplies/Mailers"
201086031;"stationery_and_office_supplies/Featured Categories/Envelopes & Mailing Supplies/Mailers/Box Mailers"
201087031;"stationery_and_office_supplies/Featured Categories/Envelopes & Mailing Supplies/Mailers/Envelope Mailers"
201088031;"stationery_and_office_supplies/Featured Categories/Envelopes & Mailing Supplies/Mailers/Tube Mailers"
201089031;"stationery_and_office_supplies/Featured Categories/Envelopes & Mailing Supplies/Packing Materials"
197746031;"stationery_and_office_supplies/Featured Categories/Office Electronics"
3011275031;"stationery_and_office_supplies/Featured Categories/Office Electronics/3D Printers"
13017221;"stationery_and_office_supplies/Featured Categories/Office Electronics/Barcode Scanners"
201034031;"stationery_and_office_supplies/Featured Categories/Office Electronics/Calculators"
201035031;"stationery_and_office_supplies/Featured Categories/Office Electronics/Calculators/Financial & Business"
201036031;"stationery_and_office_supplies/Featured Categories/Office Electronics/Calculators/Graphing"
201037031;"stationery_and_office_supplies/Featured Categories/Office Electronics/Calculators/Printing"
201038031;"stationery_and_office_supplies/Featured Categories/Office Electronics/Calculators/Scientific"
201039031;"stationery_and_office_supplies/Featured Categories/Office Electronics/Cash Registers"
265977031;"stationery_and_office_supplies/Featured Categories/Office Electronics/Electronic Dictionaries, Thesauri & Translators"
201041031;"stationery_and_office_supplies/Featured Categories/Office Electronics/Fax & Multifunction Devices"
201045031;"stationery_and_office_supplies/Featured Categories/Office Electronics/Folding Machines"
428653031;"stationery_and_office_supplies/Featured Categories/Office Electronics/Ink & Laser Printers"
430585031;"stationery_and_office_supplies/Featured Categories/Office Electronics/Ink & Laser Printers/All-In-One Printers"
430586031;"stationery_and_office_supplies/Featured Categories/Office Electronics/Ink & Laser Printers/Ink Printers"
430587031;"stationery_and_office_supplies/Featured Categories/Office Electronics/Ink & Laser Printers/Laser Printers"
430588031;"stationery_and_office_supplies/Featured Categories/Office Electronics/Ink & Laser Printers/Matrix Printers"
430589031;"stationery_and_office_supplies/Featured Categories/Office Electronics/Ink & Laser Printers/Photo Printers"
430590031;"stationery_and_office_supplies/Featured Categories/Office Electronics/Ink & Laser Printers/Plotters"
198173031;"stationery_and_office_supplies/Featured Categories/Office Electronics/Ink Cartridges & Toners"
430492031;"stationery_and_office_supplies/Featured Categories/Office Electronics/Ink Cartridges & Toners/Ink Cartridges"
430494031;"stationery_and_office_supplies/Featured Categories/Office Electronics/Ink Cartridges & Toners/Toner Cartridges"
201042031;"stationery_and_office_supplies/Featured Categories/Office Electronics/Label Makers"
201044031;"stationery_and_office_supplies/Featured Categories/Office Electronics/Laminators"
201040031;"stationery_and_office_supplies/Featured Categories/Office Electronics/Office Copiers"
262765011;"stationery_and_office_supplies/Featured Categories/Office Electronics/Office Telephones"
201043031;"stationery_and_office_supplies/Featured Categories/Office Electronics/Postal Scales"
10392531;"stationery_and_office_supplies/Featured Categories/Office Electronics/Projectors"
429890031;"stationery_and_office_supplies/Featured Categories/Office Electronics/Scanners"
487652031;"stationery_and_office_supplies/Featured Categories/Office Electronics/Scanners/Business Card Scanners"
487653031;"stationery_and_office_supplies/Featured Categories/Office Electronics/Scanners/Document Scanners"
430591031;"stationery_and_office_supplies/Featured Categories/Office Electronics/Scanners/Film Scanners"
430592031;"stationery_and_office_supplies/Featured Categories/Office Electronics/Scanners/Flatbed Scanners"
262763011;"stationery_and_office_supplies/Featured Categories/Office Electronics/Shredders"
560902;"stationery_and_office_supplies/Featured Categories/Office Electronics/Voice Recorders & Accessories"
197743031;"stationery_and_office_supplies/Featured Categories/Office Supplies"
200824031;"stationery_and_office_supplies/Featured Categories/Office Supplies/Binders & Binder Accessories"
200825031;"stationery_and_office_supplies/Featured Categories/Office Supplies/Binders & Binder Accessories/Binder Dividers"
200826031;"stationery_and_office_supplies/Featured Categories/Office Supplies/Binders & Binder Accessories/Binder Pockets"
200827031;"stationery_and_office_supplies/Featured Categories/Office Supplies/Binders & Binder Accessories/Binders"
200828031;"stationery_and_office_supplies/Featured Categories/Office Supplies/Binders & Binder Accessories/Binders/Data Binders"
200829031;"stationery_and_office_supplies/Featured Categories/Office Supplies/Binders & Binder Accessories/Binders/Post Binders"
200830031;"stationery_and_office_supplies/Featured Categories/Office Supplies/Binders & Binder Accessories/Binders/Presentation Books"
200831031;"stationery_and_office_supplies/Featured Categories/Office Supplies/Binders & Binder Accessories/Binders/Ring Binders"
200832031;"stationery_and_office_supplies/Featured Categories/Office Supplies/Binders & Binder Accessories/Binding Covers & Paper"
200833031;"stationery_and_office_supplies/Featured Categories/Office Supplies/Binders & Binder Accessories/Sheet & Hole Reinforcements"
200834031;"stationery_and_office_supplies/Featured Categories/Office Supplies/Binders & Binder Accessories/Sheet Protectors"
200835031;"stationery_and_office_supplies/Featured Categories/Office Supplies/Binding Machines & Accessories"
200836031;"stationery_and_office_supplies/Featured Categories/Office Supplies/Binding Machines & Accessories/Binding Machine Coils & Springs"
200837031;"stationery_and_office_supplies/Featured Categories/Office Supplies/Binding Machines & Accessories/Binding Machine Combs"
200838031;"stationery_and_office_supplies/Featured Categories/Office Supplies/Binding Machines & Accessories/Binding Machines"
200839031;"stationery_and_office_supplies/Featured Categories/Office Supplies/Desk Accessories & Storage Products"
200840031;"stationery_and_office_supplies/Featured Categories/Office Supplies/Desk Accessories & Storage Products/Book Racks"
200841031;"stationery_and_office_supplies/Featured Categories/Office Supplies/Desk Accessories & Storage Products/Bookends"
200842031;"stationery_and_office_supplies/Featured Categories/Office Supplies/Desk Accessories & Storage Products/Card Files"
200843031;"stationery_and_office_supplies/Featured Categories/Office Supplies/Desk Accessories & Storage Products/Catalogue & Reference Racks"
200844031;"stationery_and_office_supplies/Featured Categories/Office Supplies/Desk Accessories & Storage Products/Copyholders"
200845031;"stationery_and_office_supplies/Featured Categories/Office Supplies/Desk Accessories & Storage Products/Desk Pads & Blotters"
200846031;"stationery_and_office_supplies/Featured Categories/Office Supplies/Desk Accessories & Storage Products/Desk Supplies Organisers & Dispensers"
200847031;"stationery_and_office_supplies/Featured Categories/Office Supplies/Desk Accessories & Storage Products/Desk Supplies Organisers & Dispensers/Desk Supplies Organisers"
200848031;"stationery_and_office_supplies/Featured Categories/Office Supplies/Desk Accessories & Storage Products/Desk Supplies Organisers & Dispensers/Desktop Notepad Holders"
200849031;"stationery_and_office_supplies/Featured Categories/Office Supplies/Desk Accessories & Storage Products/Desk Supplies Organisers & Dispensers/Paper Clip Holders"
200850031;"stationery_and_office_supplies/Featured Categories/Office Supplies/Desk Accessories & Storage Products/Desk Supplies Organisers & Dispensers/Pencil Holders"
200851031;"stationery_and_office_supplies/Featured Categories/Office Supplies/Desk Accessories & Storage Products/Drawer Organisers"
200852031;"stationery_and_office_supplies/Featured Categories/Office Supplies/Desk Accessories & Storage Products/Finger Pads & Moisteners"
200853031;"stationery_and_office_supplies/Featured Categories/Office Supplies/Desk Accessories & Storage Products/Hanging Wall Files"
200854031;"stationery_and_office_supplies/Featured Categories/Office Supplies/Desk Accessories & Storage Products/Hooks & Hangers"
200856031;"stationery_and_office_supplies/Featured Categories/Office Supplies/Desk Accessories & Storage Products/Letter Trays & Stacking Supports"
200857031;"stationery_and_office_supplies/Featured Categories/Office Supplies/Desk Accessories & Storage Products/Memo Holders"
430476031;"stationery_and_office_supplies/Featured Categories/Office Supplies/Desk Accessories & Storage Products/Mouse Pads"
200858031;"stationery_and_office_supplies/Featured Categories/Office Supplies/Desk Accessories & Storage Products/Notepad Carrying Cases"
200859031;"stationery_and_office_supplies/Featured Categories/Office Supplies/Desk Accessories & Storage Products/Reading Magnifiers"
200860031;"stationery_and_office_supplies/Featured Categories/Office Supplies/Desk Accessories & Storage Products/Storage Bins"
200861031;"stationery_and_office_supplies/Featured Categories/Office Supplies/Desk Accessories & Storage Products/Storage Boxes"
200862031;"stationery_and_office_supplies/Featured Categories/Office Supplies/Desk Accessories & Storage Products/Travel Portfolios"
200863031;"stationery_and_office_supplies/Featured Categories/Office Supplies/Desk Accessories & Storage Products/Wire & Cable Organisers"
430477031;"stationery_and_office_supplies/Featured Categories/Office Supplies/Desk Accessories & Storage Products/Wrist Rests"
200864031;"stationery_and_office_supplies/Featured Categories/Office Supplies/Filing Products"
200865031;"stationery_and_office_supplies/Featured Categories/Office Supplies/Filing Products/File & Folder Accessories"
200866031;"stationery_and_office_supplies/Featured Categories/Office Supplies/Filing Products/File & Folder Accessories/File Folder Frames"
200867031;"stationery_and_office_supplies/Featured Categories/Office Supplies/Filing Products/File & Folder Accessories/File Folder Inserts"
200868031;"stationery_and_office_supplies/Featured Categories/Office Supplies/Filing Products/File & Folder Accessories/File Guides"
200869031;"stationery_and_office_supplies/Featured Categories/Office Supplies/Filing Products/File & Folder Accessories/File Jackets & File Pockets"
200870031;"stationery_and_office_supplies/Featured Categories/Office Supplies/Filing Products/File & Folder Accessories/Hanging Folder Bars & Frames"
200871031;"stationery_and_office_supplies/Featured Categories/Office Supplies/Filing Products/File Sorters"
200872031;"stationery_and_office_supplies/Featured Categories/Office Supplies/Filing Products/Folders"
200873031;"stationery_and_office_supplies/Featured Categories/Office Supplies/Filing Products/Folders/File Folders"
200874031;"stationery_and_office_supplies/Featured Categories/Office Supplies/Filing Products/Folders/Hanging Folders & Interior Folders"
200875031;"stationery_and_office_supplies/Featured Categories/Office Supplies/Filing Products/Folders/Project Folders"
200876031;"stationery_and_office_supplies/Featured Categories/Office Supplies/Filing Products/Folders/Expanding Files"
200877031;"stationery_and_office_supplies/Featured Categories/Office Supplies/Filing Products/Folders/Expanding Wallets"
200878031;"stationery_and_office_supplies/Featured Categories/Office Supplies/Filing Products/Folders/Magazine Files"
200879031;"stationery_and_office_supplies/Featured Categories/Office Supplies/Filing Products/Index & Business Card Files"
200880031;"stationery_and_office_supplies/Featured Categories/Office Supplies/Filing Products/Index & Business Card Guides"
200882031;"stationery_and_office_supplies/Featured Categories/Office Supplies/Filing Products/Clipboards & Forms Holders"
213644031;"stationery_and_office_supplies/Featured Categories/Office Supplies/Filing Products/Lever Arch Files"
200881031;"stationery_and_office_supplies/Featured Categories/Office Supplies/Forms & Recordkeeping"
200884031;"stationery_and_office_supplies/Featured Categories/Office Supplies/Forms & Recordkeeping/Account Books & Journals"
200885031;"stationery_and_office_supplies/Featured Categories/Office Supplies/Forms & Recordkeeping/Award & Certificate Supplies"
200886031;"stationery_and_office_supplies/Featured Categories/Office Supplies/Forms & Recordkeeping/Columnar Books & Pads"
200887031;"stationery_and_office_supplies/Featured Categories/Office Supplies/Forms & Recordkeeping/Human Resources Forms"
200888031;"stationery_and_office_supplies/Featured Categories/Office Supplies/Forms & Recordkeeping/Ledger Sheets"
200889031;"stationery_and_office_supplies/Featured Categories/Office Supplies/Forms & Recordkeeping/Money & Rent Receipts"
200890031;"stationery_and_office_supplies/Featured Categories/Office Supplies/Forms & Recordkeeping/Requisitions & Purchase Orders"
200891031;"stationery_and_office_supplies/Featured Categories/Office Supplies/Forms & Recordkeeping/Sales & Invoice Forms"
200892031;"stationery_and_office_supplies/Featured Categories/Office Supplies/Identification Badges & Supplies"
200893031;"stationery_and_office_supplies/Featured Categories/Office Supplies/Identification Badges & Supplies/Badge Holders"
200894031;"stationery_and_office_supplies/Featured Categories/Office Supplies/Identification Badges & Supplies/Badge Inserts"
200895031;"stationery_and_office_supplies/Featured Categories/Office Supplies/Identification Badges & Supplies/Identification Badges"
200896031;"stationery_and_office_supplies/Featured Categories/Office Supplies/Labels, Index Dividers & Stamps"
200897031;"stationery_and_office_supplies/Featured Categories/Office Supplies/Labels, Index Dividers & Stamps/Bookmarks"
200898031;"stationery_and_office_supplies/Featured Categories/Office Supplies/Labels, Index Dividers & Stamps/Index Dividers"
200899031;"stationery_and_office_supplies/Featured Categories/Office Supplies/Labels, Index Dividers & Stamps/Index Tabs & Tab Inserts"
200900031;"stationery_and_office_supplies/Featured Categories/Office Supplies/Labels, Index Dividers & Stamps/Labels & Stickers"
200901031;"stationery_and_office_supplies/Featured Categories/Office Supplies/Labels, Index Dividers & Stamps/Labels & Stickers/Address Labels"
200902031;"stationery_and_office_supplies/Featured Categories/Office Supplies/Labels, Index Dividers & Stamps/Labels & Stickers/All-Purpose Labels"
200903031;"stationery_and_office_supplies/Featured Categories/Office Supplies/Labels, Index Dividers & Stamps/Labels & Stickers/Color-coding Labels"
200904031;"stationery_and_office_supplies/Featured Categories/Office Supplies/Labels, Index Dividers & Stamps/Labels & Stickers/File Folder Labels"
200905031;"stationery_and_office_supplies/Featured Categories/Office Supplies/Labels, Index Dividers & Stamps/Labels & Stickers/Label Holders"
200906031;"stationery_and_office_supplies/Featured Categories/Office Supplies/Labels, Index Dividers & Stamps/Labels & Stickers/Media Labels"
200907031;"stationery_and_office_supplies/Featured Categories/Office Supplies/Labels, Index Dividers & Stamps/Labels & Stickers/Pricemarker Labels"
200908031;"stationery_and_office_supplies/Featured Categories/Office Supplies/Labels, Index Dividers & Stamps/Labels & Stickers/Printer Labels: Laser & Inkjet"
200909031;"stationery_and_office_supplies/Featured Categories/Office Supplies/Labels, Index Dividers & Stamps/Labels & Stickers/Removable Labels"
200910031;"stationery_and_office_supplies/Featured Categories/Office Supplies/Labels, Index Dividers & Stamps/Labels & Stickers/Seals & Stickers"
200911031;"stationery_and_office_supplies/Featured Categories/Office Supplies/Labels, Index Dividers & Stamps/Labels & Stickers/Shipping Labels"
200912031;"stationery_and_office_supplies/Featured Categories/Office Supplies/Labels, Index Dividers & Stamps/Labels & Stickers/Label Tapes"
200913031;"stationery_and_office_supplies/Featured Categories/Office Supplies/Labels, Index Dividers & Stamps/Sign & Poster Kits"
200914031;"stationery_and_office_supplies/Featured Categories/Office Supplies/Labels, Index Dividers & Stamps/Stamps & Stamp Supplies"
200915031;"stationery_and_office_supplies/Featured Categories/Office Supplies/Labels, Index Dividers & Stamps/Stamps & Stamp Supplies/Stamp Pads & Refills"
200916031;"stationery_and_office_supplies/Featured Categories/Office Supplies/Labels, Index Dividers & Stamps/Stamps & Stamp Supplies/Stamps & Stamp Pads"
200917031;"stationery_and_office_supplies/Featured Categories/Office Supplies/Labels, Index Dividers & Stamps/Tags & Tickets"
200918031;"stationery_and_office_supplies/Featured Categories/Office Supplies/Labels, Index Dividers & Stamps/Tape Flag Dispensers"
200919031;"stationery_and_office_supplies/Featured Categories/Office Supplies/Labels, Index Dividers & Stamps/Tape Flags"
511954031;"stationery_and_office_supplies/Featured Categories/Office Supplies/Laminating Pouches"
200920031;"stationery_and_office_supplies/Featured Categories/Office Supplies/Money Handling Products"
200921031;"stationery_and_office_supplies/Featured Categories/Office Supplies/Money Handling Products/Cash & Check Boxes"
200922031;"stationery_and_office_supplies/Featured Categories/Office Supplies/Money Handling Products/Cash Bags"
200923031;"stationery_and_office_supplies/Featured Categories/Office Supplies/Money Handling Products/Coin Roll Wrappers"
200924031;"stationery_and_office_supplies/Featured Categories/Office Supplies/Office Equipment Cleaners"
200925031;"stationery_and_office_supplies/Featured Categories/Office Supplies/Office Equipment Cleaners/Computer Vacuums"
200926031;"stationery_and_office_supplies/Featured Categories/Office Supplies/Office Equipment Cleaners/Electronics Cleaning Wipes & Swabs"
200927031;"stationery_and_office_supplies/Featured Categories/Office Supplies/Office Equipment Cleaners/Electronics Compressed Air Dusters"
200930031;"stationery_and_office_supplies/Featured Categories/Office Supplies/Paper Trimmers"
3084942031;"stationery_and_office_supplies/Featured Categories/Office Supplies/Paper Trimmers/Stack & Guillotine Trimmers"
3084943031;"stationery_and_office_supplies/Featured Categories/Office Supplies/Paper Trimmers/Trimmer Blades"
200932031;"stationery_and_office_supplies/Featured Categories/Office Supplies/Presentation Supplies"
200933031;"stationery_and_office_supplies/Featured Categories/Office Supplies/Presentation Supplies/Bulletin Boards"
200934031;"stationery_and_office_supplies/Featured Categories/Office Supplies/Presentation Supplies/Chalkboards"
200935031;"stationery_and_office_supplies/Featured Categories/Office Supplies/Presentation Supplies/Combination Boards"
200936031;"stationery_and_office_supplies/Featured Categories/Office Supplies/Presentation Supplies/Dry Erase Boards"
200937031;"stationery_and_office_supplies/Featured Categories/Office Supplies/Presentation Supplies/Foam Boards"
200938031;"stationery_and_office_supplies/Featured Categories/Office Supplies/Presentation Supplies/Message Boards & Signs"
200939031;"stationery_and_office_supplies/Featured Categories/Office Supplies/Presentation Supplies/Overhead Projectors & Transparencies"
200940031;"stationery_and_office_supplies/Featured Categories/Office Supplies/Presentation Supplies/Flipcharts"
200941031;"stationery_and_office_supplies/Featured Categories/Office Supplies/Rulers & Measuring Tape"
200942031;"stationery_and_office_supplies/Featured Categories/Office Supplies/Staplers & Punches"
200943031;"stationery_and_office_supplies/Featured Categories/Office Supplies/Staplers & Punches/Electric & Battery Operated Staplers"
200944031;"stationery_and_office_supplies/Featured Categories/Office Supplies/Staplers & Punches/Manual Staplers"
200946031;"stationery_and_office_supplies/Featured Categories/Office Supplies/Staplers & Punches/Staple Removers"
200947031;"stationery_and_office_supplies/Featured Categories/Office Supplies/Staplers & Punches/Staples"
200945031;"stationery_and_office_supplies/Featured Categories/Office Supplies/Staplers & Punches/Punches"
200948031;"stationery_and_office_supplies/Featured Categories/Office Supplies/Tape, Adhesives & Fasteners"
200949031;"stationery_and_office_supplies/Featured Categories/Office Supplies/Tape, Adhesives & Fasteners/Adhesives & Glue"
200950031;"stationery_and_office_supplies/Featured Categories/Office Supplies/Tape, Adhesives & Fasteners/Adhesives & Glue/Glue Sticks & Pens"
200951031;"stationery_and_office_supplies/Featured Categories/Office Supplies/Tape, Adhesives & Fasteners/Adhesives & Glue/Liquid White Glues"
1938382031;"stationery_and_office_supplies/Featured Categories/Office Supplies/Tape, Adhesives & Fasteners/Adhesives & Glue/Super Glue"
200952031;"stationery_and_office_supplies/Featured Categories/Office Supplies/Tape, Adhesives & Fasteners/Clips, Clamps & Rings"
200953031;"stationery_and_office_supplies/Featured Categories/Office Supplies/Tape, Adhesives & Fasteners/Paper Fasteners"
200954031;"stationery_and_office_supplies/Featured Categories/Office Supplies/Tape, Adhesives & Fasteners/Pins & Tacks"
200955031;"stationery_and_office_supplies/Featured Categories/Office Supplies/Tape, Adhesives & Fasteners/Rubber Bands"
200956031;"stationery_and_office_supplies/Featured Categories/Office Supplies/Tape, Adhesives & Fasteners/String & Twine"
200957031;"stationery_and_office_supplies/Featured Categories/Office Supplies/Tape, Adhesives & Fasteners/Tape Dispensers"
200958031;"stationery_and_office_supplies/Featured Categories/Office Supplies/Tape, Adhesives & Fasteners/Tape"
200959031;"stationery_and_office_supplies/Featured Categories/Office Supplies/Tape, Adhesives & Fasteners/Tape/Packaging Tape"
200960031;"stationery_and_office_supplies/Featured Categories/Office Supplies/Tape, Adhesives & Fasteners/Tape/Transparent Tape"
200961031;"stationery_and_office_supplies/Featured Categories/Office Supplies/Tape, Adhesives & Fasteners/Tape/Mounting Tape"
197748031;"stationery_and_office_supplies/Featured Categories/Pens, Pencils & Writing Supplies"
201055031;"stationery_and_office_supplies/Featured Categories/Pens, Pencils & Writing Supplies/Chalk"
201056031;"stationery_and_office_supplies/Featured Categories/Pens, Pencils & Writing Supplies/Crayons"
201057031;"stationery_and_office_supplies/Featured Categories/Pens, Pencils & Writing Supplies/Erasers & Correction Supplies"
201058031;"stationery_and_office_supplies/Featured Categories/Pens, Pencils & Writing Supplies/Erasers & Correction Supplies/Correction Fluid"
201059031;"stationery_and_office_supplies/Featured Categories/Pens, Pencils & Writing Supplies/Erasers & Correction Supplies/Correction Pens"
201060031;"stationery_and_office_supplies/Featured Categories/Pens, Pencils & Writing Supplies/Erasers & Correction Supplies/Correction Tape"
201061031;"stationery_and_office_supplies/Featured Categories/Pens, Pencils & Writing Supplies/Erasers & Correction Supplies/Erasers"
201062031;"stationery_and_office_supplies/Featured Categories/Pens, Pencils & Writing Supplies/Markers & Highlighters"
201063031;"stationery_and_office_supplies/Featured Categories/Pens, Pencils & Writing Supplies/Markers & Highlighters/Art Markers"
201064031;"stationery_and_office_supplies/Featured Categories/Pens, Pencils & Writing Supplies/Markers & Highlighters/Dry Erase & Wet Erase Markers"
201065031;"stationery_and_office_supplies/Featured Categories/Pens, Pencils & Writing Supplies/Markers & Highlighters/Permanent Markers & Marker Pens"
201066031;"stationery_and_office_supplies/Featured Categories/Pens, Pencils & Writing Supplies/Markers & Highlighters/Transparency Markers"
213648031;"stationery_and_office_supplies/Featured Categories/Pens, Pencils & Writing Supplies/Markers & Highlighters/Highlighters"
201068031;"stationery_and_office_supplies/Featured Categories/Pens, Pencils & Writing Supplies/Pencils"
213646031;"stationery_and_office_supplies/Featured Categories/Pens, Pencils & Writing Supplies/Pencils/Coloured Pencils"
201069031;"stationery_and_office_supplies/Featured Categories/Pens, Pencils & Writing Supplies/Pencils/Mechanical Pencil Leads"
201070031;"stationery_and_office_supplies/Featured Categories/Pens, Pencils & Writing Supplies/Pencils/Mechanical Pencils"
201071031;"stationery_and_office_supplies/Featured Categories/Pens, Pencils & Writing Supplies/Pencils/Woodcase Pencils"
201072031;"stationery_and_office_supplies/Featured Categories/Pens, Pencils & Writing Supplies/Pens & Refills"
201073031;"stationery_and_office_supplies/Featured Categories/Pens, Pencils & Writing Supplies/Pens & Refills/Calligraphy Pens"
201074031;"stationery_and_office_supplies/Featured Categories/Pens, Pencils & Writing Supplies/Pens & Refills/Fountain Pens"
201075031;"stationery_and_office_supplies/Featured Categories/Pens, Pencils & Writing Supplies/Pens & Refills/Gel Ink Rollerball Pens"
201076031;"stationery_and_office_supplies/Featured Categories/Pens, Pencils & Writing Supplies/Pens & Refills/Liquid Ink Rollerball Pens"
201077031;"stationery_and_office_supplies/Featured Categories/Pens, Pencils & Writing Supplies/Pens & Refills/Pen Refills"
201078031;"stationery_and_office_supplies/Featured Categories/Pens, Pencils & Writing Supplies/Pens & Refills/Porous-Point Pens"
201079031;"stationery_and_office_supplies/Featured Categories/Pens, Pencils & Writing Supplies/Pens & Refills/Retractable Ballpoint Pens"
201080031;"stationery_and_office_supplies/Featured Categories/Pens, Pencils & Writing Supplies/Pens & Refills/Stick Ballpoint Pens"
201081031;"stationery_and_office_supplies/Featured Categories/Pens, Pencils & Writing Supplies/Technical Drawing Supplies"
197747031;"stationery_and_office_supplies/Featured Categories/School & Educational Supplies"
201046031;"stationery_and_office_supplies/Featured Categories/School & Educational Supplies/Class Records & Lesson Books"
201047031;"stationery_and_office_supplies/Featured Categories/School & Educational Supplies/Classroom Decorations"
201048031;"stationery_and_office_supplies/Featured Categories/School & Educational Supplies/Early Childhood Education Materials"
201049031;"stationery_and_office_supplies/Featured Categories/School & Educational Supplies/Geometry Sets"
201050031;"stationery_and_office_supplies/Featured Categories/School & Educational Supplies/Globes"
201051031;"stationery_and_office_supplies/Featured Categories/School & Educational Supplies/Maps"
1083938;"stationery_and_office_supplies/Featured Categories/School & Educational Supplies/Microscopes"
213645031;"stationery_and_office_supplies/Featured Categories/School & Educational Supplies/Notebook Covers"
201052031;"stationery_and_office_supplies/Featured Categories/School & Educational Supplies/Scales"
201053031;"stationery_and_office_supplies/Featured Categories/School & Educational Supplies/Students Scissors"
201054031;"stationery_and_office_supplies/Featured Categories/School & Educational Supplies/Teaching Materials"
1083940;"stationery_and_office_supplies/Featured Categories/School & Educational Supplies/Telescopes"
197744031;"stationery_and_office_supplies/Featured Categories/Furniture & Lighting"
200962031;"stationery_and_office_supplies/Featured Categories/Furniture & Lighting/Cabinets, Racks & Shelves"
200963031;"stationery_and_office_supplies/Featured Categories/Furniture & Lighting/Cabinets, Racks & Shelves/Bookcases"
675691031;"stationery_and_office_supplies/Featured Categories/Furniture & Lighting/Cabinets, Racks & Shelves/Cupboards"
675693031;"stationery_and_office_supplies/Featured Categories/Furniture & Lighting/Cabinets, Racks & Shelves/Drawers"
262758011;"stationery_and_office_supplies/Featured Categories/Furniture & Lighting/Cabinets, Racks & Shelves/File Cabinets"
200967031;"stationery_and_office_supplies/Featured Categories/Furniture & Lighting/Cabinets, Racks & Shelves/Key Cabinets"
200964031;"stationery_and_office_supplies/Featured Categories/Furniture & Lighting/Cabinets, Racks & Shelves/Literature Organisers"
675694031;"stationery_and_office_supplies/Featured Categories/Furniture & Lighting/Cabinets, Racks & Shelves/Pedestals"
200965031;"stationery_and_office_supplies/Featured Categories/Furniture & Lighting/Cabinets, Racks & Shelves/Racks & Displays"
200966031;"stationery_and_office_supplies/Featured Categories/Furniture & Lighting/Cabinets, Racks & Shelves/Shelving & Storage"
200968031;"stationery_and_office_supplies/Featured Categories/Furniture & Lighting/Carts"
200969031;"stationery_and_office_supplies/Featured Categories/Furniture & Lighting/Chairs & Sofas"
200970031;"stationery_and_office_supplies/Featured Categories/Furniture & Lighting/Chairs & Sofas/Desk Chairs"
675690031;"stationery_and_office_supplies/Featured Categories/Furniture & Lighting/Chairs & Sofas/Reception Chairs"
200971031;"stationery_and_office_supplies/Featured Categories/Furniture & Lighting/Chairs & Sofas/Sofas"
200972031;"stationery_and_office_supplies/Featured Categories/Furniture & Lighting/Chairs & Sofas/Stools"
200973031;"stationery_and_office_supplies/Featured Categories/Furniture & Lighting/Desks & Workstations"
200974031;"stationery_and_office_supplies/Featured Categories/Furniture & Lighting/Desks & Workstations/Computer Armoires"
262757011;"stationery_and_office_supplies/Featured Categories/Furniture & Lighting/Desks & Workstations/Computer Workstations"
200975031;"stationery_and_office_supplies/Featured Categories/Furniture & Lighting/Desks & Workstations/Desks"
200976031;"stationery_and_office_supplies/Featured Categories/Furniture & Lighting/Desks & Workstations/Hutches"
200977031;"stationery_and_office_supplies/Featured Categories/Furniture & Lighting/Furniture Accessories"
200978031;"stationery_and_office_supplies/Featured Categories/Furniture & Lighting/Furniture Accessories/Back & Seat Cushions"
200979031;"stationery_and_office_supplies/Featured Categories/Furniture & Lighting/Furniture Accessories/Casters"
200980031;"stationery_and_office_supplies/Featured Categories/Furniture & Lighting/Furniture Accessories/Chair Mats"
200982031;"stationery_and_office_supplies/Featured Categories/Furniture & Lighting/Furniture Accessories/Footrests"
200983031;"stationery_and_office_supplies/Featured Categories/Furniture & Lighting/Furniture Accessories/Furniture Locks"
200984031;"stationery_and_office_supplies/Featured Categories/Furniture & Lighting/Furniture Accessories/Partitions"
200985031;"stationery_and_office_supplies/Featured Categories/Furniture & Lighting/Furniture Sets"
200986031;"stationery_and_office_supplies/Featured Categories/Furniture & Lighting/Lecterns & Podiums"
200987031;"stationery_and_office_supplies/Featured Categories/Furniture & Lighting/Office Lighting"
200988031;"stationery_and_office_supplies/Featured Categories/Furniture & Lighting/Office Lighting/Desk Lamps"
10709381;"stationery_and_office_supplies/Featured Categories/Furniture & Lighting/Office Lighting/Floor Lamps"
248560031;"stationery_and_office_supplies/Featured Categories/Furniture & Lighting/Office Lighting/Office Ceiling Lights"
200990031;"stationery_and_office_supplies/Featured Categories/Furniture & Lighting/Office Lighting/Task Lamps"
200991031;"stationery_and_office_supplies/Featured Categories/Furniture & Lighting/Platforms & Stands"
200992031;"stationery_and_office_supplies/Featured Categories/Furniture & Lighting/Platforms & Stands/Keyboard Drawers & Platforms"
200993031;"stationery_and_office_supplies/Featured Categories/Furniture & Lighting/Platforms & Stands/Notebook Computer Stands"
200994031;"stationery_and_office_supplies/Featured Categories/Furniture & Lighting/Platforms & Stands/Printer Desktop Stands"
296770011;"stationery_and_office_supplies/Featured Categories/Furniture & Lighting/Platforms & Stands/Monitor Arms & Stands"
430923031;"stationery_and_office_supplies/Featured Categories/Furniture & Lighting/Platforms & Stands/Lapdesks"
200995031;"stationery_and_office_supplies/Featured Categories/Furniture & Lighting/Tables"
403699011;"stationery_and_office_supplies/Featured Categories/Furniture & Lighting/Tables/Conference Room Tables"
403700011;"stationery_and_office_supplies/Featured Categories/Furniture & Lighting/Tables/Drafting Tables"
200996031;"stationery_and_office_supplies/Featured Categories/Furniture & Lighting/Tables/Table & Chair Sets"
200997031;"stationery_and_office_supplies/Featured Categories/Furniture & Lighting/Tables/Utility Tables"
212770031;"stationery_and_office_supplies/Featured Categories/Furniture & Lighting/Wastebaskets"
193387031;"stationery_and_office_supplies/Power Search"
192415031;"stationery_and_office_supplies/Substores"
193388031;"stationery_and_office_supplies/Substores/Custom Stores"
193389031;"stationery_and_office_supplies/Substores/Content Stores"
423142031;"stationery_and_office_supplies/Substores/Content Stores/Subscribe & Save Store: Office Supplies"
193390031;"stationery_and_office_supplies/Substores/Regular Stores"
517072031;"stationery_and_office_supplies/Substores/Regular Stores/Green Office Products"
