129369031;"beauty/Erweiterte Suche"
129370031;"beauty/Featured Categories"
64272031;"beauty/Featured Categories/Baden & Körperpflege"
3311495031;"beauty/Featured Categories/Baden & Körperpflege/Badezubehör"
3311496031;"beauty/Featured Categories/Baden & Körperpflege/Badezubehör/Badebürsten"
3311499031;"beauty/Featured Categories/Baden & Körperpflege/Badezubehör/Badeknäuel"
3273878031;"beauty/Featured Categories/Baden & Körperpflege/Badezubehör/Badewannenbretter"
3273875031;"beauty/Featured Categories/Baden & Körperpflege/Badezubehör/Badewannenkissen"
3311500031;"beauty/Featured Categories/Baden & Körperpflege/Badezubehör/Duschhauben"
3311498031;"beauty/Featured Categories/Baden & Körperpflege/Badezubehör/Luffaschwämme"
3204313031;"beauty/Featured Categories/Baden & Körperpflege/Badezubehör/Peelinghandschuhe"
3311501031;"beauty/Featured Categories/Baden & Körperpflege/Badezubehör/Schwämme"
10739831;"beauty/Featured Categories/Baden & Körperpflege/Badezubehör/Waschlappen & Waschhandschuhe"
64805031;"beauty/Featured Categories/Baden & Körperpflege/Badezusätze"
64798031;"beauty/Featured Categories/Baden & Körperpflege/Deodorants"
3311502031;"beauty/Featured Categories/Baden & Körperpflege/Duschgel & Seifen"
64806031;"beauty/Featured Categories/Baden & Körperpflege/Duschgel & Seifen/Duschgel"
591290031;"beauty/Featured Categories/Baden & Körperpflege/Duschgel & Seifen/Duschöle"
64803031;"beauty/Featured Categories/Baden & Körperpflege/Duschgel & Seifen/Seifen"
3311503031;"beauty/Featured Categories/Baden & Körperpflege/Körperpeelings & Feuchtigkeitspflege"
2987366031;"beauty/Featured Categories/Baden & Körperpflege/Körperpeelings & Feuchtigkeitspflege/Body Butter"
2795108031;"beauty/Featured Categories/Baden & Körperpflege/Körperpeelings & Feuchtigkeitspflege/Body Sprays"
2987368031;"beauty/Featured Categories/Baden & Körperpflege/Körperpeelings & Feuchtigkeitspflege/Fango"
122883031;"beauty/Featured Categories/Baden & Körperpflege/Körperpeelings & Feuchtigkeitspflege/Körpercremes"
122884031;"beauty/Featured Categories/Baden & Körperpflege/Körperpeelings & Feuchtigkeitspflege/Körperlotionen"
2987367031;"beauty/Featured Categories/Baden & Körperpflege/Körperpeelings & Feuchtigkeitspflege/Körpermousse"
122886031;"beauty/Featured Categories/Baden & Körperpflege/Körperpeelings & Feuchtigkeitspflege/Körperpeelings"
2987369031;"beauty/Featured Categories/Baden & Körperpflege/Körperpeelings & Feuchtigkeitspflege/Körperpuder"
2987364031;"beauty/Featured Categories/Baden & Körperpflege/Körperpeelings & Feuchtigkeitspflege/Körperstraffung & Modellierungsprodukte"
122885031;"beauty/Featured Categories/Baden & Körperpflege/Körperpeelings & Feuchtigkeitspflege/Körperöle"
72036031;"beauty/Featured Categories/Baden & Körperpflege/Pflegesets"
122876031;"beauty/Featured Categories/Beauty- & Pflegesets"
122877031;"beauty/Featured Categories/Düfte"
2795107031;"beauty/Featured Categories/Düfte/Damen"
2795108031;"beauty/Featured Categories/Düfte/Damen/Body Sprays"
2795109031;"beauty/Featured Categories/Düfte/Damen/Eau de Cologne"
2795110031;"beauty/Featured Categories/Düfte/Damen/Eau de Parfum"
2795111031;"beauty/Featured Categories/Düfte/Damen/Eau de Toilette"
2795112031;"beauty/Featured Categories/Düfte/Damen/Parfüm"
2795113031;"beauty/Featured Categories/Düfte/Damen/Parfüm Oils"
2795114031;"beauty/Featured Categories/Düfte/Damen/Sets"
2795100031;"beauty/Featured Categories/Düfte/Herren"
64348031;"beauty/Featured Categories/Düfte/Herren/Aftershaves"
2795101031;"beauty/Featured Categories/Düfte/Herren/Eau de Cologne"
2795102031;"beauty/Featured Categories/Düfte/Herren/Eau de Parfum"
2795103031;"beauty/Featured Categories/Düfte/Herren/Eau de Toilette"
2795104031;"beauty/Featured Categories/Düfte/Herren/Parfüm"
2795105031;"beauty/Featured Categories/Düfte/Herren/Sets"
4695227031;"beauty/Featured Categories/Düfte/Kerzen & Raumdüfte"
2795099031;"beauty/Featured Categories/Düfte/Kinder"
591313031;"beauty/Featured Categories/Düfte/Parfümzerstäuber"
591280031;"beauty/Featured Categories/Düfte/Sets"
2795105031;"beauty/Featured Categories/Düfte/Sets/Herren"
2795114031;"beauty/Featured Categories/Düfte/Sets/Damen"
64486031;"beauty/Featured Categories/Haarpflege & Styling"
64489031;"beauty/Featured Categories/Haarpflege & Styling/Haar Colorationen"
591283031;"beauty/Featured Categories/Haarpflege & Styling/Haar Colorationen/Farben"
3520934031;"beauty/Featured Categories/Haarpflege & Styling/Haar Colorationen/Haarentfärber"
591284031;"beauty/Featured Categories/Haarpflege & Styling/Haar Colorationen/Tönungen"
2867651031;"beauty/Featured Categories/Haarpflege & Styling/Haar Colorationen/Zubehör"
64497031;"beauty/Featured Categories/Haarpflege & Styling/Haarschmuck & Perücken"
2867662031;"beauty/Featured Categories/Haarpflege & Styling/Haarschmuck & Perücken/Haargummis"
2867660031;"beauty/Featured Categories/Haarpflege & Styling/Haarschmuck & Perücken/Haarklammern"
2867654031;"beauty/Featured Categories/Haarpflege & Styling/Haarschmuck & Perücken/Haarkrallen & Spinnen"
2867661031;"beauty/Featured Categories/Haarpflege & Styling/Haarschmuck & Perücken/Haarreife"
2867655031;"beauty/Featured Categories/Haarpflege & Styling/Haarschmuck & Perücken/Haarspangen & -clips"
2867656031;"beauty/Featured Categories/Haarpflege & Styling/Haarschmuck & Perücken/Haarverlängerungen & Perücken"
2867658031;"beauty/Featured Categories/Haarpflege & Styling/Haarschmuck & Perücken/Haarverlängerungen & Perücken/Haarteile"
2867657031;"beauty/Featured Categories/Haarpflege & Styling/Haarschmuck & Perücken/Haarverlängerungen & Perücken/Haarverlängerungen"
306614031;"beauty/Featured Categories/Haarpflege & Styling/Haarschmuck & Perücken/Haarverlängerungen & Perücken/Perücken"
2867659031;"beauty/Featured Categories/Haarpflege & Styling/Haarschmuck & Perücken/Haarverlängerungen & Perücken/Perückenständer"
3520932031;"beauty/Featured Categories/Haarpflege & Styling/Haarschmuck & Perücken/Knotenringe"
3520931031;"beauty/Featured Categories/Haarpflege & Styling/Haarschmuck & Perücken/Steckkämme"
64487031;"beauty/Featured Categories/Haarpflege & Styling/Haarstyling Produkte"
64494031;"beauty/Featured Categories/Haarpflege & Styling/Haarstyling Produkte/Frisier-Cremes & Wachs"
64495031;"beauty/Featured Categories/Haarpflege & Styling/Haarstyling Produkte/Gele"
591286031;"beauty/Featured Categories/Haarpflege & Styling/Haarstyling Produkte/Hitzeschutzsprays"
591287031;"beauty/Featured Categories/Haarpflege & Styling/Haarstyling Produkte/Schaum"
3520933031;"beauty/Featured Categories/Haarpflege & Styling/Haarstyling Produkte/Seren"
64501031;"beauty/Featured Categories/Haarpflege & Styling/Haarstyling Produkte/Sprays"
2860424031;"beauty/Featured Categories/Haarpflege & Styling/Läusebehandlung"
2860425031;"beauty/Featured Categories/Haarpflege & Styling/Läusebehandlung/Läusebehandlungssets"
2860426031;"beauty/Featured Categories/Haarpflege & Styling/Läusebehandlung/Läusekämme"
2860427031;"beauty/Featured Categories/Haarpflege & Styling/Läusebehandlung/Läusesprays"
2860428031;"beauty/Featured Categories/Haarpflege & Styling/Läusebehandlung/Shampoos & Spülungen"
64269031;"beauty/Featured Categories/Haarpflege & Styling/Pflegeprodukte"
591282031;"beauty/Featured Categories/Haarpflege & Styling/Pflegeprodukte/Anti-Haarausfall"
2867648031;"beauty/Featured Categories/Haarpflege & Styling/Pflegeprodukte/Dauerwellenprodukte"
4769966031;"beauty/Featured Categories/Haarpflege & Styling/Pflegeprodukte/Geschenk-Sets"
2867649031;"beauty/Featured Categories/Haarpflege & Styling/Pflegeprodukte/Glättungscremes"
2867646031;"beauty/Featured Categories/Haarpflege & Styling/Pflegeprodukte/Haarmascara"
64498031;"beauty/Featured Categories/Haarpflege & Styling/Pflegeprodukte/Haarwasser"
2867647031;"beauty/Featured Categories/Haarpflege & Styling/Pflegeprodukte/Haaröl"
591281031;"beauty/Featured Categories/Haarpflege & Styling/Pflegeprodukte/Kuren"
4769967031;"beauty/Featured Categories/Haarpflege & Styling/Pflegeprodukte/Reise-Sets"
2867650031;"beauty/Featured Categories/Haarpflege & Styling/Pflegeprodukte/Shampoo & Conditioner Sets"
64490031;"beauty/Featured Categories/Haarpflege & Styling/Pflegeprodukte/Shampoos"
64492031;"beauty/Featured Categories/Haarpflege & Styling/Pflegeprodukte/Spülungen & Conditioner"
2867645031;"beauty/Featured Categories/Haarpflege & Styling/Pflegeprodukte/Trockenshampoos"
2867663031;"beauty/Featured Categories/Haarpflege & Styling/Saloneinrichtung"
2867665031;"beauty/Featured Categories/Haarpflege & Styling/Saloneinrichtung/Besen"
2867664031;"beauty/Featured Categories/Haarpflege & Styling/Saloneinrichtung/Friseurstühle"
2867673031;"beauty/Featured Categories/Haarpflege & Styling/Saloneinrichtung/Friseurtaschen"
2867666031;"beauty/Featured Categories/Haarpflege & Styling/Saloneinrichtung/Friseurumhänge"
2867668031;"beauty/Featured Categories/Haarpflege & Styling/Saloneinrichtung/Handspiegel"
2867667031;"beauty/Featured Categories/Haarpflege & Styling/Saloneinrichtung/Hocker"
2867670031;"beauty/Featured Categories/Haarpflege & Styling/Saloneinrichtung/Nackenpinsel"
2867669031;"beauty/Featured Categories/Haarpflege & Styling/Saloneinrichtung/Salon Trolleys"
2867672031;"beauty/Featured Categories/Haarpflege & Styling/Saloneinrichtung/Sprühflaschen"
2867674031;"beauty/Featured Categories/Haarpflege & Styling/Saloneinrichtung/Trainingsköpfe"
64506031;"beauty/Featured Categories/Haarpflege & Styling/Saloneinrichtung/Trockenhauben"
2867671031;"beauty/Featured Categories/Haarpflege & Styling/Saloneinrichtung/Waschbecken"
2867675031;"beauty/Featured Categories/Haarpflege & Styling/Styling Zubehör"
64493031;"beauty/Featured Categories/Haarpflege & Styling/Styling Zubehör/Bürsten"
64496031;"beauty/Featured Categories/Haarpflege & Styling/Styling Zubehör/Haarglätter"
3186410031;"beauty/Featured Categories/Haarpflege & Styling/Styling Zubehör/Haarscherer"
64488031;"beauty/Featured Categories/Haarpflege & Styling/Styling Zubehör/Haartrockner & Zubehör"
2867680031;"beauty/Featured Categories/Haarpflege & Styling/Styling Zubehör/Kreppeisen"
591285031;"beauty/Featured Categories/Haarpflege & Styling/Styling Zubehör/Kämme"
2867676031;"beauty/Featured Categories/Haarpflege & Styling/Styling Zubehör/Lockenstäbe"
64500031;"beauty/Featured Categories/Haarpflege & Styling/Styling Zubehör/Lockenwickler"
2867678031;"beauty/Featured Categories/Haarpflege & Styling/Styling Zubehör/Multistyler"
2867679031;"beauty/Featured Categories/Haarpflege & Styling/Styling Zubehör/Scheren"
64499031;"beauty/Featured Categories/Haarpflege & Styling/Styling Zubehör/Stylingbürsten"
64506031;"beauty/Featured Categories/Haarpflege & Styling/Styling Zubehör/Trockenhauben"
3520930031;"beauty/Featured Categories/Haarpflege & Styling/Styling Zubehör/Welleisen"
122878031;"beauty/Featured Categories/Hautpflege"
161309031;"beauty/Featured Categories/Hautpflege/Augen"
2987371031;"beauty/Featured Categories/Hautpflege/Augen/Cremes"
2987372031;"beauty/Featured Categories/Hautpflege/Augen/Gele"
2987370031;"beauty/Featured Categories/Hautpflege/Augen/Kühlmasken"
2987373031;"beauty/Featured Categories/Hautpflege/Augen/Make-Up Entferner"
2987374031;"beauty/Featured Categories/Hautpflege/Augen/Pads"
2987375031;"beauty/Featured Categories/Hautpflege/Augen/Seren"
2987392031;"beauty/Featured Categories/Hautpflege/Geschenksets"
161310031;"beauty/Featured Categories/Hautpflege/Gesicht"
2987384031;"beauty/Featured Categories/Hautpflege/Gesicht/Feuchtigkeitspflege"
3055635031;"beauty/Featured Categories/Hautpflege/Gesicht/Feuchtigkeitspflege/BB & CC Cremes"
161315031;"beauty/Featured Categories/Hautpflege/Gesicht/Feuchtigkeitspflege/Nachtpflege"
2987391031;"beauty/Featured Categories/Hautpflege/Gesicht/Feuchtigkeitspflege/Sprays"
161318031;"beauty/Featured Categories/Hautpflege/Gesicht/Feuchtigkeitspflege/Tagespflege"
161313031;"beauty/Featured Categories/Hautpflege/Gesicht/Gesichtsmasken & -kuren"
161314031;"beauty/Featured Categories/Hautpflege/Gesicht/Gesichtswasser"
161370031;"beauty/Featured Categories/Hautpflege/Gesicht/Reinigung & Peeling"
161371031;"beauty/Featured Categories/Hautpflege/Gesicht/Reinigung & Peeling/Make-up Entferner"
161372031;"beauty/Featured Categories/Hautpflege/Gesicht/Reinigung & Peeling/Pads"
161316031;"beauty/Featured Categories/Hautpflege/Gesicht/Reinigung & Peeling/Peelings"
2987378031;"beauty/Featured Categories/Hautpflege/Gesicht/Reinigung & Peeling/Polish"
2987376031;"beauty/Featured Categories/Hautpflege/Gesicht/Reinigung & Peeling/Reinigungsgeräte & Bürsten"
161373031;"beauty/Featured Categories/Hautpflege/Gesicht/Reinigung & Peeling/Reinigungsmilch & Cremes"
2987377031;"beauty/Featured Categories/Hautpflege/Gesicht/Reinigung & Peeling/Reinigungstücher"
2987441031;"beauty/Featured Categories/Hautpflege/Gesicht/Reinigung & Peeling/Schaum & Gele"
2987379031;"beauty/Featured Categories/Hautpflege/Gesicht/Reinigung & Peeling/Stifte & Roll-Ons"
2987380031;"beauty/Featured Categories/Hautpflege/Gesicht/Reinigung & Peeling/Streifen"
161317031;"beauty/Featured Categories/Hautpflege/Gesicht/Selbstbräuner"
591316031;"beauty/Featured Categories/Hautpflege/Gesicht/Sonnenschutz"
3520937031;"beauty/Featured Categories/Hautpflege/Gesicht/Toninggeräte"
161311031;"beauty/Featured Categories/Hautpflege/Hals- & Dekolleté"
2987393031;"beauty/Featured Categories/Hautpflege/Hände & Füße"
2975680031;"beauty/Featured Categories/Hautpflege/Hände & Füße/Feuchtigkeitsspendende Handschuhe"
2975681031;"beauty/Featured Categories/Hautpflege/Hände & Füße/Feuchtigkeitsspendende Socken"
2975679031;"beauty/Featured Categories/Hautpflege/Hände & Füße/Fußbäder"
591291031;"beauty/Featured Categories/Hautpflege/Hände & Füße/Fußcremes"
2860399031;"beauty/Featured Categories/Hautpflege/Hände & Füße/Fußgeruchpflege & -hilfsmittel"
64813031;"beauty/Featured Categories/Hautpflege/Hände & Füße/Hand- & Nagelcremes"
2860401031;"beauty/Featured Categories/Hautpflege/Hände & Füße/Hilfsmittel für Fußpflege"
2860402031;"beauty/Featured Categories/Hautpflege/Hände & Füße/Hilfsmittel für Fußpflege/Bimssteine"
2860403031;"beauty/Featured Categories/Hautpflege/Hände & Füße/Hilfsmittel für Fußpflege/Cutter & Zubehör"
2860404031;"beauty/Featured Categories/Hautpflege/Hände & Füße/Hilfsmittel für Fußpflege/Raspelfeilen"
2860405031;"beauty/Featured Categories/Hautpflege/Hände & Füße/Hühneraugen- & Hornhautpuffer"
2860406031;"beauty/Featured Categories/Hautpflege/Hände & Füße/Hühneraugen- & Hornhautsalben"
2975672031;"beauty/Featured Categories/Hautpflege/Hände & Füße/Nagelhautpflegeöle"
2975682031;"beauty/Featured Categories/Hautpflege/Hände & Füße/Paraffinbäder"
2975683031;"beauty/Featured Categories/Hautpflege/Hände & Füße/Peelings"
2860408031;"beauty/Featured Categories/Hautpflege/Hände & Füße/Schrundensalben"
122882031;"beauty/Featured Categories/Hautpflege/Körper"
2987368031;"beauty/Featured Categories/Hautpflege/Körper/Fango"
2987365031;"beauty/Featured Categories/Hautpflege/Körper/Feuchtigkeitspflege"
64827031;"beauty/Featured Categories/Hautpflege/Körper/Feuchtigkeitspflege/After Sun"
2987366031;"beauty/Featured Categories/Hautpflege/Körper/Feuchtigkeitspflege/Body Butter"
122883031;"beauty/Featured Categories/Hautpflege/Körper/Feuchtigkeitspflege/Cremes"
122884031;"beauty/Featured Categories/Hautpflege/Körper/Feuchtigkeitspflege/Lotionen"
2987367031;"beauty/Featured Categories/Hautpflege/Körper/Feuchtigkeitspflege/Mousse"
122885031;"beauty/Featured Categories/Hautpflege/Körper/Feuchtigkeitspflege/Öle"
122886031;"beauty/Featured Categories/Hautpflege/Körper/Peelings"
2987369031;"beauty/Featured Categories/Hautpflege/Körper/Puder"
591315031;"beauty/Featured Categories/Hautpflege/Körper/Selbstbräuner"
64828031;"beauty/Featured Categories/Hautpflege/Körper/Sonnenschutz"
2987364031;"beauty/Featured Categories/Hautpflege/Körper/Straffung & Modellierung"
3520936031;"beauty/Featured Categories/Hautpflege/Körper/Toninggeräte"
161312031;"beauty/Featured Categories/Hautpflege/Lippen"
2987400031;"beauty/Featured Categories/Hautpflege/Lippen/Peelings"
2987399031;"beauty/Featured Categories/Hautpflege/Lippen/Pflegestifte & Lippenbalsam"
591317031;"beauty/Featured Categories/Hautpflege/Lippen/Sonnenschutz"
64804031;"beauty/Featured Categories/Hautpflege/Sonnenschutz & Selbstbräuner"
64827031;"beauty/Featured Categories/Hautpflege/Sonnenschutz & Selbstbräuner/After Sun"
2987402031;"beauty/Featured Categories/Hautpflege/Sonnenschutz & Selbstbräuner/Bräunungsbeschleuniger"
2987401031;"beauty/Featured Categories/Hautpflege/Sonnenschutz & Selbstbräuner/Selbstbräuner"
161317031;"beauty/Featured Categories/Hautpflege/Sonnenschutz & Selbstbräuner/Selbstbräuner/Gesichtsselbstbräuner"
591315031;"beauty/Featured Categories/Hautpflege/Sonnenschutz & Selbstbräuner/Selbstbräuner/Körperselbstbräuner"
64450031;"beauty/Featured Categories/Hautpflege/Sonnenschutz & Selbstbräuner/Solarien & Bräunungsgeräte"
2987659031;"beauty/Featured Categories/Hautpflege/Sonnenschutz & Selbstbräuner/Sonnenschutz"
591316031;"beauty/Featured Categories/Hautpflege/Sonnenschutz & Selbstbräuner/Sonnenschutz/Gesichtssonnenschutz"
64828031;"beauty/Featured Categories/Hautpflege/Sonnenschutz & Selbstbräuner/Sonnenschutz/Körpersonnenschutz"
591317031;"beauty/Featured Categories/Hautpflege/Sonnenschutz & Selbstbräuner/Sonnenschutz/Lippensonnenschutz"
1696280031;"beauty/Featured Categories/Kosmetiktäschchen"
122880031;"beauty/Featured Categories/Make-up"
161320031;"beauty/Featured Categories/Make-up/Augen"
161324031;"beauty/Featured Categories/Make-up/Augen/Brauenstifte & -puder"
161325031;"beauty/Featured Categories/Make-up/Augen/Concealer"
161326031;"beauty/Featured Categories/Make-up/Augen/Eyeliner"
3055631031;"beauty/Featured Categories/Make-up/Augen/Glitzer"
161327031;"beauty/Featured Categories/Make-up/Augen/Kajalstifte"
161328031;"beauty/Featured Categories/Make-up/Augen/Künstliche Wimpern"
161329031;"beauty/Featured Categories/Make-up/Augen/Lidschatten"
3055634031;"beauty/Featured Categories/Make-up/Augen/Lidschattengrundierung"
3055633031;"beauty/Featured Categories/Make-up/Augen/Wimpernpflege"
161330031;"beauty/Featured Categories/Make-up/Augen/Wimperntusche"
161321031;"beauty/Featured Categories/Make-up/Gesicht"
3055635031;"beauty/Featured Categories/Make-up/Gesicht/BB & CC Cremes"
3055636031;"beauty/Featured Categories/Make-up/Gesicht/Bronze-Puder"
161331031;"beauty/Featured Categories/Make-up/Gesicht/Concealer"
161333031;"beauty/Featured Categories/Make-up/Gesicht/Grundierung"
3055637031;"beauty/Featured Categories/Make-up/Gesicht/Highlighters"
161334031;"beauty/Featured Categories/Make-up/Gesicht/Make-Up Basis"
3055638031;"beauty/Featured Categories/Make-up/Gesicht/Make-Up Finish"
161335031;"beauty/Featured Categories/Make-up/Gesicht/Puder"
161336031;"beauty/Featured Categories/Make-up/Gesicht/Rouge"
3055625031;"beauty/Featured Categories/Make-up/Körper"
3055636031;"beauty/Featured Categories/Make-up/Körper/Bronze-Puder"
3055628031;"beauty/Featured Categories/Make-up/Körper/Concealer"
3055626031;"beauty/Featured Categories/Make-up/Körper/Glitzer"
3055629031;"beauty/Featured Categories/Make-up/Körper/Henna"
3055627031;"beauty/Featured Categories/Make-up/Körper/Körperfarben"
3055630031;"beauty/Featured Categories/Make-up/Körper/Temporäre Tattoos"
161322031;"beauty/Featured Categories/Make-up/Lippen"
161342031;"beauty/Featured Categories/Make-up/Lippen/Konturenstifte"
161343031;"beauty/Featured Categories/Make-up/Lippen/Lipglosse"
161344031;"beauty/Featured Categories/Make-up/Lippen/Lippenstifte"
3055639031;"beauty/Featured Categories/Make-up/Lippen/Lipmarker"
3055642031;"beauty/Featured Categories/Make-up/Make-Up Entferner"
2987373031;"beauty/Featured Categories/Make-up/Make-Up Entferner/Augenmake-up Entferner"
161371031;"beauty/Featured Categories/Make-up/Make-Up Entferner/Gesichtsmake-up Entferner"
3055641031;"beauty/Featured Categories/Make-up/Make-Up Paletten"
3055643031;"beauty/Featured Categories/Make-up/Make-Up Pinsel & Zubehör"
3055649031;"beauty/Featured Categories/Make-up/Make-Up Pinsel & Zubehör/Augen"
3055650031;"beauty/Featured Categories/Make-up/Make-Up Pinsel & Zubehör/Augen/Applikatoren"
5521659031;"beauty/Featured Categories/Make-up/Make-Up Pinsel & Zubehör/Augen/Augenlidklebeband"
161328031;"beauty/Featured Categories/Make-up/Make-Up Pinsel & Zubehör/Augen/Künstliche Wimpern"
3055652031;"beauty/Featured Categories/Make-up/Make-Up Pinsel & Zubehör/Augen/Pinsel"
3055651031;"beauty/Featured Categories/Make-up/Make-Up Pinsel & Zubehör/Augen/Wimpernkämme & Brauenbürstchen"
161348031;"beauty/Featured Categories/Make-up/Make-Up Pinsel & Zubehör/Augen/Wimpernzangen"
3055653031;"beauty/Featured Categories/Make-up/Make-Up Pinsel & Zubehör/Gesicht"
3055655031;"beauty/Featured Categories/Make-up/Make-Up Pinsel & Zubehör/Gesicht/Pinsel"
3055654031;"beauty/Featured Categories/Make-up/Make-Up Pinsel & Zubehör/Gesicht/Puderpapier"
3055656031;"beauty/Featured Categories/Make-up/Make-Up Pinsel & Zubehör/Gesicht/Schwämmchen"
161347031;"beauty/Featured Categories/Make-up/Make-Up Pinsel & Zubehör/Gesicht/Quasten"
3055648031;"beauty/Featured Categories/Make-up/Make-Up Pinsel & Zubehör/Kompaktspiegel"
3055657031;"beauty/Featured Categories/Make-up/Make-Up Pinsel & Zubehör/Make-Up Taschen & Etuis"
2699170031;"beauty/Featured Categories/Make-up/Make-Up Pinsel & Zubehör/Make-Up Taschen & Etuis/Kosmetikkoffer"
1696280031;"beauty/Featured Categories/Make-up/Make-Up Pinsel & Zubehör/Make-Up Taschen & Etuis/Kosmetiktäschchen"
3055658031;"beauty/Featured Categories/Make-up/Make-Up Pinsel & Zubehör/Make-Up Taschen & Etuis/Make-Up Etuis"
161350031;"beauty/Featured Categories/Make-up/Make-Up Pinsel & Zubehör/Pinsel"
3055652031;"beauty/Featured Categories/Make-up/Make-Up Pinsel & Zubehör/Pinsel/Augenpinsel"
3055655031;"beauty/Featured Categories/Make-up/Make-Up Pinsel & Zubehör/Pinsel/Gesichtspinsel"
3055695031;"beauty/Featured Categories/Make-up/Make-Up Pinsel & Zubehör/Pinsel/Lippenpinsel"
3055644031;"beauty/Featured Categories/Make-up/Make-Up Pinsel & Zubehör/Pinsel/Pinselsets"
161349031;"beauty/Featured Categories/Make-up/Make-Up Pinsel & Zubehör/Pinzetten"
161351031;"beauty/Featured Categories/Make-up/Make-Up Pinsel & Zubehör/Spitzer"
3055659031;"beauty/Featured Categories/Make-up/Make-Up Pinsel & Zubehör/Zubehörsets"
591312031;"beauty/Featured Categories/Make-up/Make-Up Sets"
2975644031;"beauty/Featured Categories/Maniküre & Pediküre"
4660231031;"beauty/Featured Categories/Maniküre & Pediküre/Hand- & Fußpflege"
2975680031;"beauty/Featured Categories/Maniküre & Pediküre/Hand- & Fußpflege/Feuchtigkeitsspendende Handschuhe"
2975681031;"beauty/Featured Categories/Maniküre & Pediküre/Hand- & Fußpflege/Feuchtigkeitsspendende Socken"
2975679031;"beauty/Featured Categories/Maniküre & Pediküre/Hand- & Fußpflege/Fußbäder"
591291031;"beauty/Featured Categories/Maniküre & Pediküre/Hand- & Fußpflege/Fußcremes"
64813031;"beauty/Featured Categories/Maniküre & Pediküre/Hand- & Fußpflege/Hand- & Nagelcremes"
2975645031;"beauty/Featured Categories/Maniküre & Pediküre/Hand- & Fußpflege/Hocker & Stühle"
2975682031;"beauty/Featured Categories/Maniküre & Pediküre/Hand- & Fußpflege/Paraffinbäder"
2975683031;"beauty/Featured Categories/Maniküre & Pediküre/Hand- & Fußpflege/Peelings"
591298031;"beauty/Featured Categories/Maniküre & Pediküre/Nageldesign"
161345031;"beauty/Featured Categories/Maniküre & Pediküre/Nageldesign/Farblack"
2975655031;"beauty/Featured Categories/Maniküre & Pediküre/Nageldesign/Hilfsmittel"
591310031;"beauty/Featured Categories/Maniküre & Pediküre/Nageldesign/Hilfsmittel/Handauflagen"
591309031;"beauty/Featured Categories/Maniküre & Pediküre/Nageldesign/Hilfsmittel/Marmorierwerkzeuge"
2975657031;"beauty/Featured Categories/Maniküre & Pediküre/Nageldesign/Hilfsmittel/Nageldesign-Stifte"
2975658031;"beauty/Featured Categories/Maniküre & Pediküre/Nageldesign/Hilfsmittel/Nagellackkorrekturstifte"
591307031;"beauty/Featured Categories/Maniküre & Pediküre/Nageldesign/Hilfsmittel/Nagelschablonen"
591300031;"beauty/Featured Categories/Maniküre & Pediküre/Nageldesign/Hilfsmittel/Nageltrockner"
2975656031;"beauty/Featured Categories/Maniküre & Pediküre/Nageldesign/Hilfsmittel/Pinsel"
2975660031;"beauty/Featured Categories/Maniküre & Pediküre/Nageldesign/Hilfsmittel/Spa Slippers"
2975661031;"beauty/Featured Categories/Maniküre & Pediküre/Nageldesign/Hilfsmittel/Stempel & Schaber"
2975659031;"beauty/Featured Categories/Maniküre & Pediküre/Nageldesign/Hilfsmittel/Übungshände & -finger"
2975663031;"beauty/Featured Categories/Maniküre & Pediküre/Nageldesign/Hilfsmittel/Zehenspreizer"
161346031;"beauty/Featured Categories/Maniküre & Pediküre/Nageldesign/Künstliche Nägel & Zubehör"
591302031;"beauty/Featured Categories/Maniküre & Pediküre/Nageldesign/Künstliche Nägel & Zubehör/Acryl"
591303031;"beauty/Featured Categories/Maniküre & Pediküre/Nageldesign/Künstliche Nägel & Zubehör/Fiberglas & Seide"
591301031;"beauty/Featured Categories/Maniküre & Pediküre/Nageldesign/Künstliche Nägel & Zubehör/Gel"
2975648031;"beauty/Featured Categories/Maniküre & Pediküre/Nageldesign/Künstliche Nägel & Zubehör/Nagelformen"
2975646031;"beauty/Featured Categories/Maniküre & Pediküre/Nageldesign/Künstliche Nägel & Zubehör/Nagelkleber"
2975647031;"beauty/Featured Categories/Maniküre & Pediküre/Nageldesign/Künstliche Nägel & Zubehör/Nagelspitzen"
2975649031;"beauty/Featured Categories/Maniküre & Pediküre/Nageldesign/Nagelkunst & Zubehör"
2975650031;"beauty/Featured Categories/Maniküre & Pediküre/Nageldesign/Nagelkunst & Zubehör/Dekorationssets"
3520935031;"beauty/Featured Categories/Maniküre & Pediküre/Nageldesign/Nagelkunst & Zubehör/Fimo"
2975651031;"beauty/Featured Categories/Maniküre & Pediküre/Nageldesign/Nagelkunst & Zubehör/Glitzerpuder"
2975654031;"beauty/Featured Categories/Maniküre & Pediküre/Nageldesign/Nagelkunst & Zubehör/Schmuck"
591305031;"beauty/Featured Categories/Maniküre & Pediküre/Nageldesign/Nagelkunst & Zubehör/Sticker"
2975652031;"beauty/Featured Categories/Maniküre & Pediküre/Nageldesign/Nagelkunst & Zubehör/Strasssteine"
2975653031;"beauty/Featured Categories/Maniküre & Pediküre/Nageldesign/Nagelkunst & Zubehör/Wraps"
179343031;"beauty/Featured Categories/Maniküre & Pediküre/Nageldesign/Nagellackentferner"
591308031;"beauty/Featured Categories/Maniküre & Pediküre/Nageldesign/Nagelstudio-Sets"
591295031;"beauty/Featured Categories/Maniküre & Pediküre/Nageldesign/Unter- & Überlack"
2975664031;"beauty/Featured Categories/Maniküre & Pediküre/Nagelpflegeprodukte"
2975670031;"beauty/Featured Categories/Maniküre & Pediküre/Nagelpflegeprodukte/Nagelaufheller"
2975669031;"beauty/Featured Categories/Maniküre & Pediküre/Nagelpflegeprodukte/Nagelhärter"
2975666031;"beauty/Featured Categories/Maniküre & Pediküre/Nagelpflegeprodukte/Nagelwachstumsformeln"
2975667031;"beauty/Featured Categories/Maniküre & Pediküre/Nagelpflegeprodukte/Rillenfüller"
2975674031;"beauty/Featured Categories/Maniküre & Pediküre/Werkzeuge & Zubehör"
2860402031;"beauty/Featured Categories/Maniküre & Pediküre/Werkzeuge & Zubehör/Bimssteine"
2860403031;"beauty/Featured Categories/Maniküre & Pediküre/Werkzeuge & Zubehör/Cutter & Zubehör"
2975655031;"beauty/Featured Categories/Maniküre & Pediküre/Werkzeuge & Zubehör/Nageldesignhilfsmittel"
591310031;"beauty/Featured Categories/Maniküre & Pediküre/Werkzeuge & Zubehör/Nageldesignhilfsmittel/Handauflagen"
591309031;"beauty/Featured Categories/Maniküre & Pediküre/Werkzeuge & Zubehör/Nageldesignhilfsmittel/Marmorierwerkzeuge"
2975657031;"beauty/Featured Categories/Maniküre & Pediküre/Werkzeuge & Zubehör/Nageldesignhilfsmittel/Nageldesign-Stifte"
2975658031;"beauty/Featured Categories/Maniküre & Pediküre/Werkzeuge & Zubehör/Nageldesignhilfsmittel/Nagellackkorrekturstifte"
591307031;"beauty/Featured Categories/Maniküre & Pediküre/Werkzeuge & Zubehör/Nageldesignhilfsmittel/Nagelschablonen"
591300031;"beauty/Featured Categories/Maniküre & Pediküre/Werkzeuge & Zubehör/Nageldesignhilfsmittel/Nageltrockner"
2975656031;"beauty/Featured Categories/Maniküre & Pediküre/Werkzeuge & Zubehör/Nageldesignhilfsmittel/Pinsel"
2975660031;"beauty/Featured Categories/Maniküre & Pediküre/Werkzeuge & Zubehör/Nageldesignhilfsmittel/Spa Slippers"
2975661031;"beauty/Featured Categories/Maniküre & Pediküre/Werkzeuge & Zubehör/Nageldesignhilfsmittel/Stempel & Schaber"
2975659031;"beauty/Featured Categories/Maniküre & Pediküre/Werkzeuge & Zubehör/Nageldesignhilfsmittel/Übungshände & -finger"
2975663031;"beauty/Featured Categories/Maniküre & Pediküre/Werkzeuge & Zubehör/Nageldesignhilfsmittel/Zehenspreizer"
64816031;"beauty/Featured Categories/Maniküre & Pediküre/Werkzeuge & Zubehör/Nagelfeilen"
2975675031;"beauty/Featured Categories/Maniküre & Pediküre/Werkzeuge & Zubehör/Nagelhautschieber"
64817031;"beauty/Featured Categories/Maniküre & Pediküre/Werkzeuge & Zubehör/Nagelknipser"
2975678031;"beauty/Featured Categories/Maniküre & Pediküre/Werkzeuge & Zubehör/Nagelscheren"
2975676031;"beauty/Featured Categories/Maniküre & Pediküre/Werkzeuge & Zubehör/Nagelzangen"
591306031;"beauty/Featured Categories/Maniküre & Pediküre/Werkzeuge & Zubehör/Polierblöcke"
2860404031;"beauty/Featured Categories/Maniküre & Pediküre/Werkzeuge & Zubehör/Raspelfeilen"
591299031;"beauty/Featured Categories/Maniküre & Pediküre/Werkzeuge & Zubehör/Schleifgeräte & Zubehör"
64821031;"beauty/Featured Categories/Maniküre & Pediküre/Werkzeuge & Zubehör/Sets & Kits"
591311031;"beauty/Featured Categories/Maniküre & Pediküre/Werkzeuge & Zubehör/Tipcutters"
122881031;"beauty/Featured Categories/Zubehör"
3537793031;"beauty/Featured Categories/Zubehör/Kulturbeutel, Schminkkoffer & Parfumzerstäuber"
190773011;"beauty/Featured Categories/Zubehör/Kulturbeutel, Schminkkoffer & Parfumzerstäuber/Kulturtaschen"
3055657031;"beauty/Featured Categories/Zubehör/Kulturbeutel, Schminkkoffer & Parfumzerstäuber/Make-Up Taschen & Etuis"
2699170031;"beauty/Featured Categories/Zubehör/Kulturbeutel, Schminkkoffer & Parfumzerstäuber/Make-Up Taschen & Etuis/Kosmetikkoffer"
1696280031;"beauty/Featured Categories/Zubehör/Kulturbeutel, Schminkkoffer & Parfumzerstäuber/Make-Up Taschen & Etuis/Kosmetiktäschchen"
3055658031;"beauty/Featured Categories/Zubehör/Kulturbeutel, Schminkkoffer & Parfumzerstäuber/Make-Up Taschen & Etuis/Make-Up Etuis"
591313031;"beauty/Featured Categories/Zubehör/Kulturbeutel, Schminkkoffer & Parfumzerstäuber/Parfümzerstäuber"
3055643031;"beauty/Featured Categories/Zubehör/Make-Up Pinsel & Zubehör"
3055649031;"beauty/Featured Categories/Zubehör/Make-Up Pinsel & Zubehör/Augen"
3055650031;"beauty/Featured Categories/Zubehör/Make-Up Pinsel & Zubehör/Augen/Applikatoren"
5521659031;"beauty/Featured Categories/Zubehör/Make-Up Pinsel & Zubehör/Augen/Augenlidklebeband"
161328031;"beauty/Featured Categories/Zubehör/Make-Up Pinsel & Zubehör/Augen/Künstliche Wimpern"
3055652031;"beauty/Featured Categories/Zubehör/Make-Up Pinsel & Zubehör/Augen/Pinsel"
3055651031;"beauty/Featured Categories/Zubehör/Make-Up Pinsel & Zubehör/Augen/Wimpernkämme & Brauenbürstchen"
161348031;"beauty/Featured Categories/Zubehör/Make-Up Pinsel & Zubehör/Augen/Wimpernzangen"
3055653031;"beauty/Featured Categories/Zubehör/Make-Up Pinsel & Zubehör/Gesicht"
3055655031;"beauty/Featured Categories/Zubehör/Make-Up Pinsel & Zubehör/Gesicht/Pinsel"
3055654031;"beauty/Featured Categories/Zubehör/Make-Up Pinsel & Zubehör/Gesicht/Puderpapier"
3055656031;"beauty/Featured Categories/Zubehör/Make-Up Pinsel & Zubehör/Gesicht/Schwämmchen"
161347031;"beauty/Featured Categories/Zubehör/Make-Up Pinsel & Zubehör/Gesicht/Quasten"
3055648031;"beauty/Featured Categories/Zubehör/Make-Up Pinsel & Zubehör/Kompaktspiegel"
3055657031;"beauty/Featured Categories/Zubehör/Make-Up Pinsel & Zubehör/Make-Up Taschen & Etuis"
2699170031;"beauty/Featured Categories/Zubehör/Make-Up Pinsel & Zubehör/Make-Up Taschen & Etuis/Kosmetikkoffer"
1696280031;"beauty/Featured Categories/Zubehör/Make-Up Pinsel & Zubehör/Make-Up Taschen & Etuis/Kosmetiktäschchen"
3055658031;"beauty/Featured Categories/Zubehör/Make-Up Pinsel & Zubehör/Make-Up Taschen & Etuis/Make-Up Etuis"
161350031;"beauty/Featured Categories/Zubehör/Make-Up Pinsel & Zubehör/Pinsel"
3055652031;"beauty/Featured Categories/Zubehör/Make-Up Pinsel & Zubehör/Pinsel/Augenpinsel"
3055655031;"beauty/Featured Categories/Zubehör/Make-Up Pinsel & Zubehör/Pinsel/Gesichtspinsel"
3055695031;"beauty/Featured Categories/Zubehör/Make-Up Pinsel & Zubehör/Pinsel/Lippenpinsel"
3055644031;"beauty/Featured Categories/Zubehör/Make-Up Pinsel & Zubehör/Pinsel/Pinselsets"
161349031;"beauty/Featured Categories/Zubehör/Make-Up Pinsel & Zubehör/Pinzetten"
161351031;"beauty/Featured Categories/Zubehör/Make-Up Pinsel & Zubehör/Spitzer"
3055659031;"beauty/Featured Categories/Zubehör/Make-Up Pinsel & Zubehör/Zubehörsets"
64807031;"beauty/Featured Categories/Zubehör/Wattestäbchen"
84231031;"beauty/Kategorien"
64272031;"beauty/Kategorien/Baden & Körperpflege"
3311495031;"beauty/Kategorien/Baden & Körperpflege/Badezubehör"
3311496031;"beauty/Kategorien/Baden & Körperpflege/Badezubehör/Badebürsten"
3311499031;"beauty/Kategorien/Baden & Körperpflege/Badezubehör/Badeknäuel"
3273878031;"beauty/Kategorien/Baden & Körperpflege/Badezubehör/Badewannenbretter"
3273875031;"beauty/Kategorien/Baden & Körperpflege/Badezubehör/Badewannenkissen"
3311500031;"beauty/Kategorien/Baden & Körperpflege/Badezubehör/Duschhauben"
3311498031;"beauty/Kategorien/Baden & Körperpflege/Badezubehör/Luffaschwämme"
3204313031;"beauty/Kategorien/Baden & Körperpflege/Badezubehör/Peelinghandschuhe"
3311501031;"beauty/Kategorien/Baden & Körperpflege/Badezubehör/Schwämme"
10739831;"beauty/Kategorien/Baden & Körperpflege/Badezubehör/Waschlappen & Waschhandschuhe"
64805031;"beauty/Kategorien/Baden & Körperpflege/Badezusätze"
64798031;"beauty/Kategorien/Baden & Körperpflege/Deodorants"
3311502031;"beauty/Kategorien/Baden & Körperpflege/Duschgel & Seifen"
64806031;"beauty/Kategorien/Baden & Körperpflege/Duschgel & Seifen/Duschgel"
591290031;"beauty/Kategorien/Baden & Körperpflege/Duschgel & Seifen/Duschöle"
64803031;"beauty/Kategorien/Baden & Körperpflege/Duschgel & Seifen/Seifen"
3311503031;"beauty/Kategorien/Baden & Körperpflege/Körperpeelings & Feuchtigkeitspflege"
2987366031;"beauty/Kategorien/Baden & Körperpflege/Körperpeelings & Feuchtigkeitspflege/Body Butter"
2795108031;"beauty/Kategorien/Baden & Körperpflege/Körperpeelings & Feuchtigkeitspflege/Body Sprays"
2987368031;"beauty/Kategorien/Baden & Körperpflege/Körperpeelings & Feuchtigkeitspflege/Fango"
122883031;"beauty/Kategorien/Baden & Körperpflege/Körperpeelings & Feuchtigkeitspflege/Körpercremes"
122884031;"beauty/Kategorien/Baden & Körperpflege/Körperpeelings & Feuchtigkeitspflege/Körperlotionen"
2987367031;"beauty/Kategorien/Baden & Körperpflege/Körperpeelings & Feuchtigkeitspflege/Körpermousse"
122886031;"beauty/Kategorien/Baden & Körperpflege/Körperpeelings & Feuchtigkeitspflege/Körperpeelings"
2987369031;"beauty/Kategorien/Baden & Körperpflege/Körperpeelings & Feuchtigkeitspflege/Körperpuder"
2987364031;"beauty/Kategorien/Baden & Körperpflege/Körperpeelings & Feuchtigkeitspflege/Körperstraffung & Modellierungsprodukte"
122885031;"beauty/Kategorien/Baden & Körperpflege/Körperpeelings & Feuchtigkeitspflege/Körperöle"
72036031;"beauty/Kategorien/Baden & Körperpflege/Pflegesets"
122876031;"beauty/Kategorien/Beauty- & Pflegesets"
122877031;"beauty/Kategorien/Düfte"
2795107031;"beauty/Kategorien/Düfte/Damen"
2795108031;"beauty/Kategorien/Düfte/Damen/Body Sprays"
2795109031;"beauty/Kategorien/Düfte/Damen/Eau de Cologne"
2795110031;"beauty/Kategorien/Düfte/Damen/Eau de Parfum"
2795111031;"beauty/Kategorien/Düfte/Damen/Eau de Toilette"
2795112031;"beauty/Kategorien/Düfte/Damen/Parfüm"
2795113031;"beauty/Kategorien/Düfte/Damen/Parfüm Oils"
2795114031;"beauty/Kategorien/Düfte/Damen/Sets"
2795100031;"beauty/Kategorien/Düfte/Herren"
64348031;"beauty/Kategorien/Düfte/Herren/Aftershaves"
2795101031;"beauty/Kategorien/Düfte/Herren/Eau de Cologne"
2795102031;"beauty/Kategorien/Düfte/Herren/Eau de Parfum"
2795103031;"beauty/Kategorien/Düfte/Herren/Eau de Toilette"
2795104031;"beauty/Kategorien/Düfte/Herren/Parfüm"
2795105031;"beauty/Kategorien/Düfte/Herren/Sets"
4695227031;"beauty/Kategorien/Düfte/Kerzen & Raumdüfte"
2795099031;"beauty/Kategorien/Düfte/Kinder"
591313031;"beauty/Kategorien/Düfte/Parfümzerstäuber"
591280031;"beauty/Kategorien/Düfte/Sets"
2795105031;"beauty/Kategorien/Düfte/Sets/Herren"
2795114031;"beauty/Kategorien/Düfte/Sets/Damen"
64486031;"beauty/Kategorien/Haarpflege & Styling"
64489031;"beauty/Kategorien/Haarpflege & Styling/Haar Colorationen"
591283031;"beauty/Kategorien/Haarpflege & Styling/Haar Colorationen/Farben"
3520934031;"beauty/Kategorien/Haarpflege & Styling/Haar Colorationen/Haarentfärber"
591284031;"beauty/Kategorien/Haarpflege & Styling/Haar Colorationen/Tönungen"
2867651031;"beauty/Kategorien/Haarpflege & Styling/Haar Colorationen/Zubehör"
64497031;"beauty/Kategorien/Haarpflege & Styling/Haarschmuck & Perücken"
2867662031;"beauty/Kategorien/Haarpflege & Styling/Haarschmuck & Perücken/Haargummis"
2867660031;"beauty/Kategorien/Haarpflege & Styling/Haarschmuck & Perücken/Haarklammern"
2867654031;"beauty/Kategorien/Haarpflege & Styling/Haarschmuck & Perücken/Haarkrallen & Spinnen"
2867661031;"beauty/Kategorien/Haarpflege & Styling/Haarschmuck & Perücken/Haarreife"
2867655031;"beauty/Kategorien/Haarpflege & Styling/Haarschmuck & Perücken/Haarspangen & -clips"
2867656031;"beauty/Kategorien/Haarpflege & Styling/Haarschmuck & Perücken/Haarverlängerungen & Perücken"
2867658031;"beauty/Kategorien/Haarpflege & Styling/Haarschmuck & Perücken/Haarverlängerungen & Perücken/Haarteile"
2867657031;"beauty/Kategorien/Haarpflege & Styling/Haarschmuck & Perücken/Haarverlängerungen & Perücken/Haarverlängerungen"
306614031;"beauty/Kategorien/Haarpflege & Styling/Haarschmuck & Perücken/Haarverlängerungen & Perücken/Perücken"
2867659031;"beauty/Kategorien/Haarpflege & Styling/Haarschmuck & Perücken/Haarverlängerungen & Perücken/Perückenständer"
3520932031;"beauty/Kategorien/Haarpflege & Styling/Haarschmuck & Perücken/Knotenringe"
3520931031;"beauty/Kategorien/Haarpflege & Styling/Haarschmuck & Perücken/Steckkämme"
64487031;"beauty/Kategorien/Haarpflege & Styling/Haarstyling Produkte"
64494031;"beauty/Kategorien/Haarpflege & Styling/Haarstyling Produkte/Frisier-Cremes & Wachs"
64495031;"beauty/Kategorien/Haarpflege & Styling/Haarstyling Produkte/Gele"
591286031;"beauty/Kategorien/Haarpflege & Styling/Haarstyling Produkte/Hitzeschutzsprays"
591287031;"beauty/Kategorien/Haarpflege & Styling/Haarstyling Produkte/Schaum"
3520933031;"beauty/Kategorien/Haarpflege & Styling/Haarstyling Produkte/Seren"
64501031;"beauty/Kategorien/Haarpflege & Styling/Haarstyling Produkte/Sprays"
2860424031;"beauty/Kategorien/Haarpflege & Styling/Läusebehandlung"
2860425031;"beauty/Kategorien/Haarpflege & Styling/Läusebehandlung/Läusebehandlungssets"
2860426031;"beauty/Kategorien/Haarpflege & Styling/Läusebehandlung/Läusekämme"
2860427031;"beauty/Kategorien/Haarpflege & Styling/Läusebehandlung/Läusesprays"
2860428031;"beauty/Kategorien/Haarpflege & Styling/Läusebehandlung/Shampoos & Spülungen"
64269031;"beauty/Kategorien/Haarpflege & Styling/Pflegeprodukte"
591282031;"beauty/Kategorien/Haarpflege & Styling/Pflegeprodukte/Anti-Haarausfall"
2867648031;"beauty/Kategorien/Haarpflege & Styling/Pflegeprodukte/Dauerwellenprodukte"
4769966031;"beauty/Kategorien/Haarpflege & Styling/Pflegeprodukte/Geschenk-Sets"
2867649031;"beauty/Kategorien/Haarpflege & Styling/Pflegeprodukte/Glättungscremes"
2867646031;"beauty/Kategorien/Haarpflege & Styling/Pflegeprodukte/Haarmascara"
64498031;"beauty/Kategorien/Haarpflege & Styling/Pflegeprodukte/Haarwasser"
2867647031;"beauty/Kategorien/Haarpflege & Styling/Pflegeprodukte/Haaröl"
591281031;"beauty/Kategorien/Haarpflege & Styling/Pflegeprodukte/Kuren"
4769967031;"beauty/Kategorien/Haarpflege & Styling/Pflegeprodukte/Reise-Sets"
2867650031;"beauty/Kategorien/Haarpflege & Styling/Pflegeprodukte/Shampoo & Conditioner Sets"
64490031;"beauty/Kategorien/Haarpflege & Styling/Pflegeprodukte/Shampoos"
64492031;"beauty/Kategorien/Haarpflege & Styling/Pflegeprodukte/Spülungen & Conditioner"
2867645031;"beauty/Kategorien/Haarpflege & Styling/Pflegeprodukte/Trockenshampoos"
2867663031;"beauty/Kategorien/Haarpflege & Styling/Saloneinrichtung"
2867665031;"beauty/Kategorien/Haarpflege & Styling/Saloneinrichtung/Besen"
2867664031;"beauty/Kategorien/Haarpflege & Styling/Saloneinrichtung/Friseurstühle"
2867673031;"beauty/Kategorien/Haarpflege & Styling/Saloneinrichtung/Friseurtaschen"
2867666031;"beauty/Kategorien/Haarpflege & Styling/Saloneinrichtung/Friseurumhänge"
2867668031;"beauty/Kategorien/Haarpflege & Styling/Saloneinrichtung/Handspiegel"
2867667031;"beauty/Kategorien/Haarpflege & Styling/Saloneinrichtung/Hocker"
2867670031;"beauty/Kategorien/Haarpflege & Styling/Saloneinrichtung/Nackenpinsel"
2867669031;"beauty/Kategorien/Haarpflege & Styling/Saloneinrichtung/Salon Trolleys"
2867672031;"beauty/Kategorien/Haarpflege & Styling/Saloneinrichtung/Sprühflaschen"
2867674031;"beauty/Kategorien/Haarpflege & Styling/Saloneinrichtung/Trainingsköpfe"
64506031;"beauty/Kategorien/Haarpflege & Styling/Saloneinrichtung/Trockenhauben"
2867671031;"beauty/Kategorien/Haarpflege & Styling/Saloneinrichtung/Waschbecken"
2867675031;"beauty/Kategorien/Haarpflege & Styling/Styling Zubehör"
64493031;"beauty/Kategorien/Haarpflege & Styling/Styling Zubehör/Bürsten"
64496031;"beauty/Kategorien/Haarpflege & Styling/Styling Zubehör/Haarglätter"
3186410031;"beauty/Kategorien/Haarpflege & Styling/Styling Zubehör/Haarscherer"
64488031;"beauty/Kategorien/Haarpflege & Styling/Styling Zubehör/Haartrockner & Zubehör"
2867680031;"beauty/Kategorien/Haarpflege & Styling/Styling Zubehör/Kreppeisen"
591285031;"beauty/Kategorien/Haarpflege & Styling/Styling Zubehör/Kämme"
2867676031;"beauty/Kategorien/Haarpflege & Styling/Styling Zubehör/Lockenstäbe"
64500031;"beauty/Kategorien/Haarpflege & Styling/Styling Zubehör/Lockenwickler"
2867678031;"beauty/Kategorien/Haarpflege & Styling/Styling Zubehör/Multistyler"
2867679031;"beauty/Kategorien/Haarpflege & Styling/Styling Zubehör/Scheren"
64499031;"beauty/Kategorien/Haarpflege & Styling/Styling Zubehör/Stylingbürsten"
64506031;"beauty/Kategorien/Haarpflege & Styling/Styling Zubehör/Trockenhauben"
3520930031;"beauty/Kategorien/Haarpflege & Styling/Styling Zubehör/Welleisen"
122878031;"beauty/Kategorien/Hautpflege"
161309031;"beauty/Kategorien/Hautpflege/Augen"
2987371031;"beauty/Kategorien/Hautpflege/Augen/Cremes"
2987372031;"beauty/Kategorien/Hautpflege/Augen/Gele"
2987370031;"beauty/Kategorien/Hautpflege/Augen/Kühlmasken"
2987373031;"beauty/Kategorien/Hautpflege/Augen/Make-Up Entferner"
2987374031;"beauty/Kategorien/Hautpflege/Augen/Pads"
2987375031;"beauty/Kategorien/Hautpflege/Augen/Seren"
2987392031;"beauty/Kategorien/Hautpflege/Geschenksets"
161310031;"beauty/Kategorien/Hautpflege/Gesicht"
2987384031;"beauty/Kategorien/Hautpflege/Gesicht/Feuchtigkeitspflege"
3055635031;"beauty/Kategorien/Hautpflege/Gesicht/Feuchtigkeitspflege/BB & CC Cremes"
161315031;"beauty/Kategorien/Hautpflege/Gesicht/Feuchtigkeitspflege/Nachtpflege"
2987391031;"beauty/Kategorien/Hautpflege/Gesicht/Feuchtigkeitspflege/Sprays"
161318031;"beauty/Kategorien/Hautpflege/Gesicht/Feuchtigkeitspflege/Tagespflege"
161313031;"beauty/Kategorien/Hautpflege/Gesicht/Gesichtsmasken & -kuren"
161314031;"beauty/Kategorien/Hautpflege/Gesicht/Gesichtswasser"
161370031;"beauty/Kategorien/Hautpflege/Gesicht/Reinigung & Peeling"
161371031;"beauty/Kategorien/Hautpflege/Gesicht/Reinigung & Peeling/Make-up Entferner"
161372031;"beauty/Kategorien/Hautpflege/Gesicht/Reinigung & Peeling/Pads"
161316031;"beauty/Kategorien/Hautpflege/Gesicht/Reinigung & Peeling/Peelings"
2987378031;"beauty/Kategorien/Hautpflege/Gesicht/Reinigung & Peeling/Polish"
2987376031;"beauty/Kategorien/Hautpflege/Gesicht/Reinigung & Peeling/Reinigungsgeräte & Bürsten"
161373031;"beauty/Kategorien/Hautpflege/Gesicht/Reinigung & Peeling/Reinigungsmilch & Cremes"
2987377031;"beauty/Kategorien/Hautpflege/Gesicht/Reinigung & Peeling/Reinigungstücher"
2987441031;"beauty/Kategorien/Hautpflege/Gesicht/Reinigung & Peeling/Schaum & Gele"
2987379031;"beauty/Kategorien/Hautpflege/Gesicht/Reinigung & Peeling/Stifte & Roll-Ons"
2987380031;"beauty/Kategorien/Hautpflege/Gesicht/Reinigung & Peeling/Streifen"
161317031;"beauty/Kategorien/Hautpflege/Gesicht/Selbstbräuner"
591316031;"beauty/Kategorien/Hautpflege/Gesicht/Sonnenschutz"
3520937031;"beauty/Kategorien/Hautpflege/Gesicht/Toninggeräte"
161311031;"beauty/Kategorien/Hautpflege/Hals- & Dekolleté"
2987393031;"beauty/Kategorien/Hautpflege/Hände & Füße"
2975680031;"beauty/Kategorien/Hautpflege/Hände & Füße/Feuchtigkeitsspendende Handschuhe"
2975681031;"beauty/Kategorien/Hautpflege/Hände & Füße/Feuchtigkeitsspendende Socken"
2975679031;"beauty/Kategorien/Hautpflege/Hände & Füße/Fußbäder"
591291031;"beauty/Kategorien/Hautpflege/Hände & Füße/Fußcremes"
2860399031;"beauty/Kategorien/Hautpflege/Hände & Füße/Fußgeruchpflege & -hilfsmittel"
64813031;"beauty/Kategorien/Hautpflege/Hände & Füße/Hand- & Nagelcremes"
2860401031;"beauty/Kategorien/Hautpflege/Hände & Füße/Hilfsmittel für Fußpflege"
2860402031;"beauty/Kategorien/Hautpflege/Hände & Füße/Hilfsmittel für Fußpflege/Bimssteine"
2860403031;"beauty/Kategorien/Hautpflege/Hände & Füße/Hilfsmittel für Fußpflege/Cutter & Zubehör"
2860404031;"beauty/Kategorien/Hautpflege/Hände & Füße/Hilfsmittel für Fußpflege/Raspelfeilen"
2860405031;"beauty/Kategorien/Hautpflege/Hände & Füße/Hühneraugen- & Hornhautpuffer"
2860406031;"beauty/Kategorien/Hautpflege/Hände & Füße/Hühneraugen- & Hornhautsalben"
2975672031;"beauty/Kategorien/Hautpflege/Hände & Füße/Nagelhautpflegeöle"
2975682031;"beauty/Kategorien/Hautpflege/Hände & Füße/Paraffinbäder"
2975683031;"beauty/Kategorien/Hautpflege/Hände & Füße/Peelings"
2860408031;"beauty/Kategorien/Hautpflege/Hände & Füße/Schrundensalben"
122882031;"beauty/Kategorien/Hautpflege/Körper"
2987368031;"beauty/Kategorien/Hautpflege/Körper/Fango"
2987365031;"beauty/Kategorien/Hautpflege/Körper/Feuchtigkeitspflege"
64827031;"beauty/Kategorien/Hautpflege/Körper/Feuchtigkeitspflege/After Sun"
2987366031;"beauty/Kategorien/Hautpflege/Körper/Feuchtigkeitspflege/Body Butter"
122883031;"beauty/Kategorien/Hautpflege/Körper/Feuchtigkeitspflege/Cremes"
122884031;"beauty/Kategorien/Hautpflege/Körper/Feuchtigkeitspflege/Lotionen"
2987367031;"beauty/Kategorien/Hautpflege/Körper/Feuchtigkeitspflege/Mousse"
122885031;"beauty/Kategorien/Hautpflege/Körper/Feuchtigkeitspflege/Öle"
122886031;"beauty/Kategorien/Hautpflege/Körper/Peelings"
2987369031;"beauty/Kategorien/Hautpflege/Körper/Puder"
591315031;"beauty/Kategorien/Hautpflege/Körper/Selbstbräuner"
64828031;"beauty/Kategorien/Hautpflege/Körper/Sonnenschutz"
2987364031;"beauty/Kategorien/Hautpflege/Körper/Straffung & Modellierung"
3520936031;"beauty/Kategorien/Hautpflege/Körper/Toninggeräte"
161312031;"beauty/Kategorien/Hautpflege/Lippen"
2987400031;"beauty/Kategorien/Hautpflege/Lippen/Peelings"
2987399031;"beauty/Kategorien/Hautpflege/Lippen/Pflegestifte & Lippenbalsam"
591317031;"beauty/Kategorien/Hautpflege/Lippen/Sonnenschutz"
64804031;"beauty/Kategorien/Hautpflege/Sonnenschutz & Selbstbräuner"
64827031;"beauty/Kategorien/Hautpflege/Sonnenschutz & Selbstbräuner/After Sun"
2987402031;"beauty/Kategorien/Hautpflege/Sonnenschutz & Selbstbräuner/Bräunungsbeschleuniger"
2987401031;"beauty/Kategorien/Hautpflege/Sonnenschutz & Selbstbräuner/Selbstbräuner"
161317031;"beauty/Kategorien/Hautpflege/Sonnenschutz & Selbstbräuner/Selbstbräuner/Gesichtsselbstbräuner"
591315031;"beauty/Kategorien/Hautpflege/Sonnenschutz & Selbstbräuner/Selbstbräuner/Körperselbstbräuner"
64450031;"beauty/Kategorien/Hautpflege/Sonnenschutz & Selbstbräuner/Solarien & Bräunungsgeräte"
2987659031;"beauty/Kategorien/Hautpflege/Sonnenschutz & Selbstbräuner/Sonnenschutz"
591316031;"beauty/Kategorien/Hautpflege/Sonnenschutz & Selbstbräuner/Sonnenschutz/Gesichtssonnenschutz"
64828031;"beauty/Kategorien/Hautpflege/Sonnenschutz & Selbstbräuner/Sonnenschutz/Körpersonnenschutz"
591317031;"beauty/Kategorien/Hautpflege/Sonnenschutz & Selbstbräuner/Sonnenschutz/Lippensonnenschutz"
122880031;"beauty/Kategorien/Make-Up"
161320031;"beauty/Kategorien/Make-Up/Augen"
161324031;"beauty/Kategorien/Make-Up/Augen/Brauenstifte & -puder"
161325031;"beauty/Kategorien/Make-Up/Augen/Concealer"
161326031;"beauty/Kategorien/Make-Up/Augen/Eyeliner"
3055631031;"beauty/Kategorien/Make-Up/Augen/Glitzer"
161327031;"beauty/Kategorien/Make-Up/Augen/Kajalstifte"
161328031;"beauty/Kategorien/Make-Up/Augen/Künstliche Wimpern"
161329031;"beauty/Kategorien/Make-Up/Augen/Lidschatten"
3055634031;"beauty/Kategorien/Make-Up/Augen/Lidschattengrundierung"
3055633031;"beauty/Kategorien/Make-Up/Augen/Wimpernpflege"
161330031;"beauty/Kategorien/Make-Up/Augen/Wimperntusche"
161321031;"beauty/Kategorien/Make-Up/Gesicht"
3055635031;"beauty/Kategorien/Make-Up/Gesicht/BB & CC Cremes"
3055636031;"beauty/Kategorien/Make-Up/Gesicht/Bronze-Puder"
161331031;"beauty/Kategorien/Make-Up/Gesicht/Concealer"
161333031;"beauty/Kategorien/Make-Up/Gesicht/Grundierung"
3055637031;"beauty/Kategorien/Make-Up/Gesicht/Highlighters"
161334031;"beauty/Kategorien/Make-Up/Gesicht/Make-Up Basis"
3055638031;"beauty/Kategorien/Make-Up/Gesicht/Make-Up Finish"
161335031;"beauty/Kategorien/Make-Up/Gesicht/Puder"
161336031;"beauty/Kategorien/Make-Up/Gesicht/Rouge"
3055625031;"beauty/Kategorien/Make-Up/Körper"
3055636031;"beauty/Kategorien/Make-Up/Körper/Bronze-Puder"
3055628031;"beauty/Kategorien/Make-Up/Körper/Concealer"
3055626031;"beauty/Kategorien/Make-Up/Körper/Glitzer"
3055629031;"beauty/Kategorien/Make-Up/Körper/Henna"
3055627031;"beauty/Kategorien/Make-Up/Körper/Körperfarben"
3055630031;"beauty/Kategorien/Make-Up/Körper/Temporäre Tattoos"
161322031;"beauty/Kategorien/Make-Up/Lippen"
161342031;"beauty/Kategorien/Make-Up/Lippen/Konturenstifte"
161343031;"beauty/Kategorien/Make-Up/Lippen/Lipglosse"
161344031;"beauty/Kategorien/Make-Up/Lippen/Lippenstifte"
3055639031;"beauty/Kategorien/Make-Up/Lippen/Lipmarker"
3055642031;"beauty/Kategorien/Make-Up/Make-Up Entferner"
2987373031;"beauty/Kategorien/Make-Up/Make-Up Entferner/Augenmake-up Entferner"
161371031;"beauty/Kategorien/Make-Up/Make-Up Entferner/Gesichtsmake-up Entferner"
3055641031;"beauty/Kategorien/Make-Up/Make-Up Paletten"
3055643031;"beauty/Kategorien/Make-Up/Make-Up Pinsel & Zubehör"
3055649031;"beauty/Kategorien/Make-Up/Make-Up Pinsel & Zubehör/Augen"
3055650031;"beauty/Kategorien/Make-Up/Make-Up Pinsel & Zubehör/Augen/Applikatoren"
5521659031;"beauty/Kategorien/Make-Up/Make-Up Pinsel & Zubehör/Augen/Augenlidklebeband"
161328031;"beauty/Kategorien/Make-Up/Make-Up Pinsel & Zubehör/Augen/Künstliche Wimpern"
3055652031;"beauty/Kategorien/Make-Up/Make-Up Pinsel & Zubehör/Augen/Pinsel"
3055651031;"beauty/Kategorien/Make-Up/Make-Up Pinsel & Zubehör/Augen/Wimpernkämme & Brauenbürstchen"
161348031;"beauty/Kategorien/Make-Up/Make-Up Pinsel & Zubehör/Augen/Wimpernzangen"
3055653031;"beauty/Kategorien/Make-Up/Make-Up Pinsel & Zubehör/Gesicht"
3055655031;"beauty/Kategorien/Make-Up/Make-Up Pinsel & Zubehör/Gesicht/Pinsel"
3055654031;"beauty/Kategorien/Make-Up/Make-Up Pinsel & Zubehör/Gesicht/Puderpapier"
3055656031;"beauty/Kategorien/Make-Up/Make-Up Pinsel & Zubehör/Gesicht/Schwämmchen"
161347031;"beauty/Kategorien/Make-Up/Make-Up Pinsel & Zubehör/Gesicht/Quasten"
3055648031;"beauty/Kategorien/Make-Up/Make-Up Pinsel & Zubehör/Kompaktspiegel"
3055657031;"beauty/Kategorien/Make-Up/Make-Up Pinsel & Zubehör/Make-Up Taschen & Etuis"
2699170031;"beauty/Kategorien/Make-Up/Make-Up Pinsel & Zubehör/Make-Up Taschen & Etuis/Kosmetikkoffer"
1696280031;"beauty/Kategorien/Make-Up/Make-Up Pinsel & Zubehör/Make-Up Taschen & Etuis/Kosmetiktäschchen"
3055658031;"beauty/Kategorien/Make-Up/Make-Up Pinsel & Zubehör/Make-Up Taschen & Etuis/Make-Up Etuis"
161350031;"beauty/Kategorien/Make-Up/Make-Up Pinsel & Zubehör/Pinsel"
3055652031;"beauty/Kategorien/Make-Up/Make-Up Pinsel & Zubehör/Pinsel/Augenpinsel"
3055655031;"beauty/Kategorien/Make-Up/Make-Up Pinsel & Zubehör/Pinsel/Gesichtspinsel"
3055695031;"beauty/Kategorien/Make-Up/Make-Up Pinsel & Zubehör/Pinsel/Lippenpinsel"
3055644031;"beauty/Kategorien/Make-Up/Make-Up Pinsel & Zubehör/Pinsel/Pinselsets"
161349031;"beauty/Kategorien/Make-Up/Make-Up Pinsel & Zubehör/Pinzetten"
161351031;"beauty/Kategorien/Make-Up/Make-Up Pinsel & Zubehör/Spitzer"
3055659031;"beauty/Kategorien/Make-Up/Make-Up Pinsel & Zubehör/Zubehörsets"
591312031;"beauty/Kategorien/Make-Up/Make-Up Sets"
2975644031;"beauty/Kategorien/Maniküre & Pediküre"
4660231031;"beauty/Kategorien/Maniküre & Pediküre/Hand- & Fußpflege"
2975680031;"beauty/Kategorien/Maniküre & Pediküre/Hand- & Fußpflege/Feuchtigkeitsspendende Handschuhe"
2975681031;"beauty/Kategorien/Maniküre & Pediküre/Hand- & Fußpflege/Feuchtigkeitsspendende Socken"
2975679031;"beauty/Kategorien/Maniküre & Pediküre/Hand- & Fußpflege/Fußbäder"
591291031;"beauty/Kategorien/Maniküre & Pediküre/Hand- & Fußpflege/Fußcremes"
64813031;"beauty/Kategorien/Maniküre & Pediküre/Hand- & Fußpflege/Hand- & Nagelcremes"
2975645031;"beauty/Kategorien/Maniküre & Pediküre/Hand- & Fußpflege/Hocker & Stühle"
2975682031;"beauty/Kategorien/Maniküre & Pediküre/Hand- & Fußpflege/Paraffinbäder"
2975683031;"beauty/Kategorien/Maniküre & Pediküre/Hand- & Fußpflege/Peelings"
591298031;"beauty/Kategorien/Maniküre & Pediküre/Nageldesign"
161345031;"beauty/Kategorien/Maniküre & Pediküre/Nageldesign/Farblack"
2975655031;"beauty/Kategorien/Maniküre & Pediküre/Nageldesign/Hilfsmittel"
591310031;"beauty/Kategorien/Maniküre & Pediküre/Nageldesign/Hilfsmittel/Handauflagen"
591309031;"beauty/Kategorien/Maniküre & Pediküre/Nageldesign/Hilfsmittel/Marmorierwerkzeuge"
2975657031;"beauty/Kategorien/Maniküre & Pediküre/Nageldesign/Hilfsmittel/Nageldesign-Stifte"
2975658031;"beauty/Kategorien/Maniküre & Pediküre/Nageldesign/Hilfsmittel/Nagellackkorrekturstifte"
591307031;"beauty/Kategorien/Maniküre & Pediküre/Nageldesign/Hilfsmittel/Nagelschablonen"
591300031;"beauty/Kategorien/Maniküre & Pediküre/Nageldesign/Hilfsmittel/Nageltrockner"
2975656031;"beauty/Kategorien/Maniküre & Pediküre/Nageldesign/Hilfsmittel/Pinsel"
2975660031;"beauty/Kategorien/Maniküre & Pediküre/Nageldesign/Hilfsmittel/Spa Slippers"
2975661031;"beauty/Kategorien/Maniküre & Pediküre/Nageldesign/Hilfsmittel/Stempel & Schaber"
2975659031;"beauty/Kategorien/Maniküre & Pediküre/Nageldesign/Hilfsmittel/Übungshände & -finger"
2975663031;"beauty/Kategorien/Maniküre & Pediküre/Nageldesign/Hilfsmittel/Zehenspreizer"
161346031;"beauty/Kategorien/Maniküre & Pediküre/Nageldesign/Künstliche Nägel & Zubehör"
591302031;"beauty/Kategorien/Maniküre & Pediküre/Nageldesign/Künstliche Nägel & Zubehör/Acryl"
591303031;"beauty/Kategorien/Maniküre & Pediküre/Nageldesign/Künstliche Nägel & Zubehör/Fiberglas & Seide"
591301031;"beauty/Kategorien/Maniküre & Pediküre/Nageldesign/Künstliche Nägel & Zubehör/Gel"
2975648031;"beauty/Kategorien/Maniküre & Pediküre/Nageldesign/Künstliche Nägel & Zubehör/Nagelformen"
2975646031;"beauty/Kategorien/Maniküre & Pediküre/Nageldesign/Künstliche Nägel & Zubehör/Nagelkleber"
2975647031;"beauty/Kategorien/Maniküre & Pediküre/Nageldesign/Künstliche Nägel & Zubehör/Nagelspitzen"
2975649031;"beauty/Kategorien/Maniküre & Pediküre/Nageldesign/Nagelkunst & Zubehör"
2975650031;"beauty/Kategorien/Maniküre & Pediküre/Nageldesign/Nagelkunst & Zubehör/Dekorationssets"
3520935031;"beauty/Kategorien/Maniküre & Pediküre/Nageldesign/Nagelkunst & Zubehör/Fimo"
2975651031;"beauty/Kategorien/Maniküre & Pediküre/Nageldesign/Nagelkunst & Zubehör/Glitzerpuder"
2975654031;"beauty/Kategorien/Maniküre & Pediküre/Nageldesign/Nagelkunst & Zubehör/Schmuck"
591305031;"beauty/Kategorien/Maniküre & Pediküre/Nageldesign/Nagelkunst & Zubehör/Sticker"
2975652031;"beauty/Kategorien/Maniküre & Pediküre/Nageldesign/Nagelkunst & Zubehör/Strasssteine"
2975653031;"beauty/Kategorien/Maniküre & Pediküre/Nageldesign/Nagelkunst & Zubehör/Wraps"
179343031;"beauty/Kategorien/Maniküre & Pediküre/Nageldesign/Nagellackentferner"
591308031;"beauty/Kategorien/Maniküre & Pediküre/Nageldesign/Nagelstudio-Sets"
591295031;"beauty/Kategorien/Maniküre & Pediküre/Nageldesign/Unter- & Überlack"
2975664031;"beauty/Kategorien/Maniküre & Pediküre/Nagelpflegeprodukte"
2975670031;"beauty/Kategorien/Maniküre & Pediküre/Nagelpflegeprodukte/Nagelaufheller"
2975669031;"beauty/Kategorien/Maniküre & Pediküre/Nagelpflegeprodukte/Nagelhärter"
2975666031;"beauty/Kategorien/Maniküre & Pediküre/Nagelpflegeprodukte/Nagelwachstumsformeln"
2975667031;"beauty/Kategorien/Maniküre & Pediküre/Nagelpflegeprodukte/Rillenfüller"
2975674031;"beauty/Kategorien/Maniküre & Pediküre/Werkzeuge & Zubehör"
2860402031;"beauty/Kategorien/Maniküre & Pediküre/Werkzeuge & Zubehör/Bimssteine"
2860403031;"beauty/Kategorien/Maniküre & Pediküre/Werkzeuge & Zubehör/Cutter & Zubehör"
2975655031;"beauty/Kategorien/Maniküre & Pediküre/Werkzeuge & Zubehör/Nageldesignhilfsmittel"
591310031;"beauty/Kategorien/Maniküre & Pediküre/Werkzeuge & Zubehör/Nageldesignhilfsmittel/Handauflagen"
591309031;"beauty/Kategorien/Maniküre & Pediküre/Werkzeuge & Zubehör/Nageldesignhilfsmittel/Marmorierwerkzeuge"
2975657031;"beauty/Kategorien/Maniküre & Pediküre/Werkzeuge & Zubehör/Nageldesignhilfsmittel/Nageldesign-Stifte"
2975658031;"beauty/Kategorien/Maniküre & Pediküre/Werkzeuge & Zubehör/Nageldesignhilfsmittel/Nagellackkorrekturstifte"
591307031;"beauty/Kategorien/Maniküre & Pediküre/Werkzeuge & Zubehör/Nageldesignhilfsmittel/Nagelschablonen"
591300031;"beauty/Kategorien/Maniküre & Pediküre/Werkzeuge & Zubehör/Nageldesignhilfsmittel/Nageltrockner"
2975656031;"beauty/Kategorien/Maniküre & Pediküre/Werkzeuge & Zubehör/Nageldesignhilfsmittel/Pinsel"
2975660031;"beauty/Kategorien/Maniküre & Pediküre/Werkzeuge & Zubehör/Nageldesignhilfsmittel/Spa Slippers"
2975661031;"beauty/Kategorien/Maniküre & Pediküre/Werkzeuge & Zubehör/Nageldesignhilfsmittel/Stempel & Schaber"
2975659031;"beauty/Kategorien/Maniküre & Pediküre/Werkzeuge & Zubehör/Nageldesignhilfsmittel/Übungshände & -finger"
2975663031;"beauty/Kategorien/Maniküre & Pediküre/Werkzeuge & Zubehör/Nageldesignhilfsmittel/Zehenspreizer"
64816031;"beauty/Kategorien/Maniküre & Pediküre/Werkzeuge & Zubehör/Nagelfeilen"
2975675031;"beauty/Kategorien/Maniküre & Pediküre/Werkzeuge & Zubehör/Nagelhautschieber"
64817031;"beauty/Kategorien/Maniküre & Pediküre/Werkzeuge & Zubehör/Nagelknipser"
2975678031;"beauty/Kategorien/Maniküre & Pediküre/Werkzeuge & Zubehör/Nagelscheren"
2975676031;"beauty/Kategorien/Maniküre & Pediküre/Werkzeuge & Zubehör/Nagelzangen"
591306031;"beauty/Kategorien/Maniküre & Pediküre/Werkzeuge & Zubehör/Polierblöcke"
2860404031;"beauty/Kategorien/Maniküre & Pediküre/Werkzeuge & Zubehör/Raspelfeilen"
591299031;"beauty/Kategorien/Maniküre & Pediküre/Werkzeuge & Zubehör/Schleifgeräte & Zubehör"
64821031;"beauty/Kategorien/Maniküre & Pediküre/Werkzeuge & Zubehör/Sets & Kits"
591311031;"beauty/Kategorien/Maniküre & Pediküre/Werkzeuge & Zubehör/Tipcutters"
64266031;"beauty/Kategorien/Rasur & Enthaarung"
3186359031;"beauty/Kategorien/Rasur & Enthaarung/Elektrische Rasierer"
64342031;"beauty/Kategorien/Rasur & Enthaarung/Elektrische Rasierer/Frauen"
3186364031;"beauty/Kategorien/Rasur & Enthaarung/Elektrische Rasierer/Männer"
3186365031;"beauty/Kategorien/Rasur & Enthaarung/Elektrische Rasierer/Männer/Folienrasierer"
3186366031;"beauty/Kategorien/Rasur & Enthaarung/Elektrische Rasierer/Männer/Rotationsrasierer"
3186360031;"beauty/Kategorien/Rasur & Enthaarung/Elektrische Rasierer/Zubehör"
3186362031;"beauty/Kategorien/Rasur & Enthaarung/Elektrische Rasierer/Zubehör/Ersatzfolien"
3186363031;"beauty/Kategorien/Rasur & Enthaarung/Elektrische Rasierer/Zubehör/Ersatzscherköpfe"
3186361031;"beauty/Kategorien/Rasur & Enthaarung/Elektrische Rasierer/Zubehör/Lade- & Netzgeräte"
3186367031;"beauty/Kategorien/Rasur & Enthaarung/Haarentfernung"
3186368031;"beauty/Kategorien/Rasur & Enthaarung/Haarentfernung/Bleaching"
3186369031;"beauty/Kategorien/Rasur & Enthaarung/Haarentfernung/Elektrolyse-Systeme"
64340031;"beauty/Kategorien/Rasur & Enthaarung/Haarentfernung/Enthaarungsmittel"
64341031;"beauty/Kategorien/Rasur & Enthaarung/Haarentfernung/Epiliergeräte & Zubehör"
3186375031;"beauty/Kategorien/Rasur & Enthaarung/Haarentfernung/Episticks"
3186370031;"beauty/Kategorien/Rasur & Enthaarung/Haarentfernung/IPL"
3186371031;"beauty/Kategorien/Rasur & Enthaarung/Haarentfernung/IPL/Ersatzkartuschen"
3186372031;"beauty/Kategorien/Rasur & Enthaarung/Haarentfernung/IPL/Systeme"
3186373031;"beauty/Kategorien/Rasur & Enthaarung/Haarentfernung/Laser-Systeme"
3186374031;"beauty/Kategorien/Rasur & Enthaarung/Haarentfernung/Pads"
3186376031;"beauty/Kategorien/Rasur & Enthaarung/Haarentfernung/Pinzetten"
64347031;"beauty/Kategorien/Rasur & Enthaarung/Haarentfernung/Wachsen"
3186377031;"beauty/Kategorien/Rasur & Enthaarung/Haarentfernung/Wachsen/Kits"
2987369031;"beauty/Kategorien/Rasur & Enthaarung/Haarentfernung/Wachsen/Puder"
3186378031;"beauty/Kategorien/Rasur & Enthaarung/Haarentfernung/Wachsen/Roll-Ons"
3186379031;"beauty/Kategorien/Rasur & Enthaarung/Haarentfernung/Wachsen/Spatel"
3186380031;"beauty/Kategorien/Rasur & Enthaarung/Haarentfernung/Wachsen/Streifen"
3186382031;"beauty/Kategorien/Rasur & Enthaarung/Haarentfernung/Wachsen/Wachs"
3186383031;"beauty/Kategorien/Rasur & Enthaarung/Haarentfernung/Wachsen/Wachswärmer"
3186381031;"beauty/Kategorien/Rasur & Enthaarung/Haarentfernung/Wachsen/Zuckerpaste"
64343031;"beauty/Kategorien/Rasur & Enthaarung/Handrasur"
3186393031;"beauty/Kategorien/Rasur & Enthaarung/Handrasur/Frauen"
3186394031;"beauty/Kategorien/Rasur & Enthaarung/Handrasur/Frauen/Rasierklingen"
3186395031;"beauty/Kategorien/Rasur & Enthaarung/Handrasur/Frauen/Rasierer"
3186389031;"beauty/Kategorien/Rasur & Enthaarung/Handrasur/Männer"
3186390031;"beauty/Kategorien/Rasur & Enthaarung/Handrasur/Männer/Rasierklingen"
3186391031;"beauty/Kategorien/Rasur & Enthaarung/Handrasur/Männer/Rasierer"
3186392031;"beauty/Kategorien/Rasur & Enthaarung/Handrasur/Männer/Sets"
3186385031;"beauty/Kategorien/Rasur & Enthaarung/Handrasur/Zubehör"
64352031;"beauty/Kategorien/Rasur & Enthaarung/Handrasur/Zubehör/Rasierpinsel"
3186387031;"beauty/Kategorien/Rasur & Enthaarung/Handrasur/Zubehör/Rasierseifenschalen"
3186388031;"beauty/Kategorien/Rasur & Enthaarung/Handrasur/Zubehör/Rasierständer"
3186396031;"beauty/Kategorien/Rasur & Enthaarung/Nachbehandlungen"
3186397031;"beauty/Kategorien/Rasur & Enthaarung/Nachbehandlungen/Adstringenten"
64348031;"beauty/Kategorien/Rasur & Enthaarung/Nachbehandlungen/Aftershaves"
3186398031;"beauty/Kategorien/Rasur & Enthaarung/Nachbehandlungen/Balms"
3186400031;"beauty/Kategorien/Rasur & Enthaarung/Nachbehandlungen/Behandlung eingewachsener Haare"
3186399031;"beauty/Kategorien/Rasur & Enthaarung/Nachbehandlungen/Gele"
3186401031;"beauty/Kategorien/Rasur & Enthaarung/Nachbehandlungen/Kits"
3197089031;"beauty/Kategorien/Rasur & Enthaarung/Nachbehandlungen/Lotionen & Fluide"
3204313031;"beauty/Kategorien/Rasur & Enthaarung/Nachbehandlungen/Peelinghandschuhe"
3186406031;"beauty/Kategorien/Rasur & Enthaarung/Scheren"
2867679031;"beauty/Kategorien/Rasur & Enthaarung/Scheren/Haarscheren"
64351031;"beauty/Kategorien/Rasur & Enthaarung/Scheren/Nase & Ohren"
64346031;"beauty/Kategorien/Rasur & Enthaarung/Trimmer, Scherer & Körperhaartrimmer"
3186409031;"beauty/Kategorien/Rasur & Enthaarung/Trimmer, Scherer & Körperhaartrimmer/Gesichtshaartrimmer"
3186410031;"beauty/Kategorien/Rasur & Enthaarung/Trimmer, Scherer & Körperhaartrimmer/Haarscherer"
3186408031;"beauty/Kategorien/Rasur & Enthaarung/Trimmer, Scherer & Körperhaartrimmer/Körperhaartrimmer"
3186411031;"beauty/Kategorien/Rasur & Enthaarung/Trimmer, Scherer & Körperhaartrimmer/Sets & Kits"
3198889031;"beauty/Kategorien/Rasur & Enthaarung/Trimmer, Scherer & Körperhaartrimmer/Trimmer- & Scherkämme"
3186412031;"beauty/Kategorien/Rasur & Enthaarung/Trimmer, Scherer & Körperhaartrimmer/Trimmer- & Scheröle"
3186413031;"beauty/Kategorien/Rasur & Enthaarung/Trimmer, Scherer & Körperhaartrimmer/Trimmer für Frauen"
3186402031;"beauty/Kategorien/Rasur & Enthaarung/Vorbehandlungen"
3197090031;"beauty/Kategorien/Rasur & Enthaarung/Vorbehandlungen/Cremes"
3197092031;"beauty/Kategorien/Rasur & Enthaarung/Vorbehandlungen/Gele"
3197093031;"beauty/Kategorien/Rasur & Enthaarung/Vorbehandlungen/Kits"
3186403031;"beauty/Kategorien/Rasur & Enthaarung/Vorbehandlungen/Lotionen"
3204313031;"beauty/Kategorien/Rasur & Enthaarung/Vorbehandlungen/Peelinghandschuhe"
3197091031;"beauty/Kategorien/Rasur & Enthaarung/Vorbehandlungen/Schäume"
3186405031;"beauty/Kategorien/Rasur & Enthaarung/Vorbehandlungen/Seifen"
3186404031;"beauty/Kategorien/Rasur & Enthaarung/Vorbehandlungen/Öle"
3186354031;"beauty/Kategorien/Rasur & Enthaarung/Zubehör"
3186362031;"beauty/Kategorien/Rasur & Enthaarung/Zubehör/Ersatzfolien"
3186371031;"beauty/Kategorien/Rasur & Enthaarung/Zubehör/Ersatzkartuschen"
3186363031;"beauty/Kategorien/Rasur & Enthaarung/Zubehör/Ersatzscherköpfe"
3186361031;"beauty/Kategorien/Rasur & Enthaarung/Zubehör/Lade- & Netzgeräte"
3186390031;"beauty/Kategorien/Rasur & Enthaarung/Zubehör/Rasierklingen"
3186394031;"beauty/Kategorien/Rasur & Enthaarung/Zubehör/Rasierklingen für Frauenrasierer"
64352031;"beauty/Kategorien/Rasur & Enthaarung/Zubehör/Rasierpinsel"
3186387031;"beauty/Kategorien/Rasur & Enthaarung/Zubehör/Rasierseifenschalen"
3186388031;"beauty/Kategorien/Rasur & Enthaarung/Zubehör/Rasierständer"
3186355031;"beauty/Kategorien/Rasur & Enthaarung/Zubehör/Reinigung"
3186356031;"beauty/Kategorien/Rasur & Enthaarung/Zubehör/Reinigung/Bürsten"
3186358031;"beauty/Kategorien/Rasur & Enthaarung/Zubehör/Reinigung/Flüssigkeiten & Sprays"
3186357031;"beauty/Kategorien/Rasur & Enthaarung/Zubehör/Reinigung/Kartuschen"
3186379031;"beauty/Kategorien/Rasur & Enthaarung/Zubehör/Spatel"
3198889031;"beauty/Kategorien/Rasur & Enthaarung/Zubehör/Trimmer & Scherkämme"
3186412031;"beauty/Kategorien/Rasur & Enthaarung/Zubehör/Trimmer & Scheröle"
3186383031;"beauty/Kategorien/Rasur & Enthaarung/Zubehör/Wachswärmer"
122881031;"beauty/Kategorien/Zubehör"
3537793031;"beauty/Kategorien/Zubehör/Kulturbeutel, Schminkkoffer & Parfumzerstäuber"
190773011;"beauty/Kategorien/Zubehör/Kulturbeutel, Schminkkoffer & Parfumzerstäuber/Kulturtaschen"
3055657031;"beauty/Kategorien/Zubehör/Kulturbeutel, Schminkkoffer & Parfumzerstäuber/Make-Up Taschen & Etuis"
2699170031;"beauty/Kategorien/Zubehör/Kulturbeutel, Schminkkoffer & Parfumzerstäuber/Make-Up Taschen & Etuis/Kosmetikkoffer"
1696280031;"beauty/Kategorien/Zubehör/Kulturbeutel, Schminkkoffer & Parfumzerstäuber/Make-Up Taschen & Etuis/Kosmetiktäschchen"
3055658031;"beauty/Kategorien/Zubehör/Kulturbeutel, Schminkkoffer & Parfumzerstäuber/Make-Up Taschen & Etuis/Make-Up Etuis"
591313031;"beauty/Kategorien/Zubehör/Kulturbeutel, Schminkkoffer & Parfumzerstäuber/Parfümzerstäuber"
3055643031;"beauty/Kategorien/Zubehör/Make-Up Pinsel & Zubehör"
3055649031;"beauty/Kategorien/Zubehör/Make-Up Pinsel & Zubehör/Augen"
3055650031;"beauty/Kategorien/Zubehör/Make-Up Pinsel & Zubehör/Augen/Applikatoren"
5521659031;"beauty/Kategorien/Zubehör/Make-Up Pinsel & Zubehör/Augen/Augenlidklebeband"
161328031;"beauty/Kategorien/Zubehör/Make-Up Pinsel & Zubehör/Augen/Künstliche Wimpern"
3055652031;"beauty/Kategorien/Zubehör/Make-Up Pinsel & Zubehör/Augen/Pinsel"
3055651031;"beauty/Kategorien/Zubehör/Make-Up Pinsel & Zubehör/Augen/Wimpernkämme & Brauenbürstchen"
161348031;"beauty/Kategorien/Zubehör/Make-Up Pinsel & Zubehör/Augen/Wimpernzangen"
3055653031;"beauty/Kategorien/Zubehör/Make-Up Pinsel & Zubehör/Gesicht"
3055655031;"beauty/Kategorien/Zubehör/Make-Up Pinsel & Zubehör/Gesicht/Pinsel"
3055654031;"beauty/Kategorien/Zubehör/Make-Up Pinsel & Zubehör/Gesicht/Puderpapier"
3055656031;"beauty/Kategorien/Zubehör/Make-Up Pinsel & Zubehör/Gesicht/Schwämmchen"
161347031;"beauty/Kategorien/Zubehör/Make-Up Pinsel & Zubehör/Gesicht/Quasten"
3055648031;"beauty/Kategorien/Zubehör/Make-Up Pinsel & Zubehör/Kompaktspiegel"
3055657031;"beauty/Kategorien/Zubehör/Make-Up Pinsel & Zubehör/Make-Up Taschen & Etuis"
2699170031;"beauty/Kategorien/Zubehör/Make-Up Pinsel & Zubehör/Make-Up Taschen & Etuis/Kosmetikkoffer"
1696280031;"beauty/Kategorien/Zubehör/Make-Up Pinsel & Zubehör/Make-Up Taschen & Etuis/Kosmetiktäschchen"
3055658031;"beauty/Kategorien/Zubehör/Make-Up Pinsel & Zubehör/Make-Up Taschen & Etuis/Make-Up Etuis"
161350031;"beauty/Kategorien/Zubehör/Make-Up Pinsel & Zubehör/Pinsel"
3055652031;"beauty/Kategorien/Zubehör/Make-Up Pinsel & Zubehör/Pinsel/Augenpinsel"
3055655031;"beauty/Kategorien/Zubehör/Make-Up Pinsel & Zubehör/Pinsel/Gesichtspinsel"
3055695031;"beauty/Kategorien/Zubehör/Make-Up Pinsel & Zubehör/Pinsel/Lippenpinsel"
3055644031;"beauty/Kategorien/Zubehör/Make-Up Pinsel & Zubehör/Pinsel/Pinselsets"
161349031;"beauty/Kategorien/Zubehör/Make-Up Pinsel & Zubehör/Pinzetten"
161351031;"beauty/Kategorien/Zubehör/Make-Up Pinsel & Zubehör/Spitzer"
3055659031;"beauty/Kategorien/Zubehör/Make-Up Pinsel & Zubehör/Zubehörsets"
64807031;"beauty/Kategorien/Zubehör/Wattestäbchen"
129371031;"beauty/Marken"
129368031;"beauty/Shops"
129372031;"beauty/Shops/Custom Stores"
129373031;"beauty/Shops/Content Stores"
161205031;"beauty/Shops/Content Stores/Für den Mann"
179300031;"beauty/Shops/Content Stores/Maybelline"
179302031;"beauty/Shops/Content Stores/Maybelline/Lippen"
179303031;"beauty/Shops/Content Stores/Maybelline/Teint"
179305031;"beauty/Shops/Content Stores/Maybelline/Augen"
179301031;"beauty/Shops/Content Stores/Garnier"
179307031;"beauty/Shops/Content Stores/Garnier/Haarpflege"
366056031;"beauty/Shops/Content Stores/Amazon Spar-Abo Parfümerie & Kosmetik"
129374031;"beauty/Shops/Regular Stores"
213153031;"beauty/Shops/Regular Stores/Aktuelle Preishits"
