365183031;"lebensmittel_and_getranke/Erweiterte Suche"
344162031;"lebensmittel_and_getranke/Featured Categories"
358555031;"lebensmittel_and_getranke/Featured Categories/Babynahrung"
364599031;"lebensmittel_and_getranke/Featured Categories/Babynahrung/Getränke"
1380787031;"lebensmittel_and_getranke/Featured Categories/Babynahrung/Glas- und Beikost"
1380791031;"lebensmittel_and_getranke/Featured Categories/Babynahrung/Glas- und Beikost/Fleischzubereitungen"
1380789031;"lebensmittel_and_getranke/Featured Categories/Babynahrung/Glas- und Beikost/Frucht, Getreide & Joghurt Zubereitungen"
364597031;"lebensmittel_and_getranke/Featured Categories/Babynahrung/Glas- und Beikost/Früchte & Desserts"
364598031;"lebensmittel_and_getranke/Featured Categories/Babynahrung/Glas- und Beikost/Gemüse"
364602031;"lebensmittel_and_getranke/Featured Categories/Babynahrung/Glas- und Beikost/Menüs"
1380790031;"lebensmittel_and_getranke/Featured Categories/Babynahrung/Glas- und Beikost/Suppen"
364600031;"lebensmittel_and_getranke/Featured Categories/Babynahrung/Milch- & Getreidebreie"
364603031;"lebensmittel_and_getranke/Featured Categories/Babynahrung/Milchnahrung"
1386607031;"lebensmittel_and_getranke/Featured Categories/Babynahrung/Milchnahrung/Anfangsmilch"
1386608031;"lebensmittel_and_getranke/Featured Categories/Babynahrung/Milchnahrung/Folgemilch"
1386609031;"lebensmittel_and_getranke/Featured Categories/Babynahrung/Milchnahrung/Kindermilch"
1380788031;"lebensmittel_and_getranke/Featured Categories/Babynahrung/Snacks & Kekse"
1380801031;"lebensmittel_and_getranke/Featured Categories/Babynahrung/Snacks & Kekse/Früchteriegel"
364601031;"lebensmittel_and_getranke/Featured Categories/Babynahrung/Snacks & Kekse/Kekse, Zwieback und Chips"
358556031;"lebensmittel_and_getranke/Featured Categories/Bier, Wein & Spirituosen"
364605031;"lebensmittel_and_getranke/Featured Categories/Bier, Wein & Spirituosen/Bier"
364609031;"lebensmittel_and_getranke/Featured Categories/Bier, Wein & Spirituosen/Champagner"
364606031;"lebensmittel_and_getranke/Featured Categories/Bier, Wein & Spirituosen/Cider"
364607031;"lebensmittel_and_getranke/Featured Categories/Bier, Wein & Spirituosen/Sekt & Schaumwein"
364608031;"lebensmittel_and_getranke/Featured Categories/Bier, Wein & Spirituosen/Sekt & Schaumwein/Cava"
364610031;"lebensmittel_and_getranke/Featured Categories/Bier, Wein & Spirituosen/Sekt & Schaumwein/Cremant"
364611031;"lebensmittel_and_getranke/Featured Categories/Bier, Wein & Spirituosen/Sekt & Schaumwein/Prosecco"
364612031;"lebensmittel_and_getranke/Featured Categories/Bier, Wein & Spirituosen/Sekt & Schaumwein/Sekt"
364613031;"lebensmittel_and_getranke/Featured Categories/Bier, Wein & Spirituosen/Spirituosen"
364614031;"lebensmittel_and_getranke/Featured Categories/Bier, Wein & Spirituosen/Spirituosen/Brandy"
364615031;"lebensmittel_and_getranke/Featured Categories/Bier, Wein & Spirituosen/Spirituosen/Cocktails"
364616031;"lebensmittel_and_getranke/Featured Categories/Bier, Wein & Spirituosen/Spirituosen/Cognac"
364617031;"lebensmittel_and_getranke/Featured Categories/Bier, Wein & Spirituosen/Spirituosen/Gin"
2185773031;"lebensmittel_and_getranke/Featured Categories/Bier, Wein & Spirituosen/Spirituosen/Grappa"
364618031;"lebensmittel_and_getranke/Featured Categories/Bier, Wein & Spirituosen/Spirituosen/Liköre"
406401031;"lebensmittel_and_getranke/Featured Categories/Bier, Wein & Spirituosen/Spirituosen/Madeirawein"
406400031;"lebensmittel_and_getranke/Featured Categories/Bier, Wein & Spirituosen/Spirituosen/Marsalawein"
364619031;"lebensmittel_and_getranke/Featured Categories/Bier, Wein & Spirituosen/Spirituosen/Obstbrände"
406399031;"lebensmittel_and_getranke/Featured Categories/Bier, Wein & Spirituosen/Spirituosen/Portwein"
364620031;"lebensmittel_and_getranke/Featured Categories/Bier, Wein & Spirituosen/Spirituosen/Rum"
364621031;"lebensmittel_and_getranke/Featured Categories/Bier, Wein & Spirituosen/Spirituosen/Sherry"
364622031;"lebensmittel_and_getranke/Featured Categories/Bier, Wein & Spirituosen/Spirituosen/Tequila"
364623031;"lebensmittel_and_getranke/Featured Categories/Bier, Wein & Spirituosen/Spirituosen/Wermut"
364624031;"lebensmittel_and_getranke/Featured Categories/Bier, Wein & Spirituosen/Spirituosen/Whisky"
364625031;"lebensmittel_and_getranke/Featured Categories/Bier, Wein & Spirituosen/Spirituosen/Wodka"
364626031;"lebensmittel_and_getranke/Featured Categories/Bier, Wein & Spirituosen/Wein"
358557031;"lebensmittel_and_getranke/Featured Categories/Brot & Backwaren"
364627031;"lebensmittel_and_getranke/Featured Categories/Brot & Backwaren/Brot"
364628031;"lebensmittel_and_getranke/Featured Categories/Brot & Backwaren/Brötchen"
364632031;"lebensmittel_and_getranke/Featured Categories/Brot & Backwaren/Knäckebrot & Zwieback"
364633031;"lebensmittel_and_getranke/Featured Categories/Brot & Backwaren/Kuchen"
364635031;"lebensmittel_and_getranke/Featured Categories/Brot & Backwaren/Muffins"
364636031;"lebensmittel_and_getranke/Featured Categories/Brot & Backwaren/Süße Backwaren"
364637031;"lebensmittel_and_getranke/Featured Categories/Brot & Backwaren/Tortenböden"
364638031;"lebensmittel_and_getranke/Featured Categories/Brot & Backwaren/Waffeln"
358558031;"lebensmittel_and_getranke/Featured Categories/Eingelegtes & Relishes"
364639031;"lebensmittel_and_getranke/Featured Categories/Eingelegtes & Relishes/Artischocken"
364640031;"lebensmittel_and_getranke/Featured Categories/Eingelegtes & Relishes/Gurken"
364641031;"lebensmittel_and_getranke/Featured Categories/Eingelegtes & Relishes/Kapern"
364642031;"lebensmittel_and_getranke/Featured Categories/Eingelegtes & Relishes/Knoblauch"
364644031;"lebensmittel_and_getranke/Featured Categories/Eingelegtes & Relishes/Mixed Pickles"
364645031;"lebensmittel_and_getranke/Featured Categories/Eingelegtes & Relishes/Oliven"
364646031;"lebensmittel_and_getranke/Featured Categories/Eingelegtes & Relishes/Pepperoni"
364649031;"lebensmittel_and_getranke/Featured Categories/Eingelegtes & Relishes/Rotkohl"
364650031;"lebensmittel_and_getranke/Featured Categories/Eingelegtes & Relishes/Sauerkraut"
364651031;"lebensmittel_and_getranke/Featured Categories/Eingelegtes & Relishes/Zwiebeln"
358559031;"lebensmittel_and_getranke/Featured Categories/Fisch & Meeresfrüchte"
364652031;"lebensmittel_and_getranke/Featured Categories/Fisch & Meeresfrüchte/Austern"
364653031;"lebensmittel_and_getranke/Featured Categories/Fisch & Meeresfrüchte/Fisch"
364654031;"lebensmittel_and_getranke/Featured Categories/Fisch & Meeresfrüchte/Hummer"
364655031;"lebensmittel_and_getranke/Featured Categories/Fisch & Meeresfrüchte/Kaviar & Fischeier"
364656031;"lebensmittel_and_getranke/Featured Categories/Fisch & Meeresfrüchte/Krabben"
364657031;"lebensmittel_and_getranke/Featured Categories/Fisch & Meeresfrüchte/Krebse"
364658031;"lebensmittel_and_getranke/Featured Categories/Fisch & Meeresfrüchte/Muscheln"
364659031;"lebensmittel_and_getranke/Featured Categories/Fisch & Meeresfrüchte/Shrimps & Garnelen"
358560031;"lebensmittel_and_getranke/Featured Categories/Fleisch & Wurstwaren"
364660031;"lebensmittel_and_getranke/Featured Categories/Fleisch & Wurstwaren/Aufschnittwurst"
2185775031;"lebensmittel_and_getranke/Featured Categories/Fleisch & Wurstwaren/Fleisch- & Wurstsalate"
364662031;"lebensmittel_and_getranke/Featured Categories/Fleisch & Wurstwaren/Geflügel"
364663031;"lebensmittel_and_getranke/Featured Categories/Fleisch & Wurstwaren/Geräuchertes & Dörrfleisch"
364664031;"lebensmittel_and_getranke/Featured Categories/Fleisch & Wurstwaren/Kalb"
364665031;"lebensmittel_and_getranke/Featured Categories/Fleisch & Wurstwaren/Lamm"
364666031;"lebensmittel_and_getranke/Featured Categories/Fleisch & Wurstwaren/Pasteten"
364667031;"lebensmittel_and_getranke/Featured Categories/Fleisch & Wurstwaren/Rind"
364668031;"lebensmittel_and_getranke/Featured Categories/Fleisch & Wurstwaren/Schwein"
364669031;"lebensmittel_and_getranke/Featured Categories/Fleisch & Wurstwaren/Wild"
364670031;"lebensmittel_and_getranke/Featured Categories/Fleisch & Wurstwaren/Würste"
358561031;"lebensmittel_and_getranke/Featured Categories/Früchte"
364671031;"lebensmittel_and_getranke/Featured Categories/Früchte/Ananas"
364673031;"lebensmittel_and_getranke/Featured Categories/Früchte/Aprikosen"
364674031;"lebensmittel_and_getranke/Featured Categories/Früchte/Avocados"
364675031;"lebensmittel_and_getranke/Featured Categories/Früchte/Bananen"
364676031;"lebensmittel_and_getranke/Featured Categories/Früchte/Birnen"
364678031;"lebensmittel_and_getranke/Featured Categories/Früchte/Datteln"
364679031;"lebensmittel_and_getranke/Featured Categories/Früchte/Feigen"
364680031;"lebensmittel_and_getranke/Featured Categories/Früchte/Fruchtmischungen"
2185780031;"lebensmittel_and_getranke/Featured Categories/Früchte/Goji Beeren"
364681031;"lebensmittel_and_getranke/Featured Categories/Früchte/Grapefruits"
2185781031;"lebensmittel_and_getranke/Featured Categories/Früchte/Jackfrucht"
364682031;"lebensmittel_and_getranke/Featured Categories/Früchte/Kirschen"
426540031;"lebensmittel_and_getranke/Featured Categories/Früchte/Kiwis"
2185782031;"lebensmittel_and_getranke/Featured Categories/Früchte/Kokosnuss"
426542031;"lebensmittel_and_getranke/Featured Categories/Früchte/Mandarinen"
364683031;"lebensmittel_and_getranke/Featured Categories/Früchte/Mangos"
364684031;"lebensmittel_and_getranke/Featured Categories/Früchte/Melonen"
426544031;"lebensmittel_and_getranke/Featured Categories/Früchte/Mirabellen"
426545031;"lebensmittel_and_getranke/Featured Categories/Früchte/Nektarinen"
364685031;"lebensmittel_and_getranke/Featured Categories/Früchte/Orangen"
364686031;"lebensmittel_and_getranke/Featured Categories/Früchte/Papayas"
364687031;"lebensmittel_and_getranke/Featured Categories/Früchte/Pfirsiche"
364688031;"lebensmittel_and_getranke/Featured Categories/Früchte/Pflaumen"
2185784031;"lebensmittel_and_getranke/Featured Categories/Früchte/Physalis"
364677031;"lebensmittel_and_getranke/Featured Categories/Früchte/Preiselbeeren"
364690031;"lebensmittel_and_getranke/Featured Categories/Früchte/Weintrauben & Rosinen"
364691031;"lebensmittel_and_getranke/Featured Categories/Früchte/Zitronen & Limetten"
364672031;"lebensmittel_and_getranke/Featured Categories/Früchte/Äpfel"
358562031;"lebensmittel_and_getranke/Featured Categories/Gemüse"
364692031;"lebensmittel_and_getranke/Featured Categories/Gemüse/Artischocken"
364693031;"lebensmittel_and_getranke/Featured Categories/Gemüse/Auberginen"
364699031;"lebensmittel_and_getranke/Featured Categories/Gemüse/Bohnen"
364696031;"lebensmittel_and_getranke/Featured Categories/Gemüse/Chilischoten"
426552031;"lebensmittel_and_getranke/Featured Categories/Gemüse/Fenchel"
364698031;"lebensmittel_and_getranke/Featured Categories/Gemüse/Gemüsemischungen"
426554031;"lebensmittel_and_getranke/Featured Categories/Gemüse/Gurken"
364700031;"lebensmittel_and_getranke/Featured Categories/Gemüse/Karotten"
364701031;"lebensmittel_and_getranke/Featured Categories/Gemüse/Kartoffeln"
364703031;"lebensmittel_and_getranke/Featured Categories/Gemüse/Lauch"
364704031;"lebensmittel_and_getranke/Featured Categories/Gemüse/Mais"
364705031;"lebensmittel_and_getranke/Featured Categories/Gemüse/Meeresgemüse"
426561031;"lebensmittel_and_getranke/Featured Categories/Gemüse/Okra"
364706031;"lebensmittel_and_getranke/Featured Categories/Gemüse/Oliven"
364707031;"lebensmittel_and_getranke/Featured Categories/Gemüse/Paprika"
364708031;"lebensmittel_and_getranke/Featured Categories/Gemüse/Pastinaken"
364709031;"lebensmittel_and_getranke/Featured Categories/Gemüse/Pilze & Trüffel"
426562031;"lebensmittel_and_getranke/Featured Categories/Gemüse/Radieschen"
364711031;"lebensmittel_and_getranke/Featured Categories/Gemüse/Salat"
364712031;"lebensmittel_and_getranke/Featured Categories/Gemüse/Spargel"
364713031;"lebensmittel_and_getranke/Featured Categories/Gemüse/Tomaten"
364715031;"lebensmittel_and_getranke/Featured Categories/Gemüse/Zwiebeln"
358563031;"lebensmittel_and_getranke/Featured Categories/Geschenkkörbe"
358564031;"lebensmittel_and_getranke/Featured Categories/Getränke, Kaffee & Tee"
435733031;"lebensmittel_and_getranke/Featured Categories/Getränke, Kaffee & Tee/Bitter Lemon"
2185790031;"lebensmittel_and_getranke/Featured Categories/Getränke, Kaffee & Tee/Bubble Tea"
364716031;"lebensmittel_and_getranke/Featured Categories/Getränke, Kaffee & Tee/Cola & Limonade"
2185791031;"lebensmittel_and_getranke/Featured Categories/Getränke, Kaffee & Tee/Cola & Limonade/Limonade"
2185792031;"lebensmittel_and_getranke/Featured Categories/Getränke, Kaffee & Tee/Cola & Limonade/Cola"
364717031;"lebensmittel_and_getranke/Featured Categories/Getränke, Kaffee & Tee/Eistee"
364718031;"lebensmittel_and_getranke/Featured Categories/Getränke, Kaffee & Tee/Energy Drinks"
364720031;"lebensmittel_and_getranke/Featured Categories/Getränke, Kaffee & Tee/Fruchtsirup & -konzentrat"
364719031;"lebensmittel_and_getranke/Featured Categories/Getränke, Kaffee & Tee/Fruchtsäfte & Nektare"
364721031;"lebensmittel_and_getranke/Featured Categories/Getränke, Kaffee & Tee/Gemüsehaltige Getränke"
364722031;"lebensmittel_and_getranke/Featured Categories/Getränke, Kaffee & Tee/Getränkepulver"
435732031;"lebensmittel_and_getranke/Featured Categories/Getränke, Kaffee & Tee/Ginger Ale"
358567031;"lebensmittel_and_getranke/Featured Categories/Getränke, Kaffee & Tee/Kaffee, Tee & Kakao"
64834031;"lebensmittel_and_getranke/Featured Categories/Getränke, Kaffee & Tee/Kaffee, Tee & Kakao/Kaffee & Espresso"
2185797031;"lebensmittel_and_getranke/Featured Categories/Getränke, Kaffee & Tee/Kaffee, Tee & Kakao/Kaffeeweißer"
66397031;"lebensmittel_and_getranke/Featured Categories/Getränke, Kaffee & Tee/Kaffee, Tee & Kakao/Kakao & Heiße Schokolade"
364738031;"lebensmittel_and_getranke/Featured Categories/Getränke, Kaffee & Tee/Kaffee, Tee & Kakao/Malzkaffee"
64837031;"lebensmittel_and_getranke/Featured Categories/Getränke, Kaffee & Tee/Kaffee, Tee & Kakao/Tee"
364717031;"lebensmittel_and_getranke/Featured Categories/Getränke, Kaffee & Tee/Kaffee, Tee & Kakao/Tee/Eistee"
406532031;"lebensmittel_and_getranke/Featured Categories/Getränke, Kaffee & Tee/Kaffee, Tee & Kakao/Tee/Früchtetee"
406533031;"lebensmittel_and_getranke/Featured Categories/Getränke, Kaffee & Tee/Kaffee, Tee & Kakao/Tee/Grüner Tee"
406535031;"lebensmittel_and_getranke/Featured Categories/Getränke, Kaffee & Tee/Kaffee, Tee & Kakao/Tee/Honigbusch"
406534031;"lebensmittel_and_getranke/Featured Categories/Getränke, Kaffee & Tee/Kaffee, Tee & Kakao/Tee/Kräutertee"
406536031;"lebensmittel_and_getranke/Featured Categories/Getränke, Kaffee & Tee/Kaffee, Tee & Kakao/Tee/Rooibos"
406531031;"lebensmittel_and_getranke/Featured Categories/Getränke, Kaffee & Tee/Kaffee, Tee & Kakao/Tee/Schwarztee"
406537031;"lebensmittel_and_getranke/Featured Categories/Getränke, Kaffee & Tee/Kaffee, Tee & Kakao/Tee/Weißer Tee"
2185793031;"lebensmittel_and_getranke/Featured Categories/Getränke, Kaffee & Tee/Kokosnusswasser"
364723031;"lebensmittel_and_getranke/Featured Categories/Getränke, Kaffee & Tee/Schorlen"
2185794031;"lebensmittel_and_getranke/Featured Categories/Getränke, Kaffee & Tee/Smoothies"
364724031;"lebensmittel_and_getranke/Featured Categories/Getränke, Kaffee & Tee/Sportgetränke"
364725031;"lebensmittel_and_getranke/Featured Categories/Getränke, Kaffee & Tee/Tonic Water"
364726031;"lebensmittel_and_getranke/Featured Categories/Getränke, Kaffee & Tee/Wasser"
2185796031;"lebensmittel_and_getranke/Featured Categories/Getränke, Kaffee & Tee/Wasser/kohlensäurehaltiges Wasser"
2185795031;"lebensmittel_and_getranke/Featured Categories/Getränke, Kaffee & Tee/Wasser/Stilles Wasser"
358566031;"lebensmittel_and_getranke/Featured Categories/Instant- & Fertiggerichte"
364727031;"lebensmittel_and_getranke/Featured Categories/Instant- & Fertiggerichte/Fisch- & Meeresfruchtgerichte"
364728031;"lebensmittel_and_getranke/Featured Categories/Instant- & Fertiggerichte/Fleischgerichte"
364729031;"lebensmittel_and_getranke/Featured Categories/Instant- & Fertiggerichte/Gemüse- & Kartoffelgerichte"
364730031;"lebensmittel_and_getranke/Featured Categories/Instant- & Fertiggerichte/Nudelgerichte"
364731031;"lebensmittel_and_getranke/Featured Categories/Instant- & Fertiggerichte/Pizzas"
364732031;"lebensmittel_and_getranke/Featured Categories/Instant- & Fertiggerichte/Reisgerichte"
364733031;"lebensmittel_and_getranke/Featured Categories/Instant- & Fertiggerichte/Soja- & Tofugerichte"
364734031;"lebensmittel_and_getranke/Featured Categories/Instant- & Fertiggerichte/Suppen & Eintöpfe"
364735031;"lebensmittel_and_getranke/Featured Categories/Instant- & Fertiggerichte/Süße Gerichte"
358568031;"lebensmittel_and_getranke/Featured Categories/Knabberartikel"
364747031;"lebensmittel_and_getranke/Featured Categories/Knabberartikel/Chips"
364748031;"lebensmittel_and_getranke/Featured Categories/Knabberartikel/Crackers"
364630031;"lebensmittel_and_getranke/Featured Categories/Knabberartikel/Grissini & Blätterteigstangen"
64836031;"lebensmittel_and_getranke/Featured Categories/Knabberartikel/Nüsse & Kerne"
2185798031;"lebensmittel_and_getranke/Featured Categories/Knabberartikel/Nüsse & Kerne/Aprikosenkerne"
2185799031;"lebensmittel_and_getranke/Featured Categories/Knabberartikel/Nüsse & Kerne/Cashewkerne"
2185800031;"lebensmittel_and_getranke/Featured Categories/Knabberartikel/Nüsse & Kerne/Erdnüsse"
2185802031;"lebensmittel_and_getranke/Featured Categories/Knabberartikel/Nüsse & Kerne/Granatapfelkerne"
2185803031;"lebensmittel_and_getranke/Featured Categories/Knabberartikel/Nüsse & Kerne/Haselnüsse"
2185817031;"lebensmittel_and_getranke/Featured Categories/Knabberartikel/Nüsse & Kerne/Kemirinüsse"
2185816031;"lebensmittel_and_getranke/Featured Categories/Knabberartikel/Nüsse & Kerne/Kichererbsen"
2185804031;"lebensmittel_and_getranke/Featured Categories/Knabberartikel/Nüsse & Kerne/Kürbiskerne"
2185805031;"lebensmittel_and_getranke/Featured Categories/Knabberartikel/Nüsse & Kerne/Macadamia"
2185806031;"lebensmittel_and_getranke/Featured Categories/Knabberartikel/Nüsse & Kerne/Mandeln"
2185807031;"lebensmittel_and_getranke/Featured Categories/Knabberartikel/Nüsse & Kerne/Maronen"
2185808031;"lebensmittel_and_getranke/Featured Categories/Knabberartikel/Nüsse & Kerne/Nuss-Mischungen"
2185809031;"lebensmittel_and_getranke/Featured Categories/Knabberartikel/Nüsse & Kerne/Paranusskerne"
2185810031;"lebensmittel_and_getranke/Featured Categories/Knabberartikel/Nüsse & Kerne/Pekannüsse"
2185811031;"lebensmittel_and_getranke/Featured Categories/Knabberartikel/Nüsse & Kerne/Pinienkerne"
2185812031;"lebensmittel_and_getranke/Featured Categories/Knabberartikel/Nüsse & Kerne/Pistazien"
2185813031;"lebensmittel_and_getranke/Featured Categories/Knabberartikel/Nüsse & Kerne/Sonnenblumenkerne"
364754031;"lebensmittel_and_getranke/Featured Categories/Knabberartikel/Nüsse & Kerne/Studentenfutter"
2185814031;"lebensmittel_and_getranke/Featured Categories/Knabberartikel/Nüsse & Kerne/Walnüsse"
2185815031;"lebensmittel_and_getranke/Featured Categories/Knabberartikel/Nüsse & Kerne/Zedernüsse"
364750031;"lebensmittel_and_getranke/Featured Categories/Knabberartikel/Party-Mix"
364751031;"lebensmittel_and_getranke/Featured Categories/Knabberartikel/Popcorn"
364752031;"lebensmittel_and_getranke/Featured Categories/Knabberartikel/Reiswaffeln"
364753031;"lebensmittel_and_getranke/Featured Categories/Knabberartikel/Salzgebäck"
358569031;"lebensmittel_and_getranke/Featured Categories/Koch- & Backzutaten"
364755031;"lebensmittel_and_getranke/Featured Categories/Koch- & Backzutaten/Backaromen"
364756031;"lebensmittel_and_getranke/Featured Categories/Koch- & Backzutaten/Backmischungen"
364757031;"lebensmittel_and_getranke/Featured Categories/Koch- & Backzutaten/Backpulver"
364758031;"lebensmittel_and_getranke/Featured Categories/Koch- & Backzutaten/Dekoration"
364759031;"lebensmittel_and_getranke/Featured Categories/Koch- & Backzutaten/Dessertsaucen"
364760031;"lebensmittel_and_getranke/Featured Categories/Koch- & Backzutaten/Glasuren"
364761031;"lebensmittel_and_getranke/Featured Categories/Koch- & Backzutaten/Hefe"
364762031;"lebensmittel_and_getranke/Featured Categories/Koch- & Backzutaten/Kochschokolade"
364815031;"lebensmittel_and_getranke/Featured Categories/Koch- & Backzutaten/Kochsprays"
364763031;"lebensmittel_and_getranke/Featured Categories/Koch- & Backzutaten/Kokosnussflocken"
364764031;"lebensmittel_and_getranke/Featured Categories/Koch- & Backzutaten/Lebensmittelfarben"
364765031;"lebensmittel_and_getranke/Featured Categories/Koch- & Backzutaten/Marzipan"
364766031;"lebensmittel_and_getranke/Featured Categories/Koch- & Backzutaten/Mehl"
364767031;"lebensmittel_and_getranke/Featured Categories/Koch- & Backzutaten/Nüsse & Samen"
364769031;"lebensmittel_and_getranke/Featured Categories/Koch- & Backzutaten/Paniermehl & Knödelbrot"
364768031;"lebensmittel_and_getranke/Featured Categories/Koch- & Backzutaten/Puddings & Tortenfüllungen"
364810031;"lebensmittel_and_getranke/Featured Categories/Koch- & Backzutaten/Schmalz, Koch- & Backfette"
364771031;"lebensmittel_and_getranke/Featured Categories/Koch- & Backzutaten/Sirup"
364770031;"lebensmittel_and_getranke/Featured Categories/Koch- & Backzutaten/Stärke & Bindemittel"
364772031;"lebensmittel_and_getranke/Featured Categories/Koch- & Backzutaten/Zucker & Süßstoffe"
364773031;"lebensmittel_and_getranke/Featured Categories/Koch- & Backzutaten/Zucker & Süßstoffe/Brauner Zucker"
364774031;"lebensmittel_and_getranke/Featured Categories/Koch- & Backzutaten/Zucker & Süßstoffe/Gelierzucker"
431506031;"lebensmittel_and_getranke/Featured Categories/Koch- & Backzutaten/Zucker & Süßstoffe/Kandiszucker"
364775031;"lebensmittel_and_getranke/Featured Categories/Koch- & Backzutaten/Zucker & Süßstoffe/Puderzucker"
364776031;"lebensmittel_and_getranke/Featured Categories/Koch- & Backzutaten/Zucker & Süßstoffe/Süßstoffe"
364777031;"lebensmittel_and_getranke/Featured Categories/Koch- & Backzutaten/Zucker & Süßstoffe/Vanillezucker"
364778031;"lebensmittel_and_getranke/Featured Categories/Koch- & Backzutaten/Zucker & Süßstoffe/Weißer Zucker"
364779031;"lebensmittel_and_getranke/Featured Categories/Koch- & Backzutaten/Zucker & Süßstoffe/Würfelzucker"
358570031;"lebensmittel_and_getranke/Featured Categories/Konfitüren, Honig & Brotaufstriche"
364780031;"lebensmittel_and_getranke/Featured Categories/Konfitüren, Honig & Brotaufstriche/Erdnussbutter"
364781031;"lebensmittel_and_getranke/Featured Categories/Konfitüren, Honig & Brotaufstriche/Honig"
364782031;"lebensmittel_and_getranke/Featured Categories/Konfitüren, Honig & Brotaufstriche/Konfitüren"
364783031;"lebensmittel_and_getranke/Featured Categories/Konfitüren, Honig & Brotaufstriche/Pikante Brotaufstriche"
364784031;"lebensmittel_and_getranke/Featured Categories/Konfitüren, Honig & Brotaufstriche/Schokoladenaufstrich"
75853031;"lebensmittel_and_getranke/Featured Categories/Kräuter, Gewürze & Fix-Produkte"
406542031;"lebensmittel_and_getranke/Featured Categories/Kräuter, Gewürze & Fix-Produkte/Fix-Produkte"
406539031;"lebensmittel_and_getranke/Featured Categories/Kräuter, Gewürze & Fix-Produkte/Gewürzmischungen"
406538031;"lebensmittel_and_getranke/Featured Categories/Kräuter, Gewürze & Fix-Produkte/Kräuter & Gewürze"
406540031;"lebensmittel_and_getranke/Featured Categories/Kräuter, Gewürze & Fix-Produkte/Pfeffer"
406541031;"lebensmittel_and_getranke/Featured Categories/Kräuter, Gewürze & Fix-Produkte/Salz"
358572031;"lebensmittel_and_getranke/Featured Categories/Milchprodukte"
364790031;"lebensmittel_and_getranke/Featured Categories/Milchprodukte/Butter"
364791031;"lebensmittel_and_getranke/Featured Categories/Milchprodukte/Eier"
364792031;"lebensmittel_and_getranke/Featured Categories/Milchprodukte/Eiscremes"
364795031;"lebensmittel_and_getranke/Featured Categories/Milchprodukte/Jogurtgetränke & Molke"
364794031;"lebensmittel_and_getranke/Featured Categories/Milchprodukte/Jogurts"
364796031;"lebensmittel_and_getranke/Featured Categories/Milchprodukte/Käse"
364797031;"lebensmittel_and_getranke/Featured Categories/Milchprodukte/Käse/Frischkäse"
364798031;"lebensmittel_and_getranke/Featured Categories/Milchprodukte/Käse/Halbfester Schnittkäse"
364799031;"lebensmittel_and_getranke/Featured Categories/Milchprodukte/Käse/Hartkäse"
364800031;"lebensmittel_and_getranke/Featured Categories/Milchprodukte/Käse/Sauermilchkäse"
364801031;"lebensmittel_and_getranke/Featured Categories/Milchprodukte/Käse/Schmelzkäse"
364802031;"lebensmittel_and_getranke/Featured Categories/Milchprodukte/Käse/Schnittkäse"
364803031;"lebensmittel_and_getranke/Featured Categories/Milchprodukte/Käse/Weichkäse"
364804031;"lebensmittel_and_getranke/Featured Categories/Milchprodukte/Margarine"
364805031;"lebensmittel_and_getranke/Featured Categories/Milchprodukte/Milch"
364806031;"lebensmittel_and_getranke/Featured Categories/Milchprodukte/Milchdesserts"
364807031;"lebensmittel_and_getranke/Featured Categories/Milchprodukte/Milchersatz & Sojamilch"
364808031;"lebensmittel_and_getranke/Featured Categories/Milchprodukte/Puddings"
364809031;"lebensmittel_and_getranke/Featured Categories/Milchprodukte/Sahne"
358573031;"lebensmittel_and_getranke/Featured Categories/Müsli & Zerealien"
364811031;"lebensmittel_and_getranke/Featured Categories/Müsli & Zerealien/Früchte- & Müsliriegel"
364812031;"lebensmittel_and_getranke/Featured Categories/Müsli & Zerealien/Frühstückszerealien & -flocken"
64835031;"lebensmittel_and_getranke/Featured Categories/Müsli & Zerealien/Müsli"
358574031;"lebensmittel_and_getranke/Featured Categories/Öl, Essig & Salatdressing"
364814031;"lebensmittel_and_getranke/Featured Categories/Öl, Essig & Salatdressing/Essig"
364816031;"lebensmittel_and_getranke/Featured Categories/Öl, Essig & Salatdressing/Öl"
364817031;"lebensmittel_and_getranke/Featured Categories/Öl, Essig & Salatdressing/Salatdressings"
358575031;"lebensmittel_and_getranke/Featured Categories/Pasta & Nudeln"
358576031;"lebensmittel_and_getranke/Featured Categories/Reis & Hülsenfrüchte"
364818031;"lebensmittel_and_getranke/Featured Categories/Reis & Hülsenfrüchte/Bohnen"
364819031;"lebensmittel_and_getranke/Featured Categories/Reis & Hülsenfrüchte/Couscous"
364820031;"lebensmittel_and_getranke/Featured Categories/Reis & Hülsenfrüchte/Erbsen"
2185816031;"lebensmittel_and_getranke/Featured Categories/Reis & Hülsenfrüchte/Kichererbsen"
364821031;"lebensmittel_and_getranke/Featured Categories/Reis & Hülsenfrüchte/Linsen"
364822031;"lebensmittel_and_getranke/Featured Categories/Reis & Hülsenfrüchte/Polenta"
364823031;"lebensmittel_and_getranke/Featured Categories/Reis & Hülsenfrüchte/Reis"
358577031;"lebensmittel_and_getranke/Featured Categories/Saucen, Dips & Marinaden"
364824031;"lebensmittel_and_getranke/Featured Categories/Saucen, Dips & Marinaden/Apfelmus"
364827031;"lebensmittel_and_getranke/Featured Categories/Saucen, Dips & Marinaden/Bratensoßen & Fonds"
435747031;"lebensmittel_and_getranke/Featured Categories/Saucen, Dips & Marinaden/Brühe"
364825031;"lebensmittel_and_getranke/Featured Categories/Saucen, Dips & Marinaden/Chutneys"
364826031;"lebensmittel_and_getranke/Featured Categories/Saucen, Dips & Marinaden/Dips"
364828031;"lebensmittel_and_getranke/Featured Categories/Saucen, Dips & Marinaden/Ketchup"
364829031;"lebensmittel_and_getranke/Featured Categories/Saucen, Dips & Marinaden/Marinaden"
364830031;"lebensmittel_and_getranke/Featured Categories/Saucen, Dips & Marinaden/Mayonnaise"
364831031;"lebensmittel_and_getranke/Featured Categories/Saucen, Dips & Marinaden/Meerrettich"
364832031;"lebensmittel_and_getranke/Featured Categories/Saucen, Dips & Marinaden/Pasten"
364833031;"lebensmittel_and_getranke/Featured Categories/Saucen, Dips & Marinaden/Pesto"
364834031;"lebensmittel_and_getranke/Featured Categories/Saucen, Dips & Marinaden/Salsas"
364835031;"lebensmittel_and_getranke/Featured Categories/Saucen, Dips & Marinaden/Saucen"
433165031;"lebensmittel_and_getranke/Featured Categories/Saucen, Dips & Marinaden/Saucen/Chilisaucen"
364836031;"lebensmittel_and_getranke/Featured Categories/Saucen, Dips & Marinaden/Saucen/Cocktailsauce"
364837031;"lebensmittel_and_getranke/Featured Categories/Saucen, Dips & Marinaden/Saucen/Currysaucen"
2185818031;"lebensmittel_and_getranke/Featured Categories/Saucen, Dips & Marinaden/Saucen/Fischsaucen"
364838031;"lebensmittel_and_getranke/Featured Categories/Saucen, Dips & Marinaden/Saucen/Grillsauce"
2185819031;"lebensmittel_and_getranke/Featured Categories/Saucen, Dips & Marinaden/Saucen/Hollandaise & Béarnaise Saucen"
364839031;"lebensmittel_and_getranke/Featured Categories/Saucen, Dips & Marinaden/Saucen/Pastasaucen"
364840031;"lebensmittel_and_getranke/Featured Categories/Saucen, Dips & Marinaden/Saucen/Sauce Tartar"
2185820031;"lebensmittel_and_getranke/Featured Categories/Saucen, Dips & Marinaden/Saucen/Schwarze Bohnen Saucen"
364841031;"lebensmittel_and_getranke/Featured Categories/Saucen, Dips & Marinaden/Saucen/Sojasaucen"
364842031;"lebensmittel_and_getranke/Featured Categories/Saucen, Dips & Marinaden/Saucen/Süß-Sauer-Saucen"
364843031;"lebensmittel_and_getranke/Featured Categories/Saucen, Dips & Marinaden/Saucen/Worcestersauce"
364844031;"lebensmittel_and_getranke/Featured Categories/Saucen, Dips & Marinaden/Senf"
406611031;"lebensmittel_and_getranke/Featured Categories/Saucen, Dips & Marinaden/Tomatenmark"
364845031;"lebensmittel_and_getranke/Featured Categories/Saucen, Dips & Marinaden/Wasabi"
358579031;"lebensmittel_and_getranke/Featured Categories/Schokolade & Süßigkeiten"
364853031;"lebensmittel_and_getranke/Featured Categories/Schokolade & Süßigkeiten/Fruchtbonbons"
364854031;"lebensmittel_and_getranke/Featured Categories/Schokolade & Süßigkeiten/Fruchtgummis"
364855031;"lebensmittel_and_getranke/Featured Categories/Schokolade & Süßigkeiten/Halva"
364856031;"lebensmittel_and_getranke/Featured Categories/Schokolade & Süßigkeiten/Jelly Beans"
364857031;"lebensmittel_and_getranke/Featured Categories/Schokolade & Süßigkeiten/Karamellbonbons"
364858031;"lebensmittel_and_getranke/Featured Categories/Schokolade & Süßigkeiten/Kaugummis"
364631031;"lebensmittel_and_getranke/Featured Categories/Schokolade & Süßigkeiten/Kekse"
364859031;"lebensmittel_and_getranke/Featured Categories/Schokolade & Süßigkeiten/Krokant"
364860031;"lebensmittel_and_getranke/Featured Categories/Schokolade & Süßigkeiten/Lakritze"
364634031;"lebensmittel_and_getranke/Featured Categories/Schokolade & Süßigkeiten/Lebkuchen"
364861031;"lebensmittel_and_getranke/Featured Categories/Schokolade & Süßigkeiten/Lollies"
364862031;"lebensmittel_and_getranke/Featured Categories/Schokolade & Süßigkeiten/Marshmallows"
689533031;"lebensmittel_and_getranke/Featured Categories/Schokolade & Süßigkeiten/Partymischungen"
364863031;"lebensmittel_and_getranke/Featured Categories/Schokolade & Süßigkeiten/Pfefferminz- & Mentholbonbons"
358578031;"lebensmittel_and_getranke/Featured Categories/Schokolade & Süßigkeiten/Schokolade"
364846031;"lebensmittel_and_getranke/Featured Categories/Schokolade & Süßigkeiten/Schokolade/Bonbons & Drops"
364847031;"lebensmittel_and_getranke/Featured Categories/Schokolade & Süßigkeiten/Schokolade/Figuren"
364848031;"lebensmittel_and_getranke/Featured Categories/Schokolade & Süßigkeiten/Schokolade/Pralinen & Trüffel"
364849031;"lebensmittel_and_getranke/Featured Categories/Schokolade & Süßigkeiten/Schokolade/Riegel"
364850031;"lebensmittel_and_getranke/Featured Categories/Schokolade & Süßigkeiten/Schokolade/Schokofrüchte"
364851031;"lebensmittel_and_getranke/Featured Categories/Schokolade & Süßigkeiten/Schokolade/Schokonüsse"
364852031;"lebensmittel_and_getranke/Featured Categories/Schokolade & Süßigkeiten/Schokolade/Tafeln"
340847031;"lebensmittel_and_getranke/Kategorien"
358555031;"lebensmittel_and_getranke/Kategorien/Babynahrung"
364599031;"lebensmittel_and_getranke/Kategorien/Babynahrung/Getränke"
1380787031;"lebensmittel_and_getranke/Kategorien/Babynahrung/Glas- und Beikost"
1380791031;"lebensmittel_and_getranke/Kategorien/Babynahrung/Glas- und Beikost/Fleischzubereitungen"
1380789031;"lebensmittel_and_getranke/Kategorien/Babynahrung/Glas- und Beikost/Frucht, Getreide & Joghurt Zubereitungen"
364597031;"lebensmittel_and_getranke/Kategorien/Babynahrung/Glas- und Beikost/Früchte & Desserts"
364598031;"lebensmittel_and_getranke/Kategorien/Babynahrung/Glas- und Beikost/Gemüse"
364602031;"lebensmittel_and_getranke/Kategorien/Babynahrung/Glas- und Beikost/Menüs"
1380790031;"lebensmittel_and_getranke/Kategorien/Babynahrung/Glas- und Beikost/Suppen"
364600031;"lebensmittel_and_getranke/Kategorien/Babynahrung/Milch- & Getreidebreie"
364603031;"lebensmittel_and_getranke/Kategorien/Babynahrung/Milchnahrung"
1386607031;"lebensmittel_and_getranke/Kategorien/Babynahrung/Milchnahrung/Anfangsmilch"
1386608031;"lebensmittel_and_getranke/Kategorien/Babynahrung/Milchnahrung/Folgemilch"
1386609031;"lebensmittel_and_getranke/Kategorien/Babynahrung/Milchnahrung/Kindermilch"
1380788031;"lebensmittel_and_getranke/Kategorien/Babynahrung/Snacks & Kekse"
1380801031;"lebensmittel_and_getranke/Kategorien/Babynahrung/Snacks & Kekse/Früchteriegel"
364601031;"lebensmittel_and_getranke/Kategorien/Babynahrung/Snacks & Kekse/Kekse, Zwieback und Chips"
358556031;"lebensmittel_and_getranke/Kategorien/Bier, Wein & Spirituosen"
364605031;"lebensmittel_and_getranke/Kategorien/Bier, Wein & Spirituosen/Bier"
364609031;"lebensmittel_and_getranke/Kategorien/Bier, Wein & Spirituosen/Champagner"
364606031;"lebensmittel_and_getranke/Kategorien/Bier, Wein & Spirituosen/Cider"
364607031;"lebensmittel_and_getranke/Kategorien/Bier, Wein & Spirituosen/Sekt & Schaumwein"
364608031;"lebensmittel_and_getranke/Kategorien/Bier, Wein & Spirituosen/Sekt & Schaumwein/Cava"
364610031;"lebensmittel_and_getranke/Kategorien/Bier, Wein & Spirituosen/Sekt & Schaumwein/Cremant"
364611031;"lebensmittel_and_getranke/Kategorien/Bier, Wein & Spirituosen/Sekt & Schaumwein/Prosecco"
364612031;"lebensmittel_and_getranke/Kategorien/Bier, Wein & Spirituosen/Sekt & Schaumwein/Sekt"
364613031;"lebensmittel_and_getranke/Kategorien/Bier, Wein & Spirituosen/Spirituosen"
364614031;"lebensmittel_and_getranke/Kategorien/Bier, Wein & Spirituosen/Spirituosen/Brandy"
364615031;"lebensmittel_and_getranke/Kategorien/Bier, Wein & Spirituosen/Spirituosen/Cocktails"
364616031;"lebensmittel_and_getranke/Kategorien/Bier, Wein & Spirituosen/Spirituosen/Cognac"
364617031;"lebensmittel_and_getranke/Kategorien/Bier, Wein & Spirituosen/Spirituosen/Gin"
2185773031;"lebensmittel_and_getranke/Kategorien/Bier, Wein & Spirituosen/Spirituosen/Grappa"
364618031;"lebensmittel_and_getranke/Kategorien/Bier, Wein & Spirituosen/Spirituosen/Liköre"
406401031;"lebensmittel_and_getranke/Kategorien/Bier, Wein & Spirituosen/Spirituosen/Madeirawein"
406400031;"lebensmittel_and_getranke/Kategorien/Bier, Wein & Spirituosen/Spirituosen/Marsalawein"
364619031;"lebensmittel_and_getranke/Kategorien/Bier, Wein & Spirituosen/Spirituosen/Obstbrände"
406399031;"lebensmittel_and_getranke/Kategorien/Bier, Wein & Spirituosen/Spirituosen/Portwein"
364620031;"lebensmittel_and_getranke/Kategorien/Bier, Wein & Spirituosen/Spirituosen/Rum"
364621031;"lebensmittel_and_getranke/Kategorien/Bier, Wein & Spirituosen/Spirituosen/Sherry"
364622031;"lebensmittel_and_getranke/Kategorien/Bier, Wein & Spirituosen/Spirituosen/Tequila"
364623031;"lebensmittel_and_getranke/Kategorien/Bier, Wein & Spirituosen/Spirituosen/Wermut"
364624031;"lebensmittel_and_getranke/Kategorien/Bier, Wein & Spirituosen/Spirituosen/Whisky"
364625031;"lebensmittel_and_getranke/Kategorien/Bier, Wein & Spirituosen/Spirituosen/Wodka"
364626031;"lebensmittel_and_getranke/Kategorien/Bier, Wein & Spirituosen/Wein"
358557031;"lebensmittel_and_getranke/Kategorien/Brot & Backwaren"
364627031;"lebensmittel_and_getranke/Kategorien/Brot & Backwaren/Brot"
364628031;"lebensmittel_and_getranke/Kategorien/Brot & Backwaren/Brötchen"
364632031;"lebensmittel_and_getranke/Kategorien/Brot & Backwaren/Knäckebrot & Zwieback"
364633031;"lebensmittel_and_getranke/Kategorien/Brot & Backwaren/Kuchen"
364635031;"lebensmittel_and_getranke/Kategorien/Brot & Backwaren/Muffins"
364636031;"lebensmittel_and_getranke/Kategorien/Brot & Backwaren/Süße Backwaren"
364637031;"lebensmittel_and_getranke/Kategorien/Brot & Backwaren/Tortenböden"
364638031;"lebensmittel_and_getranke/Kategorien/Brot & Backwaren/Waffeln"
358558031;"lebensmittel_and_getranke/Kategorien/Eingelegtes & Relishes"
364639031;"lebensmittel_and_getranke/Kategorien/Eingelegtes & Relishes/Artischocken"
364640031;"lebensmittel_and_getranke/Kategorien/Eingelegtes & Relishes/Gurken"
364641031;"lebensmittel_and_getranke/Kategorien/Eingelegtes & Relishes/Kapern"
364642031;"lebensmittel_and_getranke/Kategorien/Eingelegtes & Relishes/Knoblauch"
364644031;"lebensmittel_and_getranke/Kategorien/Eingelegtes & Relishes/Mixed Pickles"
364645031;"lebensmittel_and_getranke/Kategorien/Eingelegtes & Relishes/Oliven"
364646031;"lebensmittel_and_getranke/Kategorien/Eingelegtes & Relishes/Pepperoni"
364649031;"lebensmittel_and_getranke/Kategorien/Eingelegtes & Relishes/Rotkohl"
364650031;"lebensmittel_and_getranke/Kategorien/Eingelegtes & Relishes/Sauerkraut"
364651031;"lebensmittel_and_getranke/Kategorien/Eingelegtes & Relishes/Zwiebeln"
358559031;"lebensmittel_and_getranke/Kategorien/Fisch & Meeresfrüchte"
364652031;"lebensmittel_and_getranke/Kategorien/Fisch & Meeresfrüchte/Austern"
364653031;"lebensmittel_and_getranke/Kategorien/Fisch & Meeresfrüchte/Fisch"
364654031;"lebensmittel_and_getranke/Kategorien/Fisch & Meeresfrüchte/Hummer"
364655031;"lebensmittel_and_getranke/Kategorien/Fisch & Meeresfrüchte/Kaviar & Fischeier"
364656031;"lebensmittel_and_getranke/Kategorien/Fisch & Meeresfrüchte/Krabben"
364657031;"lebensmittel_and_getranke/Kategorien/Fisch & Meeresfrüchte/Krebse"
364658031;"lebensmittel_and_getranke/Kategorien/Fisch & Meeresfrüchte/Muscheln"
364659031;"lebensmittel_and_getranke/Kategorien/Fisch & Meeresfrüchte/Shrimps & Garnelen"
358560031;"lebensmittel_and_getranke/Kategorien/Fleisch & Wurstwaren"
364660031;"lebensmittel_and_getranke/Kategorien/Fleisch & Wurstwaren/Aufschnittwurst"
2185775031;"lebensmittel_and_getranke/Kategorien/Fleisch & Wurstwaren/Fleisch- & Wurstsalate"
364662031;"lebensmittel_and_getranke/Kategorien/Fleisch & Wurstwaren/Geflügel"
364663031;"lebensmittel_and_getranke/Kategorien/Fleisch & Wurstwaren/Geräuchertes & Dörrfleisch"
364664031;"lebensmittel_and_getranke/Kategorien/Fleisch & Wurstwaren/Kalb"
364665031;"lebensmittel_and_getranke/Kategorien/Fleisch & Wurstwaren/Lamm"
364666031;"lebensmittel_and_getranke/Kategorien/Fleisch & Wurstwaren/Pasteten"
364667031;"lebensmittel_and_getranke/Kategorien/Fleisch & Wurstwaren/Rind"
364668031;"lebensmittel_and_getranke/Kategorien/Fleisch & Wurstwaren/Schwein"
364669031;"lebensmittel_and_getranke/Kategorien/Fleisch & Wurstwaren/Wild"
364670031;"lebensmittel_and_getranke/Kategorien/Fleisch & Wurstwaren/Würste"
358561031;"lebensmittel_and_getranke/Kategorien/Früchte"
364671031;"lebensmittel_and_getranke/Kategorien/Früchte/Ananas"
364673031;"lebensmittel_and_getranke/Kategorien/Früchte/Aprikosen"
364674031;"lebensmittel_and_getranke/Kategorien/Früchte/Avocados"
364675031;"lebensmittel_and_getranke/Kategorien/Früchte/Bananen"
364676031;"lebensmittel_and_getranke/Kategorien/Früchte/Birnen"
364678031;"lebensmittel_and_getranke/Kategorien/Früchte/Datteln"
364679031;"lebensmittel_and_getranke/Kategorien/Früchte/Feigen"
364680031;"lebensmittel_and_getranke/Kategorien/Früchte/Fruchtmischungen"
2185780031;"lebensmittel_and_getranke/Kategorien/Früchte/Goji Beeren"
364681031;"lebensmittel_and_getranke/Kategorien/Früchte/Grapefruits"
2185781031;"lebensmittel_and_getranke/Kategorien/Früchte/Jackfrucht"
364682031;"lebensmittel_and_getranke/Kategorien/Früchte/Kirschen"
426540031;"lebensmittel_and_getranke/Kategorien/Früchte/Kiwis"
2185782031;"lebensmittel_and_getranke/Kategorien/Früchte/Kokosnuss"
426542031;"lebensmittel_and_getranke/Kategorien/Früchte/Mandarinen"
364683031;"lebensmittel_and_getranke/Kategorien/Früchte/Mangos"
364684031;"lebensmittel_and_getranke/Kategorien/Früchte/Melonen"
426544031;"lebensmittel_and_getranke/Kategorien/Früchte/Mirabellen"
426545031;"lebensmittel_and_getranke/Kategorien/Früchte/Nektarinen"
364685031;"lebensmittel_and_getranke/Kategorien/Früchte/Orangen"
364686031;"lebensmittel_and_getranke/Kategorien/Früchte/Papayas"
364687031;"lebensmittel_and_getranke/Kategorien/Früchte/Pfirsiche"
364688031;"lebensmittel_and_getranke/Kategorien/Früchte/Pflaumen"
2185784031;"lebensmittel_and_getranke/Kategorien/Früchte/Physalis"
364677031;"lebensmittel_and_getranke/Kategorien/Früchte/Preiselbeeren"
364690031;"lebensmittel_and_getranke/Kategorien/Früchte/Weintrauben & Rosinen"
364691031;"lebensmittel_and_getranke/Kategorien/Früchte/Zitronen & Limetten"
364672031;"lebensmittel_and_getranke/Kategorien/Früchte/Äpfel"
358562031;"lebensmittel_and_getranke/Kategorien/Gemüse"
364692031;"lebensmittel_and_getranke/Kategorien/Gemüse/Artischocken"
364693031;"lebensmittel_and_getranke/Kategorien/Gemüse/Auberginen"
364699031;"lebensmittel_and_getranke/Kategorien/Gemüse/Bohnen"
364696031;"lebensmittel_and_getranke/Kategorien/Gemüse/Chilischoten"
426552031;"lebensmittel_and_getranke/Kategorien/Gemüse/Fenchel"
364698031;"lebensmittel_and_getranke/Kategorien/Gemüse/Gemüsemischungen"
426554031;"lebensmittel_and_getranke/Kategorien/Gemüse/Gurken"
364700031;"lebensmittel_and_getranke/Kategorien/Gemüse/Karotten"
364701031;"lebensmittel_and_getranke/Kategorien/Gemüse/Kartoffeln"
364703031;"lebensmittel_and_getranke/Kategorien/Gemüse/Lauch"
364704031;"lebensmittel_and_getranke/Kategorien/Gemüse/Mais"
364705031;"lebensmittel_and_getranke/Kategorien/Gemüse/Meeresgemüse"
426561031;"lebensmittel_and_getranke/Kategorien/Gemüse/Okra"
364706031;"lebensmittel_and_getranke/Kategorien/Gemüse/Oliven"
364707031;"lebensmittel_and_getranke/Kategorien/Gemüse/Paprika"
364708031;"lebensmittel_and_getranke/Kategorien/Gemüse/Pastinaken"
364709031;"lebensmittel_and_getranke/Kategorien/Gemüse/Pilze & Trüffel"
426562031;"lebensmittel_and_getranke/Kategorien/Gemüse/Radieschen"
364711031;"lebensmittel_and_getranke/Kategorien/Gemüse/Salat"
364712031;"lebensmittel_and_getranke/Kategorien/Gemüse/Spargel"
364713031;"lebensmittel_and_getranke/Kategorien/Gemüse/Tomaten"
364715031;"lebensmittel_and_getranke/Kategorien/Gemüse/Zwiebeln"
358563031;"lebensmittel_and_getranke/Kategorien/Geschenkkörbe"
358564031;"lebensmittel_and_getranke/Kategorien/Getränke, Kaffee & Tee"
435733031;"lebensmittel_and_getranke/Kategorien/Getränke, Kaffee & Tee/Bitter Lemon"
2185790031;"lebensmittel_and_getranke/Kategorien/Getränke, Kaffee & Tee/Bubble Tea"
364716031;"lebensmittel_and_getranke/Kategorien/Getränke, Kaffee & Tee/Cola & Limonade"
2185791031;"lebensmittel_and_getranke/Kategorien/Getränke, Kaffee & Tee/Cola & Limonade/Limonade"
2185792031;"lebensmittel_and_getranke/Kategorien/Getränke, Kaffee & Tee/Cola & Limonade/Cola"
364717031;"lebensmittel_and_getranke/Kategorien/Getränke, Kaffee & Tee/Eistee"
364718031;"lebensmittel_and_getranke/Kategorien/Getränke, Kaffee & Tee/Energy Drinks"
364720031;"lebensmittel_and_getranke/Kategorien/Getränke, Kaffee & Tee/Fruchtsirup & -konzentrat"
364719031;"lebensmittel_and_getranke/Kategorien/Getränke, Kaffee & Tee/Fruchtsäfte & Nektare"
364721031;"lebensmittel_and_getranke/Kategorien/Getränke, Kaffee & Tee/Gemüsehaltige Getränke"
364722031;"lebensmittel_and_getranke/Kategorien/Getränke, Kaffee & Tee/Getränkepulver"
435732031;"lebensmittel_and_getranke/Kategorien/Getränke, Kaffee & Tee/Ginger Ale"
358567031;"lebensmittel_and_getranke/Kategorien/Getränke, Kaffee & Tee/Kaffee, Tee & Kakao"
64834031;"lebensmittel_and_getranke/Kategorien/Getränke, Kaffee & Tee/Kaffee, Tee & Kakao/Kaffee & Espresso"
2185797031;"lebensmittel_and_getranke/Kategorien/Getränke, Kaffee & Tee/Kaffee, Tee & Kakao/Kaffeeweißer"
66397031;"lebensmittel_and_getranke/Kategorien/Getränke, Kaffee & Tee/Kaffee, Tee & Kakao/Kakao & Heiße Schokolade"
364738031;"lebensmittel_and_getranke/Kategorien/Getränke, Kaffee & Tee/Kaffee, Tee & Kakao/Malzkaffee"
64837031;"lebensmittel_and_getranke/Kategorien/Getränke, Kaffee & Tee/Kaffee, Tee & Kakao/Tee"
364717031;"lebensmittel_and_getranke/Kategorien/Getränke, Kaffee & Tee/Kaffee, Tee & Kakao/Tee/Eistee"
406532031;"lebensmittel_and_getranke/Kategorien/Getränke, Kaffee & Tee/Kaffee, Tee & Kakao/Tee/Früchtetee"
406533031;"lebensmittel_and_getranke/Kategorien/Getränke, Kaffee & Tee/Kaffee, Tee & Kakao/Tee/Grüner Tee"
406535031;"lebensmittel_and_getranke/Kategorien/Getränke, Kaffee & Tee/Kaffee, Tee & Kakao/Tee/Honigbusch"
406534031;"lebensmittel_and_getranke/Kategorien/Getränke, Kaffee & Tee/Kaffee, Tee & Kakao/Tee/Kräutertee"
406536031;"lebensmittel_and_getranke/Kategorien/Getränke, Kaffee & Tee/Kaffee, Tee & Kakao/Tee/Rooibos"
406531031;"lebensmittel_and_getranke/Kategorien/Getränke, Kaffee & Tee/Kaffee, Tee & Kakao/Tee/Schwarztee"
406537031;"lebensmittel_and_getranke/Kategorien/Getränke, Kaffee & Tee/Kaffee, Tee & Kakao/Tee/Weißer Tee"
2185793031;"lebensmittel_and_getranke/Kategorien/Getränke, Kaffee & Tee/Kokosnusswasser"
364723031;"lebensmittel_and_getranke/Kategorien/Getränke, Kaffee & Tee/Schorlen"
2185794031;"lebensmittel_and_getranke/Kategorien/Getränke, Kaffee & Tee/Smoothies"
364724031;"lebensmittel_and_getranke/Kategorien/Getränke, Kaffee & Tee/Sportgetränke"
364725031;"lebensmittel_and_getranke/Kategorien/Getränke, Kaffee & Tee/Tonic Water"
364726031;"lebensmittel_and_getranke/Kategorien/Getränke, Kaffee & Tee/Wasser"
2185796031;"lebensmittel_and_getranke/Kategorien/Getränke, Kaffee & Tee/Wasser/kohlensäurehaltiges Wasser"
2185795031;"lebensmittel_and_getranke/Kategorien/Getränke, Kaffee & Tee/Wasser/Stilles Wasser"
358566031;"lebensmittel_and_getranke/Kategorien/Instant- & Fertiggerichte"
364727031;"lebensmittel_and_getranke/Kategorien/Instant- & Fertiggerichte/Fisch- & Meeresfruchtgerichte"
364728031;"lebensmittel_and_getranke/Kategorien/Instant- & Fertiggerichte/Fleischgerichte"
364729031;"lebensmittel_and_getranke/Kategorien/Instant- & Fertiggerichte/Gemüse- & Kartoffelgerichte"
364730031;"lebensmittel_and_getranke/Kategorien/Instant- & Fertiggerichte/Nudelgerichte"
364731031;"lebensmittel_and_getranke/Kategorien/Instant- & Fertiggerichte/Pizzas"
364732031;"lebensmittel_and_getranke/Kategorien/Instant- & Fertiggerichte/Reisgerichte"
364733031;"lebensmittel_and_getranke/Kategorien/Instant- & Fertiggerichte/Soja- & Tofugerichte"
364734031;"lebensmittel_and_getranke/Kategorien/Instant- & Fertiggerichte/Suppen & Eintöpfe"
364735031;"lebensmittel_and_getranke/Kategorien/Instant- & Fertiggerichte/Süße Gerichte"
358568031;"lebensmittel_and_getranke/Kategorien/Knabberartikel"
364747031;"lebensmittel_and_getranke/Kategorien/Knabberartikel/Chips"
364748031;"lebensmittel_and_getranke/Kategorien/Knabberartikel/Crackers"
364630031;"lebensmittel_and_getranke/Kategorien/Knabberartikel/Grissini & Blätterteigstangen"
64836031;"lebensmittel_and_getranke/Kategorien/Knabberartikel/Nüsse & Kerne"
2185798031;"lebensmittel_and_getranke/Kategorien/Knabberartikel/Nüsse & Kerne/Aprikosenkerne"
2185799031;"lebensmittel_and_getranke/Kategorien/Knabberartikel/Nüsse & Kerne/Cashewkerne"
2185800031;"lebensmittel_and_getranke/Kategorien/Knabberartikel/Nüsse & Kerne/Erdnüsse"
2185802031;"lebensmittel_and_getranke/Kategorien/Knabberartikel/Nüsse & Kerne/Granatapfelkerne"
2185803031;"lebensmittel_and_getranke/Kategorien/Knabberartikel/Nüsse & Kerne/Haselnüsse"
2185817031;"lebensmittel_and_getranke/Kategorien/Knabberartikel/Nüsse & Kerne/Kemirinüsse"
2185816031;"lebensmittel_and_getranke/Kategorien/Knabberartikel/Nüsse & Kerne/Kichererbsen"
2185804031;"lebensmittel_and_getranke/Kategorien/Knabberartikel/Nüsse & Kerne/Kürbiskerne"
2185805031;"lebensmittel_and_getranke/Kategorien/Knabberartikel/Nüsse & Kerne/Macadamia"
2185806031;"lebensmittel_and_getranke/Kategorien/Knabberartikel/Nüsse & Kerne/Mandeln"
2185807031;"lebensmittel_and_getranke/Kategorien/Knabberartikel/Nüsse & Kerne/Maronen"
2185808031;"lebensmittel_and_getranke/Kategorien/Knabberartikel/Nüsse & Kerne/Nuss-Mischungen"
2185809031;"lebensmittel_and_getranke/Kategorien/Knabberartikel/Nüsse & Kerne/Paranusskerne"
2185810031;"lebensmittel_and_getranke/Kategorien/Knabberartikel/Nüsse & Kerne/Pekannüsse"
2185811031;"lebensmittel_and_getranke/Kategorien/Knabberartikel/Nüsse & Kerne/Pinienkerne"
2185812031;"lebensmittel_and_getranke/Kategorien/Knabberartikel/Nüsse & Kerne/Pistazien"
2185813031;"lebensmittel_and_getranke/Kategorien/Knabberartikel/Nüsse & Kerne/Sonnenblumenkerne"
364754031;"lebensmittel_and_getranke/Kategorien/Knabberartikel/Nüsse & Kerne/Studentenfutter"
2185814031;"lebensmittel_and_getranke/Kategorien/Knabberartikel/Nüsse & Kerne/Walnüsse"
2185815031;"lebensmittel_and_getranke/Kategorien/Knabberartikel/Nüsse & Kerne/Zedernüsse"
364750031;"lebensmittel_and_getranke/Kategorien/Knabberartikel/Party-Mix"
364751031;"lebensmittel_and_getranke/Kategorien/Knabberartikel/Popcorn"
364752031;"lebensmittel_and_getranke/Kategorien/Knabberartikel/Reiswaffeln"
364753031;"lebensmittel_and_getranke/Kategorien/Knabberartikel/Salzgebäck"
358569031;"lebensmittel_and_getranke/Kategorien/Koch- & Backzutaten"
364755031;"lebensmittel_and_getranke/Kategorien/Koch- & Backzutaten/Backaromen"
364756031;"lebensmittel_and_getranke/Kategorien/Koch- & Backzutaten/Backmischungen"
364757031;"lebensmittel_and_getranke/Kategorien/Koch- & Backzutaten/Backpulver"
364758031;"lebensmittel_and_getranke/Kategorien/Koch- & Backzutaten/Dekoration"
364759031;"lebensmittel_and_getranke/Kategorien/Koch- & Backzutaten/Dessertsaucen"
364760031;"lebensmittel_and_getranke/Kategorien/Koch- & Backzutaten/Glasuren"
364761031;"lebensmittel_and_getranke/Kategorien/Koch- & Backzutaten/Hefe"
364762031;"lebensmittel_and_getranke/Kategorien/Koch- & Backzutaten/Kochschokolade"
364815031;"lebensmittel_and_getranke/Kategorien/Koch- & Backzutaten/Kochsprays"
364763031;"lebensmittel_and_getranke/Kategorien/Koch- & Backzutaten/Kokosnussflocken"
364764031;"lebensmittel_and_getranke/Kategorien/Koch- & Backzutaten/Lebensmittelfarben"
364765031;"lebensmittel_and_getranke/Kategorien/Koch- & Backzutaten/Marzipan"
364766031;"lebensmittel_and_getranke/Kategorien/Koch- & Backzutaten/Mehl"
364767031;"lebensmittel_and_getranke/Kategorien/Koch- & Backzutaten/Nüsse & Samen"
364769031;"lebensmittel_and_getranke/Kategorien/Koch- & Backzutaten/Paniermehl & Knödelbrot"
364768031;"lebensmittel_and_getranke/Kategorien/Koch- & Backzutaten/Puddings & Tortenfüllungen"
364810031;"lebensmittel_and_getranke/Kategorien/Koch- & Backzutaten/Schmalz, Koch- & Backfette"
364771031;"lebensmittel_and_getranke/Kategorien/Koch- & Backzutaten/Sirup"
364770031;"lebensmittel_and_getranke/Kategorien/Koch- & Backzutaten/Stärke & Bindemittel"
364772031;"lebensmittel_and_getranke/Kategorien/Koch- & Backzutaten/Zucker & Süßstoffe"
364773031;"lebensmittel_and_getranke/Kategorien/Koch- & Backzutaten/Zucker & Süßstoffe/Brauner Zucker"
364774031;"lebensmittel_and_getranke/Kategorien/Koch- & Backzutaten/Zucker & Süßstoffe/Gelierzucker"
431506031;"lebensmittel_and_getranke/Kategorien/Koch- & Backzutaten/Zucker & Süßstoffe/Kandiszucker"
364775031;"lebensmittel_and_getranke/Kategorien/Koch- & Backzutaten/Zucker & Süßstoffe/Puderzucker"
364776031;"lebensmittel_and_getranke/Kategorien/Koch- & Backzutaten/Zucker & Süßstoffe/Süßstoffe"
364777031;"lebensmittel_and_getranke/Kategorien/Koch- & Backzutaten/Zucker & Süßstoffe/Vanillezucker"
364778031;"lebensmittel_and_getranke/Kategorien/Koch- & Backzutaten/Zucker & Süßstoffe/Weißer Zucker"
364779031;"lebensmittel_and_getranke/Kategorien/Koch- & Backzutaten/Zucker & Süßstoffe/Würfelzucker"
358570031;"lebensmittel_and_getranke/Kategorien/Konfitüren, Honig & Brotaufstriche"
364780031;"lebensmittel_and_getranke/Kategorien/Konfitüren, Honig & Brotaufstriche/Erdnussbutter"
364781031;"lebensmittel_and_getranke/Kategorien/Konfitüren, Honig & Brotaufstriche/Honig"
364782031;"lebensmittel_and_getranke/Kategorien/Konfitüren, Honig & Brotaufstriche/Konfitüren"
364783031;"lebensmittel_and_getranke/Kategorien/Konfitüren, Honig & Brotaufstriche/Pikante Brotaufstriche"
364784031;"lebensmittel_and_getranke/Kategorien/Konfitüren, Honig & Brotaufstriche/Schokoladenaufstrich"
75853031;"lebensmittel_and_getranke/Kategorien/Kräuter, Gewürze & Fix-Produkte"
406542031;"lebensmittel_and_getranke/Kategorien/Kräuter, Gewürze & Fix-Produkte/Fix-Produkte"
406539031;"lebensmittel_and_getranke/Kategorien/Kräuter, Gewürze & Fix-Produkte/Gewürzmischungen"
406538031;"lebensmittel_and_getranke/Kategorien/Kräuter, Gewürze & Fix-Produkte/Kräuter & Gewürze"
406540031;"lebensmittel_and_getranke/Kategorien/Kräuter, Gewürze & Fix-Produkte/Pfeffer"
406541031;"lebensmittel_and_getranke/Kategorien/Kräuter, Gewürze & Fix-Produkte/Salz"
358572031;"lebensmittel_and_getranke/Kategorien/Milchprodukte"
364790031;"lebensmittel_and_getranke/Kategorien/Milchprodukte/Butter"
364791031;"lebensmittel_and_getranke/Kategorien/Milchprodukte/Eier"
364792031;"lebensmittel_and_getranke/Kategorien/Milchprodukte/Eiscremes"
364795031;"lebensmittel_and_getranke/Kategorien/Milchprodukte/Jogurtgetränke & Molke"
364794031;"lebensmittel_and_getranke/Kategorien/Milchprodukte/Jogurts"
364796031;"lebensmittel_and_getranke/Kategorien/Milchprodukte/Käse"
364797031;"lebensmittel_and_getranke/Kategorien/Milchprodukte/Käse/Frischkäse"
364798031;"lebensmittel_and_getranke/Kategorien/Milchprodukte/Käse/Halbfester Schnittkäse"
364799031;"lebensmittel_and_getranke/Kategorien/Milchprodukte/Käse/Hartkäse"
364800031;"lebensmittel_and_getranke/Kategorien/Milchprodukte/Käse/Sauermilchkäse"
364801031;"lebensmittel_and_getranke/Kategorien/Milchprodukte/Käse/Schmelzkäse"
364802031;"lebensmittel_and_getranke/Kategorien/Milchprodukte/Käse/Schnittkäse"
364803031;"lebensmittel_and_getranke/Kategorien/Milchprodukte/Käse/Weichkäse"
364804031;"lebensmittel_and_getranke/Kategorien/Milchprodukte/Margarine"
364805031;"lebensmittel_and_getranke/Kategorien/Milchprodukte/Milch"
364806031;"lebensmittel_and_getranke/Kategorien/Milchprodukte/Milchdesserts"
364807031;"lebensmittel_and_getranke/Kategorien/Milchprodukte/Milchersatz & Sojamilch"
364808031;"lebensmittel_and_getranke/Kategorien/Milchprodukte/Puddings"
364809031;"lebensmittel_and_getranke/Kategorien/Milchprodukte/Sahne"
358573031;"lebensmittel_and_getranke/Kategorien/Müsli & Zerealien"
364811031;"lebensmittel_and_getranke/Kategorien/Müsli & Zerealien/Früchte- & Müsliriegel"
364812031;"lebensmittel_and_getranke/Kategorien/Müsli & Zerealien/Frühstückszerealien & -flocken"
64835031;"lebensmittel_and_getranke/Kategorien/Müsli & Zerealien/Müsli"
676266031;"lebensmittel_and_getranke/Kategorien/Nahrungsergänzung"
2860508031;"lebensmittel_and_getranke/Kategorien/Nahrungsergänzung/Gewichtsmanagement"
2860516031;"lebensmittel_and_getranke/Kategorien/Nahrungsergänzung/Riegel & Getränke"
2860517031;"lebensmittel_and_getranke/Kategorien/Nahrungsergänzung/Riegel & Getränke/Gels"
2860518031;"lebensmittel_and_getranke/Kategorien/Nahrungsergänzung/Riegel & Getränke/Getränke & Shakes"
2860519031;"lebensmittel_and_getranke/Kategorien/Nahrungsergänzung/Riegel & Getränke/Riegel"
64373031;"lebensmittel_and_getranke/Kategorien/Nahrungsergänzung/Sportnahrung"
2860516031;"lebensmittel_and_getranke/Kategorien/Nahrungsergänzung/Sportnahrung/Riegel & Getränke"
2860517031;"lebensmittel_and_getranke/Kategorien/Nahrungsergänzung/Sportnahrung/Riegel & Getränke/Gels"
2860518031;"lebensmittel_and_getranke/Kategorien/Nahrungsergänzung/Sportnahrung/Riegel & Getränke/Getränke & Shakes"
2860519031;"lebensmittel_and_getranke/Kategorien/Nahrungsergänzung/Sportnahrung/Riegel & Getränke/Riegel"
64374031;"lebensmittel_and_getranke/Kategorien/Nahrungsergänzung/Vitamine & Mineralstoffe"
2860526031;"lebensmittel_and_getranke/Kategorien/Nahrungsergänzung/Vitamine & Mineralstoffe/Ballststoffe"
2860528031;"lebensmittel_and_getranke/Kategorien/Nahrungsergänzung/Vitamine & Mineralstoffe/Enzyme"
2860529031;"lebensmittel_and_getranke/Kategorien/Nahrungsergänzung/Vitamine & Mineralstoffe/Essentielle Fettsäuren"
2860530031;"lebensmittel_and_getranke/Kategorien/Nahrungsergänzung/Vitamine & Mineralstoffe/Fischöle"
2860538031;"lebensmittel_and_getranke/Kategorien/Nahrungsergänzung/Vitamine & Mineralstoffe/Kohlenhydrate"
2860539031;"lebensmittel_and_getranke/Kategorien/Nahrungsergänzung/Vitamine & Mineralstoffe/Kollagen"
2860543031;"lebensmittel_and_getranke/Kategorien/Nahrungsergänzung/Vitamine & Mineralstoffe/Mineralien"
2860567031;"lebensmittel_and_getranke/Kategorien/Nahrungsergänzung/Vitamine & Mineralstoffe/Multivitamin & Mineralien"
2860576031;"lebensmittel_and_getranke/Kategorien/Nahrungsergänzung/Vitamine & Mineralstoffe/Vitamine"
358575031;"lebensmittel_and_getranke/Kategorien/Pasta & Nudeln"
358576031;"lebensmittel_and_getranke/Kategorien/Reis & Hülsenfrüchte"
364818031;"lebensmittel_and_getranke/Kategorien/Reis & Hülsenfrüchte/Bohnen"
364819031;"lebensmittel_and_getranke/Kategorien/Reis & Hülsenfrüchte/Couscous"
364820031;"lebensmittel_and_getranke/Kategorien/Reis & Hülsenfrüchte/Erbsen"
2185816031;"lebensmittel_and_getranke/Kategorien/Reis & Hülsenfrüchte/Kichererbsen"
364821031;"lebensmittel_and_getranke/Kategorien/Reis & Hülsenfrüchte/Linsen"
364822031;"lebensmittel_and_getranke/Kategorien/Reis & Hülsenfrüchte/Polenta"
364823031;"lebensmittel_and_getranke/Kategorien/Reis & Hülsenfrüchte/Reis"
358577031;"lebensmittel_and_getranke/Kategorien/Saucen, Dips & Marinaden"
364824031;"lebensmittel_and_getranke/Kategorien/Saucen, Dips & Marinaden/Apfelmus"
364827031;"lebensmittel_and_getranke/Kategorien/Saucen, Dips & Marinaden/Bratensoßen & Fonds"
435747031;"lebensmittel_and_getranke/Kategorien/Saucen, Dips & Marinaden/Brühe"
364825031;"lebensmittel_and_getranke/Kategorien/Saucen, Dips & Marinaden/Chutneys"
364826031;"lebensmittel_and_getranke/Kategorien/Saucen, Dips & Marinaden/Dips"
364828031;"lebensmittel_and_getranke/Kategorien/Saucen, Dips & Marinaden/Ketchup"
364829031;"lebensmittel_and_getranke/Kategorien/Saucen, Dips & Marinaden/Marinaden"
364830031;"lebensmittel_and_getranke/Kategorien/Saucen, Dips & Marinaden/Mayonnaise"
364831031;"lebensmittel_and_getranke/Kategorien/Saucen, Dips & Marinaden/Meerrettich"
364832031;"lebensmittel_and_getranke/Kategorien/Saucen, Dips & Marinaden/Pasten"
364833031;"lebensmittel_and_getranke/Kategorien/Saucen, Dips & Marinaden/Pesto"
364834031;"lebensmittel_and_getranke/Kategorien/Saucen, Dips & Marinaden/Salsas"
364835031;"lebensmittel_and_getranke/Kategorien/Saucen, Dips & Marinaden/Saucen"
433165031;"lebensmittel_and_getranke/Kategorien/Saucen, Dips & Marinaden/Saucen/Chilisaucen"
364836031;"lebensmittel_and_getranke/Kategorien/Saucen, Dips & Marinaden/Saucen/Cocktailsauce"
364837031;"lebensmittel_and_getranke/Kategorien/Saucen, Dips & Marinaden/Saucen/Currysaucen"
2185818031;"lebensmittel_and_getranke/Kategorien/Saucen, Dips & Marinaden/Saucen/Fischsaucen"
364838031;"lebensmittel_and_getranke/Kategorien/Saucen, Dips & Marinaden/Saucen/Grillsauce"
2185819031;"lebensmittel_and_getranke/Kategorien/Saucen, Dips & Marinaden/Saucen/Hollandaise & Béarnaise Saucen"
364839031;"lebensmittel_and_getranke/Kategorien/Saucen, Dips & Marinaden/Saucen/Pastasaucen"
364840031;"lebensmittel_and_getranke/Kategorien/Saucen, Dips & Marinaden/Saucen/Sauce Tartar"
2185820031;"lebensmittel_and_getranke/Kategorien/Saucen, Dips & Marinaden/Saucen/Schwarze Bohnen Saucen"
364841031;"lebensmittel_and_getranke/Kategorien/Saucen, Dips & Marinaden/Saucen/Sojasaucen"
364842031;"lebensmittel_and_getranke/Kategorien/Saucen, Dips & Marinaden/Saucen/Süß-Sauer-Saucen"
364843031;"lebensmittel_and_getranke/Kategorien/Saucen, Dips & Marinaden/Saucen/Worcestersauce"
364844031;"lebensmittel_and_getranke/Kategorien/Saucen, Dips & Marinaden/Senf"
406611031;"lebensmittel_and_getranke/Kategorien/Saucen, Dips & Marinaden/Tomatenmark"
364845031;"lebensmittel_and_getranke/Kategorien/Saucen, Dips & Marinaden/Wasabi"
358579031;"lebensmittel_and_getranke/Kategorien/Schokolade & Süßigkeiten"
364853031;"lebensmittel_and_getranke/Kategorien/Schokolade & Süßigkeiten/Fruchtbonbons"
364854031;"lebensmittel_and_getranke/Kategorien/Schokolade & Süßigkeiten/Fruchtgummis"
364855031;"lebensmittel_and_getranke/Kategorien/Schokolade & Süßigkeiten/Halva"
364856031;"lebensmittel_and_getranke/Kategorien/Schokolade & Süßigkeiten/Jelly Beans"
364857031;"lebensmittel_and_getranke/Kategorien/Schokolade & Süßigkeiten/Karamellbonbons"
364858031;"lebensmittel_and_getranke/Kategorien/Schokolade & Süßigkeiten/Kaugummis"
364631031;"lebensmittel_and_getranke/Kategorien/Schokolade & Süßigkeiten/Kekse"
364859031;"lebensmittel_and_getranke/Kategorien/Schokolade & Süßigkeiten/Krokant"
364860031;"lebensmittel_and_getranke/Kategorien/Schokolade & Süßigkeiten/Lakritze"
364634031;"lebensmittel_and_getranke/Kategorien/Schokolade & Süßigkeiten/Lebkuchen"
364861031;"lebensmittel_and_getranke/Kategorien/Schokolade & Süßigkeiten/Lollies"
364862031;"lebensmittel_and_getranke/Kategorien/Schokolade & Süßigkeiten/Marshmallows"
689533031;"lebensmittel_and_getranke/Kategorien/Schokolade & Süßigkeiten/Partymischungen"
364863031;"lebensmittel_and_getranke/Kategorien/Schokolade & Süßigkeiten/Pfefferminz- & Mentholbonbons"
358578031;"lebensmittel_and_getranke/Kategorien/Schokolade & Süßigkeiten/Schokolade"
364846031;"lebensmittel_and_getranke/Kategorien/Schokolade & Süßigkeiten/Schokolade/Bonbons & Drops"
364847031;"lebensmittel_and_getranke/Kategorien/Schokolade & Süßigkeiten/Schokolade/Figuren"
364848031;"lebensmittel_and_getranke/Kategorien/Schokolade & Süßigkeiten/Schokolade/Pralinen & Trüffel"
364849031;"lebensmittel_and_getranke/Kategorien/Schokolade & Süßigkeiten/Schokolade/Riegel"
364850031;"lebensmittel_and_getranke/Kategorien/Schokolade & Süßigkeiten/Schokolade/Schokofrüchte"
364851031;"lebensmittel_and_getranke/Kategorien/Schokolade & Süßigkeiten/Schokolade/Schokonüsse"
364852031;"lebensmittel_and_getranke/Kategorien/Schokolade & Süßigkeiten/Schokolade/Tafeln"
358574031;"lebensmittel_and_getranke/Kategorien/Öl, Essig & Salatdressing"
364814031;"lebensmittel_and_getranke/Kategorien/Öl, Essig & Salatdressing/Essig"
364816031;"lebensmittel_and_getranke/Kategorien/Öl, Essig & Salatdressing/Öl"
364817031;"lebensmittel_and_getranke/Kategorien/Öl, Essig & Salatdressing/Salatdressings"
365182031;"lebensmittel_and_getranke/Marken"
