60937031;"montres/Catégories"
62619031;"montres/Catégories/Montres bracelet"
199638031;"montres/Catégories/Montres de Luxe"
199639031;"montres/Catégories/Montres de poche & Goussets"
62620031;"montres/Catégories/Accessoires"
199641031;"montres/Catégories/Accessoires/Bracelets de Montres"
206441031;"montres/Catégories/Accessoires/Chaîne de montres"
199642031;"montres/Catégories/Accessoires/Ecrins pour Montres"
199643031;"montres/Catégories/Accessoires/Ecrins pour Montres Automatiques"
199640031;"montres/Catégories/Accessoires/Kits & Outils de réparation"
62641031;"montres/Featured Categories"
62619031;"montres/Featured Categories/Montres bracelet"
199639031;"montres/Featured Categories/Montres de poche & Goussets"
199638031;"montres/Featured Categories/Montres de Luxe"
62620031;"montres/Featured Categories/Accessoires"
199641031;"montres/Featured Categories/Accessoires/Bracelets de Montres"
206441031;"montres/Featured Categories/Accessoires/Chaîne de montres"
199642031;"montres/Featured Categories/Accessoires/Ecrins pour Montres"
199643031;"montres/Featured Categories/Accessoires/Ecrins pour Montres Automatiques"
199640031;"montres/Featured Categories/Accessoires/Kits & Outils de réparation"
62640031;"montres/Recherche détaillée"
62952031;"montres/Substores"
71954031;"montres/Substores/Content Stores"
62953031;"montres/Substores/Content Stores/Femmes"
62954031;"montres/Substores/Content Stores/Hommes"
62955031;"montres/Substores/Content Stores/Enfants"
306994031;"montres/Substores/Content Stores/Guide d'achat : Montres"
71955031;"montres/Substores/Custom Stores"
2710470031;"montres/Substores/Custom Stores/Brand Directory"
2710471031;"montres/Substores/Custom Stores/Brand Directory/Brand Directory: Montres Hommes"
2710472031;"montres/Substores/Custom Stores/Brand Directory/Brand Directory: Montres Femmes"
2710473031;"montres/Substores/Custom Stores/Brand Directory/Brand Directory: Montres Enfants"
71956031;"montres/Substores/Regular Stores"
70113031;"montres/Substores/Regular Stores/Bonnes affaires Montres"
83092031;"montres/Substores/Regular Stores/Bonnes affaires Montres & Bijoux"
513332031;"montres/Substores/Regular Stores/Déstockage Montres"
311582031;"montres/Substores/Regular Stores/Les indémodables"
170949031;"montres/Substores/Regular Stores/Montres d'exception"
170939031;"montres/Substores/Regular Stores/Montres entre 150 et 300 euros"
170938031;"montres/Substores/Regular Stores/Montres entre 50 et 150 euros"
170950031;"montres/Substores/Regular Stores/Montres mode"
170945031;"montres/Substores/Regular Stores/Montres Noël Enfants"
170944031;"montres/Substores/Regular Stores/Montres Noël Femmes"
170943031;"montres/Substores/Regular Stores/Montres Noël Hommes"
170951031;"montres/Substores/Regular Stores/Montres Tendance"
193239031;"montres/Substores/Regular Stores/Montres à Moins de 100 euros"
193240031;"montres/Substores/Regular Stores/Montres à Moins de 150 euros"
311585031;"montres/Substores/Regular Stores/Montres à moins de 200 euros"
170937031;"montres/Substores/Regular Stores/Montres à moins de 50 euros"
170947031;"montres/Substores/Regular Stores/Offres de la semaine Montres"
170946031;"montres/Substores/Regular Stores/Offres spéciales Montres"
189707031;"montres/Substores/Regular Stores/Remise Montres"
193236031;"montres/Substores/Regular Stores/Remise Montres/Jusqu'à -15%"
189708031;"montres/Substores/Regular Stores/Remise Montres/Jusqu'à -20%"
193237031;"montres/Substores/Regular Stores/Remise Montres/Jusqu'à -25%"
189709031;"montres/Substores/Regular Stores/Remise Montres/Jusqu'à -30%"
193238031;"montres/Substores/Regular Stores/Remise Montres/Jusqu'à -35%"
189710031;"montres/Substores/Regular Stores/Remise Montres/Jusqu'à -40%"
189711031;"montres/Substores/Regular Stores/Remise Montres/Jusqu'à -50%"
189712031;"montres/Substores/Regular Stores/Remise Montres/Plus de 50% de remise"
70835031;"montres/Substores/Regular Stores/Soldes Montres"
311584031;"montres/Substores/Regular Stores/Sélection de montres digitales"
311583031;"montres/Substores/Regular Stores/Sélection de montres high-tech"
311581031;"montres/Substores/Regular Stores/Sélection de montres sport"
419662031;"montres/Substores/Regular Stores/Sélection fête des mères"
181012031;"montres/Substores/Regular Stores/Sélection montres chronographes"
181008031;"montres/Substores/Regular Stores/Sélection montres classiques"
170942031;"montres/Substores/Regular Stores/Sélection montres de sport"
181011031;"montres/Substores/Regular Stores/Sélection montres incontournables"
181010031;"montres/Substores/Regular Stores/Sélection montres révolutionnaires"
181009031;"montres/Substores/Regular Stores/Sélection montres éducatifs"
469624031;"montres/Substores/Regular Stores/Sélection rentrée des classes"
